%!PS-Adobe-3.0 EPSF-3.0
%%Creator: (MATLAB, The Mathworks, Inc. Version 8.5.0.197613 \(R2015a\). Operating System: Linux)
%%Title: Results/kernel603IncreasingPeaks100.eps
%%CreationDate: 2016-11-22T10:41:50
%%Pages: (atend)
%%BoundingBox: (atend)
%%LanguageLevel: 3
%%EndComments
%%BeginProlog
%%BeginResource: procset (Apache XML Graphics Std ProcSet) 1.2 0
%%Version: 1.2 0
%%Copyright: (Copyright 2001-2003,2010 The Apache Software Foundation. License terms: http://www.apache.org/licenses/LICENSE-2.0)
/bd{bind def}bind def
/ld{load def}bd
/GR/grestore ld
/M/moveto ld
/LJ/setlinejoin ld
/C/curveto ld
/f/fill ld
/LW/setlinewidth ld
/GC/setgray ld
/t/show ld
/N/newpath ld
/CT/concat ld
/cp/closepath ld
/S/stroke ld
/L/lineto ld
/CC/setcmykcolor ld
/A/ashow ld
/GS/gsave ld
/RC/setrgbcolor ld
/RM/rmoveto ld
/ML/setmiterlimit ld
/re {4 2 roll M
1 index 0 rlineto
0 exch rlineto
neg 0 rlineto
cp } bd
/_ctm matrix def
/_tm matrix def
/BT { _ctm currentmatrix pop matrix _tm copy pop 0 0 moveto } bd
/ET { _ctm setmatrix } bd
/iTm { _ctm setmatrix _tm concat } bd
/Tm { _tm astore pop iTm 0 0 moveto } bd
/ux 0.0 def
/uy 0.0 def
/F {
  /Tp exch def
  /Tf exch def
  Tf findfont Tp scalefont setfont
  /cf Tf def  /cs Tp def
} bd
/ULS {currentpoint /uy exch def /ux exch def} bd
/ULE {
  /Tcx currentpoint pop def
  gsave
  newpath
  cf findfont cs scalefont dup
  /FontMatrix get 0 get /Ts exch def /FontInfo get dup
  /UnderlinePosition get Ts mul /To exch def
  /UnderlineThickness get Ts mul /Tt exch def
  ux uy To add moveto  Tcx uy To add lineto
  Tt setlinewidth stroke
  grestore
} bd
/OLE {
  /Tcx currentpoint pop def
  gsave
  newpath
  cf findfont cs scalefont dup
  /FontMatrix get 0 get /Ts exch def /FontInfo get dup
  /UnderlinePosition get Ts mul /To exch def
  /UnderlineThickness get Ts mul /Tt exch def
  ux uy To add cs add moveto Tcx uy To add cs add lineto
  Tt setlinewidth stroke
  grestore
} bd
/SOE {
  /Tcx currentpoint pop def
  gsave
  newpath
  cf findfont cs scalefont dup
  /FontMatrix get 0 get /Ts exch def /FontInfo get dup
  /UnderlinePosition get Ts mul /To exch def
  /UnderlineThickness get Ts mul /Tt exch def
  ux uy To add cs 10 mul 26 idiv add moveto Tcx uy To add cs 10 mul 26 idiv add lineto
  Tt setlinewidth stroke
  grestore
} bd
/QT {
/Y22 exch store
/X22 exch store
/Y21 exch store
/X21 exch store
currentpoint
/Y21 load 2 mul add 3 div exch
/X21 load 2 mul add 3 div exch
/X21 load 2 mul /X22 load add 3 div
/Y21 load 2 mul /Y22 load add 3 div
/X22 load /Y22 load curveto
} bd
/SSPD {
dup length /d exch dict def
{
/v exch def
/k exch def
currentpagedevice k known {
/cpdv currentpagedevice k get def
v cpdv ne {
/upd false def
/nullv v type /nulltype eq def
/nullcpdv cpdv type /nulltype eq def
nullv nullcpdv or
{
/upd true def
} {
/sametype v type cpdv type eq def
sametype {
v type /arraytype eq {
/vlen v length def
/cpdvlen cpdv length def
vlen cpdvlen eq {
0 1 vlen 1 sub {
/i exch def
/obj v i get def
/cpdobj cpdv i get def
obj cpdobj ne {
/upd true def
exit
} if
} for
} {
/upd true def
} ifelse
} {
v type /dicttype eq {
v {
/dv exch def
/dk exch def
/cpddv cpdv dk get def
dv cpddv ne {
/upd true def
exit
} if
} forall
} {
/upd true def
} ifelse
} ifelse
} if
} ifelse
upd true eq {
d k v put
} if
} if
} if
} forall
d length 0 gt {
d setpagedevice
} if
} bd
%%EndResource
%%BeginResource: procset (Apache XML Graphics EPS ProcSet) 1.0 0
%%Version: 1.0 0
%%Copyright: (Copyright 2002-2003 The Apache Software Foundation. License terms: http://www.apache.org/licenses/LICENSE-2.0)
/BeginEPSF { %def
/b4_Inc_state save def         % Save state for cleanup
/dict_count countdictstack def % Count objects on dict stack
/op_count count 1 sub def      % Count objects on operand stack
userdict begin                 % Push userdict on dict stack
/showpage { } def              % Redefine showpage, { } = null proc
0 setgray 0 setlinecap         % Prepare graphics state
1 setlinewidth 0 setlinejoin
10 setmiterlimit [ ] 0 setdash newpath
/languagelevel where           % If level not equal to 1 then
{pop languagelevel             % set strokeadjust and
1 ne                           % overprint to their defaults.
{false setstrokeadjust false setoverprint
} if
} if
} bd
/EndEPSF { %def
count op_count sub {pop} repeat            % Clean up stacks
countdictstack dict_count sub {end} repeat
b4_Inc_state restore
} bd
%%EndResource
%FOPBeginFontDict
%%IncludeResource: font Courier-Bold
%%IncludeResource: font Helvetica
%%IncludeResource: font Courier-BoldOblique
%%IncludeResource: font Courier-Oblique
%%IncludeResource: font Times-Roman
%%IncludeResource: font Helvetica-BoldOblique
%%IncludeResource: font Helvetica-Bold
%%IncludeResource: font Helvetica-Oblique
%%IncludeResource: font Times-BoldItalic
%%IncludeResource: font Courier
%%IncludeResource: font Times-Italic
%%IncludeResource: font Times-Bold
%%IncludeResource: font Symbol
%%IncludeResource: font ZapfDingbats
%FOPEndFontDict
%%BeginResource: encoding WinAnsiEncoding
/WinAnsiEncoding [
/.notdef /.notdef /.notdef /.notdef /.notdef
/.notdef /.notdef /.notdef /.notdef /.notdef
/.notdef /.notdef /.notdef /.notdef /.notdef
/.notdef /.notdef /.notdef /.notdef /.notdef
/.notdef /.notdef /.notdef /.notdef /.notdef
/.notdef /.notdef /.notdef /.notdef /.notdef
/.notdef /.notdef /space /exclam /quotedbl
/numbersign /dollar /percent /ampersand /quotesingle
/parenleft /parenright /asterisk /plus /comma
/hyphen /period /slash /zero /one
/two /three /four /five /six
/seven /eight /nine /colon /semicolon
/less /equal /greater /question /at
/A /B /C /D /E
/F /G /H /I /J
/K /L /M /N /O
/P /Q /R /S /T
/U /V /W /X /Y
/Z /bracketleft /backslash /bracketright /asciicircum
/underscore /quoteleft /a /b /c
/d /e /f /g /h
/i /j /k /l /m
/n /o /p /q /r
/s /t /u /v /w
/x /y /z /braceleft /bar
/braceright /asciitilde /bullet /Euro /bullet
/quotesinglbase /florin /quotedblbase /ellipsis /dagger
/daggerdbl /circumflex /perthousand /Scaron /guilsinglleft
/OE /bullet /Zcaron /bullet /bullet
/quoteleft /quoteright /quotedblleft /quotedblright /bullet
/endash /emdash /asciitilde /trademark /scaron
/guilsinglright /oe /bullet /zcaron /Ydieresis
/space /exclamdown /cent /sterling /currency
/yen /brokenbar /section /dieresis /copyright
/ordfeminine /guillemotleft /logicalnot /sfthyphen /registered
/macron /degree /plusminus /twosuperior /threesuperior
/acute /mu /paragraph /middot /cedilla
/onesuperior /ordmasculine /guillemotright /onequarter /onehalf
/threequarters /questiondown /Agrave /Aacute /Acircumflex
/Atilde /Adieresis /Aring /AE /Ccedilla
/Egrave /Eacute /Ecircumflex /Edieresis /Igrave
/Iacute /Icircumflex /Idieresis /Eth /Ntilde
/Ograve /Oacute /Ocircumflex /Otilde /Odieresis
/multiply /Oslash /Ugrave /Uacute /Ucircumflex
/Udieresis /Yacute /Thorn /germandbls /agrave
/aacute /acircumflex /atilde /adieresis /aring
/ae /ccedilla /egrave /eacute /ecircumflex
/edieresis /igrave /iacute /icircumflex /idieresis
/eth /ntilde /ograve /oacute /ocircumflex
/otilde /odieresis /divide /oslash /ugrave
/uacute /ucircumflex /udieresis /yacute /thorn
/ydieresis
] def
%%EndResource
%FOPBeginFontReencode
/Courier-Bold findfont
dup length dict begin
  {1 index /FID ne {def} {pop pop} ifelse} forall
  /Encoding WinAnsiEncoding def
  currentdict
end
/Courier-Bold exch definefont pop
/Helvetica findfont
dup length dict begin
  {1 index /FID ne {def} {pop pop} ifelse} forall
  /Encoding WinAnsiEncoding def
  currentdict
end
/Helvetica exch definefont pop
/Courier-BoldOblique findfont
dup length dict begin
  {1 index /FID ne {def} {pop pop} ifelse} forall
  /Encoding WinAnsiEncoding def
  currentdict
end
/Courier-BoldOblique exch definefont pop
/Courier-Oblique findfont
dup length dict begin
  {1 index /FID ne {def} {pop pop} ifelse} forall
  /Encoding WinAnsiEncoding def
  currentdict
end
/Courier-Oblique exch definefont pop
/Times-Roman findfont
dup length dict begin
  {1 index /FID ne {def} {pop pop} ifelse} forall
  /Encoding WinAnsiEncoding def
  currentdict
end
/Times-Roman exch definefont pop
/Helvetica-BoldOblique findfont
dup length dict begin
  {1 index /FID ne {def} {pop pop} ifelse} forall
  /Encoding WinAnsiEncoding def
  currentdict
end
/Helvetica-BoldOblique exch definefont pop
/Helvetica-Bold findfont
dup length dict begin
  {1 index /FID ne {def} {pop pop} ifelse} forall
  /Encoding WinAnsiEncoding def
  currentdict
end
/Helvetica-Bold exch definefont pop
/Helvetica-Oblique findfont
dup length dict begin
  {1 index /FID ne {def} {pop pop} ifelse} forall
  /Encoding WinAnsiEncoding def
  currentdict
end
/Helvetica-Oblique exch definefont pop
/Times-BoldItalic findfont
dup length dict begin
  {1 index /FID ne {def} {pop pop} ifelse} forall
  /Encoding WinAnsiEncoding def
  currentdict
end
/Times-BoldItalic exch definefont pop
/Courier findfont
dup length dict begin
  {1 index /FID ne {def} {pop pop} ifelse} forall
  /Encoding WinAnsiEncoding def
  currentdict
end
/Courier exch definefont pop
/Times-Italic findfont
dup length dict begin
  {1 index /FID ne {def} {pop pop} ifelse} forall
  /Encoding WinAnsiEncoding def
  currentdict
end
/Times-Italic exch definefont pop
/Times-Bold findfont
dup length dict begin
  {1 index /FID ne {def} {pop pop} ifelse} forall
  /Encoding WinAnsiEncoding def
  currentdict
end
/Times-Bold exch definefont pop
%FOPEndFontReencode
%%EndProlog
%%Page: 1 1
%%PageBoundingBox: 0 0 576 432
%%BeginPageSetup
[1 0 0 -1 0 432] CT
%%EndPageSetup
GS
[0.75 0 0 0.75 0 0] CT
1 GC
N
0 0 768 576 re
f
GR
GS
[0.75 0 0 0.75 0 0] CT
1 GC
N
0 0 768 576 re
f
GR
GS
[0.75 0 0 0.75 0 0] CT
1 GC
N
100 513 M
695 513 L
695 43 L
100 43 L
cp
f
GR
GS
[0.75 0 0 0.75 298.12521 402.50002] CT
0.149 GC
/Helvetica 15 F
GS
[1 0 0 1 0 0] CT
-11.5 14 moveto 
1 -1 scale
(lag) t 
GR
GR
GS
[0.75 0 0 0.75 0 0] CT
0.149 GC
2 setlinecap
10.0 ML
N
100 513 M
695 513 L
S
GR
GS
[0.75 0 0 0.75 0 0] CT
0.149 GC
2 setlinecap
10.0 ML
N
100 43 M
695 43 L
S
GR
GS
[0.75 0 0 0.75 0 0] CT
0.149 GC
2 setlinecap
10.0 ML
N
100 513 M
100 507.05 L
S
GR
GS
[0.75 0 0 0.75 0 0] CT
0.149 GC
2 setlinecap
10.0 ML
N
174.375 513 M
174.375 507.05 L
S
GR
GS
[0.75 0 0 0.75 0 0] CT
0.149 GC
2 setlinecap
10.0 ML
N
248.75 513 M
248.75 507.05 L
S
GR
GS
[0.75 0 0 0.75 0 0] CT
0.149 GC
2 setlinecap
10.0 ML
N
323.125 513 M
323.125 507.05 L
S
GR
GS
[0.75 0 0 0.75 0 0] CT
0.149 GC
2 setlinecap
10.0 ML
N
397.5 513 M
397.5 507.05 L
S
GR
GS
[0.75 0 0 0.75 0 0] CT
0.149 GC
2 setlinecap
10.0 ML
N
471.875 513 M
471.875 507.05 L
S
GR
GS
[0.75 0 0 0.75 0 0] CT
0.149 GC
2 setlinecap
10.0 ML
N
546.25 513 M
546.25 507.05 L
S
GR
GS
[0.75 0 0 0.75 0 0] CT
0.149 GC
2 setlinecap
10.0 ML
N
620.625 513 M
620.625 507.05 L
S
GR
GS
[0.75 0 0 0.75 0 0] CT
0.149 GC
2 setlinecap
10.0 ML
N
695 513 M
695 507.05 L
S
GR
GS
[0.75 0 0 0.75 0 0] CT
0.149 GC
2 setlinecap
10.0 ML
N
100 43 M
100 48.95 L
S
GR
GS
[0.75 0 0 0.75 0 0] CT
0.149 GC
2 setlinecap
10.0 ML
N
174.375 43 M
174.375 48.95 L
S
GR
GS
[0.75 0 0 0.75 0 0] CT
0.149 GC
2 setlinecap
10.0 ML
N
248.75 43 M
248.75 48.95 L
S
GR
GS
[0.75 0 0 0.75 0 0] CT
0.149 GC
2 setlinecap
10.0 ML
N
323.125 43 M
323.125 48.95 L
S
GR
GS
[0.75 0 0 0.75 0 0] CT
0.149 GC
2 setlinecap
10.0 ML
N
397.5 43 M
397.5 48.95 L
S
GR
GS
[0.75 0 0 0.75 0 0] CT
0.149 GC
2 setlinecap
10.0 ML
N
471.875 43 M
471.875 48.95 L
S
GR
GS
[0.75 0 0 0.75 0 0] CT
0.149 GC
2 setlinecap
10.0 ML
N
546.25 43 M
546.25 48.95 L
S
GR
GS
[0.75 0 0 0.75 0 0] CT
0.149 GC
2 setlinecap
10.0 ML
N
620.625 43 M
620.625 48.95 L
S
GR
GS
[0.75 0 0 0.75 0 0] CT
0.149 GC
2 setlinecap
10.0 ML
N
695 43 M
695 48.95 L
S
GR
GS
[0.75 0 0 0.75 75 388.74998] CT
0.149 GC
/Helvetica 13 F
GS
[1 0 0 1 0 0] CT
-15 13 moveto 
1 -1 scale
(-200) t 
GR
GR
GS
[0.75 0 0 0.75 130.78125 388.74998] CT
0.149 GC
/Helvetica 13 F
GS
[1 0 0 1 0 0] CT
-15 13 moveto 
1 -1 scale
(-150) t 
GR
GR
GS
[0.75 0 0 0.75 186.5625 388.74998] CT
0.149 GC
/Helvetica 13 F
GS
[1 0 0 1 0 0] CT
-15 13 moveto 
1 -1 scale
(-100) t 
GR
GR
GS
[0.75 0 0 0.75 242.34375 388.74998] CT
0.149 GC
/Helvetica 13 F
GS
[1 0 0 1 0 0] CT
-11 13 moveto 
1 -1 scale
(-50) t 
GR
GR
GS
[0.75 0 0 0.75 298.125 388.74998] CT
0.149 GC
/Helvetica 13 F
GS
[1 0 0 1 0 0] CT
-4.5 13 moveto 
1 -1 scale
(0) t 
GR
GR
GS
[0.75 0 0 0.75 353.90625 388.74998] CT
0.149 GC
/Helvetica 13 F
GS
[1 0 0 1 0 0] CT
-8.5 13 moveto 
1 -1 scale
(50) t 
GR
GR
GS
[0.75 0 0 0.75 409.6875 388.74998] CT
0.149 GC
/Helvetica 13 F
GS
[1 0 0 1 0 0] CT
-12.5 13 moveto 
1 -1 scale
(100) t 
GR
GR
GS
[0.75 0 0 0.75 465.46875 388.74998] CT
0.149 GC
/Helvetica 13 F
GS
[1 0 0 1 0 0] CT
-12.5 13 moveto 
1 -1 scale
(150) t 
GR
GR
GS
[0.75 0 0 0.75 521.25 388.74998] CT
0.149 GC
/Helvetica 13 F
GS
[1 0 0 1 0 0] CT
-12.5 13 moveto 
1 -1 scale
(200) t 
GR
GR
GS
[0 -0.75 0.75 0 48.50001 208.49984] CT
0.149 GC
/Helvetica 15 F
GS
[1 0 0 1 0 0] CT
-57.5 -4 moveto 
1 -1 scale
(autocorrelation) t 
GR
GR
GS
[0.75 0 0 0.75 0 0] CT
0.149 GC
2 setlinecap
10.0 ML
N
100 513 M
100 43 L
S
GR
GS
[0.75 0 0 0.75 0 0] CT
0.149 GC
2 setlinecap
10.0 ML
N
695 513 M
695 43 L
S
GR
GS
[0.75 0 0 0.75 0 0] CT
0.149 GC
2 setlinecap
10.0 ML
N
100 513 M
105.95 513 L
S
GR
GS
[0.75 0 0 0.75 0 0] CT
0.149 GC
2 setlinecap
10.0 ML
N
100 434.667 M
105.95 434.667 L
S
GR
GS
[0.75 0 0 0.75 0 0] CT
0.149 GC
2 setlinecap
10.0 ML
N
100 356.333 M
105.95 356.333 L
S
GR
GS
[0.75 0 0 0.75 0 0] CT
0.149 GC
2 setlinecap
10.0 ML
N
100 278 M
105.95 278 L
S
GR
GS
[0.75 0 0 0.75 0 0] CT
0.149 GC
2 setlinecap
10.0 ML
N
100 199.667 M
105.95 199.667 L
S
GR
GS
[0.75 0 0 0.75 0 0] CT
0.149 GC
2 setlinecap
10.0 ML
N
100 121.333 M
105.95 121.333 L
S
GR
GS
[0.75 0 0 0.75 0 0] CT
0.149 GC
2 setlinecap
10.0 ML
N
100 43 M
105.95 43 L
S
GR
GS
[0.75 0 0 0.75 0 0] CT
0.149 GC
2 setlinecap
10.0 ML
N
695 513 M
689.05 513 L
S
GR
GS
[0.75 0 0 0.75 0 0] CT
0.149 GC
2 setlinecap
10.0 ML
N
695 434.667 M
689.05 434.667 L
S
GR
GS
[0.75 0 0 0.75 0 0] CT
0.149 GC
2 setlinecap
10.0 ML
N
695 356.333 M
689.05 356.333 L
S
GR
GS
[0.75 0 0 0.75 0 0] CT
0.149 GC
2 setlinecap
10.0 ML
N
695 278 M
689.05 278 L
S
GR
GS
[0.75 0 0 0.75 0 0] CT
0.149 GC
2 setlinecap
10.0 ML
N
695 199.667 M
689.05 199.667 L
S
GR
GS
[0.75 0 0 0.75 0 0] CT
0.149 GC
2 setlinecap
10.0 ML
N
695 121.333 M
689.05 121.333 L
S
GR
GS
[0.75 0 0 0.75 0 0] CT
0.149 GC
2 setlinecap
10.0 ML
N
695 43 M
689.05 43 L
S
GR
GS
[0.75 0 0 0.75 71 384.75] CT
0.149 GC
/Helvetica 13 F
GS
[1 0 0 1 0 0] CT
-26 4.5 moveto 
1 -1 scale
(-0.2) t 
GR
GR
GS
[0.75 0 0 0.75 71 325.99999] CT
0.149 GC
/Helvetica 13 F
GS
[1 0 0 1 0 0] CT
-9 4.5 moveto 
1 -1 scale
(0) t 
GR
GR
GS
[0.75 0 0 0.75 71 267.25001] CT
0.149 GC
/Helvetica 13 F
GS
[1 0 0 1 0 0] CT
-21 4.5 moveto 
1 -1 scale
(0.2) t 
GR
GR
GS
[0.75 0 0 0.75 71 208.5] CT
0.149 GC
/Helvetica 13 F
GS
[1 0 0 1 0 0] CT
-21 4.5 moveto 
1 -1 scale
(0.4) t 
GR
GR
GS
[0.75 0 0 0.75 71 149.74999] CT
0.149 GC
/Helvetica 13 F
GS
[1 0 0 1 0 0] CT
-21 4.5 moveto 
1 -1 scale
(0.6) t 
GR
GR
GS
[0.75 0 0 0.75 71 91] CT
0.149 GC
/Helvetica 13 F
GS
[1 0 0 1 0 0] CT
-21 4.5 moveto 
1 -1 scale
(0.8) t 
GR
GR
GS
[0.75 0 0 0.75 71 32.25] CT
0.149 GC
/Helvetica 13 F
GS
[1 0 0 1 0 0] CT
-9 4.5 moveto 
1 -1 scale
(1) t 
GR
GR
GS
[0.75 0 0 0.75 0 0] CT
1 0 0 RC
2 LJ
2.667 LW
N
160.244 432.562 M
161.731 432.558 L
163.219 433.31 L
164.706 434.094 L
166.194 434.61 L
167.681 434.814 L
169.169 434.779 L
170.656 434.619 L
172.144 434.436 L
173.631 434.304 L
175.119 434.259 L
176.606 434.306 L
178.094 434.417 L
179.581 434.545 L
181.069 434.629 L
182.556 434.609 L
184.044 434.438 L
185.531 434.09 L
187.019 433.571 L
188.506 432.913 L
189.994 432.173 L
191.481 431.416 L
192.969 430.708 L
194.456 430.105 L
195.944 429.654 L
197.431 429.388 L
198.919 429.334 L
200.406 429.513 L
201.894 429.935 L
203.381 430.598 L
204.869 431.484 L
206.356 432.559 L
207.844 433.775 L
209.331 435.077 L
210.819 436.406 L
212.306 437.704 L
213.794 438.918 L
215.281 440.002 L
216.769 440.922 L
218.256 441.657 L
219.744 442.199 L
221.231 442.552 L
222.719 442.731 L
224.206 442.759 L
225.694 442.667 L
227.181 442.502 L
228.669 442.323 L
230.156 442.203 L
231.644 442.222 L
233.131 442.451 L
S
GR
GS
[0.75 0 0 0.75 0 0] CT
1 0 0 RC
2 LJ
2.667 LW
N
233.131 442.451 M
234.619 442.938 L
236.106 443.688 L
237.594 444.659 L
239.081 445.758 L
240.569 446.856 L
242.056 447.81 L
243.544 448.484 L
245.031 448.779 L
246.519 448.646 L
248.006 448.096 L
249.494 447.199 L
250.981 446.071 L
252.469 444.858 L
253.956 443.718 L
255.444 442.797 L
256.931 442.22 L
258.419 442.073 L
259.906 442.397 L
261.394 443.182 L
262.881 444.363 L
264.369 445.822 L
265.856 447.396 L
267.344 448.899 L
268.831 450.14 L
270.319 450.953 L
271.806 451.216 L
273.294 450.865 L
274.781 449.899 L
276.269 448.372 L
277.756 446.391 L
279.244 444.108 L
280.731 441.699 L
282.219 439.36 L
283.706 437.279 L
285.194 435.618 L
286.681 434.49 L
288.169 433.947 L
289.656 433.975 L
291.144 434.506 L
292.631 435.433 L
294.119 436.632 L
295.606 437.982 L
297.094 439.384 L
298.581 440.76 L
300.069 442.059 L
301.556 443.245 L
303.044 444.296 L
304.531 445.188 L
306.019 445.893 L
S
GR
GS
[0.75 0 0 0.75 0 0] CT
1 0 0 RC
2 LJ
2.667 LW
N
306.019 445.893 M
307.506 446.376 L
308.994 446.598 L
310.481 446.525 L
311.969 446.137 L
313.456 445.435 L
314.944 444.457 L
316.431 443.27 L
317.919 441.971 L
319.406 440.672 L
320.894 439.484 L
322.381 438.496 L
323.869 437.765 L
325.356 437.307 L
326.844 437.097 L
328.331 437.083 L
329.819 437.196 L
331.306 437.374 L
332.794 437.574 L
334.281 437.783 L
335.769 438.023 L
337.256 438.336 L
338.744 438.784 L
340.231 439.427 L
341.719 440.309 L
343.206 441.447 L
344.694 442.819 L
346.181 444.358 L
347.669 445.964 L
349.156 447.513 L
350.644 448.884 L
352.131 449.973 L
353.619 450.717 L
355.106 451.091 L
356.594 451.113 L
358.081 450.829 L
359.569 450.311 L
361.056 449.643 L
362.544 448.925 L
364.031 448.26 L
365.519 447.745 L
367.006 447.456 L
368.494 447.415 L
369.981 447.571 L
371.469 447.761 L
372.956 447.679 L
374.444 446.845 L
375.931 444.573 L
377.419 439.966 L
378.906 431.943 L
S
GR
GS
[0.75 0 0 0.75 0 0] CT
1 0 0 RC
2 LJ
2.667 LW
N
378.906 431.943 M
380.394 419.319 L
381.881 400.944 L
383.369 375.912 L
384.856 343.811 L
386.344 304.965 L
387.831 260.624 L
389.319 213.018 L
390.806 165.238 L
392.294 120.926 L
393.781 83.791 L
395.269 57.068 L
396.756 43 L
398.244 57.068 L
399.731 83.791 L
401.219 120.926 L
402.706 165.238 L
404.194 213.018 L
405.681 260.624 L
407.169 304.965 L
408.656 343.811 L
410.144 375.912 L
411.631 400.944 L
413.119 419.319 L
414.606 431.943 L
416.094 439.966 L
417.581 444.573 L
419.069 446.845 L
420.556 447.679 L
422.044 447.761 L
423.531 447.571 L
425.019 447.415 L
426.506 447.456 L
427.994 447.745 L
429.481 448.26 L
430.969 448.925 L
432.456 449.643 L
433.944 450.311 L
435.431 450.829 L
436.919 451.113 L
438.406 451.091 L
439.894 450.717 L
441.381 449.973 L
442.869 448.884 L
444.356 447.513 L
445.844 445.964 L
447.331 444.358 L
448.819 442.819 L
450.306 441.447 L
451.794 440.309 L
S
GR
GS
[0.75 0 0 0.75 0 0] CT
1 0 0 RC
2 LJ
2.667 LW
N
451.794 440.309 M
453.281 439.427 L
454.769 438.784 L
456.256 438.336 L
457.744 438.023 L
459.231 437.783 L
460.719 437.574 L
462.206 437.374 L
463.694 437.196 L
465.181 437.083 L
466.669 437.097 L
468.156 437.307 L
469.644 437.765 L
471.131 438.496 L
472.619 439.484 L
474.106 440.672 L
475.594 441.971 L
477.081 443.27 L
478.569 444.457 L
480.056 445.435 L
481.544 446.137 L
483.031 446.525 L
484.519 446.598 L
486.006 446.376 L
487.494 445.893 L
488.981 445.188 L
490.469 444.296 L
491.956 443.245 L
493.444 442.059 L
494.931 440.76 L
496.419 439.384 L
497.906 437.982 L
499.394 436.632 L
500.881 435.433 L
502.369 434.506 L
503.856 433.975 L
505.344 433.947 L
506.831 434.49 L
508.319 435.618 L
509.806 437.279 L
511.294 439.36 L
512.781 441.699 L
514.269 444.108 L
515.756 446.391 L
517.244 448.372 L
518.731 449.899 L
520.219 450.865 L
521.706 451.216 L
523.194 450.953 L
524.681 450.14 L
S
GR
GS
[0.75 0 0 0.75 0 0] CT
1 0 0 RC
2 LJ
2.667 LW
N
524.681 450.14 M
526.169 448.899 L
527.656 447.396 L
529.144 445.822 L
530.631 444.363 L
532.119 443.182 L
533.606 442.397 L
535.094 442.073 L
536.581 442.22 L
538.069 442.797 L
539.556 443.718 L
541.044 444.858 L
542.531 446.071 L
544.019 447.199 L
545.506 448.096 L
546.994 448.646 L
548.481 448.779 L
549.969 448.484 L
551.456 447.81 L
552.944 446.856 L
554.431 445.758 L
555.919 444.659 L
557.406 443.688 L
558.894 442.938 L
560.381 442.451 L
561.869 442.222 L
563.356 442.203 L
564.844 442.323 L
566.331 442.502 L
567.819 442.667 L
569.306 442.759 L
570.794 442.731 L
572.281 442.552 L
573.769 442.199 L
575.256 441.657 L
576.744 440.922 L
578.231 440.002 L
579.719 438.918 L
581.206 437.704 L
582.694 436.406 L
584.181 435.077 L
585.669 433.775 L
587.156 432.559 L
588.644 431.484 L
590.131 430.598 L
591.619 429.935 L
593.106 429.513 L
594.594 429.334 L
596.081 429.388 L
597.569 429.654 L
S
GR
GS
[0.75 0 0 0.75 0 0] CT
1 0 0 RC
2 LJ
2.667 LW
N
597.569 429.654 M
599.056 430.105 L
600.544 430.708 L
602.031 431.416 L
603.519 432.173 L
605.006 432.913 L
606.494 433.571 L
607.981 434.09 L
609.469 434.438 L
610.956 434.609 L
612.444 434.629 L
613.931 434.545 L
615.419 434.417 L
616.906 434.306 L
618.394 434.259 L
619.881 434.304 L
621.369 434.436 L
622.856 434.619 L
624.344 434.779 L
625.831 434.814 L
627.319 434.61 L
628.806 434.094 L
630.294 433.31 L
631.781 432.558 L
633.269 432.562 L
S
GR
GS
[0.75 0 0 0.75 0 0] CT
1 GC
N
534 77 M
534 56 L
682 56 L
682 77 L
cp
f
GR
GS
[0.75 0 0 0.75 439.5 49.875] CT
/Helvetica 12 F
GS
[1 0 0 1 0 0] CT
0 4.5 moveto 
1 -1 scale
(autocorrelation) t 
GR
GR
GS
[0.75 0 0 0.75 0 0] CT
1 0 0 RC
2 setlinecap
10.0 ML
2.667 LW
N
542 66.5 M
582 66.5 L
S
GR
GS
[0.75 0 0 0.75 0 0] CT
0.149 GC
2 setlinecap
10.0 ML
N
534 77 M
534 56 L
682 56 L
682 77 L
534 77 L
S
GR
%%Trailer
%%BoundingBox: 35 16 530 405
%%Pages: 1
%%EOF
