%!PS-Adobe-3.0 EPSF-3.0
%%Creator: (MATLAB, The Mathworks, Inc. Version 8.5.0.197613 \(R2015a\). Operating System: Linux)
%%Title: Results/kernel847IncreasingPeaks100.eps
%%CreationDate: 2016-11-22T11:04:14
%%Pages: (atend)
%%BoundingBox: (atend)
%%LanguageLevel: 3
%%EndComments
%%BeginProlog
%%BeginResource: procset (Apache XML Graphics Std ProcSet) 1.2 0
%%Version: 1.2 0
%%Copyright: (Copyright 2001-2003,2010 The Apache Software Foundation. License terms: http://www.apache.org/licenses/LICENSE-2.0)
/bd{bind def}bind def
/ld{load def}bd
/GR/grestore ld
/M/moveto ld
/LJ/setlinejoin ld
/C/curveto ld
/f/fill ld
/LW/setlinewidth ld
/GC/setgray ld
/t/show ld
/N/newpath ld
/CT/concat ld
/cp/closepath ld
/S/stroke ld
/L/lineto ld
/CC/setcmykcolor ld
/A/ashow ld
/GS/gsave ld
/RC/setrgbcolor ld
/RM/rmoveto ld
/ML/setmiterlimit ld
/re {4 2 roll M
1 index 0 rlineto
0 exch rlineto
neg 0 rlineto
cp } bd
/_ctm matrix def
/_tm matrix def
/BT { _ctm currentmatrix pop matrix _tm copy pop 0 0 moveto } bd
/ET { _ctm setmatrix } bd
/iTm { _ctm setmatrix _tm concat } bd
/Tm { _tm astore pop iTm 0 0 moveto } bd
/ux 0.0 def
/uy 0.0 def
/F {
  /Tp exch def
  /Tf exch def
  Tf findfont Tp scalefont setfont
  /cf Tf def  /cs Tp def
} bd
/ULS {currentpoint /uy exch def /ux exch def} bd
/ULE {
  /Tcx currentpoint pop def
  gsave
  newpath
  cf findfont cs scalefont dup
  /FontMatrix get 0 get /Ts exch def /FontInfo get dup
  /UnderlinePosition get Ts mul /To exch def
  /UnderlineThickness get Ts mul /Tt exch def
  ux uy To add moveto  Tcx uy To add lineto
  Tt setlinewidth stroke
  grestore
} bd
/OLE {
  /Tcx currentpoint pop def
  gsave
  newpath
  cf findfont cs scalefont dup
  /FontMatrix get 0 get /Ts exch def /FontInfo get dup
  /UnderlinePosition get Ts mul /To exch def
  /UnderlineThickness get Ts mul /Tt exch def
  ux uy To add cs add moveto Tcx uy To add cs add lineto
  Tt setlinewidth stroke
  grestore
} bd
/SOE {
  /Tcx currentpoint pop def
  gsave
  newpath
  cf findfont cs scalefont dup
  /FontMatrix get 0 get /Ts exch def /FontInfo get dup
  /UnderlinePosition get Ts mul /To exch def
  /UnderlineThickness get Ts mul /Tt exch def
  ux uy To add cs 10 mul 26 idiv add moveto Tcx uy To add cs 10 mul 26 idiv add lineto
  Tt setlinewidth stroke
  grestore
} bd
/QT {
/Y22 exch store
/X22 exch store
/Y21 exch store
/X21 exch store
currentpoint
/Y21 load 2 mul add 3 div exch
/X21 load 2 mul add 3 div exch
/X21 load 2 mul /X22 load add 3 div
/Y21 load 2 mul /Y22 load add 3 div
/X22 load /Y22 load curveto
} bd
/SSPD {
dup length /d exch dict def
{
/v exch def
/k exch def
currentpagedevice k known {
/cpdv currentpagedevice k get def
v cpdv ne {
/upd false def
/nullv v type /nulltype eq def
/nullcpdv cpdv type /nulltype eq def
nullv nullcpdv or
{
/upd true def
} {
/sametype v type cpdv type eq def
sametype {
v type /arraytype eq {
/vlen v length def
/cpdvlen cpdv length def
vlen cpdvlen eq {
0 1 vlen 1 sub {
/i exch def
/obj v i get def
/cpdobj cpdv i get def
obj cpdobj ne {
/upd true def
exit
} if
} for
} {
/upd true def
} ifelse
} {
v type /dicttype eq {
v {
/dv exch def
/dk exch def
/cpddv cpdv dk get def
dv cpddv ne {
/upd true def
exit
} if
} forall
} {
/upd true def
} ifelse
} ifelse
} if
} ifelse
upd true eq {
d k v put
} if
} if
} if
} forall
d length 0 gt {
d setpagedevice
} if
} bd
%%EndResource
%%BeginResource: procset (Apache XML Graphics EPS ProcSet) 1.0 0
%%Version: 1.0 0
%%Copyright: (Copyright 2002-2003 The Apache Software Foundation. License terms: http://www.apache.org/licenses/LICENSE-2.0)
/BeginEPSF { %def
/b4_Inc_state save def         % Save state for cleanup
/dict_count countdictstack def % Count objects on dict stack
/op_count count 1 sub def      % Count objects on operand stack
userdict begin                 % Push userdict on dict stack
/showpage { } def              % Redefine showpage, { } = null proc
0 setgray 0 setlinecap         % Prepare graphics state
1 setlinewidth 0 setlinejoin
10 setmiterlimit [ ] 0 setdash newpath
/languagelevel where           % If level not equal to 1 then
{pop languagelevel             % set strokeadjust and
1 ne                           % overprint to their defaults.
{false setstrokeadjust false setoverprint
} if
} if
} bd
/EndEPSF { %def
count op_count sub {pop} repeat            % Clean up stacks
countdictstack dict_count sub {end} repeat
b4_Inc_state restore
} bd
%%EndResource
%FOPBeginFontDict
%%IncludeResource: font Courier-Bold
%%IncludeResource: font Helvetica
%%IncludeResource: font Courier-BoldOblique
%%IncludeResource: font Courier-Oblique
%%IncludeResource: font Times-Roman
%%IncludeResource: font Helvetica-BoldOblique
%%IncludeResource: font Helvetica-Bold
%%IncludeResource: font Helvetica-Oblique
%%IncludeResource: font Times-BoldItalic
%%IncludeResource: font Courier
%%IncludeResource: font Times-Italic
%%IncludeResource: font Times-Bold
%%IncludeResource: font Symbol
%%IncludeResource: font ZapfDingbats
%FOPEndFontDict
%%BeginResource: encoding WinAnsiEncoding
/WinAnsiEncoding [
/.notdef /.notdef /.notdef /.notdef /.notdef
/.notdef /.notdef /.notdef /.notdef /.notdef
/.notdef /.notdef /.notdef /.notdef /.notdef
/.notdef /.notdef /.notdef /.notdef /.notdef
/.notdef /.notdef /.notdef /.notdef /.notdef
/.notdef /.notdef /.notdef /.notdef /.notdef
/.notdef /.notdef /space /exclam /quotedbl
/numbersign /dollar /percent /ampersand /quotesingle
/parenleft /parenright /asterisk /plus /comma
/hyphen /period /slash /zero /one
/two /three /four /five /six
/seven /eight /nine /colon /semicolon
/less /equal /greater /question /at
/A /B /C /D /E
/F /G /H /I /J
/K /L /M /N /O
/P /Q /R /S /T
/U /V /W /X /Y
/Z /bracketleft /backslash /bracketright /asciicircum
/underscore /quoteleft /a /b /c
/d /e /f /g /h
/i /j /k /l /m
/n /o /p /q /r
/s /t /u /v /w
/x /y /z /braceleft /bar
/braceright /asciitilde /bullet /Euro /bullet
/quotesinglbase /florin /quotedblbase /ellipsis /dagger
/daggerdbl /circumflex /perthousand /Scaron /guilsinglleft
/OE /bullet /Zcaron /bullet /bullet
/quoteleft /quoteright /quotedblleft /quotedblright /bullet
/endash /emdash /asciitilde /trademark /scaron
/guilsinglright /oe /bullet /zcaron /Ydieresis
/space /exclamdown /cent /sterling /currency
/yen /brokenbar /section /dieresis /copyright
/ordfeminine /guillemotleft /logicalnot /sfthyphen /registered
/macron /degree /plusminus /twosuperior /threesuperior
/acute /mu /paragraph /middot /cedilla
/onesuperior /ordmasculine /guillemotright /onequarter /onehalf
/threequarters /questiondown /Agrave /Aacute /Acircumflex
/Atilde /Adieresis /Aring /AE /Ccedilla
/Egrave /Eacute /Ecircumflex /Edieresis /Igrave
/Iacute /Icircumflex /Idieresis /Eth /Ntilde
/Ograve /Oacute /Ocircumflex /Otilde /Odieresis
/multiply /Oslash /Ugrave /Uacute /Ucircumflex
/Udieresis /Yacute /Thorn /germandbls /agrave
/aacute /acircumflex /atilde /adieresis /aring
/ae /ccedilla /egrave /eacute /ecircumflex
/edieresis /igrave /iacute /icircumflex /idieresis
/eth /ntilde /ograve /oacute /ocircumflex
/otilde /odieresis /divide /oslash /ugrave
/uacute /ucircumflex /udieresis /yacute /thorn
/ydieresis
] def
%%EndResource
%FOPBeginFontReencode
/Courier-Bold findfont
dup length dict begin
  {1 index /FID ne {def} {pop pop} ifelse} forall
  /Encoding WinAnsiEncoding def
  currentdict
end
/Courier-Bold exch definefont pop
/Helvetica findfont
dup length dict begin
  {1 index /FID ne {def} {pop pop} ifelse} forall
  /Encoding WinAnsiEncoding def
  currentdict
end
/Helvetica exch definefont pop
/Courier-BoldOblique findfont
dup length dict begin
  {1 index /FID ne {def} {pop pop} ifelse} forall
  /Encoding WinAnsiEncoding def
  currentdict
end
/Courier-BoldOblique exch definefont pop
/Courier-Oblique findfont
dup length dict begin
  {1 index /FID ne {def} {pop pop} ifelse} forall
  /Encoding WinAnsiEncoding def
  currentdict
end
/Courier-Oblique exch definefont pop
/Times-Roman findfont
dup length dict begin
  {1 index /FID ne {def} {pop pop} ifelse} forall
  /Encoding WinAnsiEncoding def
  currentdict
end
/Times-Roman exch definefont pop
/Helvetica-BoldOblique findfont
dup length dict begin
  {1 index /FID ne {def} {pop pop} ifelse} forall
  /Encoding WinAnsiEncoding def
  currentdict
end
/Helvetica-BoldOblique exch definefont pop
/Helvetica-Bold findfont
dup length dict begin
  {1 index /FID ne {def} {pop pop} ifelse} forall
  /Encoding WinAnsiEncoding def
  currentdict
end
/Helvetica-Bold exch definefont pop
/Helvetica-Oblique findfont
dup length dict begin
  {1 index /FID ne {def} {pop pop} ifelse} forall
  /Encoding WinAnsiEncoding def
  currentdict
end
/Helvetica-Oblique exch definefont pop
/Times-BoldItalic findfont
dup length dict begin
  {1 index /FID ne {def} {pop pop} ifelse} forall
  /Encoding WinAnsiEncoding def
  currentdict
end
/Times-BoldItalic exch definefont pop
/Courier findfont
dup length dict begin
  {1 index /FID ne {def} {pop pop} ifelse} forall
  /Encoding WinAnsiEncoding def
  currentdict
end
/Courier exch definefont pop
/Times-Italic findfont
dup length dict begin
  {1 index /FID ne {def} {pop pop} ifelse} forall
  /Encoding WinAnsiEncoding def
  currentdict
end
/Times-Italic exch definefont pop
/Times-Bold findfont
dup length dict begin
  {1 index /FID ne {def} {pop pop} ifelse} forall
  /Encoding WinAnsiEncoding def
  currentdict
end
/Times-Bold exch definefont pop
%FOPEndFontReencode
%%EndProlog
%%Page: 1 1
%%PageBoundingBox: 0 0 576 432
%%BeginPageSetup
[1 0 0 -1 0 432] CT
%%EndPageSetup
GS
[0.75 0 0 0.75 0 0] CT
1 GC
N
0 0 768 576 re
f
GR
GS
[0.75 0 0 0.75 0 0] CT
1 GC
N
0 0 768 576 re
f
GR
GS
[0.75 0 0 0.75 0 0] CT
1 GC
N
100 513 M
695 513 L
695 43 L
100 43 L
cp
f
GR
GS
[0.75 0 0 0.75 298.12521 402.50002] CT
0.149 GC
/Helvetica 15 F
GS
[1 0 0 1 0 0] CT
-11.5 14 moveto 
1 -1 scale
(lag) t 
GR
GR
GS
[0.75 0 0 0.75 0 0] CT
0.149 GC
2 setlinecap
10.0 ML
N
100 513 M
695 513 L
S
GR
GS
[0.75 0 0 0.75 0 0] CT
0.149 GC
2 setlinecap
10.0 ML
N
100 43 M
695 43 L
S
GR
GS
[0.75 0 0 0.75 0 0] CT
0.149 GC
2 setlinecap
10.0 ML
N
100 513 M
100 507.05 L
S
GR
GS
[0.75 0 0 0.75 0 0] CT
0.149 GC
2 setlinecap
10.0 ML
N
174.375 513 M
174.375 507.05 L
S
GR
GS
[0.75 0 0 0.75 0 0] CT
0.149 GC
2 setlinecap
10.0 ML
N
248.75 513 M
248.75 507.05 L
S
GR
GS
[0.75 0 0 0.75 0 0] CT
0.149 GC
2 setlinecap
10.0 ML
N
323.125 513 M
323.125 507.05 L
S
GR
GS
[0.75 0 0 0.75 0 0] CT
0.149 GC
2 setlinecap
10.0 ML
N
397.5 513 M
397.5 507.05 L
S
GR
GS
[0.75 0 0 0.75 0 0] CT
0.149 GC
2 setlinecap
10.0 ML
N
471.875 513 M
471.875 507.05 L
S
GR
GS
[0.75 0 0 0.75 0 0] CT
0.149 GC
2 setlinecap
10.0 ML
N
546.25 513 M
546.25 507.05 L
S
GR
GS
[0.75 0 0 0.75 0 0] CT
0.149 GC
2 setlinecap
10.0 ML
N
620.625 513 M
620.625 507.05 L
S
GR
GS
[0.75 0 0 0.75 0 0] CT
0.149 GC
2 setlinecap
10.0 ML
N
695 513 M
695 507.05 L
S
GR
GS
[0.75 0 0 0.75 0 0] CT
0.149 GC
2 setlinecap
10.0 ML
N
100 43 M
100 48.95 L
S
GR
GS
[0.75 0 0 0.75 0 0] CT
0.149 GC
2 setlinecap
10.0 ML
N
174.375 43 M
174.375 48.95 L
S
GR
GS
[0.75 0 0 0.75 0 0] CT
0.149 GC
2 setlinecap
10.0 ML
N
248.75 43 M
248.75 48.95 L
S
GR
GS
[0.75 0 0 0.75 0 0] CT
0.149 GC
2 setlinecap
10.0 ML
N
323.125 43 M
323.125 48.95 L
S
GR
GS
[0.75 0 0 0.75 0 0] CT
0.149 GC
2 setlinecap
10.0 ML
N
397.5 43 M
397.5 48.95 L
S
GR
GS
[0.75 0 0 0.75 0 0] CT
0.149 GC
2 setlinecap
10.0 ML
N
471.875 43 M
471.875 48.95 L
S
GR
GS
[0.75 0 0 0.75 0 0] CT
0.149 GC
2 setlinecap
10.0 ML
N
546.25 43 M
546.25 48.95 L
S
GR
GS
[0.75 0 0 0.75 0 0] CT
0.149 GC
2 setlinecap
10.0 ML
N
620.625 43 M
620.625 48.95 L
S
GR
GS
[0.75 0 0 0.75 0 0] CT
0.149 GC
2 setlinecap
10.0 ML
N
695 43 M
695 48.95 L
S
GR
GS
[0.75 0 0 0.75 75 388.74998] CT
0.149 GC
/Helvetica 13 F
GS
[1 0 0 1 0 0] CT
-15 13 moveto 
1 -1 scale
(-200) t 
GR
GR
GS
[0.75 0 0 0.75 130.78125 388.74998] CT
0.149 GC
/Helvetica 13 F
GS
[1 0 0 1 0 0] CT
-15 13 moveto 
1 -1 scale
(-150) t 
GR
GR
GS
[0.75 0 0 0.75 186.5625 388.74998] CT
0.149 GC
/Helvetica 13 F
GS
[1 0 0 1 0 0] CT
-15 13 moveto 
1 -1 scale
(-100) t 
GR
GR
GS
[0.75 0 0 0.75 242.34375 388.74998] CT
0.149 GC
/Helvetica 13 F
GS
[1 0 0 1 0 0] CT
-11 13 moveto 
1 -1 scale
(-50) t 
GR
GR
GS
[0.75 0 0 0.75 298.125 388.74998] CT
0.149 GC
/Helvetica 13 F
GS
[1 0 0 1 0 0] CT
-4.5 13 moveto 
1 -1 scale
(0) t 
GR
GR
GS
[0.75 0 0 0.75 353.90625 388.74998] CT
0.149 GC
/Helvetica 13 F
GS
[1 0 0 1 0 0] CT
-8.5 13 moveto 
1 -1 scale
(50) t 
GR
GR
GS
[0.75 0 0 0.75 409.6875 388.74998] CT
0.149 GC
/Helvetica 13 F
GS
[1 0 0 1 0 0] CT
-12.5 13 moveto 
1 -1 scale
(100) t 
GR
GR
GS
[0.75 0 0 0.75 465.46875 388.74998] CT
0.149 GC
/Helvetica 13 F
GS
[1 0 0 1 0 0] CT
-12.5 13 moveto 
1 -1 scale
(150) t 
GR
GR
GS
[0.75 0 0 0.75 521.25 388.74998] CT
0.149 GC
/Helvetica 13 F
GS
[1 0 0 1 0 0] CT
-12.5 13 moveto 
1 -1 scale
(200) t 
GR
GR
GS
[0 -0.75 0.75 0 48.50001 208.49984] CT
0.149 GC
/Helvetica 15 F
GS
[1 0 0 1 0 0] CT
-57.5 -4 moveto 
1 -1 scale
(autocorrelation) t 
GR
GR
GS
[0.75 0 0 0.75 0 0] CT
0.149 GC
2 setlinecap
10.0 ML
N
100 513 M
100 43 L
S
GR
GS
[0.75 0 0 0.75 0 0] CT
0.149 GC
2 setlinecap
10.0 ML
N
695 513 M
695 43 L
S
GR
GS
[0.75 0 0 0.75 0 0] CT
0.149 GC
2 setlinecap
10.0 ML
N
100 513 M
105.95 513 L
S
GR
GS
[0.75 0 0 0.75 0 0] CT
0.149 GC
2 setlinecap
10.0 ML
N
100 434.667 M
105.95 434.667 L
S
GR
GS
[0.75 0 0 0.75 0 0] CT
0.149 GC
2 setlinecap
10.0 ML
N
100 356.333 M
105.95 356.333 L
S
GR
GS
[0.75 0 0 0.75 0 0] CT
0.149 GC
2 setlinecap
10.0 ML
N
100 278 M
105.95 278 L
S
GR
GS
[0.75 0 0 0.75 0 0] CT
0.149 GC
2 setlinecap
10.0 ML
N
100 199.667 M
105.95 199.667 L
S
GR
GS
[0.75 0 0 0.75 0 0] CT
0.149 GC
2 setlinecap
10.0 ML
N
100 121.333 M
105.95 121.333 L
S
GR
GS
[0.75 0 0 0.75 0 0] CT
0.149 GC
2 setlinecap
10.0 ML
N
100 43 M
105.95 43 L
S
GR
GS
[0.75 0 0 0.75 0 0] CT
0.149 GC
2 setlinecap
10.0 ML
N
695 513 M
689.05 513 L
S
GR
GS
[0.75 0 0 0.75 0 0] CT
0.149 GC
2 setlinecap
10.0 ML
N
695 434.667 M
689.05 434.667 L
S
GR
GS
[0.75 0 0 0.75 0 0] CT
0.149 GC
2 setlinecap
10.0 ML
N
695 356.333 M
689.05 356.333 L
S
GR
GS
[0.75 0 0 0.75 0 0] CT
0.149 GC
2 setlinecap
10.0 ML
N
695 278 M
689.05 278 L
S
GR
GS
[0.75 0 0 0.75 0 0] CT
0.149 GC
2 setlinecap
10.0 ML
N
695 199.667 M
689.05 199.667 L
S
GR
GS
[0.75 0 0 0.75 0 0] CT
0.149 GC
2 setlinecap
10.0 ML
N
695 121.333 M
689.05 121.333 L
S
GR
GS
[0.75 0 0 0.75 0 0] CT
0.149 GC
2 setlinecap
10.0 ML
N
695 43 M
689.05 43 L
S
GR
GS
[0.75 0 0 0.75 71 384.75] CT
0.149 GC
/Helvetica 13 F
GS
[1 0 0 1 0 0] CT
-26 4.5 moveto 
1 -1 scale
(-0.2) t 
GR
GR
GS
[0.75 0 0 0.75 71 325.99999] CT
0.149 GC
/Helvetica 13 F
GS
[1 0 0 1 0 0] CT
-9 4.5 moveto 
1 -1 scale
(0) t 
GR
GR
GS
[0.75 0 0 0.75 71 267.25001] CT
0.149 GC
/Helvetica 13 F
GS
[1 0 0 1 0 0] CT
-21 4.5 moveto 
1 -1 scale
(0.2) t 
GR
GR
GS
[0.75 0 0 0.75 71 208.5] CT
0.149 GC
/Helvetica 13 F
GS
[1 0 0 1 0 0] CT
-21 4.5 moveto 
1 -1 scale
(0.4) t 
GR
GR
GS
[0.75 0 0 0.75 71 149.74999] CT
0.149 GC
/Helvetica 13 F
GS
[1 0 0 1 0 0] CT
-21 4.5 moveto 
1 -1 scale
(0.6) t 
GR
GR
GS
[0.75 0 0 0.75 71 91] CT
0.149 GC
/Helvetica 13 F
GS
[1 0 0 1 0 0] CT
-21 4.5 moveto 
1 -1 scale
(0.8) t 
GR
GR
GS
[0.75 0 0 0.75 71 32.25] CT
0.149 GC
/Helvetica 13 F
GS
[1 0 0 1 0 0] CT
-9 4.5 moveto 
1 -1 scale
(1) t 
GR
GR
GS
[0.75 0 0 0.75 0 0] CT
1 0 0 RC
2 LJ
2.667 LW
N
160.244 430.866 M
161.731 430.158 L
163.219 430.928 L
164.706 432.193 L
166.194 433.428 L
167.681 434.41 L
169.169 435.089 L
170.656 435.512 L
172.144 435.762 L
173.631 435.924 L
175.119 436.068 L
176.606 436.235 L
178.094 436.437 L
179.581 436.654 L
181.069 436.85 L
182.556 436.982 L
184.044 437.015 L
185.531 436.934 L
187.019 436.75 L
188.506 436.496 L
189.994 436.224 L
191.481 435.991 L
192.969 435.851 L
194.456 435.843 L
195.944 435.988 L
197.431 436.286 L
198.919 436.724 L
200.406 437.275 L
201.894 437.904 L
203.381 438.572 L
204.869 439.239 L
206.356 439.867 L
207.844 440.428 L
209.331 440.906 L
210.819 441.308 L
212.306 441.663 L
213.794 442.019 L
215.281 442.434 L
216.769 442.961 L
218.256 443.638 L
219.744 444.473 L
221.231 445.446 L
222.719 446.516 L
224.206 447.627 L
225.694 448.72 L
227.181 449.743 L
228.669 450.651 L
230.156 451.407 L
231.644 451.976 L
233.131 452.326 L
S
GR
GS
[0.75 0 0 0.75 0 0] CT
1 0 0 RC
2 LJ
2.667 LW
N
233.131 452.326 M
234.619 452.422 L
236.106 452.234 L
237.594 451.742 L
239.081 450.945 L
240.569 449.87 L
242.056 448.573 L
243.544 447.141 L
245.031 445.682 L
246.519 444.311 L
248.006 443.137 L
249.494 442.248 L
250.981 441.696 L
252.469 441.497 L
253.956 441.626 L
255.444 442.024 L
256.931 442.616 L
258.419 443.32 L
259.906 444.07 L
261.394 444.82 L
262.881 445.552 L
264.369 446.274 L
265.856 447.009 L
267.344 447.785 L
268.831 448.632 L
270.319 449.571 L
271.806 450.618 L
273.294 451.778 L
274.781 453.043 L
276.269 454.389 L
277.756 455.774 L
279.244 457.136 L
280.731 458.404 L
282.219 459.501 L
283.706 460.364 L
285.194 460.945 L
286.681 461.226 L
288.169 461.218 L
289.656 460.961 L
291.144 460.517 L
292.631 459.957 L
294.119 459.353 L
295.606 458.76 L
297.094 458.215 L
298.581 457.732 L
300.069 457.305 L
301.556 456.916 L
303.044 456.543 L
304.531 456.171 L
306.019 455.79 L
S
GR
GS
[0.75 0 0 0.75 0 0] CT
1 0 0 RC
2 LJ
2.667 LW
N
306.019 455.79 M
307.506 455.404 L
308.994 455.024 L
310.481 454.669 L
311.969 454.357 L
313.456 454.103 L
314.944 453.918 L
316.431 453.808 L
317.919 453.778 L
319.406 453.835 L
320.894 453.995 L
322.381 454.279 L
323.869 454.713 L
325.356 455.323 L
326.844 456.126 L
328.331 457.126 L
329.819 458.307 L
331.306 459.625 L
332.794 461.008 L
334.281 462.358 L
335.769 463.558 L
337.256 464.489 L
338.744 465.054 L
340.231 465.197 L
341.719 464.918 L
343.206 464.275 L
344.694 463.37 L
346.181 462.334 L
347.669 461.297 L
349.156 460.366 L
350.644 459.613 L
352.131 459.068 L
353.619 458.72 L
355.106 458.529 L
356.594 458.44 L
358.081 458.395 L
359.569 458.353 L
361.056 458.301 L
362.544 458.258 L
364.031 458.275 L
365.519 458.409 L
367.006 458.701 L
368.494 459.135 L
369.981 459.599 L
371.469 459.855 L
372.956 459.515 L
374.444 458.023 L
375.931 454.655 L
377.419 448.538 L
378.906 438.683 L
S
GR
GS
[0.75 0 0 0.75 0 0] CT
1 0 0 RC
2 LJ
2.667 LW
N
378.906 438.683 M
380.394 424.068 L
381.881 403.757 L
383.369 377.077 L
384.856 343.819 L
386.344 304.445 L
387.831 260.231 L
389.319 213.306 L
390.806 166.523 L
392.294 123.161 L
393.781 86.475 L
395.269 59.182 L
396.756 43 L
398.244 59.182 L
399.731 86.475 L
401.219 123.161 L
402.706 166.523 L
404.194 213.306 L
405.681 260.231 L
407.169 304.445 L
408.656 343.819 L
410.144 377.077 L
411.631 403.757 L
413.119 424.068 L
414.606 438.683 L
416.094 448.538 L
417.581 454.655 L
419.069 458.023 L
420.556 459.515 L
422.044 459.855 L
423.531 459.599 L
425.019 459.135 L
426.506 458.701 L
427.994 458.409 L
429.481 458.275 L
430.969 458.258 L
432.456 458.301 L
433.944 458.353 L
435.431 458.395 L
436.919 458.44 L
438.406 458.529 L
439.894 458.72 L
441.381 459.068 L
442.869 459.613 L
444.356 460.366 L
445.844 461.297 L
447.331 462.334 L
448.819 463.37 L
450.306 464.275 L
451.794 464.918 L
S
GR
GS
[0.75 0 0 0.75 0 0] CT
1 0 0 RC
2 LJ
2.667 LW
N
451.794 464.918 M
453.281 465.197 L
454.769 465.054 L
456.256 464.489 L
457.744 463.558 L
459.231 462.358 L
460.719 461.008 L
462.206 459.625 L
463.694 458.307 L
465.181 457.126 L
466.669 456.126 L
468.156 455.323 L
469.644 454.713 L
471.131 454.279 L
472.619 453.995 L
474.106 453.835 L
475.594 453.778 L
477.081 453.808 L
478.569 453.918 L
480.056 454.103 L
481.544 454.357 L
483.031 454.669 L
484.519 455.024 L
486.006 455.404 L
487.494 455.79 L
488.981 456.171 L
490.469 456.543 L
491.956 456.916 L
493.444 457.305 L
494.931 457.732 L
496.419 458.215 L
497.906 458.76 L
499.394 459.353 L
500.881 459.957 L
502.369 460.517 L
503.856 460.961 L
505.344 461.218 L
506.831 461.226 L
508.319 460.945 L
509.806 460.364 L
511.294 459.501 L
512.781 458.404 L
514.269 457.136 L
515.756 455.774 L
517.244 454.389 L
518.731 453.043 L
520.219 451.778 L
521.706 450.618 L
523.194 449.571 L
524.681 448.632 L
S
GR
GS
[0.75 0 0 0.75 0 0] CT
1 0 0 RC
2 LJ
2.667 LW
N
524.681 448.632 M
526.169 447.785 L
527.656 447.009 L
529.144 446.274 L
530.631 445.552 L
532.119 444.82 L
533.606 444.07 L
535.094 443.32 L
536.581 442.616 L
538.069 442.024 L
539.556 441.626 L
541.044 441.497 L
542.531 441.696 L
544.019 442.248 L
545.506 443.137 L
546.994 444.311 L
548.481 445.682 L
549.969 447.141 L
551.456 448.573 L
552.944 449.87 L
554.431 450.945 L
555.919 451.742 L
557.406 452.234 L
558.894 452.422 L
560.381 452.326 L
561.869 451.976 L
563.356 451.407 L
564.844 450.651 L
566.331 449.743 L
567.819 448.72 L
569.306 447.627 L
570.794 446.516 L
572.281 445.446 L
573.769 444.473 L
575.256 443.638 L
576.744 442.961 L
578.231 442.434 L
579.719 442.019 L
581.206 441.663 L
582.694 441.308 L
584.181 440.906 L
585.669 440.428 L
587.156 439.867 L
588.644 439.239 L
590.131 438.572 L
591.619 437.904 L
593.106 437.275 L
594.594 436.724 L
596.081 436.286 L
597.569 435.988 L
S
GR
GS
[0.75 0 0 0.75 0 0] CT
1 0 0 RC
2 LJ
2.667 LW
N
597.569 435.988 M
599.056 435.843 L
600.544 435.851 L
602.031 435.991 L
603.519 436.224 L
605.006 436.496 L
606.494 436.75 L
607.981 436.934 L
609.469 437.015 L
610.956 436.982 L
612.444 436.85 L
613.931 436.654 L
615.419 436.437 L
616.906 436.235 L
618.394 436.068 L
619.881 435.924 L
621.369 435.762 L
622.856 435.512 L
624.344 435.089 L
625.831 434.41 L
627.319 433.428 L
628.806 432.193 L
630.294 430.928 L
631.781 430.158 L
633.269 430.866 L
S
GR
GS
[0.75 0 0 0.75 0 0] CT
1 GC
N
534 77 M
534 56 L
682 56 L
682 77 L
cp
f
GR
GS
[0.75 0 0 0.75 439.5 49.875] CT
/Helvetica 12 F
GS
[1 0 0 1 0 0] CT
0 4.5 moveto 
1 -1 scale
(autocorrelation) t 
GR
GR
GS
[0.75 0 0 0.75 0 0] CT
1 0 0 RC
2 setlinecap
10.0 ML
2.667 LW
N
542 66.5 M
582 66.5 L
S
GR
GS
[0.75 0 0 0.75 0 0] CT
0.149 GC
2 setlinecap
10.0 ML
N
534 77 M
534 56 L
682 56 L
682 77 L
534 77 L
S
GR
%%Trailer
%%BoundingBox: 35 16 530 405
%%Pages: 1
%%EOF
