%!PS-Adobe-3.0 EPSF-3.0
%%Creator: (MATLAB, The Mathworks, Inc. Version 8.5.0.197613 \(R2015a\). Operating System: Linux)
%%Title: /home/albyback/git/contig_assembly/Results/figures/gumbelvsreal/corcoefdist.eps
%%CreationDate: 2016-10-17T10:24:40
%%Pages: (atend)
%%BoundingBox: 0 0 420 315
%%LanguageLevel: 2
%%EndComments
%%BeginProlog
%%BeginResource: procset (Apache XML Graphics Std ProcSet) 1.2 0
%%Version: 1.2 0
%%Copyright: (Copyright 2001-2003,2010 The Apache Software Foundation. License terms: http://www.apache.org/licenses/LICENSE-2.0)
/bd{bind def}bind def
/ld{load def}bd
/GR/grestore ld
/M/moveto ld
/LJ/setlinejoin ld
/C/curveto ld
/f/fill ld
/LW/setlinewidth ld
/GC/setgray ld
/t/show ld
/N/newpath ld
/CT/concat ld
/cp/closepath ld
/S/stroke ld
/L/lineto ld
/CC/setcmykcolor ld
/A/ashow ld
/GS/gsave ld
/RC/setrgbcolor ld
/RM/rmoveto ld
/ML/setmiterlimit ld
/re {4 2 roll M
1 index 0 rlineto
0 exch rlineto
neg 0 rlineto
cp } bd
/_ctm matrix def
/_tm matrix def
/BT { _ctm currentmatrix pop matrix _tm copy pop 0 0 moveto } bd
/ET { _ctm setmatrix } bd
/iTm { _ctm setmatrix _tm concat } bd
/Tm { _tm astore pop iTm 0 0 moveto } bd
/ux 0.0 def
/uy 0.0 def
/F {
  /Tp exch def
  /Tf exch def
  Tf findfont Tp scalefont setfont
  /cf Tf def  /cs Tp def
} bd
/ULS {currentpoint /uy exch def /ux exch def} bd
/ULE {
  /Tcx currentpoint pop def
  gsave
  newpath
  cf findfont cs scalefont dup
  /FontMatrix get 0 get /Ts exch def /FontInfo get dup
  /UnderlinePosition get Ts mul /To exch def
  /UnderlineThickness get Ts mul /Tt exch def
  ux uy To add moveto  Tcx uy To add lineto
  Tt setlinewidth stroke
  grestore
} bd
/OLE {
  /Tcx currentpoint pop def
  gsave
  newpath
  cf findfont cs scalefont dup
  /FontMatrix get 0 get /Ts exch def /FontInfo get dup
  /UnderlinePosition get Ts mul /To exch def
  /UnderlineThickness get Ts mul /Tt exch def
  ux uy To add cs add moveto Tcx uy To add cs add lineto
  Tt setlinewidth stroke
  grestore
} bd
/SOE {
  /Tcx currentpoint pop def
  gsave
  newpath
  cf findfont cs scalefont dup
  /FontMatrix get 0 get /Ts exch def /FontInfo get dup
  /UnderlinePosition get Ts mul /To exch def
  /UnderlineThickness get Ts mul /Tt exch def
  ux uy To add cs 10 mul 26 idiv add moveto Tcx uy To add cs 10 mul 26 idiv add lineto
  Tt setlinewidth stroke
  grestore
} bd
/QT {
/Y22 exch store
/X22 exch store
/Y21 exch store
/X21 exch store
currentpoint
/Y21 load 2 mul add 3 div exch
/X21 load 2 mul add 3 div exch
/X21 load 2 mul /X22 load add 3 div
/Y21 load 2 mul /Y22 load add 3 div
/X22 load /Y22 load curveto
} bd
/SSPD {
dup length /d exch dict def
{
/v exch def
/k exch def
currentpagedevice k known {
/cpdv currentpagedevice k get def
v cpdv ne {
/upd false def
/nullv v type /nulltype eq def
/nullcpdv cpdv type /nulltype eq def
nullv nullcpdv or
{
/upd true def
} {
/sametype v type cpdv type eq def
sametype {
v type /arraytype eq {
/vlen v length def
/cpdvlen cpdv length def
vlen cpdvlen eq {
0 1 vlen 1 sub {
/i exch def
/obj v i get def
/cpdobj cpdv i get def
obj cpdobj ne {
/upd true def
exit
} if
} for
} {
/upd true def
} ifelse
} {
v type /dicttype eq {
v {
/dv exch def
/dk exch def
/cpddv cpdv dk get def
dv cpddv ne {
/upd true def
exit
} if
} forall
} {
/upd true def
} ifelse
} ifelse
} if
} ifelse
upd true eq {
d k v put
} if
} if
} if
} forall
d length 0 gt {
d setpagedevice
} if
} bd
%%EndResource
%%BeginResource: procset (Apache XML Graphics EPS ProcSet) 1.0 0
%%Version: 1.0 0
%%Copyright: (Copyright 2002-2003 The Apache Software Foundation. License terms: http://www.apache.org/licenses/LICENSE-2.0)
/BeginEPSF { %def
/b4_Inc_state save def         % Save state for cleanup
/dict_count countdictstack def % Count objects on dict stack
/op_count count 1 sub def      % Count objects on operand stack
userdict begin                 % Push userdict on dict stack
/showpage { } def              % Redefine showpage, { } = null proc
0 setgray 0 setlinecap         % Prepare graphics state
1 setlinewidth 0 setlinejoin
10 setmiterlimit [ ] 0 setdash newpath
/languagelevel where           % If level not equal to 1 then
{pop languagelevel             % set strokeadjust and
1 ne                           % overprint to their defaults.
{false setstrokeadjust false setoverprint
} if
} if
} bd
/EndEPSF { %def
count op_count sub {pop} repeat            % Clean up stacks
countdictstack dict_count sub {end} repeat
b4_Inc_state restore
} bd
%%EndResource
%FOPBeginFontDict
%%IncludeResource: font Courier-Bold
%%IncludeResource: font Helvetica
%%IncludeResource: font Courier-BoldOblique
%%IncludeResource: font Courier-Oblique
%%IncludeResource: font Times-Roman
%%IncludeResource: font Helvetica-BoldOblique
%%IncludeResource: font Helvetica-Bold
%%IncludeResource: font Helvetica-Oblique
%%IncludeResource: font Times-BoldItalic
%%IncludeResource: font Courier
%%IncludeResource: font Times-Italic
%%IncludeResource: font Times-Bold
%%IncludeResource: font Symbol
%%IncludeResource: font ZapfDingbats
%FOPEndFontDict
%%BeginResource: encoding WinAnsiEncoding
/WinAnsiEncoding [
/.notdef /.notdef /.notdef /.notdef /.notdef
/.notdef /.notdef /.notdef /.notdef /.notdef
/.notdef /.notdef /.notdef /.notdef /.notdef
/.notdef /.notdef /.notdef /.notdef /.notdef
/.notdef /.notdef /.notdef /.notdef /.notdef
/.notdef /.notdef /.notdef /.notdef /.notdef
/.notdef /.notdef /space /exclam /quotedbl
/numbersign /dollar /percent /ampersand /quotesingle
/parenleft /parenright /asterisk /plus /comma
/hyphen /period /slash /zero /one
/two /three /four /five /six
/seven /eight /nine /colon /semicolon
/less /equal /greater /question /at
/A /B /C /D /E
/F /G /H /I /J
/K /L /M /N /O
/P /Q /R /S /T
/U /V /W /X /Y
/Z /bracketleft /backslash /bracketright /asciicircum
/underscore /quoteleft /a /b /c
/d /e /f /g /h
/i /j /k /l /m
/n /o /p /q /r
/s /t /u /v /w
/x /y /z /braceleft /bar
/braceright /asciitilde /bullet /Euro /bullet
/quotesinglbase /florin /quotedblbase /ellipsis /dagger
/daggerdbl /circumflex /perthousand /Scaron /guilsinglleft
/OE /bullet /Zcaron /bullet /bullet
/quoteleft /quoteright /quotedblleft /quotedblright /bullet
/endash /emdash /asciitilde /trademark /scaron
/guilsinglright /oe /bullet /zcaron /Ydieresis
/space /exclamdown /cent /sterling /currency
/yen /brokenbar /section /dieresis /copyright
/ordfeminine /guillemotleft /logicalnot /sfthyphen /registered
/macron /degree /plusminus /twosuperior /threesuperior
/acute /mu /paragraph /middot /cedilla
/onesuperior /ordmasculine /guillemotright /onequarter /onehalf
/threequarters /questiondown /Agrave /Aacute /Acircumflex
/Atilde /Adieresis /Aring /AE /Ccedilla
/Egrave /Eacute /Ecircumflex /Edieresis /Igrave
/Iacute /Icircumflex /Idieresis /Eth /Ntilde
/Ograve /Oacute /Ocircumflex /Otilde /Odieresis
/multiply /Oslash /Ugrave /Uacute /Ucircumflex
/Udieresis /Yacute /Thorn /germandbls /agrave
/aacute /acircumflex /atilde /adieresis /aring
/ae /ccedilla /egrave /eacute /ecircumflex
/edieresis /igrave /iacute /icircumflex /idieresis
/eth /ntilde /ograve /oacute /ocircumflex
/otilde /odieresis /divide /oslash /ugrave
/uacute /ucircumflex /udieresis /yacute /thorn
/ydieresis
] def
%%EndResource
%FOPBeginFontReencode
/Courier-Bold findfont
dup length dict begin
  {1 index /FID ne {def} {pop pop} ifelse} forall
  /Encoding WinAnsiEncoding def
  currentdict
end
/Courier-Bold exch definefont pop
/Helvetica findfont
dup length dict begin
  {1 index /FID ne {def} {pop pop} ifelse} forall
  /Encoding WinAnsiEncoding def
  currentdict
end
/Helvetica exch definefont pop
/Courier-BoldOblique findfont
dup length dict begin
  {1 index /FID ne {def} {pop pop} ifelse} forall
  /Encoding WinAnsiEncoding def
  currentdict
end
/Courier-BoldOblique exch definefont pop
/Courier-Oblique findfont
dup length dict begin
  {1 index /FID ne {def} {pop pop} ifelse} forall
  /Encoding WinAnsiEncoding def
  currentdict
end
/Courier-Oblique exch definefont pop
/Times-Roman findfont
dup length dict begin
  {1 index /FID ne {def} {pop pop} ifelse} forall
  /Encoding WinAnsiEncoding def
  currentdict
end
/Times-Roman exch definefont pop
/Helvetica-BoldOblique findfont
dup length dict begin
  {1 index /FID ne {def} {pop pop} ifelse} forall
  /Encoding WinAnsiEncoding def
  currentdict
end
/Helvetica-BoldOblique exch definefont pop
/Helvetica-Bold findfont
dup length dict begin
  {1 index /FID ne {def} {pop pop} ifelse} forall
  /Encoding WinAnsiEncoding def
  currentdict
end
/Helvetica-Bold exch definefont pop
/Helvetica-Oblique findfont
dup length dict begin
  {1 index /FID ne {def} {pop pop} ifelse} forall
  /Encoding WinAnsiEncoding def
  currentdict
end
/Helvetica-Oblique exch definefont pop
/Times-BoldItalic findfont
dup length dict begin
  {1 index /FID ne {def} {pop pop} ifelse} forall
  /Encoding WinAnsiEncoding def
  currentdict
end
/Times-BoldItalic exch definefont pop
/Courier findfont
dup length dict begin
  {1 index /FID ne {def} {pop pop} ifelse} forall
  /Encoding WinAnsiEncoding def
  currentdict
end
/Courier exch definefont pop
/Times-Italic findfont
dup length dict begin
  {1 index /FID ne {def} {pop pop} ifelse} forall
  /Encoding WinAnsiEncoding def
  currentdict
end
/Times-Italic exch definefont pop
/Times-Bold findfont
dup length dict begin
  {1 index /FID ne {def} {pop pop} ifelse} forall
  /Encoding WinAnsiEncoding def
  currentdict
end
/Times-Bold exch definefont pop
%FOPEndFontReencode
%%EndProlog
%%Page: 1 1
%%PageBoundingBox: 0 0 420 315
%%BeginPageSetup
[1 0 0 -1 0 315] CT
%%EndPageSetup
GS
[0.75 0 0 0.75 0 0] CT
1 GC
N
0 0 560 420 re
f
GR
GS
[0.75 0 0 0.75 0 0] CT
1 GC
N
0 0 560 420 re
f
GR
GS
[0.75 0 0 0.75 0 0] CT
1 GC
N
73 374 M
507 374 L
507 31 L
73 31 L
cp
f
GR
GS
[0.75 0 0 0.75 217.50016 298.24999] CT
0.149 GC
/Helvetica 15 F
GS
[1 0 0 1 0 0] CT
-10.5 14 moveto 
1 -1 scale
(CC) t 
GR
GR
GS
[0.75 0 0 0.75 0 0] CT
0.149 GC
2 setlinecap
10.0 ML
N
73 374 M
507 374 L
S
GR
GS
[0.75 0 0 0.75 0 0] CT
0.149 GC
2 setlinecap
10.0 ML
N
73 31 M
507 31 L
S
GR
GS
[0.75 0 0 0.75 0 0] CT
0.149 GC
2 setlinecap
10.0 ML
N
73 374 M
73 369.66 L
S
GR
GS
[0.75 0 0 0.75 0 0] CT
0.149 GC
2 setlinecap
10.0 ML
N
181.5 374 M
181.5 369.66 L
S
GR
GS
[0.75 0 0 0.75 0 0] CT
0.149 GC
2 setlinecap
10.0 ML
N
290 374 M
290 369.66 L
S
GR
GS
[0.75 0 0 0.75 0 0] CT
0.149 GC
2 setlinecap
10.0 ML
N
398.5 374 M
398.5 369.66 L
S
GR
GS
[0.75 0 0 0.75 0 0] CT
0.149 GC
2 setlinecap
10.0 ML
N
507 374 M
507 369.66 L
S
GR
GS
[0.75 0 0 0.75 0 0] CT
0.149 GC
2 setlinecap
10.0 ML
N
73 31 M
73 35.34 L
S
GR
GS
[0.75 0 0 0.75 0 0] CT
0.149 GC
2 setlinecap
10.0 ML
N
181.5 31 M
181.5 35.34 L
S
GR
GS
[0.75 0 0 0.75 0 0] CT
0.149 GC
2 setlinecap
10.0 ML
N
290 31 M
290 35.34 L
S
GR
GS
[0.75 0 0 0.75 0 0] CT
0.149 GC
2 setlinecap
10.0 ML
N
398.5 31 M
398.5 35.34 L
S
GR
GS
[0.75 0 0 0.75 0 0] CT
0.149 GC
2 setlinecap
10.0 ML
N
507 31 M
507 35.34 L
S
GR
GS
[0.75 0 0 0.75 54.75 284.50001] CT
0.149 GC
/Helvetica 13 F
GS
[1 0 0 1 0 0] CT
-6.5 13 moveto 
1 -1 scale
(-1) t 
GR
GR
GS
[0.75 0 0 0.75 136.125 284.50001] CT
0.149 GC
/Helvetica 13 F
GS
[1 0 0 1 0 0] CT
-13 13 moveto 
1 -1 scale
(-0.5) t 
GR
GR
GS
[0.75 0 0 0.75 217.5 284.50001] CT
0.149 GC
/Helvetica 13 F
GS
[1 0 0 1 0 0] CT
-4.5 13 moveto 
1 -1 scale
(0) t 
GR
GR
GS
[0.75 0 0 0.75 298.875 284.50001] CT
0.149 GC
/Helvetica 13 F
GS
[1 0 0 1 0 0] CT
-10.5 13 moveto 
1 -1 scale
(0.5) t 
GR
GR
GS
[0.75 0 0 0.75 380.25 284.50001] CT
0.149 GC
/Helvetica 13 F
GS
[1 0 0 1 0 0] CT
-4.5 13 moveto 
1 -1 scale
(1) t 
GR
GR
GS
[0 -0.75 0.75 0 41 151.87487] CT
0.149 GC
/Helvetica 15 F
GS
[1 0 0 1 0 0] CT
-15 -4 moveto 
1 -1 scale
(PDF) t 
GR
GR
GS
[0.75 0 0 0.75 0 0] CT
0.149 GC
2 setlinecap
10.0 ML
N
73 374 M
73 31 L
S
GR
GS
[0.75 0 0 0.75 0 0] CT
0.149 GC
2 setlinecap
10.0 ML
N
507 374 M
507 31 L
S
GR
GS
[0.75 0 0 0.75 0 0] CT
0.149 GC
2 setlinecap
10.0 ML
N
73 374 M
77.34 374 L
S
GR
GS
[0.75 0 0 0.75 0 0] CT
0.149 GC
2 setlinecap
10.0 ML
N
73 316.833 M
77.34 316.833 L
S
GR
GS
[0.75 0 0 0.75 0 0] CT
0.149 GC
2 setlinecap
10.0 ML
N
73 259.667 M
77.34 259.667 L
S
GR
GS
[0.75 0 0 0.75 0 0] CT
0.149 GC
2 setlinecap
10.0 ML
N
73 202.5 M
77.34 202.5 L
S
GR
GS
[0.75 0 0 0.75 0 0] CT
0.149 GC
2 setlinecap
10.0 ML
N
73 145.333 M
77.34 145.333 L
S
GR
GS
[0.75 0 0 0.75 0 0] CT
0.149 GC
2 setlinecap
10.0 ML
N
73 88.167 M
77.34 88.167 L
S
GR
GS
[0.75 0 0 0.75 0 0] CT
0.149 GC
2 setlinecap
10.0 ML
N
73 31 M
77.34 31 L
S
GR
GS
[0.75 0 0 0.75 0 0] CT
0.149 GC
2 setlinecap
10.0 ML
N
507 374 M
502.66 374 L
S
GR
GS
[0.75 0 0 0.75 0 0] CT
0.149 GC
2 setlinecap
10.0 ML
N
507 316.833 M
502.66 316.833 L
S
GR
GS
[0.75 0 0 0.75 0 0] CT
0.149 GC
2 setlinecap
10.0 ML
N
507 259.667 M
502.66 259.667 L
S
GR
GS
[0.75 0 0 0.75 0 0] CT
0.149 GC
2 setlinecap
10.0 ML
N
507 202.5 M
502.66 202.5 L
S
GR
GS
[0.75 0 0 0.75 0 0] CT
0.149 GC
2 setlinecap
10.0 ML
N
507 145.333 M
502.66 145.333 L
S
GR
GS
[0.75 0 0 0.75 0 0] CT
0.149 GC
2 setlinecap
10.0 ML
N
507 88.167 M
502.66 88.167 L
S
GR
GS
[0.75 0 0 0.75 0 0] CT
0.149 GC
2 setlinecap
10.0 ML
N
507 31 M
502.66 31 L
S
GR
GS
[0.75 0 0 0.75 50.74999 280.5] CT
0.149 GC
/Helvetica 13 F
GS
[1 0 0 1 0 0] CT
-9 4.5 moveto 
1 -1 scale
(0) t 
GR
GR
GS
[0.75 0 0 0.75 50.74999 237.62501] CT
0.149 GC
/Helvetica 13 F
GS
[1 0 0 1 0 0] CT
-9 4.5 moveto 
1 -1 scale
(1) t 
GR
GR
GS
[0.75 0 0 0.75 50.74999 194.74999] CT
0.149 GC
/Helvetica 13 F
GS
[1 0 0 1 0 0] CT
-9 4.5 moveto 
1 -1 scale
(2) t 
GR
GR
GS
[0.75 0 0 0.75 50.74999 151.875] CT
0.149 GC
/Helvetica 13 F
GS
[1 0 0 1 0 0] CT
-9 4.5 moveto 
1 -1 scale
(3) t 
GR
GR
GS
[0.75 0 0 0.75 50.74999 109] CT
0.149 GC
/Helvetica 13 F
GS
[1 0 0 1 0 0] CT
-9 4.5 moveto 
1 -1 scale
(4) t 
GR
GR
GS
[0.75 0 0 0.75 50.74999 66.125] CT
0.149 GC
/Helvetica 13 F
GS
[1 0 0 1 0 0] CT
-9 4.5 moveto 
1 -1 scale
(5) t 
GR
GR
GS
[0.75 0 0 0.75 50.74999 23.25] CT
0.149 GC
/Helvetica 13 F
GS
[1 0 0 1 0 0] CT
-9 4.5 moveto 
1 -1 scale
(6) t 
GR
GR
GS
[0.75 0 0 0.75 0 0] CT
0.208 0.165 0.525 RC
N
352.933 374 M
355.783 374 L
355.783 367.026 L
352.933 367.026 L
cp
f
GR
GS
[0.75 0 0 0.75 0 0] CT
0.208 0.165 0.525 RC
N
356.496 374 M
359.346 374 L
359.346 370.513 L
356.496 370.513 L
cp
f
GR
GS
[0.75 0 0 0.75 0 0] CT
0.208 0.165 0.525 RC
N
360.059 374 M
362.909 374 L
362.909 374 L
360.059 374 L
cp
f
GR
GS
[0.75 0 0 0.75 0 0] CT
0.208 0.165 0.525 RC
N
363.621 374 M
366.472 374 L
366.472 349.59 L
363.621 349.59 L
cp
f
GR
GS
[0.75 0 0 0.75 0 0] CT
0.208 0.165 0.525 RC
N
367.184 374 M
370.034 374 L
370.034 339.129 L
367.184 339.129 L
cp
f
GR
GS
[0.75 0 0 0.75 0 0] CT
0.208 0.165 0.525 RC
N
370.747 374 M
373.597 374 L
373.597 335.642 L
370.747 335.642 L
cp
f
GR
GS
[0.75 0 0 0.75 0 0] CT
0.208 0.165 0.525 RC
N
374.31 374 M
377.16 374 L
377.16 290.309 L
374.31 290.309 L
cp
f
GR
GS
[0.75 0 0 0.75 0 0] CT
0.208 0.165 0.525 RC
N
377.872 374 M
380.723 374 L
380.723 262.412 L
377.872 262.412 L
cp
f
GR
GS
[0.75 0 0 0.75 0 0] CT
0.208 0.165 0.525 RC
N
381.435 374 M
384.285 374 L
384.285 241.489 L
381.435 241.489 L
cp
f
GR
GS
[0.75 0 0 0.75 0 0] CT
0.208 0.165 0.525 RC
N
384.998 374 M
387.848 374 L
387.848 210.105 L
384.998 210.105 L
cp
f
GR
GS
[0.75 0 0 0.75 0 0] CT
0.208 0.165 0.525 RC
N
388.561 374 M
391.411 374 L
391.411 175.234 L
388.561 175.234 L
cp
f
GR
GS
[0.75 0 0 0.75 0 0] CT
0.208 0.165 0.525 RC
N
392.124 374 M
394.974 374 L
394.974 213.592 L
392.124 213.592 L
cp
f
GR
GS
[0.75 0 0 0.75 0 0] CT
0.208 0.165 0.525 RC
N
395.686 374 M
398.536 374 L
398.536 154.311 L
395.686 154.311 L
cp
f
GR
GS
[0.75 0 0 0.75 0 0] CT
0.208 0.165 0.525 RC
N
399.249 374 M
402.099 374 L
402.099 140.362 L
399.249 140.362 L
cp
f
GR
GS
[0.75 0 0 0.75 0 0] CT
0.208 0.165 0.525 RC
N
402.812 374 M
405.662 374 L
405.662 178.721 L
402.812 178.721 L
cp
f
GR
GS
[0.75 0 0 0.75 0 0] CT
0.208 0.165 0.525 RC
N
406.375 374 M
409.225 374 L
409.225 84.568 L
406.375 84.568 L
cp
f
GR
GS
[0.75 0 0 0.75 0 0] CT
0.208 0.165 0.525 RC
N
409.937 374 M
412.788 374 L
412.788 147.337 L
409.937 147.337 L
cp
f
GR
GS
[0.75 0 0 0.75 0 0] CT
0.208 0.165 0.525 RC
N
413.5 374 M
416.35 374 L
416.35 157.798 L
413.5 157.798 L
cp
f
GR
GS
[0.75 0 0 0.75 0 0] CT
0.208 0.165 0.525 RC
N
417.063 374 M
419.913 374 L
419.913 154.311 L
417.063 154.311 L
cp
f
GR
GS
[0.75 0 0 0.75 0 0] CT
0.208 0.165 0.525 RC
N
420.626 374 M
423.476 374 L
423.476 164.772 L
420.626 164.772 L
cp
f
GR
GS
[0.75 0 0 0.75 0 0] CT
0.208 0.165 0.525 RC
N
424.188 374 M
427.039 374 L
427.039 178.721 L
424.188 178.721 L
cp
f
GR
GS
[0.75 0 0 0.75 0 0] CT
0.208 0.165 0.525 RC
N
427.751 374 M
430.601 374 L
430.601 241.489 L
427.751 241.489 L
cp
f
GR
GS
[0.75 0 0 0.75 0 0] CT
0.208 0.165 0.525 RC
N
431.314 374 M
434.164 374 L
434.164 241.489 L
431.314 241.489 L
cp
f
GR
GS
[0.75 0 0 0.75 0 0] CT
0.208 0.165 0.525 RC
N
434.877 374 M
437.727 374 L
437.727 265.899 L
434.877 265.899 L
cp
f
GR
GS
[0.75 0 0 0.75 0 0] CT
0.208 0.165 0.525 RC
N
438.439 374 M
441.29 374 L
441.29 311.232 L
438.439 311.232 L
cp
f
GR
GS
[0.75 0 0 0.75 0 0] CT
0.208 0.165 0.525 RC
N
442.002 374 M
444.852 374 L
444.852 335.642 L
442.002 335.642 L
cp
f
GR
GS
[0.75 0 0 0.75 0 0] CT
0.208 0.165 0.525 RC
N
445.565 374 M
448.415 374 L
448.415 370.513 L
445.565 370.513 L
cp
f
GR
GS
[0.75 0 0 0.75 0 0] CT
0.208 0.165 0.525 RC
N
449.128 374 M
451.978 374 L
451.978 349.59 L
449.128 349.59 L
cp
f
GR
GS
[0.75 0 0 0.75 0 0] CT
0.208 0.165 0.525 RC
N
452.69 374 M
455.541 374 L
455.541 360.051 L
452.69 360.051 L
cp
f
GR
GS
[0.75 0 0 0.75 0 0] CT
0.208 0.165 0.525 RC
N
456.253 374 M
459.103 374 L
459.103 370.513 L
456.253 370.513 L
cp
f
GR
GS
[0.75 0 0 0.75 0 0] CT
0.208 0.165 0.525 RC
N
459.816 374 M
462.666 374 L
462.666 370.513 L
459.816 370.513 L
cp
f
GR
GS
[0.75 0 0 0.75 0 0] CT
2 setlinecap
10.0 ML
N
352.933 374 M
352.933 367.026 L
355.783 367.026 L
355.783 374 L
352.933 374 L
S
GR
GS
[0.75 0 0 0.75 0 0] CT
2 setlinecap
10.0 ML
N
356.496 374 M
356.496 370.513 L
359.346 370.513 L
359.346 374 L
356.496 374 L
S
GR
GS
[0.75 0 0 0.75 0 0] CT
2 setlinecap
10.0 ML
N
360.059 374 M
360.059 374 L
362.909 374 L
362.909 374 L
360.059 374 L
S
GR
GS
[0.75 0 0 0.75 0 0] CT
2 setlinecap
10.0 ML
N
363.621 374 M
363.621 349.59 L
366.472 349.59 L
366.472 374 L
363.621 374 L
S
GR
GS
[0.75 0 0 0.75 0 0] CT
2 setlinecap
10.0 ML
N
367.184 374 M
367.184 339.129 L
370.034 339.129 L
370.034 374 L
367.184 374 L
S
GR
GS
[0.75 0 0 0.75 0 0] CT
2 setlinecap
10.0 ML
N
370.747 374 M
370.747 335.642 L
373.597 335.642 L
373.597 374 L
370.747 374 L
S
GR
GS
[0.75 0 0 0.75 0 0] CT
2 setlinecap
10.0 ML
N
374.31 374 M
374.31 290.309 L
377.16 290.309 L
377.16 374 L
374.31 374 L
S
GR
GS
[0.75 0 0 0.75 0 0] CT
2 setlinecap
10.0 ML
N
377.872 374 M
377.872 262.412 L
380.723 262.412 L
380.723 374 L
377.872 374 L
S
GR
GS
[0.75 0 0 0.75 0 0] CT
2 setlinecap
10.0 ML
N
381.435 374 M
381.435 241.489 L
384.285 241.489 L
384.285 374 L
381.435 374 L
S
GR
GS
[0.75 0 0 0.75 0 0] CT
2 setlinecap
10.0 ML
N
384.998 374 M
384.998 210.105 L
387.848 210.105 L
387.848 374 L
384.998 374 L
S
GR
GS
[0.75 0 0 0.75 0 0] CT
2 setlinecap
10.0 ML
N
388.561 374 M
388.561 175.234 L
391.411 175.234 L
391.411 374 L
388.561 374 L
S
GR
GS
[0.75 0 0 0.75 0 0] CT
2 setlinecap
10.0 ML
N
392.124 374 M
392.124 213.592 L
394.974 213.592 L
394.974 374 L
392.124 374 L
S
GR
GS
[0.75 0 0 0.75 0 0] CT
2 setlinecap
10.0 ML
N
395.686 374 M
395.686 154.311 L
398.536 154.311 L
398.536 374 L
395.686 374 L
S
GR
GS
[0.75 0 0 0.75 0 0] CT
2 setlinecap
10.0 ML
N
399.249 374 M
399.249 140.362 L
402.099 140.362 L
402.099 374 L
399.249 374 L
S
GR
GS
[0.75 0 0 0.75 0 0] CT
2 setlinecap
10.0 ML
N
402.812 374 M
402.812 178.721 L
405.662 178.721 L
405.662 374 L
402.812 374 L
S
GR
GS
[0.75 0 0 0.75 0 0] CT
2 setlinecap
10.0 ML
N
406.375 374 M
406.375 84.568 L
409.225 84.568 L
409.225 374 L
406.375 374 L
S
GR
GS
[0.75 0 0 0.75 0 0] CT
2 setlinecap
10.0 ML
N
409.937 374 M
409.937 147.337 L
412.788 147.337 L
412.788 374 L
409.937 374 L
S
GR
GS
[0.75 0 0 0.75 0 0] CT
2 setlinecap
10.0 ML
N
413.5 374 M
413.5 157.798 L
416.35 157.798 L
416.35 374 L
413.5 374 L
S
GR
GS
[0.75 0 0 0.75 0 0] CT
2 setlinecap
10.0 ML
N
417.063 374 M
417.063 154.311 L
419.913 154.311 L
419.913 374 L
417.063 374 L
S
GR
GS
[0.75 0 0 0.75 0 0] CT
2 setlinecap
10.0 ML
N
420.626 374 M
420.626 164.772 L
423.476 164.772 L
423.476 374 L
420.626 374 L
S
GR
GS
[0.75 0 0 0.75 0 0] CT
2 setlinecap
10.0 ML
N
424.188 374 M
424.188 178.721 L
427.039 178.721 L
427.039 374 L
424.188 374 L
S
GR
GS
[0.75 0 0 0.75 0 0] CT
2 setlinecap
10.0 ML
N
427.751 374 M
427.751 241.489 L
430.601 241.489 L
430.601 374 L
427.751 374 L
S
GR
GS
[0.75 0 0 0.75 0 0] CT
2 setlinecap
10.0 ML
N
431.314 374 M
431.314 241.489 L
434.164 241.489 L
434.164 374 L
431.314 374 L
S
GR
GS
[0.75 0 0 0.75 0 0] CT
2 setlinecap
10.0 ML
N
434.877 374 M
434.877 265.899 L
437.727 265.899 L
437.727 374 L
434.877 374 L
S
GR
GS
[0.75 0 0 0.75 0 0] CT
2 setlinecap
10.0 ML
N
438.439 374 M
438.439 311.232 L
441.29 311.232 L
441.29 374 L
438.439 374 L
S
GR
GS
[0.75 0 0 0.75 0 0] CT
2 setlinecap
10.0 ML
N
442.002 374 M
442.002 335.642 L
444.852 335.642 L
444.852 374 L
442.002 374 L
S
GR
GS
[0.75 0 0 0.75 0 0] CT
2 setlinecap
10.0 ML
N
445.565 374 M
445.565 370.513 L
448.415 370.513 L
448.415 374 L
445.565 374 L
S
GR
GS
[0.75 0 0 0.75 0 0] CT
2 setlinecap
10.0 ML
N
449.128 374 M
449.128 349.59 L
451.978 349.59 L
451.978 374 L
449.128 374 L
S
GR
GS
[0.75 0 0 0.75 0 0] CT
2 setlinecap
10.0 ML
N
452.69 374 M
452.69 360.051 L
455.541 360.051 L
455.541 374 L
452.69 374 L
S
GR
GS
[0.75 0 0 0.75 0 0] CT
2 setlinecap
10.0 ML
N
456.253 374 M
456.253 370.513 L
459.103 370.513 L
459.103 374 L
456.253 374 L
S
GR
GS
[0.75 0 0 0.75 0 0] CT
2 setlinecap
10.0 ML
N
459.816 374 M
459.816 370.513 L
462.666 370.513 L
462.666 374 L
459.816 374 L
S
GR
GS
[0.75 0 0 0.75 0 0] CT
1 0 0 RC
2 LJ
4 LW
N
73 374 M
73.434 374 L
73.868 374 L
74.302 374 L
74.736 374 L
75.17 374 L
75.604 374 L
76.038 374 L
76.472 374 L
76.906 374 L
77.34 374 L
77.774 374 L
78.208 374 L
78.642 374 L
79.076 374 L
79.51 374 L
79.944 374 L
80.378 374 L
80.812 374 L
81.246 374 L
81.68 374 L
82.114 374 L
82.548 374 L
82.982 374 L
83.416 374 L
83.85 374 L
84.284 374 L
84.718 374 L
85.152 374 L
85.586 374 L
86.02 374 L
86.454 374 L
86.888 374 L
87.322 374 L
87.756 374 L
88.19 374 L
88.624 374 L
89.058 374 L
89.492 374 L
89.926 374 L
90.36 374 L
90.794 374 L
91.228 374 L
91.662 374 L
92.096 374 L
92.53 374 L
92.964 374 L
93.398 374 L
93.832 374 L
94.266 374 L
S
GR
GS
[0.75 0 0 0.75 0 0] CT
1 0 0 RC
2 LJ
4 LW
N
94.266 374 M
94.7 374 L
95.134 374 L
95.568 374 L
96.002 374 L
96.436 374 L
96.87 374 L
97.304 374 L
97.738 374 L
98.172 374 L
98.606 374 L
99.04 374 L
99.474 374 L
99.908 374 L
100.342 374 L
100.776 374 L
101.21 374 L
101.644 374 L
102.078 374 L
102.512 374 L
102.946 374 L
103.38 374 L
103.814 374 L
104.248 374 L
104.682 374 L
105.116 374 L
105.55 374 L
105.984 374 L
106.418 374 L
106.852 374 L
107.286 374 L
107.72 374 L
108.154 374 L
108.588 374 L
109.022 374 L
109.456 374 L
109.89 374 L
110.324 374 L
110.758 374 L
111.192 374 L
111.626 374 L
112.06 374 L
112.494 374 L
112.928 374 L
113.362 374 L
113.796 374 L
114.23 374 L
114.664 374 L
115.098 374 L
115.532 374 L
S
GR
GS
[0.75 0 0 0.75 0 0] CT
1 0 0 RC
2 LJ
4 LW
N
115.532 374 M
115.966 374 L
116.4 374 L
116.834 374 L
117.268 374 L
117.702 374 L
118.136 374 L
118.57 374 L
119.004 374 L
119.438 374 L
119.872 374 L
120.306 374 L
120.74 374 L
121.174 374 L
121.608 374 L
122.042 374 L
122.476 374 L
122.91 374 L
123.344 374 L
123.778 374 L
124.212 374 L
124.646 374 L
125.08 374 L
125.514 374 L
125.948 374 L
126.382 374 L
126.816 374 L
127.25 374 L
127.684 374 L
128.118 374 L
128.552 374 L
128.986 374 L
129.42 374 L
129.854 374 L
130.288 374 L
130.722 374 L
131.156 374 L
131.59 374 L
132.024 374 L
132.458 374 L
132.892 374 L
133.326 374 L
133.76 374 L
134.194 374 L
134.628 374 L
135.062 374 L
135.496 374 L
135.93 374 L
136.364 374 L
136.798 374 L
S
GR
GS
[0.75 0 0 0.75 0 0] CT
1 0 0 RC
2 LJ
4 LW
N
136.798 374 M
137.232 374 L
137.666 374 L
138.1 374 L
138.534 374 L
138.968 374 L
139.402 374 L
139.836 374 L
140.27 374 L
140.704 374 L
141.138 374 L
141.572 374 L
142.006 374 L
142.44 374 L
142.874 374 L
143.308 374 L
143.742 374 L
144.176 374 L
144.61 374 L
145.044 374 L
145.478 374 L
145.912 374 L
146.346 374 L
146.78 374 L
147.214 374 L
147.648 374 L
148.082 374 L
148.516 374 L
148.95 374 L
149.384 374 L
149.818 374 L
150.252 374 L
150.686 374 L
151.12 374 L
151.554 374 L
151.988 374 L
152.422 374 L
152.856 374 L
153.29 374 L
153.724 374 L
154.158 374 L
154.592 374 L
155.026 374 L
155.46 374 L
155.894 374 L
156.328 374 L
156.762 374 L
157.196 374 L
157.63 374 L
158.064 374 L
S
GR
GS
[0.75 0 0 0.75 0 0] CT
1 0 0 RC
2 LJ
4 LW
N
158.064 374 M
158.498 374 L
158.932 374 L
159.366 374 L
159.8 374 L
160.234 374 L
160.668 374 L
161.102 374 L
161.536 374 L
161.97 374 L
162.404 374 L
162.838 374 L
163.272 374 L
163.706 374 L
164.14 374 L
164.574 374 L
165.008 374 L
165.442 374 L
165.876 374 L
166.31 374 L
166.744 374 L
167.178 374 L
167.612 374 L
168.046 374 L
168.48 374 L
168.914 374 L
169.348 374 L
169.782 374 L
170.216 374 L
170.65 374 L
171.084 374 L
171.518 374 L
171.952 374 L
172.386 374 L
172.82 374 L
173.254 374 L
173.688 374 L
174.122 374 L
174.556 374 L
174.99 374 L
175.424 374 L
175.858 374 L
176.292 374 L
176.726 374 L
177.16 374 L
177.594 374 L
178.028 374 L
178.462 374 L
178.896 374 L
179.33 374 L
S
GR
GS
[0.75 0 0 0.75 0 0] CT
1 0 0 RC
2 LJ
4 LW
N
179.33 374 M
179.764 374 L
180.198 374 L
180.632 374 L
181.066 374 L
181.5 374 L
181.934 374 L
182.368 374 L
182.802 374 L
183.236 374 L
183.67 374 L
184.104 374 L
184.538 374 L
184.972 374 L
185.406 374 L
185.84 374 L
186.274 374 L
186.708 374 L
187.142 374 L
187.576 374 L
188.01 374 L
188.444 374 L
188.878 374 L
189.312 374 L
189.746 374 L
190.18 374 L
190.614 374 L
191.048 374 L
191.482 374 L
191.916 374 L
192.35 374 L
192.784 374 L
193.218 374 L
193.652 374 L
194.086 374 L
194.52 374 L
194.954 374 L
195.388 374 L
195.822 374 L
196.256 374 L
196.69 374 L
197.124 374 L
197.558 374 L
197.992 374 L
198.426 374 L
198.86 374 L
199.294 374 L
199.728 374 L
200.162 374 L
200.596 374 L
S
GR
GS
[0.75 0 0 0.75 0 0] CT
1 0 0 RC
2 LJ
4 LW
N
200.596 374 M
201.03 374 L
201.464 374 L
201.898 374 L
202.332 374 L
202.766 374 L
203.2 374 L
203.634 374 L
204.068 374 L
204.502 374 L
204.936 374 L
205.37 374 L
205.804 374 L
206.238 374 L
206.672 374 L
207.106 374 L
207.54 374 L
207.974 374 L
208.408 374 L
208.842 374 L
209.276 374 L
209.71 374 L
210.144 374 L
210.578 374 L
211.012 374 L
211.446 374 L
211.88 374 L
212.314 374 L
212.748 374 L
213.182 374 L
213.616 374 L
214.05 374 L
214.484 374 L
214.918 374 L
215.352 374 L
215.786 374 L
216.22 374 L
216.654 374 L
217.088 374 L
217.522 374 L
217.956 374 L
218.39 374 L
218.824 374 L
219.258 374 L
219.692 374 L
220.126 374 L
220.56 374 L
220.994 374 L
221.428 374 L
221.862 374 L
S
GR
GS
[0.75 0 0 0.75 0 0] CT
1 0 0 RC
2 LJ
4 LW
N
221.862 374 M
222.296 374 L
222.73 374 L
223.164 374 L
223.598 374 L
224.032 374 L
224.466 374 L
224.9 374 L
225.334 374 L
225.768 374 L
226.202 374 L
226.636 374 L
227.07 374 L
227.504 374 L
227.938 374 L
228.372 374 L
228.806 374 L
229.24 374 L
229.674 374 L
230.108 374 L
230.542 374 L
230.976 374 L
231.41 374 L
231.844 374 L
232.278 374 L
232.712 374 L
233.146 374 L
233.58 374 L
234.014 374 L
234.448 374 L
234.882 374 L
235.316 374 L
235.75 374 L
236.184 374 L
236.618 374 L
237.052 374 L
237.486 374 L
237.92 374 L
238.354 374 L
238.788 374 L
239.222 374 L
239.656 374 L
240.09 374 L
240.524 374 L
240.958 374 L
241.392 374 L
241.826 374 L
242.26 374 L
242.694 374 L
243.128 374 L
S
GR
GS
[0.75 0 0 0.75 0 0] CT
1 0 0 RC
2 LJ
4 LW
N
243.128 374 M
243.562 374 L
243.996 374 L
244.43 374 L
244.864 374 L
245.298 374 L
245.732 374 L
246.166 374 L
246.6 374 L
247.034 374 L
247.468 374 L
247.902 374 L
248.336 374 L
248.77 374 L
249.204 374 L
249.638 374 L
250.072 374 L
250.506 374 L
250.94 374 L
251.374 374 L
251.808 374 L
252.242 374 L
252.676 374 L
253.11 374 L
253.544 374 L
253.978 374 L
254.412 374 L
254.846 374 L
255.28 374 L
255.714 374 L
256.148 374 L
256.582 374 L
257.016 374 L
257.45 374 L
257.884 374 L
258.318 374 L
258.752 374 L
259.186 374 L
259.62 374 L
260.054 374 L
260.488 374 L
260.922 374 L
261.356 374 L
261.79 374 L
262.224 374 L
262.658 374 L
263.092 374 L
263.526 374 L
263.96 374 L
264.394 374 L
S
GR
GS
[0.75 0 0 0.75 0 0] CT
1 0 0 RC
2 LJ
4 LW
N
264.394 374 M
264.828 374 L
265.262 374 L
265.696 374 L
266.13 374 L
266.564 374 L
266.998 374 L
267.432 374 L
267.866 374 L
268.3 374 L
268.734 374 L
269.168 374 L
269.602 374 L
270.036 374 L
270.47 374 L
270.904 374 L
271.338 374 L
271.772 374 L
272.206 374 L
272.64 374 L
273.074 374 L
273.508 374 L
273.942 374 L
274.376 374 L
274.81 374 L
275.244 374 L
275.678 374 L
276.112 374 L
276.546 374 L
276.98 374 L
277.414 374 L
277.848 374 L
278.282 374 L
278.716 374 L
279.15 374 L
279.584 374 L
280.018 374 L
280.452 374 L
280.886 374 L
281.32 374 L
281.754 374 L
282.188 374 L
282.622 374 L
283.056 374 L
283.49 374 L
283.924 374 L
284.358 374 L
284.792 374 L
285.226 374 L
285.66 374 L
S
GR
GS
[0.75 0 0 0.75 0 0] CT
1 0 0 RC
2 LJ
4 LW
N
285.66 374 M
286.094 374 L
286.528 374 L
286.962 374 L
287.396 374 L
287.83 374 L
288.264 374 L
288.698 374 L
289.132 374 L
289.566 374 L
290 374 L
290.434 374 L
290.868 374 L
291.302 374 L
291.736 374 L
292.17 374 L
292.604 374 L
293.038 374 L
293.472 374 L
293.906 374 L
294.34 374 L
294.774 374 L
295.208 374 L
295.642 374 L
296.076 374 L
296.51 374 L
296.944 374 L
297.378 374 L
297.812 374 L
298.246 374 L
298.68 374 L
299.114 374 L
299.548 374 L
299.982 374 L
300.416 374 L
300.85 374 L
301.284 374 L
301.718 374 L
302.152 374 L
302.586 374 L
303.02 374 L
303.454 374 L
303.888 374 L
304.322 374 L
304.756 374 L
305.19 374 L
305.624 374 L
306.058 374 L
306.492 374 L
306.926 374 L
S
GR
GS
[0.75 0 0 0.75 0 0] CT
1 0 0 RC
2 LJ
4 LW
N
306.926 374 M
307.36 374 L
307.794 374 L
308.228 374 L
308.662 374 L
309.096 374 L
309.53 374 L
309.964 374 L
310.398 374 L
310.832 374 L
311.266 374 L
311.7 374 L
312.134 374 L
312.568 374 L
313.002 374 L
313.436 374 L
313.87 374 L
314.304 374 L
314.738 374 L
315.172 374 L
315.606 374 L
316.04 374 L
316.474 374 L
316.908 373.999 L
317.342 373.999 L
317.776 373.999 L
318.21 373.999 L
318.644 373.999 L
319.078 373.999 L
319.512 373.999 L
319.946 373.999 L
320.38 373.998 L
320.814 373.998 L
321.248 373.998 L
321.682 373.997 L
322.116 373.997 L
322.55 373.997 L
322.984 373.996 L
323.418 373.996 L
323.852 373.995 L
324.286 373.994 L
324.72 373.994 L
325.154 373.993 L
325.588 373.992 L
326.022 373.99 L
326.456 373.989 L
326.89 373.988 L
327.324 373.986 L
327.758 373.984 L
328.192 373.982 L
S
GR
GS
[0.75 0 0 0.75 0 0] CT
1 0 0 RC
2 LJ
4 LW
N
328.192 373.982 M
328.626 373.98 L
329.06 373.977 L
329.494 373.974 L
329.928 373.971 L
330.362 373.968 L
330.796 373.964 L
331.23 373.959 L
331.664 373.954 L
332.098 373.948 L
332.532 373.942 L
332.966 373.935 L
333.4 373.928 L
333.834 373.919 L
334.268 373.91 L
334.702 373.9 L
335.136 373.888 L
335.57 373.876 L
336.004 373.862 L
336.438 373.846 L
336.872 373.83 L
337.306 373.811 L
337.74 373.791 L
338.174 373.768 L
338.608 373.744 L
339.042 373.717 L
339.476 373.688 L
339.91 373.655 L
340.344 373.62 L
340.778 373.582 L
341.212 373.54 L
341.646 373.495 L
342.08 373.445 L
342.514 373.391 L
342.948 373.333 L
343.382 373.269 L
343.816 373.201 L
344.25 373.126 L
344.684 373.045 L
345.118 372.958 L
345.552 372.864 L
345.986 372.762 L
346.42 372.652 L
346.854 372.534 L
347.288 372.407 L
347.722 372.27 L
348.156 372.122 L
348.59 371.964 L
349.024 371.795 L
349.458 371.613 L
S
GR
GS
[0.75 0 0 0.75 0 0] CT
1 0 0 RC
2 LJ
4 LW
N
349.458 371.613 M
349.892 371.419 L
350.326 371.211 L
350.76 370.988 L
351.194 370.75 L
351.628 370.497 L
352.062 370.226 L
352.496 369.938 L
352.93 369.632 L
353.364 369.306 L
353.798 368.959 L
354.232 368.591 L
354.666 368.201 L
355.1 367.788 L
355.534 367.35 L
355.968 366.886 L
356.402 366.397 L
356.836 365.879 L
357.27 365.333 L
357.704 364.757 L
358.138 364.151 L
358.572 363.512 L
359.006 362.84 L
359.44 362.134 L
359.874 361.393 L
360.308 360.615 L
360.742 359.799 L
361.176 358.945 L
361.61 358.051 L
362.044 357.116 L
362.478 356.139 L
362.912 355.118 L
363.346 354.054 L
363.78 352.944 L
364.214 351.789 L
364.648 350.586 L
365.082 349.335 L
365.516 348.036 L
365.95 346.687 L
366.384 345.287 L
366.818 343.837 L
367.252 342.334 L
367.686 340.78 L
368.12 339.172 L
368.554 337.511 L
368.988 335.797 L
369.422 334.028 L
369.856 332.205 L
370.29 330.328 L
370.724 328.396 L
S
GR
GS
[0.75 0 0 0.75 0 0] CT
1 0 0 RC
2 LJ
4 LW
N
370.724 328.396 M
371.158 326.41 L
371.592 324.37 L
372.026 322.275 L
372.46 320.126 L
372.894 317.924 L
373.328 315.669 L
373.762 313.361 L
374.196 311.002 L
374.63 308.591 L
375.064 306.131 L
375.498 303.622 L
375.932 301.064 L
376.366 298.461 L
376.8 295.811 L
377.234 293.118 L
377.668 290.382 L
378.102 287.606 L
378.536 284.79 L
378.97 281.938 L
379.404 279.05 L
379.838 276.129 L
380.272 273.176 L
380.706 270.195 L
381.14 267.188 L
381.574 264.156 L
382.008 261.102 L
382.442 258.03 L
382.876 254.941 L
383.31 251.838 L
383.744 248.725 L
384.178 245.603 L
384.612 242.476 L
385.046 239.346 L
385.48 236.218 L
385.914 233.093 L
386.348 229.975 L
386.782 226.866 L
387.216 223.771 L
387.65 220.692 L
388.084 217.632 L
388.518 214.595 L
388.952 211.583 L
389.386 208.6 L
389.82 205.649 L
390.254 202.732 L
390.688 199.854 L
391.122 197.017 L
391.556 194.225 L
391.99 191.479 L
S
GR
GS
[0.75 0 0 0.75 0 0] CT
1 0 0 RC
2 LJ
4 LW
N
391.99 191.479 M
392.424 188.783 L
392.858 186.141 L
393.292 183.554 L
393.726 181.026 L
394.16 178.559 L
394.594 176.156 L
395.028 173.819 L
395.462 171.552 L
395.896 169.355 L
396.33 167.232 L
396.764 165.185 L
397.198 163.215 L
397.632 161.325 L
398.066 159.517 L
398.5 157.792 L
398.934 156.153 L
399.368 154.599 L
399.802 153.134 L
400.236 151.758 L
400.67 150.473 L
401.104 149.279 L
401.538 148.178 L
401.972 147.169 L
402.406 146.255 L
402.84 145.436 L
403.274 144.711 L
403.708 144.082 L
404.142 143.549 L
404.576 143.111 L
405.01 142.769 L
405.444 142.522 L
405.878 142.37 L
406.312 142.314 L
406.746 142.351 L
407.18 142.483 L
407.614 142.707 L
408.048 143.024 L
408.482 143.432 L
408.916 143.93 L
409.35 144.518 L
409.784 145.193 L
410.218 145.956 L
410.652 146.803 L
411.086 147.734 L
411.52 148.748 L
411.954 149.842 L
412.388 151.016 L
412.822 152.266 L
413.256 153.592 L
S
GR
GS
[0.75 0 0 0.75 0 0] CT
1 0 0 RC
2 LJ
4 LW
N
413.256 153.592 M
413.69 154.992 L
414.124 156.463 L
414.558 158.003 L
414.992 159.612 L
415.426 161.286 L
415.86 163.023 L
416.294 164.821 L
416.728 166.679 L
417.162 168.593 L
417.596 170.562 L
418.03 172.583 L
418.464 174.655 L
418.898 176.774 L
419.332 178.939 L
419.766 181.146 L
420.2 183.395 L
420.634 185.683 L
421.068 188.006 L
421.502 190.364 L
421.936 192.754 L
422.37 195.173 L
422.804 197.619 L
423.238 200.09 L
423.672 202.584 L
424.106 205.099 L
424.54 207.632 L
424.974 210.181 L
425.408 212.745 L
425.842 215.321 L
426.276 217.907 L
426.71 220.502 L
427.144 223.102 L
427.578 225.707 L
428.012 228.315 L
428.446 230.923 L
428.88 233.53 L
429.314 236.134 L
429.748 238.733 L
430.182 241.327 L
430.616 243.912 L
431.05 246.489 L
431.484 249.054 L
431.918 251.607 L
432.352 254.147 L
432.786 256.672 L
433.22 259.18 L
433.654 261.671 L
434.088 264.143 L
434.522 266.595 L
S
GR
GS
[0.75 0 0 0.75 0 0] CT
1 0 0 RC
2 LJ
4 LW
N
434.522 266.595 M
434.956 269.026 L
435.39 271.435 L
435.824 273.821 L
436.258 276.183 L
436.692 278.521 L
437.126 280.832 L
437.56 283.117 L
437.994 285.375 L
438.428 287.605 L
438.862 289.806 L
439.296 291.978 L
439.73 294.12 L
440.164 296.232 L
440.598 298.313 L
441.032 300.363 L
441.466 302.381 L
441.9 304.367 L
442.334 306.321 L
442.768 308.242 L
443.202 310.13 L
443.636 311.986 L
444.07 313.807 L
444.504 315.596 L
444.938 317.351 L
445.372 319.073 L
445.806 320.76 L
446.24 322.415 L
446.674 324.035 L
447.108 325.622 L
447.542 327.176 L
447.976 328.696 L
448.41 330.183 L
448.844 331.637 L
449.278 333.058 L
449.712 334.446 L
450.146 335.801 L
450.58 337.125 L
451.014 338.416 L
451.448 339.675 L
451.882 340.903 L
452.316 342.1 L
452.75 343.266 L
453.184 344.401 L
453.618 345.506 L
454.052 346.582 L
454.486 347.628 L
454.92 348.645 L
455.354 349.633 L
455.788 350.593 L
S
GR
GS
[0.75 0 0 0.75 0 0] CT
1 0 0 RC
2 LJ
4 LW
N
455.788 350.593 M
456.222 351.525 L
456.656 352.43 L
457.09 353.307 L
457.524 354.158 L
457.958 354.984 L
458.392 355.783 L
458.826 356.557 L
459.26 357.307 L
459.694 358.032 L
460.128 358.733 L
460.562 359.412 L
460.996 360.067 L
461.43 360.7 L
461.864 361.311 L
462.298 361.9 L
462.732 362.469 L
463.166 363.017 L
463.6 363.545 L
464.034 364.053 L
464.468 364.543 L
464.902 365.013 L
465.336 365.466 L
465.77 365.901 L
466.204 366.319 L
466.638 366.72 L
467.072 367.104 L
467.506 367.473 L
467.94 367.826 L
468.374 368.165 L
468.808 368.489 L
469.242 368.798 L
469.676 369.095 L
470.11 369.377 L
470.544 369.647 L
470.978 369.905 L
471.412 370.15 L
471.846 370.384 L
472.28 370.607 L
472.714 370.818 L
473.148 371.02 L
473.582 371.211 L
474.016 371.392 L
474.45 371.564 L
474.884 371.727 L
475.318 371.881 L
475.752 372.027 L
476.186 372.165 L
476.62 372.295 L
477.054 372.418 L
S
GR
GS
[0.75 0 0 0.75 0 0] CT
1 0 0 RC
2 LJ
4 LW
N
477.054 372.418 M
477.488 372.534 L
477.922 372.642 L
478.356 372.745 L
478.79 372.841 L
479.224 372.931 L
479.658 373.016 L
480.092 373.095 L
480.526 373.169 L
480.96 373.238 L
481.394 373.302 L
481.828 373.362 L
482.262 373.418 L
482.696 373.47 L
483.13 373.518 L
483.564 373.563 L
483.998 373.604 L
484.432 373.642 L
484.866 373.677 L
485.3 373.709 L
485.734 373.739 L
486.168 373.766 L
486.602 373.791 L
487.036 373.814 L
487.47 373.834 L
487.904 373.853 L
488.338 373.87 L
488.772 373.886 L
489.206 373.9 L
489.64 373.912 L
490.074 373.923 L
490.508 373.933 L
490.942 373.942 L
491.376 373.95 L
491.81 373.957 L
492.244 373.963 L
492.678 373.969 L
493.112 373.974 L
493.546 373.978 L
493.98 373.981 L
494.414 373.985 L
494.848 373.987 L
495.282 373.99 L
495.716 373.992 L
496.15 373.993 L
496.584 373.995 L
497.018 373.996 L
497.452 373.997 L
497.886 373.997 L
498.32 373.998 L
S
GR
GS
[0.75 0 0 0.75 0 0] CT
1 0 0 RC
2 LJ
4 LW
N
498.32 373.998 M
498.754 373.998 L
499.188 373.999 L
499.622 373.999 L
500.056 373.999 L
500.49 374 L
500.924 374 L
501.358 374 L
501.792 374 L
502.226 374 L
502.66 374 L
503.094 374 L
503.528 374 L
503.962 374 L
504.396 374 L
504.83 374 L
505.264 374 L
505.698 374 L
506.132 374 L
506.566 374 L
507 374 L
S
GR
GS
[0.75 0 0 0.75 0 0] CT
0.149 GC
2 setlinecap
10.0 ML
N
73 374 M
507 374 L
S
GR
GS
[0.75 0 0 0.75 0 0] CT
1 GC
N
279 80 M
279 44 L
494 44 L
494 80 L
cp
f
GR
GS
[0.75 0 0 0.75 248.25 40.625] CT
/Helvetica 12 F
GS
[1 0 0 1 0 0] CT
0 4.5 moveto 
1 -1 scale
(Correlation coefficient hist) t 
GR
GR
GS
[0.75 0 0 0.75 0 0] CT
0.208 0.165 0.525 RC
N
287 59.833 M
287 48.5 L
327 48.5 L
327 59.833 L
cp
f
GR
GS
[0.75 0 0 0.75 0 0] CT
2 setlinecap
10.0 ML
N
287 59.833 M
287 48.5 L
327 48.5 L
327 59.833 L
287 59.833 L
S
GR
GS
[0.75 0 0 0.75 248.25 52.375] CT
/Helvetica 12 F
GS
[1 0 0 1 0 0] CT
0 4.5 moveto 
1 -1 scale
(Exact PDF) t 
GR
GR
GS
[0.75 0 0 0.75 0 0] CT
1 0 0 RC
2 setlinecap
10.0 ML
4 LW
N
287 69.833 M
327 69.833 L
S
GR
GS
[0.75 0 0 0.75 0 0] CT
0.149 GC
2 setlinecap
10.0 ML
N
279 80 M
279 44 L
494 44 L
494 80 L
279 80 L
S
GR
%%Trailer
%%Pages: 1
%%EOF
