%!PS-Adobe-3.0 EPSF-3.0
%%Creator: (MATLAB, The Mathworks, Inc. Version 8.5.0.197613 \(R2015a\). Operating System: Linux)
%%Title: /home/albyback/git/contig_assembly/Results/figures/gumbelvsreal/gumbel.eps
%%CreationDate: 2016-10-17T10:24:17
%%Pages: (atend)
%%BoundingBox: 0 0 420 315
%%LanguageLevel: 2
%%EndComments
%%BeginProlog
%%BeginResource: procset (Apache XML Graphics Std ProcSet) 1.2 0
%%Version: 1.2 0
%%Copyright: (Copyright 2001-2003,2010 The Apache Software Foundation. License terms: http://www.apache.org/licenses/LICENSE-2.0)
/bd{bind def}bind def
/ld{load def}bd
/GR/grestore ld
/M/moveto ld
/LJ/setlinejoin ld
/C/curveto ld
/f/fill ld
/LW/setlinewidth ld
/GC/setgray ld
/t/show ld
/N/newpath ld
/CT/concat ld
/cp/closepath ld
/S/stroke ld
/L/lineto ld
/CC/setcmykcolor ld
/A/ashow ld
/GS/gsave ld
/RC/setrgbcolor ld
/RM/rmoveto ld
/ML/setmiterlimit ld
/re {4 2 roll M
1 index 0 rlineto
0 exch rlineto
neg 0 rlineto
cp } bd
/_ctm matrix def
/_tm matrix def
/BT { _ctm currentmatrix pop matrix _tm copy pop 0 0 moveto } bd
/ET { _ctm setmatrix } bd
/iTm { _ctm setmatrix _tm concat } bd
/Tm { _tm astore pop iTm 0 0 moveto } bd
/ux 0.0 def
/uy 0.0 def
/F {
  /Tp exch def
  /Tf exch def
  Tf findfont Tp scalefont setfont
  /cf Tf def  /cs Tp def
} bd
/ULS {currentpoint /uy exch def /ux exch def} bd
/ULE {
  /Tcx currentpoint pop def
  gsave
  newpath
  cf findfont cs scalefont dup
  /FontMatrix get 0 get /Ts exch def /FontInfo get dup
  /UnderlinePosition get Ts mul /To exch def
  /UnderlineThickness get Ts mul /Tt exch def
  ux uy To add moveto  Tcx uy To add lineto
  Tt setlinewidth stroke
  grestore
} bd
/OLE {
  /Tcx currentpoint pop def
  gsave
  newpath
  cf findfont cs scalefont dup
  /FontMatrix get 0 get /Ts exch def /FontInfo get dup
  /UnderlinePosition get Ts mul /To exch def
  /UnderlineThickness get Ts mul /Tt exch def
  ux uy To add cs add moveto Tcx uy To add cs add lineto
  Tt setlinewidth stroke
  grestore
} bd
/SOE {
  /Tcx currentpoint pop def
  gsave
  newpath
  cf findfont cs scalefont dup
  /FontMatrix get 0 get /Ts exch def /FontInfo get dup
  /UnderlinePosition get Ts mul /To exch def
  /UnderlineThickness get Ts mul /Tt exch def
  ux uy To add cs 10 mul 26 idiv add moveto Tcx uy To add cs 10 mul 26 idiv add lineto
  Tt setlinewidth stroke
  grestore
} bd
/QT {
/Y22 exch store
/X22 exch store
/Y21 exch store
/X21 exch store
currentpoint
/Y21 load 2 mul add 3 div exch
/X21 load 2 mul add 3 div exch
/X21 load 2 mul /X22 load add 3 div
/Y21 load 2 mul /Y22 load add 3 div
/X22 load /Y22 load curveto
} bd
/SSPD {
dup length /d exch dict def
{
/v exch def
/k exch def
currentpagedevice k known {
/cpdv currentpagedevice k get def
v cpdv ne {
/upd false def
/nullv v type /nulltype eq def
/nullcpdv cpdv type /nulltype eq def
nullv nullcpdv or
{
/upd true def
} {
/sametype v type cpdv type eq def
sametype {
v type /arraytype eq {
/vlen v length def
/cpdvlen cpdv length def
vlen cpdvlen eq {
0 1 vlen 1 sub {
/i exch def
/obj v i get def
/cpdobj cpdv i get def
obj cpdobj ne {
/upd true def
exit
} if
} for
} {
/upd true def
} ifelse
} {
v type /dicttype eq {
v {
/dv exch def
/dk exch def
/cpddv cpdv dk get def
dv cpddv ne {
/upd true def
exit
} if
} forall
} {
/upd true def
} ifelse
} ifelse
} if
} ifelse
upd true eq {
d k v put
} if
} if
} if
} forall
d length 0 gt {
d setpagedevice
} if
} bd
%%EndResource
%%BeginResource: procset (Apache XML Graphics EPS ProcSet) 1.0 0
%%Version: 1.0 0
%%Copyright: (Copyright 2002-2003 The Apache Software Foundation. License terms: http://www.apache.org/licenses/LICENSE-2.0)
/BeginEPSF { %def
/b4_Inc_state save def         % Save state for cleanup
/dict_count countdictstack def % Count objects on dict stack
/op_count count 1 sub def      % Count objects on operand stack
userdict begin                 % Push userdict on dict stack
/showpage { } def              % Redefine showpage, { } = null proc
0 setgray 0 setlinecap         % Prepare graphics state
1 setlinewidth 0 setlinejoin
10 setmiterlimit [ ] 0 setdash newpath
/languagelevel where           % If level not equal to 1 then
{pop languagelevel             % set strokeadjust and
1 ne                           % overprint to their defaults.
{false setstrokeadjust false setoverprint
} if
} if
} bd
/EndEPSF { %def
count op_count sub {pop} repeat            % Clean up stacks
countdictstack dict_count sub {end} repeat
b4_Inc_state restore
} bd
%%EndResource
%FOPBeginFontDict
%%IncludeResource: font Courier-Bold
%%IncludeResource: font Helvetica
%%IncludeResource: font Courier-BoldOblique
%%IncludeResource: font Courier-Oblique
%%IncludeResource: font Times-Roman
%%IncludeResource: font Helvetica-BoldOblique
%%IncludeResource: font Helvetica-Bold
%%IncludeResource: font Helvetica-Oblique
%%IncludeResource: font Times-BoldItalic
%%IncludeResource: font Courier
%%IncludeResource: font Times-Italic
%%IncludeResource: font Times-Bold
%%IncludeResource: font Symbol
%%IncludeResource: font ZapfDingbats
%FOPEndFontDict
%%BeginResource: encoding WinAnsiEncoding
/WinAnsiEncoding [
/.notdef /.notdef /.notdef /.notdef /.notdef
/.notdef /.notdef /.notdef /.notdef /.notdef
/.notdef /.notdef /.notdef /.notdef /.notdef
/.notdef /.notdef /.notdef /.notdef /.notdef
/.notdef /.notdef /.notdef /.notdef /.notdef
/.notdef /.notdef /.notdef /.notdef /.notdef
/.notdef /.notdef /space /exclam /quotedbl
/numbersign /dollar /percent /ampersand /quotesingle
/parenleft /parenright /asterisk /plus /comma
/hyphen /period /slash /zero /one
/two /three /four /five /six
/seven /eight /nine /colon /semicolon
/less /equal /greater /question /at
/A /B /C /D /E
/F /G /H /I /J
/K /L /M /N /O
/P /Q /R /S /T
/U /V /W /X /Y
/Z /bracketleft /backslash /bracketright /asciicircum
/underscore /quoteleft /a /b /c
/d /e /f /g /h
/i /j /k /l /m
/n /o /p /q /r
/s /t /u /v /w
/x /y /z /braceleft /bar
/braceright /asciitilde /bullet /Euro /bullet
/quotesinglbase /florin /quotedblbase /ellipsis /dagger
/daggerdbl /circumflex /perthousand /Scaron /guilsinglleft
/OE /bullet /Zcaron /bullet /bullet
/quoteleft /quoteright /quotedblleft /quotedblright /bullet
/endash /emdash /asciitilde /trademark /scaron
/guilsinglright /oe /bullet /zcaron /Ydieresis
/space /exclamdown /cent /sterling /currency
/yen /brokenbar /section /dieresis /copyright
/ordfeminine /guillemotleft /logicalnot /sfthyphen /registered
/macron /degree /plusminus /twosuperior /threesuperior
/acute /mu /paragraph /middot /cedilla
/onesuperior /ordmasculine /guillemotright /onequarter /onehalf
/threequarters /questiondown /Agrave /Aacute /Acircumflex
/Atilde /Adieresis /Aring /AE /Ccedilla
/Egrave /Eacute /Ecircumflex /Edieresis /Igrave
/Iacute /Icircumflex /Idieresis /Eth /Ntilde
/Ograve /Oacute /Ocircumflex /Otilde /Odieresis
/multiply /Oslash /Ugrave /Uacute /Ucircumflex
/Udieresis /Yacute /Thorn /germandbls /agrave
/aacute /acircumflex /atilde /adieresis /aring
/ae /ccedilla /egrave /eacute /ecircumflex
/edieresis /igrave /iacute /icircumflex /idieresis
/eth /ntilde /ograve /oacute /ocircumflex
/otilde /odieresis /divide /oslash /ugrave
/uacute /ucircumflex /udieresis /yacute /thorn
/ydieresis
] def
%%EndResource
%FOPBeginFontReencode
/Courier-Bold findfont
dup length dict begin
  {1 index /FID ne {def} {pop pop} ifelse} forall
  /Encoding WinAnsiEncoding def
  currentdict
end
/Courier-Bold exch definefont pop
/Helvetica findfont
dup length dict begin
  {1 index /FID ne {def} {pop pop} ifelse} forall
  /Encoding WinAnsiEncoding def
  currentdict
end
/Helvetica exch definefont pop
/Courier-BoldOblique findfont
dup length dict begin
  {1 index /FID ne {def} {pop pop} ifelse} forall
  /Encoding WinAnsiEncoding def
  currentdict
end
/Courier-BoldOblique exch definefont pop
/Courier-Oblique findfont
dup length dict begin
  {1 index /FID ne {def} {pop pop} ifelse} forall
  /Encoding WinAnsiEncoding def
  currentdict
end
/Courier-Oblique exch definefont pop
/Times-Roman findfont
dup length dict begin
  {1 index /FID ne {def} {pop pop} ifelse} forall
  /Encoding WinAnsiEncoding def
  currentdict
end
/Times-Roman exch definefont pop
/Helvetica-BoldOblique findfont
dup length dict begin
  {1 index /FID ne {def} {pop pop} ifelse} forall
  /Encoding WinAnsiEncoding def
  currentdict
end
/Helvetica-BoldOblique exch definefont pop
/Helvetica-Bold findfont
dup length dict begin
  {1 index /FID ne {def} {pop pop} ifelse} forall
  /Encoding WinAnsiEncoding def
  currentdict
end
/Helvetica-Bold exch definefont pop
/Helvetica-Oblique findfont
dup length dict begin
  {1 index /FID ne {def} {pop pop} ifelse} forall
  /Encoding WinAnsiEncoding def
  currentdict
end
/Helvetica-Oblique exch definefont pop
/Times-BoldItalic findfont
dup length dict begin
  {1 index /FID ne {def} {pop pop} ifelse} forall
  /Encoding WinAnsiEncoding def
  currentdict
end
/Times-BoldItalic exch definefont pop
/Courier findfont
dup length dict begin
  {1 index /FID ne {def} {pop pop} ifelse} forall
  /Encoding WinAnsiEncoding def
  currentdict
end
/Courier exch definefont pop
/Times-Italic findfont
dup length dict begin
  {1 index /FID ne {def} {pop pop} ifelse} forall
  /Encoding WinAnsiEncoding def
  currentdict
end
/Times-Italic exch definefont pop
/Times-Bold findfont
dup length dict begin
  {1 index /FID ne {def} {pop pop} ifelse} forall
  /Encoding WinAnsiEncoding def
  currentdict
end
/Times-Bold exch definefont pop
%FOPEndFontReencode
%%EndProlog
%%Page: 1 1
%%PageBoundingBox: 0 0 420 315
%%BeginPageSetup
[1 0 0 -1 0 315] CT
%%EndPageSetup
GS
[0.75 0 0 0.75 0 0] CT
1 GC
N
0 0 560 420 re
f
GR
GS
[0.75 0 0 0.75 0 0] CT
1 GC
N
0 0 560 420 re
f
GR
GS
[0.75 0 0 0.75 0 0] CT
1 GC
N
73 374 M
507 374 L
507 31 L
73 31 L
cp
f
GR
GS
[0.75 0 0 0.75 217.50016 298.24999] CT
0.149 GC
/Helvetica 15 F
GS
[1 0 0 1 0 0] CT
-10.5 14 moveto 
1 -1 scale
(CC) t 
GR
GR
GS
[0.75 0 0 0.75 0 0] CT
0.149 GC
2 setlinecap
10.0 ML
N
73 374 M
507 374 L
S
GR
GS
[0.75 0 0 0.75 0 0] CT
0.149 GC
2 setlinecap
10.0 ML
N
73 31 M
507 31 L
S
GR
GS
[0.75 0 0 0.75 0 0] CT
0.149 GC
2 setlinecap
10.0 ML
N
73 374 M
73 369.66 L
S
GR
GS
[0.75 0 0 0.75 0 0] CT
0.149 GC
2 setlinecap
10.0 ML
N
181.5 374 M
181.5 369.66 L
S
GR
GS
[0.75 0 0 0.75 0 0] CT
0.149 GC
2 setlinecap
10.0 ML
N
290 374 M
290 369.66 L
S
GR
GS
[0.75 0 0 0.75 0 0] CT
0.149 GC
2 setlinecap
10.0 ML
N
398.5 374 M
398.5 369.66 L
S
GR
GS
[0.75 0 0 0.75 0 0] CT
0.149 GC
2 setlinecap
10.0 ML
N
507 374 M
507 369.66 L
S
GR
GS
[0.75 0 0 0.75 0 0] CT
0.149 GC
2 setlinecap
10.0 ML
N
73 31 M
73 35.34 L
S
GR
GS
[0.75 0 0 0.75 0 0] CT
0.149 GC
2 setlinecap
10.0 ML
N
181.5 31 M
181.5 35.34 L
S
GR
GS
[0.75 0 0 0.75 0 0] CT
0.149 GC
2 setlinecap
10.0 ML
N
290 31 M
290 35.34 L
S
GR
GS
[0.75 0 0 0.75 0 0] CT
0.149 GC
2 setlinecap
10.0 ML
N
398.5 31 M
398.5 35.34 L
S
GR
GS
[0.75 0 0 0.75 0 0] CT
0.149 GC
2 setlinecap
10.0 ML
N
507 31 M
507 35.34 L
S
GR
GS
[0.75 0 0 0.75 54.75 284.50001] CT
0.149 GC
/Helvetica 13 F
GS
[1 0 0 1 0 0] CT
-6.5 13 moveto 
1 -1 scale
(-1) t 
GR
GR
GS
[0.75 0 0 0.75 136.125 284.50001] CT
0.149 GC
/Helvetica 13 F
GS
[1 0 0 1 0 0] CT
-13 13 moveto 
1 -1 scale
(-0.5) t 
GR
GR
GS
[0.75 0 0 0.75 217.5 284.50001] CT
0.149 GC
/Helvetica 13 F
GS
[1 0 0 1 0 0] CT
-4.5 13 moveto 
1 -1 scale
(0) t 
GR
GR
GS
[0.75 0 0 0.75 298.875 284.50001] CT
0.149 GC
/Helvetica 13 F
GS
[1 0 0 1 0 0] CT
-10.5 13 moveto 
1 -1 scale
(0.5) t 
GR
GR
GS
[0.75 0 0 0.75 380.25 284.50001] CT
0.149 GC
/Helvetica 13 F
GS
[1 0 0 1 0 0] CT
-4.5 13 moveto 
1 -1 scale
(1) t 
GR
GR
GS
[0 -0.75 0.75 0 41 151.87487] CT
0.149 GC
/Helvetica 15 F
GS
[1 0 0 1 0 0] CT
-15 -4 moveto 
1 -1 scale
(PDF) t 
GR
GR
GS
[0.75 0 0 0.75 0 0] CT
0.149 GC
2 setlinecap
10.0 ML
N
73 374 M
73 31 L
S
GR
GS
[0.75 0 0 0.75 0 0] CT
0.149 GC
2 setlinecap
10.0 ML
N
507 374 M
507 31 L
S
GR
GS
[0.75 0 0 0.75 0 0] CT
0.149 GC
2 setlinecap
10.0 ML
N
73 374 M
77.34 374 L
S
GR
GS
[0.75 0 0 0.75 0 0] CT
0.149 GC
2 setlinecap
10.0 ML
N
73 316.833 M
77.34 316.833 L
S
GR
GS
[0.75 0 0 0.75 0 0] CT
0.149 GC
2 setlinecap
10.0 ML
N
73 259.667 M
77.34 259.667 L
S
GR
GS
[0.75 0 0 0.75 0 0] CT
0.149 GC
2 setlinecap
10.0 ML
N
73 202.5 M
77.34 202.5 L
S
GR
GS
[0.75 0 0 0.75 0 0] CT
0.149 GC
2 setlinecap
10.0 ML
N
73 145.333 M
77.34 145.333 L
S
GR
GS
[0.75 0 0 0.75 0 0] CT
0.149 GC
2 setlinecap
10.0 ML
N
73 88.167 M
77.34 88.167 L
S
GR
GS
[0.75 0 0 0.75 0 0] CT
0.149 GC
2 setlinecap
10.0 ML
N
73 31 M
77.34 31 L
S
GR
GS
[0.75 0 0 0.75 0 0] CT
0.149 GC
2 setlinecap
10.0 ML
N
507 374 M
502.66 374 L
S
GR
GS
[0.75 0 0 0.75 0 0] CT
0.149 GC
2 setlinecap
10.0 ML
N
507 316.833 M
502.66 316.833 L
S
GR
GS
[0.75 0 0 0.75 0 0] CT
0.149 GC
2 setlinecap
10.0 ML
N
507 259.667 M
502.66 259.667 L
S
GR
GS
[0.75 0 0 0.75 0 0] CT
0.149 GC
2 setlinecap
10.0 ML
N
507 202.5 M
502.66 202.5 L
S
GR
GS
[0.75 0 0 0.75 0 0] CT
0.149 GC
2 setlinecap
10.0 ML
N
507 145.333 M
502.66 145.333 L
S
GR
GS
[0.75 0 0 0.75 0 0] CT
0.149 GC
2 setlinecap
10.0 ML
N
507 88.167 M
502.66 88.167 L
S
GR
GS
[0.75 0 0 0.75 0 0] CT
0.149 GC
2 setlinecap
10.0 ML
N
507 31 M
502.66 31 L
S
GR
GS
[0.75 0 0 0.75 50.74999 280.5] CT
0.149 GC
/Helvetica 13 F
GS
[1 0 0 1 0 0] CT
-9 4.5 moveto 
1 -1 scale
(0) t 
GR
GR
GS
[0.75 0 0 0.75 50.74999 237.62501] CT
0.149 GC
/Helvetica 13 F
GS
[1 0 0 1 0 0] CT
-9 4.5 moveto 
1 -1 scale
(1) t 
GR
GR
GS
[0.75 0 0 0.75 50.74999 194.74999] CT
0.149 GC
/Helvetica 13 F
GS
[1 0 0 1 0 0] CT
-9 4.5 moveto 
1 -1 scale
(2) t 
GR
GR
GS
[0.75 0 0 0.75 50.74999 151.875] CT
0.149 GC
/Helvetica 13 F
GS
[1 0 0 1 0 0] CT
-9 4.5 moveto 
1 -1 scale
(3) t 
GR
GR
GS
[0.75 0 0 0.75 50.74999 109] CT
0.149 GC
/Helvetica 13 F
GS
[1 0 0 1 0 0] CT
-9 4.5 moveto 
1 -1 scale
(4) t 
GR
GR
GS
[0.75 0 0 0.75 50.74999 66.125] CT
0.149 GC
/Helvetica 13 F
GS
[1 0 0 1 0 0] CT
-9 4.5 moveto 
1 -1 scale
(5) t 
GR
GR
GS
[0.75 0 0 0.75 50.74999 23.25] CT
0.149 GC
/Helvetica 13 F
GS
[1 0 0 1 0 0] CT
-9 4.5 moveto 
1 -1 scale
(6) t 
GR
GR
GS
[0.75 0 0 0.75 0 0] CT
0.208 0.165 0.525 RC
N
352.933 374 M
355.783 374 L
355.783 367.026 L
352.933 367.026 L
cp
f
GR
GS
[0.75 0 0 0.75 0 0] CT
0.208 0.165 0.525 RC
N
356.496 374 M
359.346 374 L
359.346 370.513 L
356.496 370.513 L
cp
f
GR
GS
[0.75 0 0 0.75 0 0] CT
0.208 0.165 0.525 RC
N
360.059 374 M
362.909 374 L
362.909 374 L
360.059 374 L
cp
f
GR
GS
[0.75 0 0 0.75 0 0] CT
0.208 0.165 0.525 RC
N
363.621 374 M
366.472 374 L
366.472 349.59 L
363.621 349.59 L
cp
f
GR
GS
[0.75 0 0 0.75 0 0] CT
0.208 0.165 0.525 RC
N
367.184 374 M
370.034 374 L
370.034 339.129 L
367.184 339.129 L
cp
f
GR
GS
[0.75 0 0 0.75 0 0] CT
0.208 0.165 0.525 RC
N
370.747 374 M
373.597 374 L
373.597 335.642 L
370.747 335.642 L
cp
f
GR
GS
[0.75 0 0 0.75 0 0] CT
0.208 0.165 0.525 RC
N
374.31 374 M
377.16 374 L
377.16 290.309 L
374.31 290.309 L
cp
f
GR
GS
[0.75 0 0 0.75 0 0] CT
0.208 0.165 0.525 RC
N
377.872 374 M
380.723 374 L
380.723 262.412 L
377.872 262.412 L
cp
f
GR
GS
[0.75 0 0 0.75 0 0] CT
0.208 0.165 0.525 RC
N
381.435 374 M
384.285 374 L
384.285 241.489 L
381.435 241.489 L
cp
f
GR
GS
[0.75 0 0 0.75 0 0] CT
0.208 0.165 0.525 RC
N
384.998 374 M
387.848 374 L
387.848 210.105 L
384.998 210.105 L
cp
f
GR
GS
[0.75 0 0 0.75 0 0] CT
0.208 0.165 0.525 RC
N
388.561 374 M
391.411 374 L
391.411 175.234 L
388.561 175.234 L
cp
f
GR
GS
[0.75 0 0 0.75 0 0] CT
0.208 0.165 0.525 RC
N
392.124 374 M
394.974 374 L
394.974 213.592 L
392.124 213.592 L
cp
f
GR
GS
[0.75 0 0 0.75 0 0] CT
0.208 0.165 0.525 RC
N
395.686 374 M
398.536 374 L
398.536 154.311 L
395.686 154.311 L
cp
f
GR
GS
[0.75 0 0 0.75 0 0] CT
0.208 0.165 0.525 RC
N
399.249 374 M
402.099 374 L
402.099 140.362 L
399.249 140.362 L
cp
f
GR
GS
[0.75 0 0 0.75 0 0] CT
0.208 0.165 0.525 RC
N
402.812 374 M
405.662 374 L
405.662 178.721 L
402.812 178.721 L
cp
f
GR
GS
[0.75 0 0 0.75 0 0] CT
0.208 0.165 0.525 RC
N
406.375 374 M
409.225 374 L
409.225 84.568 L
406.375 84.568 L
cp
f
GR
GS
[0.75 0 0 0.75 0 0] CT
0.208 0.165 0.525 RC
N
409.937 374 M
412.788 374 L
412.788 147.337 L
409.937 147.337 L
cp
f
GR
GS
[0.75 0 0 0.75 0 0] CT
0.208 0.165 0.525 RC
N
413.5 374 M
416.35 374 L
416.35 157.798 L
413.5 157.798 L
cp
f
GR
GS
[0.75 0 0 0.75 0 0] CT
0.208 0.165 0.525 RC
N
417.063 374 M
419.913 374 L
419.913 154.311 L
417.063 154.311 L
cp
f
GR
GS
[0.75 0 0 0.75 0 0] CT
0.208 0.165 0.525 RC
N
420.626 374 M
423.476 374 L
423.476 164.772 L
420.626 164.772 L
cp
f
GR
GS
[0.75 0 0 0.75 0 0] CT
0.208 0.165 0.525 RC
N
424.188 374 M
427.039 374 L
427.039 178.721 L
424.188 178.721 L
cp
f
GR
GS
[0.75 0 0 0.75 0 0] CT
0.208 0.165 0.525 RC
N
427.751 374 M
430.601 374 L
430.601 241.489 L
427.751 241.489 L
cp
f
GR
GS
[0.75 0 0 0.75 0 0] CT
0.208 0.165 0.525 RC
N
431.314 374 M
434.164 374 L
434.164 241.489 L
431.314 241.489 L
cp
f
GR
GS
[0.75 0 0 0.75 0 0] CT
0.208 0.165 0.525 RC
N
434.877 374 M
437.727 374 L
437.727 265.899 L
434.877 265.899 L
cp
f
GR
GS
[0.75 0 0 0.75 0 0] CT
0.208 0.165 0.525 RC
N
438.439 374 M
441.29 374 L
441.29 311.232 L
438.439 311.232 L
cp
f
GR
GS
[0.75 0 0 0.75 0 0] CT
0.208 0.165 0.525 RC
N
442.002 374 M
444.852 374 L
444.852 335.642 L
442.002 335.642 L
cp
f
GR
GS
[0.75 0 0 0.75 0 0] CT
0.208 0.165 0.525 RC
N
445.565 374 M
448.415 374 L
448.415 370.513 L
445.565 370.513 L
cp
f
GR
GS
[0.75 0 0 0.75 0 0] CT
0.208 0.165 0.525 RC
N
449.128 374 M
451.978 374 L
451.978 349.59 L
449.128 349.59 L
cp
f
GR
GS
[0.75 0 0 0.75 0 0] CT
0.208 0.165 0.525 RC
N
452.69 374 M
455.541 374 L
455.541 360.051 L
452.69 360.051 L
cp
f
GR
GS
[0.75 0 0 0.75 0 0] CT
0.208 0.165 0.525 RC
N
456.253 374 M
459.103 374 L
459.103 370.513 L
456.253 370.513 L
cp
f
GR
GS
[0.75 0 0 0.75 0 0] CT
0.208 0.165 0.525 RC
N
459.816 374 M
462.666 374 L
462.666 370.513 L
459.816 370.513 L
cp
f
GR
GS
[0.75 0 0 0.75 0 0] CT
2 setlinecap
10.0 ML
N
352.933 374 M
352.933 367.026 L
355.783 367.026 L
355.783 374 L
352.933 374 L
S
GR
GS
[0.75 0 0 0.75 0 0] CT
2 setlinecap
10.0 ML
N
356.496 374 M
356.496 370.513 L
359.346 370.513 L
359.346 374 L
356.496 374 L
S
GR
GS
[0.75 0 0 0.75 0 0] CT
2 setlinecap
10.0 ML
N
360.059 374 M
360.059 374 L
362.909 374 L
362.909 374 L
360.059 374 L
S
GR
GS
[0.75 0 0 0.75 0 0] CT
2 setlinecap
10.0 ML
N
363.621 374 M
363.621 349.59 L
366.472 349.59 L
366.472 374 L
363.621 374 L
S
GR
GS
[0.75 0 0 0.75 0 0] CT
2 setlinecap
10.0 ML
N
367.184 374 M
367.184 339.129 L
370.034 339.129 L
370.034 374 L
367.184 374 L
S
GR
GS
[0.75 0 0 0.75 0 0] CT
2 setlinecap
10.0 ML
N
370.747 374 M
370.747 335.642 L
373.597 335.642 L
373.597 374 L
370.747 374 L
S
GR
GS
[0.75 0 0 0.75 0 0] CT
2 setlinecap
10.0 ML
N
374.31 374 M
374.31 290.309 L
377.16 290.309 L
377.16 374 L
374.31 374 L
S
GR
GS
[0.75 0 0 0.75 0 0] CT
2 setlinecap
10.0 ML
N
377.872 374 M
377.872 262.412 L
380.723 262.412 L
380.723 374 L
377.872 374 L
S
GR
GS
[0.75 0 0 0.75 0 0] CT
2 setlinecap
10.0 ML
N
381.435 374 M
381.435 241.489 L
384.285 241.489 L
384.285 374 L
381.435 374 L
S
GR
GS
[0.75 0 0 0.75 0 0] CT
2 setlinecap
10.0 ML
N
384.998 374 M
384.998 210.105 L
387.848 210.105 L
387.848 374 L
384.998 374 L
S
GR
GS
[0.75 0 0 0.75 0 0] CT
2 setlinecap
10.0 ML
N
388.561 374 M
388.561 175.234 L
391.411 175.234 L
391.411 374 L
388.561 374 L
S
GR
GS
[0.75 0 0 0.75 0 0] CT
2 setlinecap
10.0 ML
N
392.124 374 M
392.124 213.592 L
394.974 213.592 L
394.974 374 L
392.124 374 L
S
GR
GS
[0.75 0 0 0.75 0 0] CT
2 setlinecap
10.0 ML
N
395.686 374 M
395.686 154.311 L
398.536 154.311 L
398.536 374 L
395.686 374 L
S
GR
GS
[0.75 0 0 0.75 0 0] CT
2 setlinecap
10.0 ML
N
399.249 374 M
399.249 140.362 L
402.099 140.362 L
402.099 374 L
399.249 374 L
S
GR
GS
[0.75 0 0 0.75 0 0] CT
2 setlinecap
10.0 ML
N
402.812 374 M
402.812 178.721 L
405.662 178.721 L
405.662 374 L
402.812 374 L
S
GR
GS
[0.75 0 0 0.75 0 0] CT
2 setlinecap
10.0 ML
N
406.375 374 M
406.375 84.568 L
409.225 84.568 L
409.225 374 L
406.375 374 L
S
GR
GS
[0.75 0 0 0.75 0 0] CT
2 setlinecap
10.0 ML
N
409.937 374 M
409.937 147.337 L
412.788 147.337 L
412.788 374 L
409.937 374 L
S
GR
GS
[0.75 0 0 0.75 0 0] CT
2 setlinecap
10.0 ML
N
413.5 374 M
413.5 157.798 L
416.35 157.798 L
416.35 374 L
413.5 374 L
S
GR
GS
[0.75 0 0 0.75 0 0] CT
2 setlinecap
10.0 ML
N
417.063 374 M
417.063 154.311 L
419.913 154.311 L
419.913 374 L
417.063 374 L
S
GR
GS
[0.75 0 0 0.75 0 0] CT
2 setlinecap
10.0 ML
N
420.626 374 M
420.626 164.772 L
423.476 164.772 L
423.476 374 L
420.626 374 L
S
GR
GS
[0.75 0 0 0.75 0 0] CT
2 setlinecap
10.0 ML
N
424.188 374 M
424.188 178.721 L
427.039 178.721 L
427.039 374 L
424.188 374 L
S
GR
GS
[0.75 0 0 0.75 0 0] CT
2 setlinecap
10.0 ML
N
427.751 374 M
427.751 241.489 L
430.601 241.489 L
430.601 374 L
427.751 374 L
S
GR
GS
[0.75 0 0 0.75 0 0] CT
2 setlinecap
10.0 ML
N
431.314 374 M
431.314 241.489 L
434.164 241.489 L
434.164 374 L
431.314 374 L
S
GR
GS
[0.75 0 0 0.75 0 0] CT
2 setlinecap
10.0 ML
N
434.877 374 M
434.877 265.899 L
437.727 265.899 L
437.727 374 L
434.877 374 L
S
GR
GS
[0.75 0 0 0.75 0 0] CT
2 setlinecap
10.0 ML
N
438.439 374 M
438.439 311.232 L
441.29 311.232 L
441.29 374 L
438.439 374 L
S
GR
GS
[0.75 0 0 0.75 0 0] CT
2 setlinecap
10.0 ML
N
442.002 374 M
442.002 335.642 L
444.852 335.642 L
444.852 374 L
442.002 374 L
S
GR
GS
[0.75 0 0 0.75 0 0] CT
2 setlinecap
10.0 ML
N
445.565 374 M
445.565 370.513 L
448.415 370.513 L
448.415 374 L
445.565 374 L
S
GR
GS
[0.75 0 0 0.75 0 0] CT
2 setlinecap
10.0 ML
N
449.128 374 M
449.128 349.59 L
451.978 349.59 L
451.978 374 L
449.128 374 L
S
GR
GS
[0.75 0 0 0.75 0 0] CT
2 setlinecap
10.0 ML
N
452.69 374 M
452.69 360.051 L
455.541 360.051 L
455.541 374 L
452.69 374 L
S
GR
GS
[0.75 0 0 0.75 0 0] CT
2 setlinecap
10.0 ML
N
456.253 374 M
456.253 370.513 L
459.103 370.513 L
459.103 374 L
456.253 374 L
S
GR
GS
[0.75 0 0 0.75 0 0] CT
2 setlinecap
10.0 ML
N
459.816 374 M
459.816 370.513 L
462.666 370.513 L
462.666 374 L
459.816 374 L
S
GR
GS
[0.75 0 0 0.75 0 0] CT
1 0 0 RC
2 LJ
4 LW
N
73 374 M
73.434 374 L
73.868 374 L
74.302 374 L
74.736 374 L
75.17 374 L
75.604 374 L
76.038 374 L
76.472 374 L
76.906 374 L
77.34 374 L
77.774 374 L
78.208 374 L
78.642 374 L
79.076 374 L
79.51 374 L
79.944 374 L
80.378 374 L
80.812 374 L
81.246 374 L
81.68 374 L
82.114 374 L
82.548 374 L
82.982 374 L
83.416 374 L
83.85 374 L
84.284 374 L
84.718 374 L
85.152 374 L
85.586 374 L
86.02 374 L
86.454 374 L
86.888 374 L
87.322 374 L
87.756 374 L
88.19 374 L
88.624 374 L
89.058 374 L
89.492 374 L
89.926 374 L
90.36 374 L
90.794 374 L
91.228 374 L
91.662 374 L
92.096 374 L
92.53 374 L
92.964 374 L
93.398 374 L
93.832 374 L
94.266 374 L
S
GR
GS
[0.75 0 0 0.75 0 0] CT
1 0 0 RC
2 LJ
4 LW
N
94.266 374 M
94.7 374 L
95.134 374 L
95.568 374 L
96.002 374 L
96.436 374 L
96.87 374 L
97.304 374 L
97.738 374 L
98.172 374 L
98.606 374 L
99.04 374 L
99.474 374 L
99.908 374 L
100.342 374 L
100.776 374 L
101.21 374 L
101.644 374 L
102.078 374 L
102.512 374 L
102.946 374 L
103.38 374 L
103.814 374 L
104.248 374 L
104.682 374 L
105.116 374 L
105.55 374 L
105.984 374 L
106.418 374 L
106.852 374 L
107.286 374 L
107.72 374 L
108.154 374 L
108.588 374 L
109.022 374 L
109.456 374 L
109.89 374 L
110.324 374 L
110.758 374 L
111.192 374 L
111.626 374 L
112.06 374 L
112.494 374 L
112.928 374 L
113.362 374 L
113.796 374 L
114.23 374 L
114.664 374 L
115.098 374 L
115.532 374 L
S
GR
GS
[0.75 0 0 0.75 0 0] CT
1 0 0 RC
2 LJ
4 LW
N
115.532 374 M
115.966 374 L
116.4 374 L
116.834 374 L
117.268 374 L
117.702 374 L
118.136 374 L
118.57 374 L
119.004 374 L
119.438 374 L
119.872 374 L
120.306 374 L
120.74 374 L
121.174 374 L
121.608 374 L
122.042 374 L
122.476 374 L
122.91 374 L
123.344 374 L
123.778 374 L
124.212 374 L
124.646 374 L
125.08 374 L
125.514 374 L
125.948 374 L
126.382 374 L
126.816 374 L
127.25 374 L
127.684 374 L
128.118 374 L
128.552 374 L
128.986 374 L
129.42 374 L
129.854 374 L
130.288 374 L
130.722 374 L
131.156 374 L
131.59 374 L
132.024 374 L
132.458 374 L
132.892 374 L
133.326 374 L
133.76 374 L
134.194 374 L
134.628 374 L
135.062 374 L
135.496 374 L
135.93 374 L
136.364 374 L
136.798 374 L
S
GR
GS
[0.75 0 0 0.75 0 0] CT
1 0 0 RC
2 LJ
4 LW
N
136.798 374 M
137.232 374 L
137.666 374 L
138.1 374 L
138.534 374 L
138.968 374 L
139.402 374 L
139.836 374 L
140.27 374 L
140.704 374 L
141.138 374 L
141.572 374 L
142.006 374 L
142.44 374 L
142.874 374 L
143.308 374 L
143.742 374 L
144.176 374 L
144.61 374 L
145.044 374 L
145.478 374 L
145.912 374 L
146.346 374 L
146.78 374 L
147.214 374 L
147.648 374 L
148.082 374 L
148.516 374 L
148.95 374 L
149.384 374 L
149.818 374 L
150.252 374 L
150.686 374 L
151.12 374 L
151.554 374 L
151.988 374 L
152.422 374 L
152.856 374 L
153.29 374 L
153.724 374 L
154.158 374 L
154.592 374 L
155.026 374 L
155.46 374 L
155.894 374 L
156.328 374 L
156.762 374 L
157.196 374 L
157.63 374 L
158.064 374 L
S
GR
GS
[0.75 0 0 0.75 0 0] CT
1 0 0 RC
2 LJ
4 LW
N
158.064 374 M
158.498 374 L
158.932 374 L
159.366 374 L
159.8 374 L
160.234 374 L
160.668 374 L
161.102 374 L
161.536 374 L
161.97 374 L
162.404 374 L
162.838 374 L
163.272 374 L
163.706 374 L
164.14 374 L
164.574 374 L
165.008 374 L
165.442 374 L
165.876 374 L
166.31 374 L
166.744 374 L
167.178 374 L
167.612 374 L
168.046 374 L
168.48 374 L
168.914 374 L
169.348 374 L
169.782 374 L
170.216 374 L
170.65 374 L
171.084 374 L
171.518 374 L
171.952 374 L
172.386 374 L
172.82 374 L
173.254 374 L
173.688 374 L
174.122 374 L
174.556 374 L
174.99 374 L
175.424 374 L
175.858 374 L
176.292 374 L
176.726 374 L
177.16 374 L
177.594 374 L
178.028 374 L
178.462 374 L
178.896 374 L
179.33 374 L
S
GR
GS
[0.75 0 0 0.75 0 0] CT
1 0 0 RC
2 LJ
4 LW
N
179.33 374 M
179.764 374 L
180.198 374 L
180.632 374 L
181.066 374 L
181.5 374 L
181.934 374 L
182.368 374 L
182.802 374 L
183.236 374 L
183.67 374 L
184.104 374 L
184.538 374 L
184.972 374 L
185.406 374 L
185.84 374 L
186.274 374 L
186.708 374 L
187.142 374 L
187.576 374 L
188.01 374 L
188.444 374 L
188.878 374 L
189.312 374 L
189.746 374 L
190.18 374 L
190.614 374 L
191.048 374 L
191.482 374 L
191.916 374 L
192.35 374 L
192.784 374 L
193.218 374 L
193.652 374 L
194.086 374 L
194.52 374 L
194.954 374 L
195.388 374 L
195.822 374 L
196.256 374 L
196.69 374 L
197.124 374 L
197.558 374 L
197.992 374 L
198.426 374 L
198.86 374 L
199.294 374 L
199.728 374 L
200.162 374 L
200.596 374 L
S
GR
GS
[0.75 0 0 0.75 0 0] CT
1 0 0 RC
2 LJ
4 LW
N
200.596 374 M
201.03 374 L
201.464 374 L
201.898 374 L
202.332 374 L
202.766 374 L
203.2 374 L
203.634 374 L
204.068 374 L
204.502 374 L
204.936 374 L
205.37 374 L
205.804 374 L
206.238 374 L
206.672 374 L
207.106 374 L
207.54 374 L
207.974 374 L
208.408 374 L
208.842 374 L
209.276 374 L
209.71 374 L
210.144 374 L
210.578 374 L
211.012 374 L
211.446 374 L
211.88 374 L
212.314 374 L
212.748 374 L
213.182 374 L
213.616 374 L
214.05 374 L
214.484 374 L
214.918 374 L
215.352 374 L
215.786 374 L
216.22 374 L
216.654 374 L
217.088 374 L
217.522 374 L
217.956 374 L
218.39 374 L
218.824 374 L
219.258 374 L
219.692 374 L
220.126 374 L
220.56 374 L
220.994 374 L
221.428 374 L
221.862 374 L
S
GR
GS
[0.75 0 0 0.75 0 0] CT
1 0 0 RC
2 LJ
4 LW
N
221.862 374 M
222.296 374 L
222.73 374 L
223.164 374 L
223.598 374 L
224.032 374 L
224.466 374 L
224.9 374 L
225.334 374 L
225.768 374 L
226.202 374 L
226.636 374 L
227.07 374 L
227.504 374 L
227.938 374 L
228.372 374 L
228.806 374 L
229.24 374 L
229.674 374 L
230.108 374 L
230.542 374 L
230.976 374 L
231.41 374 L
231.844 374 L
232.278 374 L
232.712 374 L
233.146 374 L
233.58 374 L
234.014 374 L
234.448 374 L
234.882 374 L
235.316 374 L
235.75 374 L
236.184 374 L
236.618 374 L
237.052 374 L
237.486 374 L
237.92 374 L
238.354 374 L
238.788 374 L
239.222 374 L
239.656 374 L
240.09 374 L
240.524 374 L
240.958 374 L
241.392 374 L
241.826 374 L
242.26 374 L
242.694 374 L
243.128 374 L
S
GR
GS
[0.75 0 0 0.75 0 0] CT
1 0 0 RC
2 LJ
4 LW
N
243.128 374 M
243.562 374 L
243.996 374 L
244.43 374 L
244.864 374 L
245.298 374 L
245.732 374 L
246.166 374 L
246.6 374 L
247.034 374 L
247.468 374 L
247.902 374 L
248.336 374 L
248.77 374 L
249.204 374 L
249.638 374 L
250.072 374 L
250.506 374 L
250.94 374 L
251.374 374 L
251.808 374 L
252.242 374 L
252.676 374 L
253.11 374 L
253.544 374 L
253.978 374 L
254.412 374 L
254.846 374 L
255.28 374 L
255.714 374 L
256.148 374 L
256.582 374 L
257.016 374 L
257.45 374 L
257.884 374 L
258.318 374 L
258.752 374 L
259.186 374 L
259.62 374 L
260.054 374 L
260.488 374 L
260.922 374 L
261.356 374 L
261.79 374 L
262.224 374 L
262.658 374 L
263.092 374 L
263.526 374 L
263.96 374 L
264.394 374 L
S
GR
GS
[0.75 0 0 0.75 0 0] CT
1 0 0 RC
2 LJ
4 LW
N
264.394 374 M
264.828 374 L
265.262 374 L
265.696 374 L
266.13 374 L
266.564 374 L
266.998 374 L
267.432 374 L
267.866 374 L
268.3 374 L
268.734 374 L
269.168 374 L
269.602 374 L
270.036 374 L
270.47 374 L
270.904 374 L
271.338 374 L
271.772 374 L
272.206 374 L
272.64 374 L
273.074 374 L
273.508 374 L
273.942 374 L
274.376 374 L
274.81 374 L
275.244 374 L
275.678 374 L
276.112 374 L
276.546 374 L
276.98 374 L
277.414 374 L
277.848 374 L
278.282 374 L
278.716 374 L
279.15 374 L
279.584 374 L
280.018 374 L
280.452 374 L
280.886 374 L
281.32 374 L
281.754 374 L
282.188 374 L
282.622 374 L
283.056 374 L
283.49 374 L
283.924 374 L
284.358 374 L
284.792 374 L
285.226 374 L
285.66 374 L
S
GR
GS
[0.75 0 0 0.75 0 0] CT
1 0 0 RC
2 LJ
4 LW
N
285.66 374 M
286.094 374 L
286.528 374 L
286.962 374 L
287.396 374 L
287.83 374 L
288.264 374 L
288.698 374 L
289.132 374 L
289.566 374 L
290 374 L
290.434 374 L
290.868 374 L
291.302 374 L
291.736 374 L
292.17 374 L
292.604 374 L
293.038 374 L
293.472 374 L
293.906 374 L
294.34 374 L
294.774 374 L
295.208 374 L
295.642 374 L
296.076 374 L
296.51 374 L
296.944 374 L
297.378 374 L
297.812 374 L
298.246 374 L
298.68 374 L
299.114 374 L
299.548 374 L
299.982 374 L
300.416 374 L
300.85 374 L
301.284 374 L
301.718 374 L
302.152 374 L
302.586 374 L
303.02 374 L
303.454 374 L
303.888 374 L
304.322 374 L
304.756 374 L
305.19 374 L
305.624 374 L
306.058 374 L
306.492 374 L
306.926 374 L
S
GR
GS
[0.75 0 0 0.75 0 0] CT
1 0 0 RC
2 LJ
4 LW
N
306.926 374 M
307.36 374 L
307.794 374 L
308.228 374 L
308.662 374 L
309.096 374 L
309.53 374 L
309.964 374 L
310.398 374 L
310.832 374 L
311.266 374 L
311.7 374 L
312.134 374 L
312.568 374 L
313.002 374 L
313.436 374 L
313.87 374 L
314.304 374 L
314.738 374 L
315.172 374 L
315.606 374 L
316.04 374 L
316.474 374 L
316.908 374 L
317.342 374 L
317.776 374 L
318.21 374 L
318.644 374 L
319.078 374 L
319.512 374 L
319.946 374 L
320.38 374 L
320.814 374 L
321.248 374 L
321.682 374 L
322.116 374 L
322.55 374 L
322.984 374 L
323.418 374 L
323.852 374 L
324.286 374 L
324.72 374 L
325.154 374 L
325.588 374 L
326.022 374 L
326.456 374 L
326.89 374 L
327.324 374 L
327.758 374 L
328.192 374 L
S
GR
GS
[0.75 0 0 0.75 0 0] CT
1 0 0 RC
2 LJ
4 LW
N
328.192 374 M
328.626 374 L
329.06 374 L
329.494 374 L
329.928 374 L
330.362 374 L
330.796 374 L
331.23 374 L
331.664 374 L
332.098 374 L
332.532 374 L
332.966 374 L
333.4 374 L
333.834 374 L
334.268 374 L
334.702 374 L
335.136 374 L
335.57 374 L
336.004 374 L
336.438 374 L
336.872 374 L
337.306 374 L
337.74 374 L
338.174 374 L
338.608 374 L
339.042 374 L
339.476 374 L
339.91 374 L
340.344 374 L
340.778 374 L
341.212 374 L
341.646 374 L
342.08 374 L
342.514 374 L
342.948 374 L
343.382 374 L
343.816 374 L
344.25 374 L
344.684 374 L
345.118 374 L
345.552 374 L
345.986 374 L
346.42 374 L
346.854 373.999 L
347.288 373.999 L
347.722 373.999 L
348.156 373.998 L
348.59 373.998 L
349.024 373.997 L
349.458 373.995 L
S
GR
GS
[0.75 0 0 0.75 0 0] CT
1 0 0 RC
2 LJ
4 LW
N
349.458 373.995 M
349.892 373.994 L
350.326 373.991 L
350.76 373.988 L
351.194 373.984 L
351.628 373.979 L
352.062 373.972 L
352.496 373.963 L
352.93 373.951 L
353.364 373.937 L
353.798 373.919 L
354.232 373.896 L
354.666 373.867 L
355.1 373.832 L
355.534 373.789 L
355.968 373.736 L
356.402 373.671 L
356.836 373.594 L
357.27 373.501 L
357.704 373.391 L
358.138 373.259 L
358.572 373.104 L
359.006 372.922 L
359.44 372.71 L
359.874 372.463 L
360.308 372.177 L
360.742 371.848 L
361.176 371.471 L
361.61 371.042 L
362.044 370.554 L
362.478 370.002 L
362.912 369.381 L
363.346 368.685 L
363.78 367.908 L
364.214 367.044 L
364.648 366.086 L
365.082 365.029 L
365.516 363.867 L
365.95 362.593 L
366.384 361.203 L
366.818 359.691 L
367.252 358.052 L
367.686 356.28 L
368.12 354.372 L
368.554 352.323 L
368.988 350.13 L
369.422 347.79 L
369.856 345.301 L
370.29 342.661 L
370.724 339.868 L
S
GR
GS
[0.75 0 0 0.75 0 0] CT
1 0 0 RC
2 LJ
4 LW
N
370.724 339.868 M
371.158 336.923 L
371.592 333.825 L
372.026 330.576 L
372.46 327.178 L
372.894 323.632 L
373.328 319.941 L
373.762 316.111 L
374.196 312.145 L
374.63 308.048 L
375.064 303.826 L
375.498 299.486 L
375.932 295.035 L
376.366 290.481 L
376.8 285.832 L
377.234 281.095 L
377.668 276.282 L
378.102 271.4 L
378.536 266.459 L
378.97 261.471 L
379.404 256.444 L
379.838 251.389 L
380.272 246.317 L
380.706 241.239 L
381.14 236.164 L
381.574 231.103 L
382.008 226.068 L
382.442 221.067 L
382.876 216.112 L
383.31 211.212 L
383.744 206.377 L
384.178 201.615 L
384.612 196.937 L
385.046 192.35 L
385.48 187.863 L
385.914 183.484 L
386.348 179.22 L
386.782 175.077 L
387.216 171.064 L
387.65 167.185 L
388.084 163.446 L
388.518 159.852 L
388.952 156.408 L
389.386 153.118 L
389.82 149.984 L
390.254 147.012 L
390.688 144.202 L
391.122 141.557 L
391.556 139.079 L
391.99 136.77 L
S
GR
GS
[0.75 0 0 0.75 0 0] CT
1 0 0 RC
2 LJ
4 LW
N
391.99 136.77 M
392.424 134.629 L
392.858 132.657 L
393.292 130.855 L
393.726 129.221 L
394.16 127.756 L
394.594 126.458 L
395.028 125.325 L
395.462 124.355 L
395.896 123.548 L
396.33 122.9 L
396.764 122.408 L
397.198 122.071 L
397.632 121.884 L
398.066 121.845 L
398.5 121.95 L
398.934 122.196 L
399.368 122.578 L
399.802 123.094 L
400.236 123.738 L
400.67 124.508 L
401.104 125.398 L
401.538 126.405 L
401.972 127.524 L
402.406 128.751 L
402.84 130.082 L
403.274 131.512 L
403.708 133.037 L
404.142 134.653 L
404.576 136.355 L
405.01 138.139 L
405.444 140.001 L
405.878 141.936 L
406.312 143.941 L
406.746 146.012 L
407.18 148.143 L
407.614 150.333 L
408.048 152.575 L
408.482 154.867 L
408.916 157.206 L
409.35 159.586 L
409.784 162.006 L
410.218 164.461 L
410.652 166.948 L
411.086 169.464 L
411.52 172.006 L
411.954 174.57 L
412.388 177.154 L
412.822 179.755 L
413.256 182.37 L
S
GR
GS
[0.75 0 0 0.75 0 0] CT
1 0 0 RC
2 LJ
4 LW
N
413.256 182.37 M
413.69 184.996 L
414.124 187.632 L
414.558 190.273 L
414.992 192.92 L
415.426 195.568 L
415.86 198.216 L
416.294 200.861 L
416.728 203.503 L
417.162 206.138 L
417.596 208.766 L
418.03 211.384 L
418.464 213.991 L
418.898 216.585 L
419.332 219.165 L
419.766 221.73 L
420.2 224.278 L
420.634 226.809 L
421.068 229.32 L
421.502 231.811 L
421.936 234.281 L
422.37 236.73 L
422.804 239.155 L
423.238 241.557 L
423.672 243.935 L
424.106 246.288 L
424.54 248.615 L
424.974 250.917 L
425.408 253.191 L
425.842 255.439 L
426.276 257.659 L
426.71 259.851 L
427.144 262.015 L
427.578 264.15 L
428.012 266.257 L
428.446 268.336 L
428.88 270.385 L
429.314 272.405 L
429.748 274.395 L
430.182 276.357 L
430.616 278.289 L
431.05 280.191 L
431.484 282.065 L
431.918 283.909 L
432.352 285.724 L
432.786 287.509 L
433.22 289.266 L
433.654 290.994 L
434.088 292.693 L
434.522 294.364 L
S
GR
GS
[0.75 0 0 0.75 0 0] CT
1 0 0 RC
2 LJ
4 LW
N
434.522 294.364 M
434.956 296.006 L
435.39 297.62 L
435.824 299.206 L
436.258 300.764 L
436.692 302.295 L
437.126 303.799 L
437.56 305.275 L
437.994 306.725 L
438.428 308.149 L
438.862 309.546 L
439.296 310.917 L
439.73 312.263 L
440.164 313.584 L
440.598 314.879 L
441.032 316.15 L
441.466 317.397 L
441.9 318.62 L
442.334 319.819 L
442.768 320.995 L
443.202 322.147 L
443.636 323.277 L
444.07 324.385 L
444.504 325.471 L
444.938 326.535 L
445.372 327.578 L
445.806 328.599 L
446.24 329.6 L
446.674 330.581 L
447.108 331.542 L
447.542 332.483 L
447.976 333.404 L
448.41 334.307 L
448.844 335.191 L
449.278 336.056 L
449.712 336.904 L
450.146 337.734 L
450.58 338.546 L
451.014 339.341 L
451.448 340.12 L
451.882 340.882 L
452.316 341.628 L
452.75 342.357 L
453.184 343.072 L
453.618 343.771 L
454.052 344.455 L
454.486 345.124 L
454.92 345.779 L
455.354 346.419 L
455.788 347.046 L
S
GR
GS
[0.75 0 0 0.75 0 0] CT
1 0 0 RC
2 LJ
4 LW
N
455.788 347.046 M
456.222 347.659 L
456.656 348.259 L
457.09 348.846 L
457.524 349.419 L
457.958 349.981 L
458.392 350.53 L
458.826 351.067 L
459.26 351.592 L
459.694 352.105 L
460.128 352.607 L
460.562 353.098 L
460.996 353.578 L
461.43 354.047 L
461.864 354.506 L
462.298 354.955 L
462.732 355.394 L
463.166 355.823 L
463.6 356.242 L
464.034 356.652 L
464.468 357.052 L
464.902 357.444 L
465.336 357.827 L
465.77 358.201 L
466.204 358.567 L
466.638 358.924 L
467.072 359.274 L
467.506 359.615 L
467.94 359.949 L
468.374 360.275 L
468.808 360.594 L
469.242 360.905 L
469.676 361.209 L
470.11 361.507 L
470.544 361.798 L
470.978 362.082 L
471.412 362.359 L
471.846 362.63 L
472.28 362.895 L
472.714 363.154 L
473.148 363.407 L
473.582 363.654 L
474.016 363.896 L
474.45 364.132 L
474.884 364.362 L
475.318 364.587 L
475.752 364.807 L
476.186 365.022 L
476.62 365.232 L
477.054 365.437 L
S
GR
GS
[0.75 0 0 0.75 0 0] CT
1 0 0 RC
2 LJ
4 LW
N
477.054 365.437 M
477.488 365.638 L
477.922 365.833 L
478.356 366.025 L
478.79 366.212 L
479.224 366.394 L
479.658 366.572 L
480.092 366.746 L
480.526 366.916 L
480.96 367.083 L
481.394 367.245 L
481.828 367.403 L
482.262 367.558 L
482.696 367.709 L
483.13 367.857 L
483.564 368.001 L
483.998 368.142 L
484.432 368.28 L
484.866 368.414 L
485.3 368.546 L
485.734 368.674 L
486.168 368.799 L
486.602 368.921 L
487.036 369.041 L
487.47 369.158 L
487.904 369.272 L
488.338 369.383 L
488.772 369.491 L
489.206 369.598 L
489.64 369.701 L
490.074 369.803 L
490.508 369.901 L
490.942 369.998 L
491.376 370.092 L
491.81 370.184 L
492.244 370.274 L
492.678 370.362 L
493.112 370.448 L
493.546 370.532 L
493.98 370.613 L
494.414 370.693 L
494.848 370.771 L
495.282 370.847 L
495.716 370.922 L
496.15 370.994 L
496.584 371.065 L
497.018 371.134 L
497.452 371.202 L
497.886 371.268 L
498.32 371.333 L
S
GR
GS
[0.75 0 0 0.75 0 0] CT
1 0 0 RC
2 LJ
4 LW
N
498.32 371.333 M
498.754 371.396 L
499.188 371.457 L
499.622 371.517 L
500.056 371.576 L
500.49 371.633 L
500.924 371.689 L
501.358 371.743 L
501.792 371.797 L
502.226 371.849 L
502.66 371.9 L
503.094 371.949 L
503.528 371.998 L
503.962 372.045 L
504.396 372.091 L
504.83 372.136 L
505.264 372.18 L
505.698 372.223 L
506.132 372.265 L
506.566 372.306 L
507 372.346 L
S
GR
GS
[0.75 0 0 0.75 0 0] CT
0.149 GC
2 setlinecap
10.0 ML
N
73 374 M
507 374 L
S
GR
GS
[0.75 0 0 0.75 0 0] CT
1 GC
N
279 80 M
279 44 L
494 44 L
494 80 L
cp
f
GR
GS
[0.75 0 0 0.75 248.25 40.625] CT
/Helvetica 12 F
GS
[1 0 0 1 0 0] CT
0 4.5 moveto 
1 -1 scale
(Correlation coefficient hist) t 
GR
GR
GS
[0.75 0 0 0.75 0 0] CT
0.208 0.165 0.525 RC
N
287 59.833 M
287 48.5 L
327 48.5 L
327 59.833 L
cp
f
GR
GS
[0.75 0 0 0.75 0 0] CT
2 setlinecap
10.0 ML
N
287 59.833 M
287 48.5 L
327 48.5 L
327 59.833 L
287 59.833 L
S
GR
GS
[0.75 0 0 0.75 248.25 52.375] CT
/Helvetica 12 F
GS
[1 0 0 1 0 0] CT
0 4.5 moveto 
1 -1 scale
(gumbel distribution) t 
GR
GR
GS
[0.75 0 0 0.75 0 0] CT
1 0 0 RC
2 setlinecap
10.0 ML
4 LW
N
287 69.833 M
327 69.833 L
S
GR
GS
[0.75 0 0 0.75 0 0] CT
0.149 GC
2 setlinecap
10.0 ML
N
279 80 M
279 44 L
494 44 L
494 80 L
279 80 L
S
GR
%%Trailer
%%Pages: 1
%%EOF
