%!PS-Adobe-3.0 EPSF-3.0
%%Creator: (MATLAB, The Mathworks, Inc. Version 8.5.0.197613 \(R2015a\). Operating System: Linux)
%%Title: /home/albyback/git/contig_assembly/Paper/FIGURES/autocorr/a1.eps
%%CreationDate: 2016-11-09T11:49:45
%%Pages: (atend)
%%BoundingBox: 0 0 420 315
%%LanguageLevel: 2
%%EndComments
%%BeginProlog
%%BeginResource: procset (Apache XML Graphics Std ProcSet) 1.2 0
%%Version: 1.2 0
%%Copyright: (Copyright 2001-2003,2010 The Apache Software Foundation. License terms: http://www.apache.org/licenses/LICENSE-2.0)
/bd{bind def}bind def
/ld{load def}bd
/GR/grestore ld
/M/moveto ld
/LJ/setlinejoin ld
/C/curveto ld
/f/fill ld
/LW/setlinewidth ld
/GC/setgray ld
/t/show ld
/N/newpath ld
/CT/concat ld
/cp/closepath ld
/S/stroke ld
/L/lineto ld
/CC/setcmykcolor ld
/A/ashow ld
/GS/gsave ld
/RC/setrgbcolor ld
/RM/rmoveto ld
/ML/setmiterlimit ld
/re {4 2 roll M
1 index 0 rlineto
0 exch rlineto
neg 0 rlineto
cp } bd
/_ctm matrix def
/_tm matrix def
/BT { _ctm currentmatrix pop matrix _tm copy pop 0 0 moveto } bd
/ET { _ctm setmatrix } bd
/iTm { _ctm setmatrix _tm concat } bd
/Tm { _tm astore pop iTm 0 0 moveto } bd
/ux 0.0 def
/uy 0.0 def
/F {
  /Tp exch def
  /Tf exch def
  Tf findfont Tp scalefont setfont
  /cf Tf def  /cs Tp def
} bd
/ULS {currentpoint /uy exch def /ux exch def} bd
/ULE {
  /Tcx currentpoint pop def
  gsave
  newpath
  cf findfont cs scalefont dup
  /FontMatrix get 0 get /Ts exch def /FontInfo get dup
  /UnderlinePosition get Ts mul /To exch def
  /UnderlineThickness get Ts mul /Tt exch def
  ux uy To add moveto  Tcx uy To add lineto
  Tt setlinewidth stroke
  grestore
} bd
/OLE {
  /Tcx currentpoint pop def
  gsave
  newpath
  cf findfont cs scalefont dup
  /FontMatrix get 0 get /Ts exch def /FontInfo get dup
  /UnderlinePosition get Ts mul /To exch def
  /UnderlineThickness get Ts mul /Tt exch def
  ux uy To add cs add moveto Tcx uy To add cs add lineto
  Tt setlinewidth stroke
  grestore
} bd
/SOE {
  /Tcx currentpoint pop def
  gsave
  newpath
  cf findfont cs scalefont dup
  /FontMatrix get 0 get /Ts exch def /FontInfo get dup
  /UnderlinePosition get Ts mul /To exch def
  /UnderlineThickness get Ts mul /Tt exch def
  ux uy To add cs 10 mul 26 idiv add moveto Tcx uy To add cs 10 mul 26 idiv add lineto
  Tt setlinewidth stroke
  grestore
} bd
/QT {
/Y22 exch store
/X22 exch store
/Y21 exch store
/X21 exch store
currentpoint
/Y21 load 2 mul add 3 div exch
/X21 load 2 mul add 3 div exch
/X21 load 2 mul /X22 load add 3 div
/Y21 load 2 mul /Y22 load add 3 div
/X22 load /Y22 load curveto
} bd
/SSPD {
dup length /d exch dict def
{
/v exch def
/k exch def
currentpagedevice k known {
/cpdv currentpagedevice k get def
v cpdv ne {
/upd false def
/nullv v type /nulltype eq def
/nullcpdv cpdv type /nulltype eq def
nullv nullcpdv or
{
/upd true def
} {
/sametype v type cpdv type eq def
sametype {
v type /arraytype eq {
/vlen v length def
/cpdvlen cpdv length def
vlen cpdvlen eq {
0 1 vlen 1 sub {
/i exch def
/obj v i get def
/cpdobj cpdv i get def
obj cpdobj ne {
/upd true def
exit
} if
} for
} {
/upd true def
} ifelse
} {
v type /dicttype eq {
v {
/dv exch def
/dk exch def
/cpddv cpdv dk get def
dv cpddv ne {
/upd true def
exit
} if
} forall
} {
/upd true def
} ifelse
} ifelse
} if
} ifelse
upd true eq {
d k v put
} if
} if
} if
} forall
d length 0 gt {
d setpagedevice
} if
} bd
%%EndResource
%%BeginResource: procset (Apache XML Graphics EPS ProcSet) 1.0 0
%%Version: 1.0 0
%%Copyright: (Copyright 2002-2003 The Apache Software Foundation. License terms: http://www.apache.org/licenses/LICENSE-2.0)
/BeginEPSF { %def
/b4_Inc_state save def         % Save state for cleanup
/dict_count countdictstack def % Count objects on dict stack
/op_count count 1 sub def      % Count objects on operand stack
userdict begin                 % Push userdict on dict stack
/showpage { } def              % Redefine showpage, { } = null proc
0 setgray 0 setlinecap         % Prepare graphics state
1 setlinewidth 0 setlinejoin
10 setmiterlimit [ ] 0 setdash newpath
/languagelevel where           % If level not equal to 1 then
{pop languagelevel             % set strokeadjust and
1 ne                           % overprint to their defaults.
{false setstrokeadjust false setoverprint
} if
} if
} bd
/EndEPSF { %def
count op_count sub {pop} repeat            % Clean up stacks
countdictstack dict_count sub {end} repeat
b4_Inc_state restore
} bd
%%EndResource
%FOPBeginFontDict
%%IncludeResource: font Courier-Bold
%%IncludeResource: font Helvetica
%%IncludeResource: font Courier-BoldOblique
%%IncludeResource: font Courier-Oblique
%%IncludeResource: font Times-Roman
%%IncludeResource: font Helvetica-BoldOblique
%%IncludeResource: font Helvetica-Bold
%%IncludeResource: font Helvetica-Oblique
%%IncludeResource: font Times-BoldItalic
%%IncludeResource: font Courier
%%IncludeResource: font Times-Italic
%%IncludeResource: font Times-Bold
%%IncludeResource: font Symbol
%%IncludeResource: font ZapfDingbats
%FOPEndFontDict
%%BeginResource: encoding WinAnsiEncoding
/WinAnsiEncoding [
/.notdef /.notdef /.notdef /.notdef /.notdef
/.notdef /.notdef /.notdef /.notdef /.notdef
/.notdef /.notdef /.notdef /.notdef /.notdef
/.notdef /.notdef /.notdef /.notdef /.notdef
/.notdef /.notdef /.notdef /.notdef /.notdef
/.notdef /.notdef /.notdef /.notdef /.notdef
/.notdef /.notdef /space /exclam /quotedbl
/numbersign /dollar /percent /ampersand /quotesingle
/parenleft /parenright /asterisk /plus /comma
/hyphen /period /slash /zero /one
/two /three /four /five /six
/seven /eight /nine /colon /semicolon
/less /equal /greater /question /at
/A /B /C /D /E
/F /G /H /I /J
/K /L /M /N /O
/P /Q /R /S /T
/U /V /W /X /Y
/Z /bracketleft /backslash /bracketright /asciicircum
/underscore /quoteleft /a /b /c
/d /e /f /g /h
/i /j /k /l /m
/n /o /p /q /r
/s /t /u /v /w
/x /y /z /braceleft /bar
/braceright /asciitilde /bullet /Euro /bullet
/quotesinglbase /florin /quotedblbase /ellipsis /dagger
/daggerdbl /circumflex /perthousand /Scaron /guilsinglleft
/OE /bullet /Zcaron /bullet /bullet
/quoteleft /quoteright /quotedblleft /quotedblright /bullet
/endash /emdash /asciitilde /trademark /scaron
/guilsinglright /oe /bullet /zcaron /Ydieresis
/space /exclamdown /cent /sterling /currency
/yen /brokenbar /section /dieresis /copyright
/ordfeminine /guillemotleft /logicalnot /sfthyphen /registered
/macron /degree /plusminus /twosuperior /threesuperior
/acute /mu /paragraph /middot /cedilla
/onesuperior /ordmasculine /guillemotright /onequarter /onehalf
/threequarters /questiondown /Agrave /Aacute /Acircumflex
/Atilde /Adieresis /Aring /AE /Ccedilla
/Egrave /Eacute /Ecircumflex /Edieresis /Igrave
/Iacute /Icircumflex /Idieresis /Eth /Ntilde
/Ograve /Oacute /Ocircumflex /Otilde /Odieresis
/multiply /Oslash /Ugrave /Uacute /Ucircumflex
/Udieresis /Yacute /Thorn /germandbls /agrave
/aacute /acircumflex /atilde /adieresis /aring
/ae /ccedilla /egrave /eacute /ecircumflex
/edieresis /igrave /iacute /icircumflex /idieresis
/eth /ntilde /ograve /oacute /ocircumflex
/otilde /odieresis /divide /oslash /ugrave
/uacute /ucircumflex /udieresis /yacute /thorn
/ydieresis
] def
%%EndResource
%FOPBeginFontReencode
/Courier-Bold findfont
dup length dict begin
  {1 index /FID ne {def} {pop pop} ifelse} forall
  /Encoding WinAnsiEncoding def
  currentdict
end
/Courier-Bold exch definefont pop
/Helvetica findfont
dup length dict begin
  {1 index /FID ne {def} {pop pop} ifelse} forall
  /Encoding WinAnsiEncoding def
  currentdict
end
/Helvetica exch definefont pop
/Courier-BoldOblique findfont
dup length dict begin
  {1 index /FID ne {def} {pop pop} ifelse} forall
  /Encoding WinAnsiEncoding def
  currentdict
end
/Courier-BoldOblique exch definefont pop
/Courier-Oblique findfont
dup length dict begin
  {1 index /FID ne {def} {pop pop} ifelse} forall
  /Encoding WinAnsiEncoding def
  currentdict
end
/Courier-Oblique exch definefont pop
/Times-Roman findfont
dup length dict begin
  {1 index /FID ne {def} {pop pop} ifelse} forall
  /Encoding WinAnsiEncoding def
  currentdict
end
/Times-Roman exch definefont pop
/Helvetica-BoldOblique findfont
dup length dict begin
  {1 index /FID ne {def} {pop pop} ifelse} forall
  /Encoding WinAnsiEncoding def
  currentdict
end
/Helvetica-BoldOblique exch definefont pop
/Helvetica-Bold findfont
dup length dict begin
  {1 index /FID ne {def} {pop pop} ifelse} forall
  /Encoding WinAnsiEncoding def
  currentdict
end
/Helvetica-Bold exch definefont pop
/Helvetica-Oblique findfont
dup length dict begin
  {1 index /FID ne {def} {pop pop} ifelse} forall
  /Encoding WinAnsiEncoding def
  currentdict
end
/Helvetica-Oblique exch definefont pop
/Times-BoldItalic findfont
dup length dict begin
  {1 index /FID ne {def} {pop pop} ifelse} forall
  /Encoding WinAnsiEncoding def
  currentdict
end
/Times-BoldItalic exch definefont pop
/Courier findfont
dup length dict begin
  {1 index /FID ne {def} {pop pop} ifelse} forall
  /Encoding WinAnsiEncoding def
  currentdict
end
/Courier exch definefont pop
/Times-Italic findfont
dup length dict begin
  {1 index /FID ne {def} {pop pop} ifelse} forall
  /Encoding WinAnsiEncoding def
  currentdict
end
/Times-Italic exch definefont pop
/Times-Bold findfont
dup length dict begin
  {1 index /FID ne {def} {pop pop} ifelse} forall
  /Encoding WinAnsiEncoding def
  currentdict
end
/Times-Bold exch definefont pop
%FOPEndFontReencode
%%EndProlog
%%Page: 1 1
%%PageBoundingBox: 0 0 420 315
%%BeginPageSetup
[1 0 0 -1 0 315] CT
%%EndPageSetup
GS
[0.75 0 0 0.75 0 0] CT
1 GC
N
0 0 560 420 re
f
GR
GS
[0.75 0 0 0.75 0 0] CT
1 GC
N
0 0 560 420 re
f
GR
GS
[0.75 0 0 0.75 0 0] CT
1 GC
N
73 374 M
507 374 L
507 31 L
73 31 L
cp
f
GR
GS
[0.75 0 0 0.75 0 0] CT
0.149 GC
2 setlinecap
10.0 ML
N
73 374 M
507 374 L
S
GR
GS
[0.75 0 0 0.75 0 0] CT
0.149 GC
2 setlinecap
10.0 ML
N
73 31 M
507 31 L
S
GR
GS
[0.75 0 0 0.75 0 0] CT
0.149 GC
2 setlinecap
10.0 ML
N
73 374 M
73 369.66 L
S
GR
GS
[0.75 0 0 0.75 0 0] CT
0.149 GC
2 setlinecap
10.0 ML
N
145.333 374 M
145.333 369.66 L
S
GR
GS
[0.75 0 0 0.75 0 0] CT
0.149 GC
2 setlinecap
10.0 ML
N
217.667 374 M
217.667 369.66 L
S
GR
GS
[0.75 0 0 0.75 0 0] CT
0.149 GC
2 setlinecap
10.0 ML
N
290 374 M
290 369.66 L
S
GR
GS
[0.75 0 0 0.75 0 0] CT
0.149 GC
2 setlinecap
10.0 ML
N
362.333 374 M
362.333 369.66 L
S
GR
GS
[0.75 0 0 0.75 0 0] CT
0.149 GC
2 setlinecap
10.0 ML
N
434.667 374 M
434.667 369.66 L
S
GR
GS
[0.75 0 0 0.75 0 0] CT
0.149 GC
2 setlinecap
10.0 ML
N
507 374 M
507 369.66 L
S
GR
GS
[0.75 0 0 0.75 0 0] CT
0.149 GC
2 setlinecap
10.0 ML
N
73 31 M
73 35.34 L
S
GR
GS
[0.75 0 0 0.75 0 0] CT
0.149 GC
2 setlinecap
10.0 ML
N
145.333 31 M
145.333 35.34 L
S
GR
GS
[0.75 0 0 0.75 0 0] CT
0.149 GC
2 setlinecap
10.0 ML
N
217.667 31 M
217.667 35.34 L
S
GR
GS
[0.75 0 0 0.75 0 0] CT
0.149 GC
2 setlinecap
10.0 ML
N
290 31 M
290 35.34 L
S
GR
GS
[0.75 0 0 0.75 0 0] CT
0.149 GC
2 setlinecap
10.0 ML
N
362.333 31 M
362.333 35.34 L
S
GR
GS
[0.75 0 0 0.75 0 0] CT
0.149 GC
2 setlinecap
10.0 ML
N
434.667 31 M
434.667 35.34 L
S
GR
GS
[0.75 0 0 0.75 0 0] CT
0.149 GC
2 setlinecap
10.0 ML
N
507 31 M
507 35.34 L
S
GR
GS
[0.75 0 0 0.75 54.75 284.49998] CT
0.149 GC
/Helvetica 13 F
GS
[1 0 0 1 0 0] CT
-4.5 13 moveto 
1 -1 scale
(0) t 
GR
GR
GS
[0.75 0 0 0.75 109 284.49998] CT
0.149 GC
/Helvetica 13 F
GS
[1 0 0 1 0 0] CT
-12.5 13 moveto 
1 -1 scale
(100) t 
GR
GR
GS
[0.75 0 0 0.75 163.25 284.49998] CT
0.149 GC
/Helvetica 13 F
GS
[1 0 0 1 0 0] CT
-12.5 13 moveto 
1 -1 scale
(200) t 
GR
GR
GS
[0.75 0 0 0.75 217.5 284.49998] CT
0.149 GC
/Helvetica 13 F
GS
[1 0 0 1 0 0] CT
-12.5 13 moveto 
1 -1 scale
(300) t 
GR
GR
GS
[0.75 0 0 0.75 271.75001 284.49998] CT
0.149 GC
/Helvetica 13 F
GS
[1 0 0 1 0 0] CT
-12.5 13 moveto 
1 -1 scale
(400) t 
GR
GR
GS
[0.75 0 0 0.75 325.99999 284.49998] CT
0.149 GC
/Helvetica 13 F
GS
[1 0 0 1 0 0] CT
-12.5 13 moveto 
1 -1 scale
(500) t 
GR
GR
GS
[0.75 0 0 0.75 380.25 284.49998] CT
0.149 GC
/Helvetica 13 F
GS
[1 0 0 1 0 0] CT
-12.5 13 moveto 
1 -1 scale
(600) t 
GR
GR
GS
[0.75 0 0 0.75 0 0] CT
0.149 GC
2 setlinecap
10.0 ML
N
73 374 M
73 31 L
S
GR
GS
[0.75 0 0 0.75 0 0] CT
0.149 GC
2 setlinecap
10.0 ML
N
507 374 M
507 31 L
S
GR
GS
[0.75 0 0 0.75 0 0] CT
0.149 GC
2 setlinecap
10.0 ML
N
73 374 M
77.34 374 L
S
GR
GS
[0.75 0 0 0.75 0 0] CT
0.149 GC
2 setlinecap
10.0 ML
N
73 325 M
77.34 325 L
S
GR
GS
[0.75 0 0 0.75 0 0] CT
0.149 GC
2 setlinecap
10.0 ML
N
73 276 M
77.34 276 L
S
GR
GS
[0.75 0 0 0.75 0 0] CT
0.149 GC
2 setlinecap
10.0 ML
N
73 227 M
77.34 227 L
S
GR
GS
[0.75 0 0 0.75 0 0] CT
0.149 GC
2 setlinecap
10.0 ML
N
73 178 M
77.34 178 L
S
GR
GS
[0.75 0 0 0.75 0 0] CT
0.149 GC
2 setlinecap
10.0 ML
N
73 129 M
77.34 129 L
S
GR
GS
[0.75 0 0 0.75 0 0] CT
0.149 GC
2 setlinecap
10.0 ML
N
73 80 M
77.34 80 L
S
GR
GS
[0.75 0 0 0.75 0 0] CT
0.149 GC
2 setlinecap
10.0 ML
N
73 31 M
77.34 31 L
S
GR
GS
[0.75 0 0 0.75 0 0] CT
0.149 GC
2 setlinecap
10.0 ML
N
507 374 M
502.66 374 L
S
GR
GS
[0.75 0 0 0.75 0 0] CT
0.149 GC
2 setlinecap
10.0 ML
N
507 325 M
502.66 325 L
S
GR
GS
[0.75 0 0 0.75 0 0] CT
0.149 GC
2 setlinecap
10.0 ML
N
507 276 M
502.66 276 L
S
GR
GS
[0.75 0 0 0.75 0 0] CT
0.149 GC
2 setlinecap
10.0 ML
N
507 227 M
502.66 227 L
S
GR
GS
[0.75 0 0 0.75 0 0] CT
0.149 GC
2 setlinecap
10.0 ML
N
507 178 M
502.66 178 L
S
GR
GS
[0.75 0 0 0.75 0 0] CT
0.149 GC
2 setlinecap
10.0 ML
N
507 129 M
502.66 129 L
S
GR
GS
[0.75 0 0 0.75 0 0] CT
0.149 GC
2 setlinecap
10.0 ML
N
507 80 M
502.66 80 L
S
GR
GS
[0.75 0 0 0.75 0 0] CT
0.149 GC
2 setlinecap
10.0 ML
N
507 31 M
502.66 31 L
S
GR
GS
[0.75 0 0 0.75 50.75 280.5] CT
0.149 GC
/Helvetica 13 F
GS
[1 0 0 1 0 0] CT
-21 4.5 moveto 
1 -1 scale
(0.3) t 
GR
GR
GS
[0.75 0 0 0.75 50.75 243.75] CT
0.149 GC
/Helvetica 13 F
GS
[1 0 0 1 0 0] CT
-21 4.5 moveto 
1 -1 scale
(0.4) t 
GR
GR
GS
[0.75 0 0 0.75 50.75 207] CT
0.149 GC
/Helvetica 13 F
GS
[1 0 0 1 0 0] CT
-21 4.5 moveto 
1 -1 scale
(0.5) t 
GR
GR
GS
[0.75 0 0 0.75 50.75 170.24999] CT
0.149 GC
/Helvetica 13 F
GS
[1 0 0 1 0 0] CT
-21 4.5 moveto 
1 -1 scale
(0.6) t 
GR
GR
GS
[0.75 0 0 0.75 50.75 133.5] CT
0.149 GC
/Helvetica 13 F
GS
[1 0 0 1 0 0] CT
-21 4.5 moveto 
1 -1 scale
(0.7) t 
GR
GR
GS
[0.75 0 0 0.75 50.75 96.75] CT
0.149 GC
/Helvetica 13 F
GS
[1 0 0 1 0 0] CT
-21 4.5 moveto 
1 -1 scale
(0.8) t 
GR
GR
GS
[0.75 0 0 0.75 50.75 60.00001] CT
0.149 GC
/Helvetica 13 F
GS
[1 0 0 1 0 0] CT
-21 4.5 moveto 
1 -1 scale
(0.9) t 
GR
GR
GS
[0.75 0 0 0.75 50.75 23.25] CT
0.149 GC
/Helvetica 13 F
GS
[1 0 0 1 0 0] CT
-9 4.5 moveto 
1 -1 scale
(1) t 
GR
GR
GS
[0.75 0 0 0.75 0 0] CT
0 0.447 0.741 RC
2 LJ
N
73.723 63.813 M
74.447 62.724 L
75.17 66.985 L
75.893 66.908 L
76.617 63.597 L
77.34 62.216 L
78.063 66.847 L
78.787 67.818 L
79.51 63.582 L
80.233 61.381 L
80.957 66.557 L
81.68 68.957 L
82.403 63.878 L
83.127 60.239 L
83.85 65.954 L
84.573 70.322 L
85.297 64.628 L
86.02 58.845 L
86.743 64.855 L
87.467 71.859 L
88.19 66.003 L
88.913 57.304 L
89.637 63.058 L
90.36 73.45 L
91.083 68.195 L
91.807 55.789 L
92.53 60.349 L
93.253 74.891 L
93.977 71.403 L
94.7 54.573 L
95.423 56.517 L
96.147 75.87 L
96.87 168.798 L
97.593 252.021 L
98.317 249.361 L
99.04 249.264 L
99.763 180.674 L
100.487 83.202 L
101.21 56.434 L
101.933 51.717 L
102.657 70.636 L
103.38 83.205 L
104.103 60.329 L
104.827 52.488 L
105.55 66.437 L
106.273 83.137 L
106.997 63.489 L
107.72 53.289 L
108.443 62.681 L
109.167 83.214 L
S
GR
GS
[0.75 0 0 0.75 0 0] CT
0 0.447 0.741 RC
2 LJ
N
109.167 83.214 M
109.89 66.299 L
110.613 54.066 L
111.337 58.867 L
112.06 83.547 L
112.783 69.064 L
113.507 55.034 L
114.23 54.423 L
114.953 84.159 L
115.677 184.232 L
116.4 244.909 L
117.123 292.38 L
117.847 298.623 L
118.57 201.281 L
119.293 114.562 L
120.017 67.269 L
120.74 61.021 L
121.463 69.134 L
122.187 56.716 L
122.91 63.784 L
123.633 66.372 L
124.357 70.503 L
125.08 54.521 L
125.803 58.794 L
126.527 70.769 L
127.25 168.068 L
127.973 259.039 L
128.697 258.045 L
129.42 256.331 L
130.143 185.622 L
130.867 79.564 L
131.59 56.095 L
132.313 51.955 L
133.037 70.177 L
133.76 78.702 L
134.483 58.35 L
135.207 53.565 L
135.93 67.578 L
136.653 78.331 L
137.377 59.348 L
138.1 54.818 L
138.823 65.718 L
139.547 78.757 L
140.27 59.536 L
140.993 55.474 L
141.717 64.105 L
142.44 80.218 L
143.163 59.319 L
143.887 55.5 L
144.61 62.133 L
S
GR
GS
[0.75 0 0 0.75 0 0] CT
0 0.447 0.741 RC
2 LJ
N
144.61 62.133 M
145.333 82.916 L
146.057 59.033 L
146.78 55.097 L
147.503 59.047 L
148.227 87.055 L
148.95 195.823 L
149.673 191.675 L
150.397 190.811 L
151.12 195.029 L
151.843 87.763 L
152.567 61.021 L
153.29 54.921 L
154.013 57.876 L
154.737 82.255 L
155.46 64.928 L
156.183 56.203 L
156.907 58.025 L
157.63 78.066 L
158.353 67.408 L
159.077 57.242 L
159.8 58.401 L
160.523 74.958 L
161.247 69.181 L
161.97 57.798 L
162.693 58.804 L
163.417 72.677 L
164.14 70.813 L
164.863 57.81 L
165.587 59.031 L
166.31 70.932 L
167.033 72.761 L
167.757 57.337 L
168.48 58.929 L
169.203 69.365 L
169.927 75.409 L
170.65 56.505 L
171.373 58.427 L
172.097 67.511 L
172.82 79.108 L
173.543 55.47 L
174.267 57.598 L
174.99 64.754 L
175.713 84.209 L
176.437 179.735 L
177.16 182.096 L
177.883 185.638 L
178.607 182.769 L
179.33 74.944 L
180.053 62.142 L
S
GR
GS
[0.75 0 0 0.75 0 0] CT
0 0.447 0.741 RC
2 LJ
N
180.053 62.142 M
180.777 62.798 L
181.5 58.408 L
182.223 67.969 L
182.947 64.018 L
183.67 66.152 L
184.393 60.43 L
185.117 62.514 L
185.84 62.996 L
186.563 69.626 L
187.287 63.659 L
188.01 58.535 L
188.733 59.56 L
189.457 72.575 L
190.18 144.329 L
190.903 250.425 L
191.627 248.411 L
192.35 244.964 L
193.073 187.073 L
193.797 84.992 L
194.52 59.831 L
195.243 51.643 L
195.967 65.56 L
196.69 82.264 L
197.413 64.144 L
198.137 52.744 L
198.86 63.2 L
199.583 79.79 L
200.307 67.674 L
201.03 53.555 L
201.753 61.428 L
202.477 77.546 L
203.2 70.998 L
203.923 53.909 L
204.647 59.94 L
205.37 75.384 L
206.093 74.625 L
206.817 53.803 L
207.54 58.476 L
208.263 73.012 L
208.987 79.011 L
209.71 53.356 L
210.433 56.882 L
211.157 69.965 L
211.88 84.577 L
212.603 52.745 L
213.327 55.185 L
214.05 65.551 L
214.773 91.741 L
215.497 190.909 L
S
GR
GS
[0.75 0 0 0.75 0 0] CT
0 0.447 0.741 RC
2 LJ
N
215.497 190.909 M
216.22 192.462 L
216.943 197.553 L
217.667 200.133 L
218.39 71.206 L
219.113 57.948 L
219.837 59.392 L
220.56 63.614 L
221.283 65.864 L
222.007 59.552 L
222.73 59.809 L
223.453 67.095 L
224.177 61.821 L
224.9 59.53 L
225.623 58.959 L
226.347 72.095 L
227.07 201.457 L
227.793 201.506 L
228.517 198.338 L
229.24 195.089 L
229.963 84.271 L
230.687 65.336 L
231.41 58.441 L
232.133 53.729 L
232.857 76.07 L
233.58 68.42 L
234.303 61.534 L
235.027 55.624 L
235.75 69.72 L
236.473 69.145 L
237.197 64.402 L
237.92 58.235 L
238.643 64.885 L
239.367 68.252 L
240.09 66.591 L
240.813 61.644 L
241.537 61.286 L
242.26 66.316 L
242.983 67.693 L
243.707 65.978 L
244.43 58.697 L
245.153 63.818 L
245.877 67.267 L
246.6 71.416 L
247.323 56.945 L
248.047 61.232 L
248.77 64.766 L
249.493 78.189 L
250.217 180.303 L
250.94 183.539 L
S
GR
GS
[0.75 0 0 0.75 0 0] CT
0 0.447 0.741 RC
2 LJ
N
250.94 183.539 M
251.663 183.884 L
252.387 179.998 L
253.11 79.87 L
253.833 63.659 L
254.557 61.026 L
255.28 56.804 L
256.003 74.17 L
256.727 65.711 L
257.45 62.919 L
258.173 58.377 L
258.897 69.947 L
259.62 66.015 L
260.343 64.68 L
261.067 60.319 L
261.79 66.988 L
262.513 65.11 L
263.237 65.996 L
263.96 62.617 L
264.683 65.149 L
265.407 63.39 L
266.13 66.637 L
266.853 65.234 L
267.577 64.359 L
268.3 61.161 L
269.023 66.403 L
269.747 68.108 L
270.47 64.622 L
271.193 58.679 L
271.917 65.101 L
272.64 71.126 L
273.363 66.01 L
274.087 56.2 L
274.81 62.528 L
275.533 74.103 L
276.257 68.654 L
276.98 54.027 L
277.703 58.472 L
278.427 76.75 L
279.15 171.183 L
279.873 254.108 L
280.597 254.271 L
281.32 253.928 L
282.043 175.925 L
282.767 77.468 L
283.49 57.735 L
284.213 53.772 L
284.937 69.118 L
285.66 75.455 L
286.383 61.046 L
S
GR
GS
[0.75 0 0 0.75 0 0] CT
0 0.447 0.741 RC
2 LJ
N
286.383 61.046 M
287.107 55.651 L
287.83 66.649 L
288.553 73.456 L
289.277 62.958 L
290 57.597 L
290.723 65.209 L
291.447 71.749 L
292.17 63.774 L
292.893 59.321 L
293.617 64.553 L
294.34 70.529 L
295.063 63.777 L
295.787 60.635 L
296.51 64.429 L
297.233 69.934 L
297.957 63.222 L
298.68 61.431 L
299.403 64.573 L
300.127 70.073 L
300.85 62.333 L
301.573 61.673 L
302.297 64.694 L
303.02 71.046 L
303.743 61.3 L
304.467 61.402 L
305.19 64.451 L
305.913 72.964 L
306.637 60.279 L
307.36 60.751 L
308.083 63.419 L
308.807 75.961 L
309.53 59.381 L
310.253 59.981 L
310.977 61.058 L
311.7 80.208 L
312.423 179.197 L
313.147 180.088 L
313.87 177.209 L
314.593 175.867 L
315.317 85.584 L
316.04 66.563 L
316.763 58.598 L
317.487 55.018 L
318.21 78.367 L
318.933 71.052 L
319.657 61.318 L
320.38 55.056 L
321.103 72.225 L
321.827 73.67 L
S
GR
GS
[0.75 0 0 0.75 0 0] CT
0 0.447 0.741 RC
2 LJ
N
321.827 73.67 M
322.55 135.117 L
323.273 188.777 L
323.997 271.671 L
324.72 331.528 L
325.443 273.062 L
326.167 202.806 L
326.89 144.068 L
327.613 74.742 L
328.337 67.605 L
329.06 55.126 L
329.783 64.636 L
330.507 73.432 L
331.23 72.665 L
331.953 55.068 L
332.677 61.574 L
333.4 70.743 L
334.123 78.432 L
334.847 55.239 L
335.57 59.074 L
336.293 66.304 L
337.017 85.191 L
337.74 172.301 L
338.463 174.071 L
339.187 176.167 L
339.91 174.937 L
340.633 80.728 L
341.357 62.313 L
342.08 60.093 L
342.803 58.65 L
343.527 76.078 L
344.25 65.211 L
344.973 61.174 L
345.697 59.18 L
346.42 72.517 L
347.143 66.75 L
347.867 62.353 L
348.59 59.847 L
349.313 69.844 L
350.037 67.4 L
350.76 63.423 L
351.483 60.601 L
352.207 67.891 L
352.93 67.5 L
353.653 64.291 L
354.377 61.381 L
355.1 66.512 L
355.823 67.285 L
356.547 64.933 L
357.27 62.136 L
S
GR
GS
[0.75 0 0 0.75 0 0] CT
0 0.447 0.741 RC
2 LJ
N
357.27 62.136 M
357.993 65.58 L
358.717 66.915 L
359.44 65.363 L
360.163 62.827 L
360.887 64.991 L
361.61 66.492 L
362.333 65.612 L
363.057 63.433 L
363.78 64.654 L
364.503 66.08 L
365.227 65.72 L
365.95 63.942 L
366.673 64.498 L
367.397 65.713 L
368.12 65.723 L
368.843 64.354 L
369.567 64.47 L
370.29 65.407 L
371.013 65.651 L
371.737 64.675 L
372.46 64.526 L
373.183 65.168 L
373.907 65.529 L
374.63 64.912 L
375.353 64.638 L
376.077 64.993 L
376.8 65.376 L
377.523 65.073 L
378.247 64.786 L
378.97 64.88 L
379.693 65.204 L
380.417 65.167 L
381.14 64.956 L
381.863 64.826 L
382.587 65.022 L
383.31 65.195 L
384.033 65.14 L
384.757 64.83 L
385.48 64.837 L
386.203 65.157 L
386.927 65.33 L
387.65 64.894 L
388.373 64.656 L
389.097 65.049 L
389.82 65.518 L
390.543 65.025 L
391.267 64.49 L
391.99 64.862 L
392.713 65.694 L
S
GR
GS
[0.75 0 0 0.75 0 0] CT
0 0.447 0.741 RC
2 LJ
N
392.713 65.694 M
393.437 65.229 L
394.16 64.356 L
394.883 64.584 L
395.607 65.841 L
396.33 65.515 L
397.053 64.279 L
397.777 64.201 L
398.5 65.936 L
399.223 65.889 L
399.947 64.295 L
400.67 63.701 L
401.393 65.947 L
402.117 66.349 L
402.84 64.457 L
403.563 63.074 L
404.287 65.832 L
405.01 66.88 L
405.733 64.834 L
406.457 62.318 L
407.18 65.541 L
407.903 67.444 L
408.627 65.514 L
409.35 61.446 L
410.073 65.021 L
410.797 67.972 L
411.52 66.607 L
412.243 60.486 L
412.967 64.224 L
413.69 68.343 L
414.413 68.247 L
415.137 59.486 L
415.86 63.116 L
416.583 68.373 L
417.307 70.59 L
418.03 58.517 L
418.753 61.707 L
419.477 67.783 L
420.2 73.814 L
420.923 57.668 L
421.647 60.081 L
422.37 66.174 L
423.093 78.122 L
423.817 57.026 L
424.54 58.453 L
425.263 62.988 L
425.987 83.748 L
426.71 182.855 L
427.433 183.451 L
428.157 183.662 L
S
GR
GS
[0.75 0 0 0.75 0 0] CT
0 0.447 0.741 RC
2 LJ
N
428.157 183.662 M
428.88 183.556 L
429.603 82.039 L
430.327 62.729 L
431.05 58.662 L
431.773 57.827 L
432.497 76.36 L
433.22 65.841 L
433.943 60.252 L
434.667 58.717 L
435.39 71.93 L
436.113 67.354 L
436.837 61.734 L
437.56 60.019 L
438.283 68.518 L
439.007 67.861 L
439.73 62.789 L
440.453 61.714 L
441.177 65.908 L
441.9 67.83 L
442.623 63.185 L
443.347 63.81 L
444.07 63.888 L
444.793 67.66 L
445.517 62.71 L
446.24 66.361 L
446.963 62.233 L
447.687 67.73 L
448.41 61.118 L
449.133 69.491 L
449.857 60.67 L
450.58 68.47 L
451.303 58.071 L
452.027 73.425 L
452.75 160.165 L
453.473 171.77 L
454.197 154.405 L
454.92 153.669 L
455.643 81.516 L
456.367 83.76 L
457.09 160.584 L
457.813 158.682 L
458.537 174.657 L
459.26 166.348 L
459.983 77.532 L
460.707 57.205 L
461.43 65.575 L
462.153 60.912 L
462.877 74.147 L
463.6 60.666 L
S
GR
GS
[0.75 0 0 0.75 0 0] CT
0 0.447 0.741 RC
2 LJ
N
463.6 60.666 M
464.323 64.447 L
465.047 61.722 L
465.77 71.683 L
466.493 62.888 L
467.217 63.984 L
467.94 62.247 L
468.663 69.896 L
469.387 64.288 L
470.11 63.862 L
470.833 62.602 L
471.557 68.615 L
472.28 65.167 L
473.003 63.896 L
473.727 62.829 L
474.45 67.716 L
475.173 65.739 L
475.897 63.989 L
476.62 62.931 L
477.343 67.096 L
478.067 66.155 L
478.79 64.11 L
479.513 62.893 L
480.237 66.663 L
480.96 66.521 L
481.683 64.273 L
482.407 62.694 L
483.13 66.334 L
483.853 66.899 L
484.577 64.527 L
485.3 62.314 L
486.023 66.024 L
486.747 67.321 L
487.47 64.948 L
488.193 61.745 L
488.917 65.65 L
489.64 67.775 L
490.363 65.64 L
491.087 60.99 L
491.81 65.13 L
492.533 68.207 L
493.257 66.73 L
493.98 60.07 L
494.703 64.394 L
495.427 68.507 L
496.15 68.372 L
496.873 59.026 L
497.597 63.391 L
498.32 68.489 L
499.043 70.746 L
S
GR
GS
[0.75 0 0 0.75 0 0] CT
0 0.447 0.741 RC
2 LJ
N
499.043 70.746 M
499.767 57.92 L
500.49 62.122 L
501.213 67.867 L
S
GR
%%Trailer
%%Pages: 1
%%EOF
