%!PS-Adobe-3.0 EPSF-3.0
%%Creator: (MATLAB, The Mathworks, Inc. Version 8.5.0.197613 \(R2015a\). Operating System: Linux)
%%Title: /home/albyback/git/contig_assembly/Paper/FIGURES/autocorr/aut1.eps
%%CreationDate: 2016-11-02T10:55:50
%%Pages: (atend)
%%BoundingBox: 0 0 420 315
%%LanguageLevel: 2
%%EndComments
%%BeginProlog
%%BeginResource: procset (Apache XML Graphics Std ProcSet) 1.2 0
%%Version: 1.2 0
%%Copyright: (Copyright 2001-2003,2010 The Apache Software Foundation. License terms: http://www.apache.org/licenses/LICENSE-2.0)
/bd{bind def}bind def
/ld{load def}bd
/GR/grestore ld
/M/moveto ld
/LJ/setlinejoin ld
/C/curveto ld
/f/fill ld
/LW/setlinewidth ld
/GC/setgray ld
/t/show ld
/N/newpath ld
/CT/concat ld
/cp/closepath ld
/S/stroke ld
/L/lineto ld
/CC/setcmykcolor ld
/A/ashow ld
/GS/gsave ld
/RC/setrgbcolor ld
/RM/rmoveto ld
/ML/setmiterlimit ld
/re {4 2 roll M
1 index 0 rlineto
0 exch rlineto
neg 0 rlineto
cp } bd
/_ctm matrix def
/_tm matrix def
/BT { _ctm currentmatrix pop matrix _tm copy pop 0 0 moveto } bd
/ET { _ctm setmatrix } bd
/iTm { _ctm setmatrix _tm concat } bd
/Tm { _tm astore pop iTm 0 0 moveto } bd
/ux 0.0 def
/uy 0.0 def
/F {
  /Tp exch def
  /Tf exch def
  Tf findfont Tp scalefont setfont
  /cf Tf def  /cs Tp def
} bd
/ULS {currentpoint /uy exch def /ux exch def} bd
/ULE {
  /Tcx currentpoint pop def
  gsave
  newpath
  cf findfont cs scalefont dup
  /FontMatrix get 0 get /Ts exch def /FontInfo get dup
  /UnderlinePosition get Ts mul /To exch def
  /UnderlineThickness get Ts mul /Tt exch def
  ux uy To add moveto  Tcx uy To add lineto
  Tt setlinewidth stroke
  grestore
} bd
/OLE {
  /Tcx currentpoint pop def
  gsave
  newpath
  cf findfont cs scalefont dup
  /FontMatrix get 0 get /Ts exch def /FontInfo get dup
  /UnderlinePosition get Ts mul /To exch def
  /UnderlineThickness get Ts mul /Tt exch def
  ux uy To add cs add moveto Tcx uy To add cs add lineto
  Tt setlinewidth stroke
  grestore
} bd
/SOE {
  /Tcx currentpoint pop def
  gsave
  newpath
  cf findfont cs scalefont dup
  /FontMatrix get 0 get /Ts exch def /FontInfo get dup
  /UnderlinePosition get Ts mul /To exch def
  /UnderlineThickness get Ts mul /Tt exch def
  ux uy To add cs 10 mul 26 idiv add moveto Tcx uy To add cs 10 mul 26 idiv add lineto
  Tt setlinewidth stroke
  grestore
} bd
/QT {
/Y22 exch store
/X22 exch store
/Y21 exch store
/X21 exch store
currentpoint
/Y21 load 2 mul add 3 div exch
/X21 load 2 mul add 3 div exch
/X21 load 2 mul /X22 load add 3 div
/Y21 load 2 mul /Y22 load add 3 div
/X22 load /Y22 load curveto
} bd
/SSPD {
dup length /d exch dict def
{
/v exch def
/k exch def
currentpagedevice k known {
/cpdv currentpagedevice k get def
v cpdv ne {
/upd false def
/nullv v type /nulltype eq def
/nullcpdv cpdv type /nulltype eq def
nullv nullcpdv or
{
/upd true def
} {
/sametype v type cpdv type eq def
sametype {
v type /arraytype eq {
/vlen v length def
/cpdvlen cpdv length def
vlen cpdvlen eq {
0 1 vlen 1 sub {
/i exch def
/obj v i get def
/cpdobj cpdv i get def
obj cpdobj ne {
/upd true def
exit
} if
} for
} {
/upd true def
} ifelse
} {
v type /dicttype eq {
v {
/dv exch def
/dk exch def
/cpddv cpdv dk get def
dv cpddv ne {
/upd true def
exit
} if
} forall
} {
/upd true def
} ifelse
} ifelse
} if
} ifelse
upd true eq {
d k v put
} if
} if
} if
} forall
d length 0 gt {
d setpagedevice
} if
} bd
%%EndResource
%%BeginResource: procset (Apache XML Graphics EPS ProcSet) 1.0 0
%%Version: 1.0 0
%%Copyright: (Copyright 2002-2003 The Apache Software Foundation. License terms: http://www.apache.org/licenses/LICENSE-2.0)
/BeginEPSF { %def
/b4_Inc_state save def         % Save state for cleanup
/dict_count countdictstack def % Count objects on dict stack
/op_count count 1 sub def      % Count objects on operand stack
userdict begin                 % Push userdict on dict stack
/showpage { } def              % Redefine showpage, { } = null proc
0 setgray 0 setlinecap         % Prepare graphics state
1 setlinewidth 0 setlinejoin
10 setmiterlimit [ ] 0 setdash newpath
/languagelevel where           % If level not equal to 1 then
{pop languagelevel             % set strokeadjust and
1 ne                           % overprint to their defaults.
{false setstrokeadjust false setoverprint
} if
} if
} bd
/EndEPSF { %def
count op_count sub {pop} repeat            % Clean up stacks
countdictstack dict_count sub {end} repeat
b4_Inc_state restore
} bd
%%EndResource
%FOPBeginFontDict
%%IncludeResource: font Courier-Bold
%%IncludeResource: font Helvetica
%%IncludeResource: font Courier-BoldOblique
%%IncludeResource: font Courier-Oblique
%%IncludeResource: font Times-Roman
%%IncludeResource: font Helvetica-BoldOblique
%%IncludeResource: font Helvetica-Bold
%%IncludeResource: font Helvetica-Oblique
%%IncludeResource: font Times-BoldItalic
%%IncludeResource: font Courier
%%IncludeResource: font Times-Italic
%%IncludeResource: font Times-Bold
%%IncludeResource: font Symbol
%%IncludeResource: font ZapfDingbats
%FOPEndFontDict
%%BeginResource: encoding WinAnsiEncoding
/WinAnsiEncoding [
/.notdef /.notdef /.notdef /.notdef /.notdef
/.notdef /.notdef /.notdef /.notdef /.notdef
/.notdef /.notdef /.notdef /.notdef /.notdef
/.notdef /.notdef /.notdef /.notdef /.notdef
/.notdef /.notdef /.notdef /.notdef /.notdef
/.notdef /.notdef /.notdef /.notdef /.notdef
/.notdef /.notdef /space /exclam /quotedbl
/numbersign /dollar /percent /ampersand /quotesingle
/parenleft /parenright /asterisk /plus /comma
/hyphen /period /slash /zero /one
/two /three /four /five /six
/seven /eight /nine /colon /semicolon
/less /equal /greater /question /at
/A /B /C /D /E
/F /G /H /I /J
/K /L /M /N /O
/P /Q /R /S /T
/U /V /W /X /Y
/Z /bracketleft /backslash /bracketright /asciicircum
/underscore /quoteleft /a /b /c
/d /e /f /g /h
/i /j /k /l /m
/n /o /p /q /r
/s /t /u /v /w
/x /y /z /braceleft /bar
/braceright /asciitilde /bullet /Euro /bullet
/quotesinglbase /florin /quotedblbase /ellipsis /dagger
/daggerdbl /circumflex /perthousand /Scaron /guilsinglleft
/OE /bullet /Zcaron /bullet /bullet
/quoteleft /quoteright /quotedblleft /quotedblright /bullet
/endash /emdash /asciitilde /trademark /scaron
/guilsinglright /oe /bullet /zcaron /Ydieresis
/space /exclamdown /cent /sterling /currency
/yen /brokenbar /section /dieresis /copyright
/ordfeminine /guillemotleft /logicalnot /sfthyphen /registered
/macron /degree /plusminus /twosuperior /threesuperior
/acute /mu /paragraph /middot /cedilla
/onesuperior /ordmasculine /guillemotright /onequarter /onehalf
/threequarters /questiondown /Agrave /Aacute /Acircumflex
/Atilde /Adieresis /Aring /AE /Ccedilla
/Egrave /Eacute /Ecircumflex /Edieresis /Igrave
/Iacute /Icircumflex /Idieresis /Eth /Ntilde
/Ograve /Oacute /Ocircumflex /Otilde /Odieresis
/multiply /Oslash /Ugrave /Uacute /Ucircumflex
/Udieresis /Yacute /Thorn /germandbls /agrave
/aacute /acircumflex /atilde /adieresis /aring
/ae /ccedilla /egrave /eacute /ecircumflex
/edieresis /igrave /iacute /icircumflex /idieresis
/eth /ntilde /ograve /oacute /ocircumflex
/otilde /odieresis /divide /oslash /ugrave
/uacute /ucircumflex /udieresis /yacute /thorn
/ydieresis
] def
%%EndResource
%FOPBeginFontReencode
/Courier-Bold findfont
dup length dict begin
  {1 index /FID ne {def} {pop pop} ifelse} forall
  /Encoding WinAnsiEncoding def
  currentdict
end
/Courier-Bold exch definefont pop
/Helvetica findfont
dup length dict begin
  {1 index /FID ne {def} {pop pop} ifelse} forall
  /Encoding WinAnsiEncoding def
  currentdict
end
/Helvetica exch definefont pop
/Courier-BoldOblique findfont
dup length dict begin
  {1 index /FID ne {def} {pop pop} ifelse} forall
  /Encoding WinAnsiEncoding def
  currentdict
end
/Courier-BoldOblique exch definefont pop
/Courier-Oblique findfont
dup length dict begin
  {1 index /FID ne {def} {pop pop} ifelse} forall
  /Encoding WinAnsiEncoding def
  currentdict
end
/Courier-Oblique exch definefont pop
/Times-Roman findfont
dup length dict begin
  {1 index /FID ne {def} {pop pop} ifelse} forall
  /Encoding WinAnsiEncoding def
  currentdict
end
/Times-Roman exch definefont pop
/Helvetica-BoldOblique findfont
dup length dict begin
  {1 index /FID ne {def} {pop pop} ifelse} forall
  /Encoding WinAnsiEncoding def
  currentdict
end
/Helvetica-BoldOblique exch definefont pop
/Helvetica-Bold findfont
dup length dict begin
  {1 index /FID ne {def} {pop pop} ifelse} forall
  /Encoding WinAnsiEncoding def
  currentdict
end
/Helvetica-Bold exch definefont pop
/Helvetica-Oblique findfont
dup length dict begin
  {1 index /FID ne {def} {pop pop} ifelse} forall
  /Encoding WinAnsiEncoding def
  currentdict
end
/Helvetica-Oblique exch definefont pop
/Times-BoldItalic findfont
dup length dict begin
  {1 index /FID ne {def} {pop pop} ifelse} forall
  /Encoding WinAnsiEncoding def
  currentdict
end
/Times-BoldItalic exch definefont pop
/Courier findfont
dup length dict begin
  {1 index /FID ne {def} {pop pop} ifelse} forall
  /Encoding WinAnsiEncoding def
  currentdict
end
/Courier exch definefont pop
/Times-Italic findfont
dup length dict begin
  {1 index /FID ne {def} {pop pop} ifelse} forall
  /Encoding WinAnsiEncoding def
  currentdict
end
/Times-Italic exch definefont pop
/Times-Bold findfont
dup length dict begin
  {1 index /FID ne {def} {pop pop} ifelse} forall
  /Encoding WinAnsiEncoding def
  currentdict
end
/Times-Bold exch definefont pop
%FOPEndFontReencode
%%EndProlog
%%Page: 1 1
%%PageBoundingBox: 0 0 420 315
%%BeginPageSetup
[1 0 0 -1 0 315] CT
%%EndPageSetup
GS
[0.75 0 0 0.75 0 0] CT
1 GC
N
0 0 560 420 re
f
GR
GS
[0.75 0 0 0.75 0 0] CT
1 GC
N
0 0 560 420 re
f
GR
GS
[0.75 0 0 0.75 0 0] CT
1 GC
N
73 374 M
507 374 L
507 31 L
73 31 L
cp
f
GR
GS
[0.75 0 0 0.75 0 0] CT
0.149 GC
2 setlinecap
10.0 ML
N
73 374 M
507 374 L
S
GR
GS
[0.75 0 0 0.75 0 0] CT
0.149 GC
2 setlinecap
10.0 ML
N
73 31 M
507 31 L
S
GR
GS
[0.75 0 0 0.75 0 0] CT
0.149 GC
2 setlinecap
10.0 ML
N
73 374 M
73 369.66 L
S
GR
GS
[0.75 0 0 0.75 0 0] CT
0.149 GC
2 setlinecap
10.0 ML
N
135 374 M
135 369.66 L
S
GR
GS
[0.75 0 0 0.75 0 0] CT
0.149 GC
2 setlinecap
10.0 ML
N
197 374 M
197 369.66 L
S
GR
GS
[0.75 0 0 0.75 0 0] CT
0.149 GC
2 setlinecap
10.0 ML
N
259 374 M
259 369.66 L
S
GR
GS
[0.75 0 0 0.75 0 0] CT
0.149 GC
2 setlinecap
10.0 ML
N
321 374 M
321 369.66 L
S
GR
GS
[0.75 0 0 0.75 0 0] CT
0.149 GC
2 setlinecap
10.0 ML
N
383 374 M
383 369.66 L
S
GR
GS
[0.75 0 0 0.75 0 0] CT
0.149 GC
2 setlinecap
10.0 ML
N
445 374 M
445 369.66 L
S
GR
GS
[0.75 0 0 0.75 0 0] CT
0.149 GC
2 setlinecap
10.0 ML
N
507 374 M
507 369.66 L
S
GR
GS
[0.75 0 0 0.75 0 0] CT
0.149 GC
2 setlinecap
10.0 ML
N
73 31 M
73 35.34 L
S
GR
GS
[0.75 0 0 0.75 0 0] CT
0.149 GC
2 setlinecap
10.0 ML
N
135 31 M
135 35.34 L
S
GR
GS
[0.75 0 0 0.75 0 0] CT
0.149 GC
2 setlinecap
10.0 ML
N
197 31 M
197 35.34 L
S
GR
GS
[0.75 0 0 0.75 0 0] CT
0.149 GC
2 setlinecap
10.0 ML
N
259 31 M
259 35.34 L
S
GR
GS
[0.75 0 0 0.75 0 0] CT
0.149 GC
2 setlinecap
10.0 ML
N
321 31 M
321 35.34 L
S
GR
GS
[0.75 0 0 0.75 0 0] CT
0.149 GC
2 setlinecap
10.0 ML
N
383 31 M
383 35.34 L
S
GR
GS
[0.75 0 0 0.75 0 0] CT
0.149 GC
2 setlinecap
10.0 ML
N
445 31 M
445 35.34 L
S
GR
GS
[0.75 0 0 0.75 0 0] CT
0.149 GC
2 setlinecap
10.0 ML
N
507 31 M
507 35.34 L
S
GR
GS
[0.75 0 0 0.75 54.75 284.49998] CT
0.149 GC
/Helvetica 13 F
GS
[1 0 0 1 0 0] CT
-4.5 13 moveto 
1 -1 scale
(0) t 
GR
GR
GS
[0.75 0 0 0.75 101.25 284.49998] CT
0.149 GC
/Helvetica 13 F
GS
[1 0 0 1 0 0] CT
-12.5 13 moveto 
1 -1 scale
(500) t 
GR
GR
GS
[0.75 0 0 0.75 147.75 284.49998] CT
0.149 GC
/Helvetica 13 F
GS
[1 0 0 1 0 0] CT
-17 13 moveto 
1 -1 scale
(1000) t 
GR
GR
GS
[0.75 0 0 0.75 194.25 284.49998] CT
0.149 GC
/Helvetica 13 F
GS
[1 0 0 1 0 0] CT
-17 13 moveto 
1 -1 scale
(1500) t 
GR
GR
GS
[0.75 0 0 0.75 240.75 284.49998] CT
0.149 GC
/Helvetica 13 F
GS
[1 0 0 1 0 0] CT
-17 13 moveto 
1 -1 scale
(2000) t 
GR
GR
GS
[0.75 0 0 0.75 287.25 284.49998] CT
0.149 GC
/Helvetica 13 F
GS
[1 0 0 1 0 0] CT
-17 13 moveto 
1 -1 scale
(2500) t 
GR
GR
GS
[0.75 0 0 0.75 333.75 284.49998] CT
0.149 GC
/Helvetica 13 F
GS
[1 0 0 1 0 0] CT
-17 13 moveto 
1 -1 scale
(3000) t 
GR
GR
GS
[0.75 0 0 0.75 380.25 284.49998] CT
0.149 GC
/Helvetica 13 F
GS
[1 0 0 1 0 0] CT
-17 13 moveto 
1 -1 scale
(3500) t 
GR
GR
GS
[0.75 0 0 0.75 0 0] CT
0.149 GC
2 setlinecap
10.0 ML
N
73 374 M
73 31 L
S
GR
GS
[0.75 0 0 0.75 0 0] CT
0.149 GC
2 setlinecap
10.0 ML
N
507 374 M
507 31 L
S
GR
GS
[0.75 0 0 0.75 0 0] CT
0.149 GC
2 setlinecap
10.0 ML
N
73 374 M
77.34 374 L
S
GR
GS
[0.75 0 0 0.75 0 0] CT
0.149 GC
2 setlinecap
10.0 ML
N
73 325 M
77.34 325 L
S
GR
GS
[0.75 0 0 0.75 0 0] CT
0.149 GC
2 setlinecap
10.0 ML
N
73 276 M
77.34 276 L
S
GR
GS
[0.75 0 0 0.75 0 0] CT
0.149 GC
2 setlinecap
10.0 ML
N
73 227 M
77.34 227 L
S
GR
GS
[0.75 0 0 0.75 0 0] CT
0.149 GC
2 setlinecap
10.0 ML
N
73 178 M
77.34 178 L
S
GR
GS
[0.75 0 0 0.75 0 0] CT
0.149 GC
2 setlinecap
10.0 ML
N
73 129 M
77.34 129 L
S
GR
GS
[0.75 0 0 0.75 0 0] CT
0.149 GC
2 setlinecap
10.0 ML
N
73 80 M
77.34 80 L
S
GR
GS
[0.75 0 0 0.75 0 0] CT
0.149 GC
2 setlinecap
10.0 ML
N
73 31 M
77.34 31 L
S
GR
GS
[0.75 0 0 0.75 0 0] CT
0.149 GC
2 setlinecap
10.0 ML
N
507 374 M
502.66 374 L
S
GR
GS
[0.75 0 0 0.75 0 0] CT
0.149 GC
2 setlinecap
10.0 ML
N
507 325 M
502.66 325 L
S
GR
GS
[0.75 0 0 0.75 0 0] CT
0.149 GC
2 setlinecap
10.0 ML
N
507 276 M
502.66 276 L
S
GR
GS
[0.75 0 0 0.75 0 0] CT
0.149 GC
2 setlinecap
10.0 ML
N
507 227 M
502.66 227 L
S
GR
GS
[0.75 0 0 0.75 0 0] CT
0.149 GC
2 setlinecap
10.0 ML
N
507 178 M
502.66 178 L
S
GR
GS
[0.75 0 0 0.75 0 0] CT
0.149 GC
2 setlinecap
10.0 ML
N
507 129 M
502.66 129 L
S
GR
GS
[0.75 0 0 0.75 0 0] CT
0.149 GC
2 setlinecap
10.0 ML
N
507 80 M
502.66 80 L
S
GR
GS
[0.75 0 0 0.75 0 0] CT
0.149 GC
2 setlinecap
10.0 ML
N
507 31 M
502.66 31 L
S
GR
GS
[0.75 0 0 0.75 50.75 280.5] CT
0.149 GC
/Helvetica 13 F
GS
[1 0 0 1 0 0] CT
-21 4.5 moveto 
1 -1 scale
(0.3) t 
GR
GR
GS
[0.75 0 0 0.75 50.75 243.75] CT
0.149 GC
/Helvetica 13 F
GS
[1 0 0 1 0 0] CT
-21 4.5 moveto 
1 -1 scale
(0.4) t 
GR
GR
GS
[0.75 0 0 0.75 50.75 207] CT
0.149 GC
/Helvetica 13 F
GS
[1 0 0 1 0 0] CT
-21 4.5 moveto 
1 -1 scale
(0.5) t 
GR
GR
GS
[0.75 0 0 0.75 50.75 170.24999] CT
0.149 GC
/Helvetica 13 F
GS
[1 0 0 1 0 0] CT
-21 4.5 moveto 
1 -1 scale
(0.6) t 
GR
GR
GS
[0.75 0 0 0.75 50.75 133.5] CT
0.149 GC
/Helvetica 13 F
GS
[1 0 0 1 0 0] CT
-21 4.5 moveto 
1 -1 scale
(0.7) t 
GR
GR
GS
[0.75 0 0 0.75 50.75 96.75] CT
0.149 GC
/Helvetica 13 F
GS
[1 0 0 1 0 0] CT
-21 4.5 moveto 
1 -1 scale
(0.8) t 
GR
GR
GS
[0.75 0 0 0.75 50.75 60.00001] CT
0.149 GC
/Helvetica 13 F
GS
[1 0 0 1 0 0] CT
-21 4.5 moveto 
1 -1 scale
(0.9) t 
GR
GR
GS
[0.75 0 0 0.75 50.75 23.25] CT
0.149 GC
/Helvetica 13 F
GS
[1 0 0 1 0 0] CT
-9 4.5 moveto 
1 -1 scale
(1) t 
GR
GR
GS
[0.75 0 0 0.75 0 0] CT
0 0.447 0.741 RC
2 LJ
N
73.124 58.818 M
73.248 71.815 L
73.372 66.926 L
73.496 64.183 L
73.62 55.368 L
73.744 73.113 L
73.868 157.146 L
73.992 230.569 L
74.116 295.569 L
74.24 295.654 L
74.364 219.168 L
74.488 150.7 L
74.612 74.091 L
74.736 56.635 L
74.86 60.71 L
74.984 67.619 L
75.108 73.092 L
75.232 62.149 L
75.356 58.945 L
75.48 65.383 L
75.604 71.139 L
75.728 67.612 L
75.852 58.02 L
75.976 63.439 L
76.1 67.955 L
76.224 73.344 L
76.348 153.945 L
76.472 215.469 L
76.596 284.811 L
76.72 332.313 L
76.844 332.997 L
76.968 282.708 L
77.092 217.384 L
77.216 151.025 L
77.34 77.545 L
77.464 65.794 L
77.588 66.183 L
77.712 55.518 L
77.836 72.358 L
77.96 68.005 L
78.084 69.405 L
78.208 55.323 L
78.332 68.148 L
78.456 68.067 L
78.58 73.782 L
78.704 55.18 L
78.828 64.881 L
78.952 65.919 L
79.076 79.381 L
79.2 158.398 L
S
GR
GS
[0.75 0 0 0.75 0 0] CT
0 0.447 0.741 RC
2 LJ
N
79.2 158.398 M
79.324 166.029 L
79.448 164.542 L
79.572 158.826 L
79.696 78.048 L
79.82 67.77 L
79.944 63.351 L
80.068 55.671 L
80.192 71.904 L
80.316 70.584 L
80.44 66.33 L
80.564 56.124 L
80.688 66.638 L
80.812 71.558 L
80.936 69.937 L
81.06 56.993 L
81.184 62.042 L
81.308 70.879 L
81.432 74.055 L
81.556 58.436 L
81.68 57.992 L
81.804 68.547 L
81.928 78.598 L
82.052 60.668 L
82.176 54.481 L
82.3 64.396 L
82.424 83.448 L
82.548 171.45 L
82.672 241.348 L
82.796 247.771 L
82.92 245.983 L
83.044 146.006 L
83.168 71.788 L
83.292 64.595 L
83.416 113.493 L
83.54 216.888 L
83.664 221.978 L
83.788 204.592 L
83.912 162.154 L
84.036 93.814 L
84.16 160.295 L
84.284 202.007 L
84.408 207.743 L
84.532 208.403 L
84.656 140.786 L
84.78 74.452 L
84.904 62.537 L
85.028 54.329 L
85.152 68.706 L
85.276 73.809 L
S
GR
GS
[0.75 0 0 0.75 0 0] CT
0 0.447 0.741 RC
2 LJ
N
85.276 73.809 M
85.4 70.527 L
85.524 53.447 L
85.648 63.707 L
85.772 70.128 L
85.896 79.731 L
86.02 165.871 L
86.144 172.582 L
86.268 175.511 L
86.392 169.693 L
86.516 75.495 L
86.64 62.76 L
86.764 63.507 L
86.888 58.977 L
87.012 71.628 L
87.136 63.709 L
87.26 64.185 L
87.384 60.894 L
87.508 69.088 L
87.632 63.475 L
87.756 64.598 L
87.88 62.9 L
88.004 67.704 L
88.128 62.513 L
88.252 64.487 L
88.376 64.944 L
88.5 67.384 L
88.624 61.176 L
88.748 63.668 L
88.872 66.915 L
88.996 68.098 L
89.12 59.77 L
89.244 62.011 L
89.368 68.632 L
89.492 69.862 L
89.616 58.585 L
89.74 59.428 L
89.864 69.833 L
89.988 72.722 L
90.112 57.934 L
90.236 55.884 L
90.36 70.155 L
90.484 154.465 L
90.608 246.355 L
90.732 239.59 L
90.856 236.712 L
90.98 186.377 L
91.104 95.413 L
91.228 57.059 L
91.352 48.152 L
S
GR
GS
[0.75 0 0 0.75 0 0] CT
0 0.447 0.741 RC
2 LJ
N
91.352 48.152 M
91.476 68.827 L
91.6 97.444 L
91.724 62.299 L
91.848 47.911 L
91.972 61.862 L
92.096 99.339 L
92.22 187.459 L
92.344 230.247 L
92.468 236.751 L
92.592 243.889 L
92.716 130.685 L
92.84 67.277 L
92.964 57.951 L
93.088 63.302 L
93.212 63.879 L
93.336 66.007 L
93.46 59.913 L
93.584 66.776 L
93.708 60.814 L
93.832 64.233 L
93.956 59.595 L
94.08 71.899 L
94.204 185.596 L
94.328 189.712 L
94.452 183.25 L
94.576 179.419 L
94.7 84.532 L
94.824 68.92 L
94.948 58.701 L
95.072 53.28 L
95.196 76.757 L
95.32 72.574 L
95.444 61.478 L
95.568 54.461 L
95.692 70.373 L
95.816 74.504 L
95.94 135.76 L
96.064 182.608 L
96.188 270.511 L
96.312 331.598 L
96.436 336.012 L
96.56 334.088 L
96.684 337.654 L
96.808 331.591 L
96.932 275.778 L
97.056 215.052 L
97.18 151.97 L
97.304 74.611 L
97.428 63.758 L
S
GR
GS
[0.75 0 0 0.75 0 0] CT
0 0.447 0.741 RC
2 LJ
N
97.428 63.758 M
97.552 57.287 L
97.676 65.454 L
97.8 73.547 L
97.924 67.093 L
98.048 57.478 L
98.172 63.321 L
98.296 72.031 L
98.42 70.418 L
98.544 57.803 L
98.668 61.485 L
98.792 69.94 L
98.916 73.978 L
99.04 58.235 L
99.164 59.937 L
99.288 67.025 L
99.412 78.006 L
99.536 58.789 L
99.66 58.788 L
99.784 62.887 L
99.908 82.728 L
100.032 170.958 L
100.156 226.281 L
100.28 283.999 L
100.404 333.727 L
100.528 333.928 L
100.652 279.203 L
100.776 218.215 L
100.9 170.24 L
101.024 84.101 L
101.148 64.691 L
101.272 56.664 L
101.396 58.339 L
101.52 79.392 L
101.644 69.603 L
101.768 57.104 L
101.892 57.627 L
102.016 75.132 L
102.14 73.934 L
102.264 57.722 L
102.388 56.921 L
102.512 70.921 L
102.636 78.197 L
102.76 58.445 L
102.884 56.278 L
103.008 66.267 L
103.132 82.793 L
103.256 59.284 L
103.38 55.905 L
103.504 60.542 L
S
GR
GS
[0.75 0 0 0.75 0 0] CT
0 0.447 0.741 RC
2 LJ
N
103.504 60.542 M
103.628 88.058 L
103.752 184.844 L
103.876 180.87 L
104 177.525 L
104.124 183.296 L
104.248 91.767 L
104.372 134.522 L
104.496 187.709 L
104.62 193.158 L
104.744 190.981 L
104.868 130.262 L
104.992 74.828 L
105.116 68.796 L
105.24 168.991 L
105.364 235.924 L
105.488 298.606 L
105.612 332.558 L
105.736 331.855 L
105.86 275.609 L
105.984 232.731 L
106.108 175.035 L
106.232 73.491 L
106.356 56.017 L
106.48 68.118 L
106.604 62.086 L
106.728 72.393 L
106.852 53.647 L
106.976 68.022 L
107.1 124.352 L
107.224 229.1 L
107.348 299.247 L
107.472 297.399 L
107.596 252.206 L
107.72 170.247 L
107.844 72.828 L
107.968 51.587 L
108.092 60.372 L
108.216 74.171 L
108.34 73.578 L
108.464 53.788 L
108.588 59.435 L
108.712 72.429 L
108.836 74.716 L
108.96 54.738 L
109.084 58.838 L
109.208 70.916 L
109.332 76.593 L
109.456 54.724 L
109.58 58.192 L
S
GR
GS
[0.75 0 0 0.75 0 0] CT
0 0.447 0.741 RC
2 LJ
N
109.58 58.192 M
109.704 69.347 L
109.828 79.546 L
109.952 54.045 L
110.076 57.282 L
110.2 67.25 L
110.324 83.918 L
110.448 52.985 L
110.572 56.12 L
110.696 63.925 L
110.82 90.082 L
110.944 190.746 L
111.068 194.001 L
111.192 197.365 L
111.316 199.357 L
111.44 68.846 L
111.564 60.018 L
111.688 59.779 L
111.812 62.668 L
111.936 62.017 L
112.06 62.042 L
112.184 106.947 L
112.308 166.206 L
112.432 296.424 L
112.556 285.758 L
112.68 251.205 L
112.804 211.466 L
112.928 88.747 L
113.052 48.993 L
113.176 53.074 L
113.3 70.894 L
113.424 208.693 L
113.548 260.209 L
113.672 258.114 L
113.796 257.902 L
113.92 179.822 L
114.044 79.892 L
114.168 54.502 L
114.292 87.108 L
114.416 194.163 L
114.54 291.086 L
114.664 329.054 L
114.788 292.683 L
114.912 244.493 L
115.036 164.871 L
115.16 64.647 L
115.284 47.398 L
115.408 66.482 L
115.532 90.44 L
115.656 70.041 L
S
GR
GS
[0.75 0 0 0.75 0 0] CT
0 0.447 0.741 RC
2 LJ
N
115.656 70.041 M
115.78 47.822 L
115.904 59.973 L
116.028 90.651 L
116.152 187.254 L
116.276 236.657 L
116.4 241.834 L
116.524 245.453 L
116.648 154.266 L
116.772 68.827 L
116.896 57.586 L
117.02 108.655 L
117.144 214.219 L
117.268 294.416 L
117.392 329.288 L
117.516 287.359 L
117.64 212.706 L
117.764 129.641 L
117.888 63.665 L
118.012 56.707 L
118.136 67.047 L
118.26 70.721 L
118.384 65.51 L
118.508 58.627 L
118.632 65.214 L
118.756 69.109 L
118.88 66.687 L
119.004 60.449 L
119.128 64.219 L
119.252 67.43 L
119.376 67.314 L
119.5 62.079 L
119.624 63.911 L
119.748 65.785 L
119.872 67.51 L
119.996 63.441 L
120.12 64.196 L
120.244 64.213 L
120.368 67.386 L
120.492 64.461 L
120.616 65.041 L
120.74 62.706 L
120.864 67.052 L
120.988 65.033 L
121.112 66.477 L
121.236 61.228 L
121.36 66.631 L
121.484 65 L
121.608 68.605 L
121.732 59.705 L
S
GR
GS
[0.75 0 0 0.75 0 0] CT
0 0.447 0.741 RC
2 LJ
N
121.732 59.705 M
121.856 66.288 L
121.98 64.116 L
122.104 71.604 L
122.228 58.022 L
122.352 66.267 L
122.476 62.003 L
122.6 75.752 L
122.724 162.107 L
122.848 173.083 L
122.972 164.221 L
123.096 159.636 L
123.22 75.093 L
123.344 77.267 L
123.468 146.873 L
123.592 197.776 L
123.716 294.617 L
123.84 286.835 L
123.964 204.535 L
124.088 142.88 L
124.212 97.781 L
124.336 131.467 L
124.46 212.775 L
124.584 203.596 L
124.708 210.506 L
124.832 155.103 L
124.956 100.867 L
125.08 147.909 L
125.204 148.06 L
125.328 152.199 L
125.452 156.046 L
125.576 84.556 L
125.7 59.522 L
125.824 59.507 L
125.948 60.322 L
126.072 84.072 L
126.196 62.343 L
126.32 60.608 L
126.444 56.604 L
126.568 84.359 L
126.692 162.22 L
126.816 219.735 L
126.94 282.628 L
127.064 286.013 L
127.188 192.955 L
127.312 140.092 L
127.436 76.966 L
127.56 61.779 L
127.684 57.059 L
127.808 63.022 L
S
GR
GS
[0.75 0 0 0.75 0 0] CT
0 0.447 0.741 RC
2 LJ
N
127.808 63.022 M
127.932 75.759 L
128.056 68.919 L
128.18 55.046 L
128.304 59.528 L
128.428 72.969 L
128.552 77.038 L
128.676 54.024 L
128.8 55.999 L
128.924 67.876 L
129.048 86.538 L
129.172 193.345 L
129.296 192.462 L
129.42 198.994 L
129.544 199.552 L
129.668 77.803 L
129.792 55.303 L
129.916 59.064 L
130.04 62.506 L
130.164 75.258 L
130.288 55.542 L
130.412 58.148 L
130.536 65.192 L
130.66 74.585 L
130.784 54.73 L
130.908 56.044 L
131.032 68.009 L
131.156 186.77 L
131.28 263.274 L
131.404 261.706 L
131.528 258.652 L
131.652 172.723 L
131.776 80.593 L
131.9 59.073 L
132.024 51.141 L
132.148 68.54 L
132.272 77.844 L
132.396 64.284 L
132.52 53.942 L
132.644 64.467 L
132.768 74.393 L
132.892 67.987 L
133.016 57.252 L
133.14 61.792 L
133.264 70.601 L
133.388 70.311 L
133.512 60.913 L
133.636 60.282 L
133.76 66.694 L
133.884 71.335 L
S
GR
GS
[0.75 0 0 0.75 0 0] CT
0 0.447 0.741 RC
2 LJ
N
133.884 71.335 M
134.008 64.856 L
134.132 59.79 L
134.256 62.808 L
134.38 71.07 L
134.504 69.05 L
134.628 60.279 L
134.752 59.038 L
134.876 69.444 L
135 73.448 L
135.124 61.82 L
135.248 55.489 L
135.372 66.299 L
135.496 77.945 L
135.62 64.584 L
135.744 52.345 L
135.868 61.391 L
135.992 82.342 L
136.116 177.121 L
136.24 253.645 L
136.364 258.108 L
136.488 259.176 L
136.612 164.781 L
136.736 68.881 L
136.86 58.898 L
136.984 58.064 L
137.108 67.281 L
137.232 64.847 L
137.356 60.927 L
137.48 61.502 L
137.604 66.842 L
137.728 60.996 L
137.852 60.531 L
137.976 65.277 L
138.1 68.065 L
138.224 57.78 L
138.348 57.773 L
138.472 68.861 L
138.596 159.368 L
138.72 259.961 L
138.844 257.069 L
138.968 253.883 L
139.092 186.673 L
139.216 84.252 L
139.34 58.482 L
139.464 51.257 L
139.588 66.671 L
139.712 81.769 L
139.836 62.393 L
139.96 53.27 L
S
GR
GS
[0.75 0 0 0.75 0 0] CT
0 0.447 0.741 RC
2 LJ
N
139.96 53.27 M
140.084 63.742 L
140.208 79.572 L
140.332 64.988 L
140.456 55.223 L
140.58 61.588 L
140.704 77.842 L
140.828 66.704 L
140.952 56.966 L
141.076 59.803 L
141.2 76.671 L
141.324 159.518 L
141.448 210.205 L
141.572 264.764 L
141.696 331.732 L
141.82 253.163 L
141.944 188.108 L
142.068 134.24 L
142.192 76.066 L
142.316 65.882 L
142.44 59.581 L
142.564 58.594 L
142.688 76.569 L
142.812 162.748 L
142.936 155.66 L
143.06 150.958 L
143.184 147.383 L
143.308 108.548 L
143.432 163.526 L
143.556 217.161 L
143.68 268.444 L
143.804 283.32 L
143.928 193.746 L
144.052 124.825 L
144.176 64.914 L
144.3 65.099 L
144.424 66.087 L
144.548 62.036 L
144.672 63.185 L
144.796 68.064 L
144.92 65.659 L
145.044 61.7 L
145.168 60.477 L
145.292 71.123 L
145.416 65.914 L
145.54 61.862 L
145.664 56.428 L
145.788 74.311 L
145.912 166.849 L
146.036 239.536 L
S
GR
GS
[0.75 0 0 0.75 0 0] CT
0 0.447 0.741 RC
2 LJ
N
146.036 239.536 M
146.16 298.724 L
146.284 331.988 L
146.408 336.632 L
146.532 337.413 L
146.656 331.109 L
146.78 302.838 L
146.904 216.691 L
147.028 149.09 L
147.152 68.687 L
147.276 61.588 L
147.4 58.553 L
147.524 66.745 L
147.648 63.24 L
147.772 69.629 L
147.896 155.557 L
148.02 164.906 L
148.144 153.603 L
148.268 150.278 L
148.392 82.032 L
148.516 76.108 L
148.64 54.7 L
148.764 52.391 L
148.888 73.269 L
149.012 85.204 L
149.136 175.053 L
149.26 173.216 L
149.384 184.465 L
149.508 179.593 L
149.632 76.56 L
149.756 58.647 L
149.88 63.576 L
150.004 60.174 L
150.128 70.898 L
150.252 61.991 L
150.376 64.335 L
150.5 61.856 L
150.624 66.352 L
150.748 63.276 L
150.872 65.351 L
150.996 64.235 L
151.12 62.742 L
151.244 63.053 L
151.368 66.018 L
151.492 67.533 L
151.616 59.946 L
151.74 61.801 L
151.864 65.743 L
151.988 71.972 L
152.112 57.881 L
S
GR
GS
[0.75 0 0 0.75 0 0] CT
0 0.447 0.741 RC
2 LJ
N
152.112 57.881 M
152.236 60.004 L
152.36 63.866 L
152.484 77.796 L
152.608 184.09 L
152.732 185.862 L
152.856 187.198 L
152.98 182.678 L
153.104 80.691 L
153.228 62.836 L
153.352 62.016 L
153.476 56.063 L
153.6 74.627 L
153.724 64.235 L
153.848 65.088 L
153.972 57.508 L
154.096 70.404 L
154.22 63.129 L
154.344 68.328 L
154.468 59.349 L
154.592 67.957 L
154.716 59.953 L
154.84 71.465 L
154.964 134.256 L
155.088 225.043 L
155.212 294.858 L
155.336 290.588 L
155.46 226.408 L
155.584 150.391 L
155.708 85.338 L
155.832 57.535 L
155.956 58.319 L
156.08 62.403 L
156.204 85.026 L
156.328 63.456 L
156.452 59.121 L
156.576 56.448 L
156.7 84.137 L
156.824 148.165 L
156.948 215.225 L
157.072 289.26 L
157.196 293.245 L
157.32 225.932 L
157.444 151.084 L
157.568 70.582 L
157.692 58.35 L
157.816 65.132 L
157.94 65.016 L
158.064 68.308 L
158.188 61.382 L
S
GR
GS
[0.75 0 0 0.75 0 0] CT
0 0.447 0.741 RC
2 LJ
N
158.188 61.382 M
158.312 64.899 L
158.436 64.85 L
158.56 66.02 L
158.684 63.359 L
158.808 65.317 L
158.932 65.128 L
159.056 63.697 L
159.18 64.433 L
159.304 66.053 L
159.428 66.045 L
159.552 61.338 L
159.676 64.723 L
159.8 66.79 L
159.924 67.798 L
160.048 58.953 L
160.172 64.349 L
160.296 67.174 L
160.42 70.619 L
160.544 56.549 L
160.668 63.467 L
160.792 66.755 L
160.916 74.8 L
161.04 54.117 L
161.164 62.324 L
161.288 64.923 L
161.412 80.718 L
161.536 178.61 L
161.66 188.344 L
161.784 187.835 L
161.908 183.501 L
162.032 65.65 L
162.156 67.791 L
162.28 123.963 L
162.404 182.486 L
162.528 302.718 L
162.652 296.229 L
162.776 248.021 L
162.9 185.875 L
163.024 82.153 L
163.148 55.102 L
163.272 60.766 L
163.396 62.299 L
163.52 78.612 L
163.644 121.235 L
163.768 172.121 L
163.892 234.188 L
164.016 331.778 L
164.14 272.602 L
164.264 230.045 L
S
GR
GS
[0.75 0 0 0.75 0 0] CT
0 0.447 0.741 RC
2 LJ
N
164.264 230.045 M
164.388 174.803 L
164.512 75.416 L
164.636 56.066 L
164.76 59.905 L
164.884 67.074 L
165.008 173.607 L
165.132 237.818 L
165.256 240.671 L
165.38 229.896 L
165.504 157.492 L
165.628 84.191 L
165.752 71.257 L
165.876 48.809 L
166 65.518 L
166.124 76.904 L
166.248 84.527 L
166.372 143.901 L
166.496 153.742 L
166.62 158.652 L
166.744 153.843 L
166.868 72.023 L
166.992 61.704 L
167.116 63.182 L
167.24 62.662 L
167.364 71.167 L
167.488 62.672 L
167.612 60.963 L
167.736 64.108 L
167.86 148.363 L
167.984 223.394 L
168.108 289.332 L
168.232 329.9 L
168.356 338.315 L
168.48 337.136 L
168.604 335.541 L
168.728 329.878 L
168.852 283.361 L
168.976 199.066 L
169.1 124.322 L
169.224 63.579 L
169.348 67.584 L
169.472 64.817 L
169.596 62.776 L
169.72 61.372 L
169.844 70.319 L
169.968 65.447 L
170.092 62.422 L
170.216 57.855 L
170.34 73.081 L
S
GR
GS
[0.75 0 0 0.75 0 0] CT
0 0.447 0.741 RC
2 LJ
N
170.34 73.081 M
170.464 159.272 L
170.588 235.215 L
170.712 295.286 L
170.836 331.691 L
170.96 336.725 L
171.084 337.125 L
171.208 332.265 L
171.332 294.026 L
171.456 217.697 L
171.58 144.034 L
171.704 78.216 L
171.828 59.497 L
171.952 59.9 L
172.076 62.471 L
172.2 76.017 L
172.324 66.015 L
172.448 60.129 L
172.572 58.679 L
172.696 72.639 L
172.82 72.051 L
172.944 61.782 L
173.068 55.241 L
173.192 67.907 L
173.316 77.616 L
173.44 64.869 L
173.564 52.387 L
173.688 61.591 L
173.812 82.572 L
173.936 174.25 L
174.06 252.99 L
174.184 255.918 L
174.308 258.117 L
174.432 168.028 L
174.556 71.853 L
174.68 56.411 L
174.804 57.994 L
174.928 157.938 L
175.052 255.649 L
175.176 242.629 L
175.3 230.946 L
175.424 159.23 L
175.548 118.478 L
175.672 155.8 L
175.796 188.394 L
175.92 269.354 L
176.044 337.647 L
176.168 340.793 L
176.292 331.665 L
176.416 331.034 L
S
GR
GS
[0.75 0 0 0.75 0 0] CT
0 0.447 0.741 RC
2 LJ
N
176.416 331.034 M
176.54 289.584 L
176.664 223.037 L
176.788 132.145 L
176.912 66.204 L
177.036 64.094 L
177.16 79.77 L
177.284 55.729 L
177.408 61.873 L
177.532 62.192 L
177.656 85.063 L
177.78 170.317 L
177.904 238.021 L
178.028 285.051 L
178.152 334.318 L
178.276 333.236 L
178.4 269.813 L
178.524 220.084 L
178.648 176.267 L
178.772 82.327 L
178.896 60.484 L
179.02 56.106 L
179.144 61.298 L
179.268 80.575 L
179.392 62.733 L
179.516 55.293 L
179.64 61.055 L
179.764 159.585 L
179.888 241.505 L
180.012 230.764 L
180.136 221.667 L
180.26 172.831 L
180.384 113.794 L
180.508 156.867 L
180.632 193.53 L
180.756 210.912 L
180.88 215.919 L
181.004 123.436 L
181.128 60.6 L
181.252 62.998 L
181.376 68.051 L
181.5 66.144 L
181.624 60.026 L
181.748 63.318 L
181.872 69.428 L
181.996 65.749 L
182.12 58.73 L
182.244 62.924 L
182.368 71.381 L
182.492 66.2 L
S
GR
GS
[0.75 0 0 0.75 0 0] CT
0 0.447 0.741 RC
2 LJ
N
182.492 66.2 M
182.616 57.009 L
182.74 61.459 L
182.864 73.781 L
182.988 67.66 L
183.112 55.224 L
183.236 58.558 L
183.36 76.431 L
183.484 176.476 L
183.608 250.771 L
183.732 291.111 L
183.856 332.21 L
183.98 339.033 L
184.104 332.404 L
184.228 293.202 L
184.352 250.037 L
184.476 170.258 L
184.6 77.221 L
184.724 60.026 L
184.848 55.072 L
184.972 66.282 L
185.096 73.73 L
185.22 64.059 L
185.344 57.485 L
185.468 64.177 L
185.592 70.08 L
185.716 66.499 L
185.84 60.251 L
185.964 63.269 L
186.088 66.485 L
186.212 67.559 L
186.336 63.081 L
186.46 63.487 L
186.584 63.079 L
186.708 67.418 L
186.832 65.721 L
186.956 64.826 L
187.08 59.943 L
187.204 66.23 L
187.328 67.894 L
187.452 67.372 L
187.576 57.136 L
187.7 64.145 L
187.824 69.242 L
187.948 71.293 L
188.072 54.718 L
188.196 61.34 L
188.32 69.276 L
188.444 76.838 L
188.568 52.759 L
S
GR
GS
[0.75 0 0 0.75 0 0] CT
0 0.447 0.741 RC
2 LJ
N
188.568 52.759 M
188.692 58.084 L
188.816 67.317 L
188.94 84.325 L
189.064 190.748 L
189.188 194.225 L
189.312 201.836 L
189.436 198.032 L
189.56 69.208 L
189.684 56.479 L
189.808 64.784 L
189.932 61.542 L
190.056 64.688 L
190.18 54.477 L
190.304 67.16 L
190.428 129.319 L
190.552 259.264 L
190.676 246.423 L
190.8 245.108 L
190.924 198.803 L
191.048 102.944 L
191.172 54.067 L
191.296 49.22 L
191.42 61.068 L
191.544 103.58 L
191.668 172.667 L
191.792 199.608 L
191.916 248.163 L
192.04 336.563 L
192.164 332.938 L
192.288 296.372 L
192.412 258.946 L
192.536 186.374 L
192.66 78.622 L
192.784 56.161 L
192.908 57.917 L
193.032 63.782 L
193.156 74.778 L
193.28 58.252 L
193.404 60.277 L
193.528 63.458 L
193.652 72.202 L
193.776 57.808 L
193.9 62.89 L
194.024 63.876 L
194.148 71.14 L
194.272 55.218 L
194.396 65.351 L
194.52 135.159 L
194.644 235.166 L
S
GR
GS
[0.75 0 0 0.75 0 0] CT
0 0.447 0.741 RC
2 LJ
N
194.644 235.166 M
194.768 303.232 L
194.892 300.339 L
195.016 243.761 L
195.14 163.379 L
195.264 74.641 L
195.388 53.484 L
195.512 59.654 L
195.636 71.225 L
195.76 74.06 L
195.884 57.937 L
196.008 58.865 L
196.132 68.762 L
196.256 73.042 L
196.38 61.461 L
196.504 58.787 L
196.628 66.826 L
196.752 71.719 L
196.876 64.309 L
197 59.054 L
197.124 65.415 L
197.248 70.156 L
197.372 66.735 L
197.496 59.411 L
197.62 64.505 L
197.744 68.338 L
197.868 68.994 L
197.992 59.67 L
198.116 64.095 L
198.24 66.16 L
198.364 71.346 L
198.488 59.678 L
198.612 64.256 L
198.736 63.405 L
198.86 74.079 L
198.984 59.258 L
199.108 65.179 L
199.232 59.723 L
199.356 77.536 L
199.48 158.118 L
199.604 167.212 L
199.728 154.541 L
199.852 153.764 L
199.976 80.503 L
200.1 80.153 L
200.224 156.996 L
200.348 201.57 L
200.472 291.399 L
200.596 334.333 L
200.72 332.769 L
S
GR
GS
[0.75 0 0 0.75 0 0] CT
0 0.447 0.741 RC
2 LJ
N
200.72 332.769 M
200.844 284.576 L
200.968 220.7 L
201.092 166.268 L
201.216 79.878 L
201.34 57.254 L
201.464 61.804 L
201.588 62.804 L
201.712 78.384 L
201.836 60.517 L
201.96 60.114 L
202.084 62.285 L
202.208 77.718 L
202.332 63.194 L
202.456 58.945 L
202.58 60.98 L
202.704 77.666 L
202.828 65.72 L
202.952 58.197 L
203.076 58.759 L
203.2 78.032 L
203.324 161.877 L
203.448 230.765 L
203.572 279.959 L
203.696 332.141 L
203.82 337.877 L
203.944 334.423 L
204.068 281.332 L
204.192 221.959 L
204.316 149.924 L
204.44 91.159 L
204.564 65.247 L
204.688 53.706 L
204.812 58.447 L
204.936 88.358 L
205.06 72.924 L
205.184 56.313 L
205.308 51.83 L
205.432 84.396 L
205.556 159.8 L
205.68 226.598 L
205.804 297.504 L
205.928 304.829 L
206.052 250.198 L
206.176 152.473 L
206.3 57.837 L
206.424 54.007 L
206.548 77.136 L
206.672 69.524 L
206.796 55.152 L
S
GR
GS
[0.75 0 0 0.75 0 0] CT
0 0.447 0.741 RC
2 LJ
N
206.796 55.152 M
206.92 52.909 L
207.044 77.138 L
207.168 173.3 L
207.292 264.914 L
207.416 260.853 L
207.54 263.372 L
207.664 185.95 L
207.788 79.192 L
207.912 55.01 L
208.036 52.846 L
208.16 70.179 L
208.284 77.098 L
208.408 58.62 L
208.532 54.472 L
208.656 67.715 L
208.78 75.242 L
208.904 60.577 L
209.028 56.139 L
209.152 66.297 L
209.276 73.914 L
209.4 61.312 L
209.524 57.438 L
209.648 65.65 L
209.772 73.322 L
209.896 61.238 L
210.02 58.095 L
210.144 65.447 L
210.268 73.62 L
210.392 60.746 L
210.516 57.96 L
210.64 65.308 L
210.764 74.927 L
210.888 60.199 L
211.012 57.003 L
211.136 64.777 L
211.26 77.342 L
211.384 59.933 L
211.508 55.335 L
211.632 63.295 L
211.756 80.949 L
211.88 60.247 L
212.004 53.245 L
212.128 60.171 L
212.252 85.815 L
212.376 197.637 L
212.5 187.503 L
212.624 190.799 L
212.748 194.003 L
212.872 97.682 L
S
GR
GS
[0.75 0 0 0.75 0 0] CT
0 0.447 0.741 RC
2 LJ
N
212.872 97.682 M
212.996 142.398 L
213.12 143.513 L
213.244 144.867 L
213.368 147.887 L
213.492 75.685 L
213.616 62.762 L
213.74 61.39 L
213.864 56.51 L
213.988 68.322 L
214.112 65.909 L
214.236 68.523 L
214.36 54.758 L
214.484 61.734 L
214.608 64.383 L
214.732 78.008 L
214.856 190.2 L
214.98 192.514 L
215.104 193.424 L
215.228 192.796 L
215.352 79.346 L
215.476 57.533 L
215.6 57.186 L
215.724 59.774 L
215.848 77.427 L
215.972 57.217 L
216.096 55.708 L
216.22 62.586 L
216.344 77.47 L
216.468 56.676 L
216.592 52.661 L
216.716 64.981 L
216.84 173.827 L
216.964 268.287 L
217.088 259.337 L
217.212 258.963 L
217.336 195.038 L
217.46 92.276 L
217.584 51.651 L
217.708 48.396 L
217.832 71.135 L
217.956 95.326 L
218.08 53.882 L
218.204 49.517 L
218.328 64.721 L
218.452 99.262 L
218.576 178.463 L
218.7 174.13 L
218.824 181.342 L
218.948 186.289 L
S
GR
GS
[0.75 0 0 0.75 0 0] CT
0 0.447 0.741 RC
2 LJ
N
218.948 186.289 M
219.072 78.27 L
219.196 57.904 L
219.32 58.69 L
219.444 62.273 L
219.568 72.264 L
219.692 62.129 L
219.816 60.525 L
219.94 62.699 L
220.064 67.103 L
220.188 63.999 L
220.312 113.232 L
220.436 180.933 L
220.56 285.972 L
220.684 329.777 L
220.808 292.507 L
220.932 232.653 L
221.056 124.272 L
221.18 62.789 L
221.304 61.63 L
221.428 68.594 L
221.552 62.186 L
221.676 60.699 L
221.8 61.846 L
221.924 72.483 L
222.048 61.107 L
222.172 58.338 L
222.296 59.877 L
222.42 77.719 L
222.544 189.235 L
222.668 250.823 L
222.792 292.002 L
222.916 333.07 L
223.04 334.704 L
223.164 264.98 L
223.288 222.238 L
223.412 183.718 L
223.536 90.883 L
223.66 58.516 L
223.784 54.771 L
223.908 57.653 L
224.032 89.278 L
224.156 60.485 L
224.28 54.502 L
224.404 56.622 L
224.528 89.43 L
224.652 61.885 L
224.776 54.18 L
224.9 54.169 L
225.024 91.273 L
S
GR
GS
[0.75 0 0 0.75 0 0] CT
0 0.447 0.741 RC
2 LJ
N
225.024 91.273 M
225.148 201.225 L
225.272 192.257 L
225.396 187.439 L
225.52 196.916 L
225.644 99.88 L
225.768 61.345 L
225.892 49.846 L
226.016 56.812 L
226.14 95.559 L
226.264 66.956 L
226.388 50.34 L
226.512 54.604 L
226.636 92.297 L
226.76 182.632 L
226.884 230.425 L
227.008 231.399 L
227.132 236.546 L
227.256 140.459 L
227.38 74.771 L
227.504 59.265 L
227.628 57.092 L
227.752 65.284 L
227.876 72.438 L
228 66.159 L
228.124 58.904 L
228.248 60.547 L
228.372 67.985 L
228.496 72.203 L
228.62 138.641 L
228.744 232.721 L
228.868 237.1 L
228.992 227.223 L
229.116 161.126 L
229.24 85.39 L
229.364 69.122 L
229.488 54.362 L
229.612 58.304 L
229.736 79.654 L
229.86 75.047 L
229.984 57.782 L
230.108 55.407 L
230.232 73.588 L
230.356 79.683 L
230.48 62.026 L
230.604 53.265 L
230.728 67.105 L
230.852 83.124 L
230.976 155.339 L
231.1 223.704 L
S
GR
GS
[0.75 0 0 0.75 0 0] CT
0 0.447 0.741 RC
2 LJ
N
231.1 223.704 M
231.224 231.859 L
231.348 226.9 L
231.472 151.45 L
231.596 74.84 L
231.72 66.004 L
231.844 56.336 L
231.968 64.117 L
232.092 71.039 L
232.216 71.26 L
232.34 58.295 L
232.464 61.777 L
232.588 66.04 L
232.712 75.925 L
232.836 60.728 L
232.96 60.774 L
233.084 59.767 L
233.208 80.13 L
233.332 153.931 L
233.456 151.889 L
233.58 142.463 L
233.704 145.037 L
233.828 101.278 L
233.952 164.025 L
234.076 235.062 L
234.2 234.386 L
234.324 243.777 L
234.448 163.477 L
234.572 74.449 L
234.696 55.639 L
234.82 58.81 L
234.944 69.705 L
235.068 73.14 L
235.192 59.674 L
235.316 58.928 L
235.44 67.526 L
235.564 71.484 L
235.688 62.637 L
235.812 59.602 L
235.936 66.065 L
236.06 69.645 L
236.184 64.749 L
236.308 60.495 L
236.432 65.297 L
236.556 67.722 L
236.68 66.23 L
236.804 61.353 L
236.928 65.199 L
237.052 65.747 L
237.176 67.294 L
S
GR
GS
[0.75 0 0 0.75 0 0] CT
0 0.447 0.741 RC
2 LJ
N
237.176 67.294 M
237.3 61.958 L
237.424 65.785 L
237.548 63.683 L
237.672 68.172 L
237.796 62.086 L
237.92 67.131 L
238.044 61.422 L
238.168 69.128 L
238.292 61.464 L
238.416 69.413 L
238.54 151.239 L
238.664 162.977 L
238.788 152.182 L
238.912 142.555 L
239.036 80.006 L
239.16 82.139 L
239.284 155.49 L
239.408 210.068 L
239.532 226.857 L
239.656 218.032 L
239.78 133.978 L
239.904 69.982 L
240.028 133.631 L
240.152 182.24 L
240.276 269.621 L
240.4 330.485 L
240.524 279.926 L
240.648 223.823 L
240.772 137.525 L
240.896 66.552 L
241.02 64.335 L
241.144 66.099 L
241.268 62.458 L
241.392 64.716 L
241.516 63.604 L
241.64 69.474 L
241.764 62.045 L
241.888 63.244 L
242.012 61.254 L
242.136 73.419 L
242.26 161.88 L
242.384 162.264 L
242.508 156.664 L
242.632 151.823 L
242.756 95.555 L
242.88 69.691 L
243.004 58.937 L
243.128 49.952 L
243.252 89.622 L
S
GR
GS
[0.75 0 0 0.75 0 0] CT
0 0.447 0.741 RC
2 LJ
N
243.252 89.622 M
243.376 168.997 L
243.5 233.723 L
243.624 279.813 L
243.748 333.149 L
243.872 340.027 L
243.996 337.915 L
244.12 330.075 L
244.244 290.83 L
244.368 222.291 L
244.492 144.416 L
244.616 66.63 L
244.74 56.008 L
244.864 65.925 L
244.988 70.672 L
245.112 67.072 L
245.236 58.224 L
245.36 64.009 L
245.484 70.18 L
245.608 67.262 L
245.732 60.032 L
245.856 62.61 L
245.98 69.812 L
246.104 148.661 L
246.228 203.991 L
246.352 267.774 L
246.476 330.691 L
246.6 263.649 L
246.724 201.698 L
246.848 140.433 L
246.972 69.845 L
247.096 63.613 L
247.22 62.009 L
247.344 64.248 L
247.468 70.35 L
247.592 144.345 L
247.716 205.992 L
247.84 267.593 L
247.964 330.939 L
248.088 261.842 L
248.212 198.315 L
248.336 144.272 L
248.46 72.421 L
248.584 61.869 L
248.708 59.237 L
248.832 118.438 L
248.956 195.691 L
249.08 271.359 L
249.204 328.721 L
249.328 292.796 L
S
GR
GS
[0.75 0 0 0.75 0 0] CT
0 0.447 0.741 RC
2 LJ
N
249.328 292.796 M
249.452 237.843 L
249.576 145.787 L
249.7 55.949 L
249.824 58.69 L
249.948 75.009 L
250.072 163.683 L
250.196 241.12 L
250.32 242.215 L
250.444 237.4 L
250.568 167.048 L
250.692 81.236 L
250.816 64.823 L
250.94 51.581 L
251.064 66.642 L
251.188 76.222 L
251.312 73.418 L
251.436 52.926 L
251.56 63.199 L
251.684 69.219 L
251.808 81.899 L
251.932 144.857 L
252.056 151.898 L
252.18 150.279 L
252.304 147.524 L
252.428 79.344 L
252.552 67.575 L
252.676 58.965 L
252.8 56.733 L
252.924 75.043 L
253.048 73.066 L
253.172 58.701 L
253.296 55.758 L
253.42 70.561 L
253.544 78.598 L
253.668 59.06 L
253.792 54.585 L
253.916 65.245 L
254.04 84.551 L
254.164 181.316 L
254.288 174.919 L
254.412 179.601 L
254.536 178.734 L
254.66 92.807 L
254.784 58.518 L
254.908 58.939 L
255.032 56.314 L
255.156 89.937 L
255.28 154.166 L
255.404 201.946 L
S
GR
GS
[0.75 0 0 0.75 0 0] CT
0 0.447 0.741 RC
2 LJ
N
255.404 201.946 M
255.528 252.874 L
255.652 333.819 L
255.776 334.137 L
255.9 290.916 L
256.024 228.139 L
256.148 149.665 L
256.272 81.798 L
256.396 71.433 L
256.52 60.156 L
256.644 54.167 L
256.768 72.621 L
256.892 77.871 L
257.016 65.566 L
257.14 52.499 L
257.264 63.33 L
257.388 81.592 L
257.512 152.567 L
257.636 234.264 L
257.76 236.051 L
257.884 236.1 L
258.008 176.457 L
258.132 79.217 L
258.256 55.912 L
258.38 53.794 L
258.504 71.046 L
258.628 80.948 L
258.752 57.241 L
258.876 53.402 L
259 68.201 L
259.124 83.364 L
259.248 58.283 L
259.372 52.52 L
259.496 65.066 L
259.62 86.684 L
259.744 178.105 L
259.868 219.079 L
259.992 228.812 L
260.116 225.265 L
260.24 106.944 L
260.364 71.043 L
260.488 70.468 L
260.612 140.163 L
260.736 254.902 L
260.86 266.195 L
260.984 255.57 L
261.108 186.131 L
261.232 66.887 L
261.356 69.956 L
261.48 106.56 L
S
GR
GS
[0.75 0 0 0.75 0 0] CT
0 0.447 0.741 RC
2 LJ
N
261.48 106.56 M
261.604 182.437 L
261.728 301.284 L
261.852 294.874 L
261.976 249.758 L
262.1 188.98 L
262.224 84.866 L
262.348 57.532 L
262.472 55.771 L
262.596 62.786 L
262.72 80.518 L
262.844 62.183 L
262.968 56.795 L
263.092 61.691 L
263.216 76.907 L
263.34 65.211 L
263.464 58.056 L
263.588 61.092 L
263.712 73.97 L
263.836 67.182 L
263.96 59.224 L
264.084 60.851 L
264.208 71.614 L
264.332 68.546 L
264.456 60.135 L
264.58 60.818 L
264.704 69.711 L
264.828 69.661 L
264.952 60.736 L
265.076 60.865 L
265.2 68.089 L
265.324 70.816 L
265.448 61.043 L
265.572 60.911 L
265.696 66.526 L
265.82 72.251 L
265.944 61.105 L
266.068 60.951 L
266.192 64.733 L
266.316 74.178 L
266.44 60.971 L
266.564 61.085 L
266.688 62.333 L
266.812 76.808 L
266.936 161.445 L
267.06 215.9 L
267.184 277.378 L
267.308 332.427 L
267.432 333.94 L
267.556 336.046 L
S
GR
GS
[0.75 0 0 0.75 0 0] CT
0 0.447 0.741 RC
2 LJ
N
267.556 336.046 M
267.68 335.356 L
267.804 269.197 L
267.928 169.115 L
268.052 127.013 L
268.176 101.554 L
268.3 150.557 L
268.424 244.643 L
268.548 245.093 L
268.672 256.071 L
268.796 174.53 L
268.92 73.819 L
269.044 51.928 L
269.168 63.84 L
269.292 148.396 L
269.416 254.81 L
269.54 303.19 L
269.664 300.861 L
269.788 234.741 L
269.912 148.646 L
270.036 74.004 L
270.16 53.075 L
270.284 60.27 L
270.408 71.073 L
270.532 74.949 L
270.656 58.377 L
270.78 59.284 L
270.904 66.64 L
271.028 74.7 L
271.152 63.167 L
271.276 59.572 L
271.4 62.565 L
271.524 73.408 L
271.648 129.493 L
271.772 196.62 L
271.896 274.423 L
272.02 330.931 L
272.144 337.435 L
272.268 336.241 L
272.392 335.406 L
272.516 330.413 L
272.64 293.711 L
272.764 218.07 L
272.888 136.264 L
273.012 63.832 L
273.136 67.981 L
273.26 64.862 L
273.384 62.453 L
273.508 58.688 L
273.632 71.247 L
S
GR
GS
[0.75 0 0 0.75 0 0] CT
0 0.447 0.741 RC
2 LJ
N
273.632 71.247 M
273.756 146.897 L
273.88 228.465 L
274.004 299.11 L
274.128 331.328 L
274.252 337.096 L
274.376 337.418 L
274.5 331.898 L
274.624 296.773 L
274.748 237.074 L
274.872 157.581 L
274.996 75.151 L
275.12 56.571 L
275.244 61.772 L
275.368 65.596 L
275.492 72.98 L
275.616 60.64 L
275.74 62.212 L
275.864 63.787 L
275.988 70.706 L
276.112 63.33 L
276.236 63.6 L
276.36 62.434 L
276.484 68.449 L
276.608 64.733 L
276.732 65.714 L
276.856 61.547 L
276.98 66.348 L
277.104 64.849 L
277.228 68.449 L
277.352 147.003 L
277.476 218.811 L
277.6 279.175 L
277.724 331.03 L
277.848 334.328 L
277.972 336.316 L
278.096 338.068 L
278.22 331.667 L
278.344 254.771 L
278.468 193.828 L
278.592 145.929 L
278.716 80.247 L
278.84 57.111 L
278.964 56.249 L
279.088 66.886 L
279.212 85.483 L
279.336 167.357 L
279.46 228.184 L
279.584 235.801 L
279.708 232.273 L
S
GR
GS
[0.75 0 0 0.75 0 0] CT
0 0.447 0.741 RC
2 LJ
N
279.708 232.273 M
279.832 125.392 L
279.956 75.613 L
280.08 68.924 L
280.204 126.557 L
280.328 230.715 L
280.452 245.452 L
280.576 227.509 L
280.7 174.709 L
280.824 73.156 L
280.948 77.592 L
281.072 123.655 L
281.196 132.993 L
281.32 133.963 L
281.444 126.24 L
281.568 74.694 L
281.692 69.081 L
281.816 61.839 L
281.94 54.168 L
282.064 69.599 L
282.188 75.919 L
282.312 62.081 L
282.436 52.582 L
282.56 63.369 L
282.684 82.9 L
282.808 192.883 L
282.932 180.496 L
283.056 184.389 L
283.18 186.295 L
283.304 103.832 L
283.428 55.296 L
283.552 54.432 L
283.676 55.386 L
283.8 103.487 L
283.924 181.439 L
284.048 178.313 L
284.172 175.804 L
284.296 187.003 L
284.42 85.68 L
284.544 61.363 L
284.668 53.945 L
284.792 60.92 L
284.916 80.409 L
285.04 65.778 L
285.164 56.501 L
285.288 59.575 L
285.412 75.873 L
285.536 68.372 L
285.66 59.234 L
285.784 58.96 L
S
GR
GS
[0.75 0 0 0.75 0 0] CT
0 0.447 0.741 RC
2 LJ
N
285.784 58.96 M
285.908 72.059 L
286.032 69.614 L
286.156 61.935 L
286.28 58.885 L
286.404 68.919 L
286.528 69.837 L
286.652 64.532 L
286.776 59.193 L
286.9 66.388 L
287.024 69.245 L
287.148 67.04 L
287.272 59.773 L
287.396 64.407 L
287.52 67.93 L
287.644 69.517 L
287.768 60.553 L
287.892 62.96 L
288.016 65.871 L
288.14 72.043 L
288.264 61.487 L
288.388 62.105 L
288.512 62.94 L
288.636 74.711 L
288.76 62.518 L
288.884 62.023 L
289.008 58.892 L
289.132 77.633 L
289.256 160.312 L
289.38 226.77 L
289.504 291.083 L
289.628 332.521 L
289.752 335.353 L
289.876 337.238 L
290 332.394 L
290.124 292.812 L
290.248 202.625 L
290.372 148.263 L
290.496 78.026 L
290.62 63.588 L
290.744 54.87 L
290.868 63.684 L
290.992 74.156 L
291.116 72.755 L
291.24 161.35 L
291.364 168.682 L
291.488 175.825 L
291.612 161.972 L
291.736 73.842 L
291.86 64.233 L
S
GR
GS
[0.75 0 0 0.75 0 0] CT
0 0.447 0.741 RC
2 LJ
N
291.86 64.233 M
291.984 70.051 L
292.108 55.993 L
292.232 68.159 L
292.356 64.66 L
292.48 73.128 L
292.604 58.091 L
292.728 64.097 L
292.852 62.498 L
292.976 76.81 L
293.1 60.566 L
293.224 61.632 L
293.348 57.885 L
293.472 80.84 L
293.596 158.978 L
293.72 156.501 L
293.844 146.23 L
293.968 150.464 L
294.092 102.8 L
294.216 175.057 L
294.34 233.294 L
294.464 234.53 L
294.588 244.654 L
294.712 146.473 L
294.836 70.557 L
294.96 56.839 L
295.084 61.376 L
295.208 66.098 L
295.332 67.887 L
295.456 61.088 L
295.58 63.197 L
295.704 63.835 L
295.828 64.466 L
295.952 63.549 L
296.076 66.25 L
296.2 62.755 L
296.324 60.676 L
296.448 64.006 L
296.572 70.306 L
296.696 62.94 L
296.82 56.91 L
296.944 62.177 L
297.068 75.147 L
297.192 175.689 L
297.316 251.066 L
297.44 255.151 L
297.564 250.576 L
297.688 149.888 L
297.812 75.333 L
297.936 66.107 L
S
GR
GS
[0.75 0 0 0.75 0 0] CT
0 0.447 0.741 RC
2 LJ
N
297.936 66.107 M
298.06 56.92 L
298.184 59.656 L
298.308 67.765 L
298.432 71.835 L
298.556 62.41 L
298.68 57.577 L
298.804 59.494 L
298.928 74.688 L
299.052 130.229 L
299.176 231.574 L
299.3 225.007 L
299.424 224.775 L
299.548 183.917 L
299.672 94.428 L
299.796 52.575 L
299.92 49.807 L
300.044 65.96 L
300.168 98.968 L
300.292 53.756 L
300.416 48.679 L
300.54 60.257 L
300.664 105.13 L
300.788 214.101 L
300.912 206.673 L
301.036 211.379 L
301.16 225.425 L
301.284 81.721 L
301.408 51.104 L
301.532 51.098 L
301.656 67.239 L
301.78 222.293 L
301.904 268.234 L
302.028 296.225 L
302.152 330.553 L
302.276 341.826 L
302.4 332.756 L
302.524 331.397 L
302.648 330.89 L
302.772 340.885 L
302.896 332.706 L
303.02 296.822 L
303.144 259.544 L
303.268 171.538 L
303.392 79.934 L
303.516 58.779 L
303.64 52.123 L
303.764 67.599 L
303.888 76.672 L
304.012 63.949 L
S
GR
GS
[0.75 0 0 0.75 0 0] CT
0 0.447 0.741 RC
2 LJ
N
304.012 63.949 M
304.136 55.079 L
304.26 63.918 L
304.384 72.837 L
304.508 67.347 L
304.632 58.685 L
304.756 61.644 L
304.88 68.805 L
305.004 69.066 L
305.128 62.754 L
305.252 60.584 L
305.376 64.841 L
305.5 69.139 L
305.624 67.177 L
305.748 60.621 L
305.872 61.156 L
305.996 67.52 L
306.12 71.869 L
306.244 61.725 L
306.368 57.961 L
306.492 64.074 L
306.616 76.728 L
306.74 63.933 L
306.864 55.546 L
306.988 58.564 L
307.112 81.601 L
307.236 175.646 L
307.36 254.239 L
307.484 299.326 L
307.608 333.385 L
307.732 337.995 L
307.856 333.043 L
307.98 330.63 L
308.104 309.884 L
308.228 218.468 L
308.352 107.63 L
308.476 62.176 L
308.6 66.015 L
308.724 162.934 L
308.848 262.284 L
308.972 262.104 L
309.096 259.362 L
309.22 185.577 L
309.344 78.632 L
309.468 54.825 L
309.592 53.267 L
309.716 140.408 L
309.84 255.432 L
309.964 308.45 L
310.088 297.648 L
S
GR
GS
[0.75 0 0 0.75 0 0] CT
0 0.447 0.741 RC
2 LJ
N
310.088 297.648 M
310.212 242.875 L
310.336 154.878 L
310.46 90.297 L
310.584 104.588 L
310.708 171.053 L
310.832 269.245 L
310.956 335.111 L
311.08 330.858 L
311.204 283.207 L
311.328 204.017 L
311.452 124.197 L
311.576 70.656 L
311.7 61.263 L
311.824 66.827 L
311.948 59.759 L
312.072 70.192 L
312.196 124.474 L
312.32 205.724 L
312.444 283.215 L
312.568 330.628 L
312.692 335.764 L
312.816 339.058 L
312.94 334.504 L
313.064 268.945 L
313.188 226.671 L
313.312 166.497 L
313.436 98.182 L
313.56 140.755 L
313.684 145.894 L
313.808 153.629 L
313.932 152.289 L
314.056 72.386 L
314.18 110.928 L
314.304 173.49 L
314.428 252.224 L
314.552 330.622 L
314.676 288.672 L
314.8 239.841 L
314.924 157.056 L
315.048 66.659 L
315.172 58.339 L
315.296 67.347 L
315.42 66.027 L
315.544 64.798 L
315.668 57.362 L
315.792 69.043 L
315.916 67.344 L
316.04 63.972 L
316.164 54.451 L
S
GR
GS
[0.75 0 0 0.75 0 0] CT
0 0.447 0.741 RC
2 LJ
N
316.164 54.451 M
316.288 70.823 L
316.412 154.471 L
316.536 246.261 L
316.66 300.776 L
316.784 301.008 L
316.908 232.897 L
317.032 135.98 L
317.156 70.995 L
317.28 55.449 L
317.404 66.116 L
317.528 63.348 L
317.652 69.372 L
317.776 59.572 L
317.9 67.259 L
318.024 60.537 L
318.148 67.169 L
318.272 61.963 L
318.396 70.196 L
318.52 58.188 L
318.644 64.736 L
318.768 62.215 L
318.892 74.924 L
319.016 176.991 L
319.14 234.842 L
319.264 283.564 L
319.388 332.624 L
319.512 332.22 L
319.636 335.523 L
319.76 335.928 L
319.884 334.06 L
320.008 331.013 L
320.132 292.967 L
320.256 246.53 L
320.38 187.502 L
320.504 65.849 L
320.628 60.003 L
320.752 63.592 L
320.876 65.099 L
321 61.441 L
321.124 59.643 L
321.248 63.781 L
321.372 69.797 L
321.496 58.274 L
321.62 57.988 L
321.744 62.344 L
321.868 76.117 L
321.992 200.472 L
322.116 246.631 L
322.24 288.597 L
S
GR
GS
[0.75 0 0 0.75 0 0] CT
0 0.447 0.741 RC
2 LJ
N
322.24 288.597 M
322.364 333.078 L
322.488 332.388 L
322.612 287.005 L
322.736 252.292 L
322.86 204.23 L
322.984 74.582 L
323.108 55.773 L
323.232 59.786 L
323.356 108.62 L
323.48 248.391 L
323.604 232.12 L
323.728 221.983 L
323.852 191.186 L
323.976 120.734 L
324.1 65.914 L
324.224 45.14 L
324.348 54.509 L
324.472 116.222 L
324.596 199.607 L
324.72 169.207 L
324.844 171.03 L
324.968 189.031 L
325.092 143.214 L
325.216 177.284 L
325.34 172.644 L
325.464 179.699 L
325.588 206.737 L
325.712 77.082 L
325.836 51.912 L
325.96 51.299 L
326.084 79.878 L
326.208 206.707 L
326.332 246.626 L
326.456 286.53 L
326.58 332.265 L
326.704 340.288 L
326.828 335.126 L
326.952 330.599 L
327.076 332.324 L
327.2 338.699 L
327.324 264.416 L
327.448 195.707 L
327.572 161.69 L
327.696 110.002 L
327.82 167.934 L
327.944 220.678 L
328.068 220.258 L
328.192 232.606 L
328.316 155.562 L
S
GR
GS
[0.75 0 0 0.75 0 0] CT
0 0.447 0.741 RC
2 LJ
N
328.316 155.562 M
328.44 74.323 L
328.564 54.1 L
328.688 58.818 L
328.812 73.245 L
328.936 75.815 L
329.06 58.647 L
329.184 57.239 L
329.308 69.345 L
329.432 76.427 L
329.556 63.025 L
329.68 56.43 L
329.804 65.624 L
329.928 76.22 L
330.052 67.459 L
330.176 56.185 L
330.3 62.039 L
330.424 75.148 L
330.548 72.174 L
330.672 56.457 L
330.796 58.527 L
330.92 73.035 L
331.044 77.364 L
331.168 57.339 L
331.292 55.075 L
331.416 69.559 L
331.54 83.172 L
331.664 170.632 L
331.788 226.395 L
331.912 238.833 L
332.036 231.418 L
332.16 121.115 L
332.284 69.348 L
332.408 73.823 L
332.532 135.852 L
332.656 243.881 L
332.78 248.72 L
332.904 243.106 L
333.028 177.33 L
333.152 78.358 L
333.276 62.392 L
333.4 56.832 L
333.524 61.108 L
333.648 74.437 L
333.772 63.248 L
333.896 60.365 L
334.02 127.349 L
334.144 229.206 L
334.268 294.943 L
334.392 329.731 L
S
GR
GS
[0.75 0 0 0.75 0 0] CT
0 0.447 0.741 RC
2 LJ
N
334.392 329.731 M
334.516 274.714 L
334.64 195.61 L
334.764 115.943 L
334.888 66.881 L
335.012 59.26 L
335.136 68.024 L
335.26 62.52 L
335.384 69.671 L
335.508 130.256 L
335.632 137.399 L
335.756 127.956 L
335.88 119.364 L
336.004 92.286 L
336.128 160.251 L
336.252 240.734 L
336.376 285.276 L
336.5 294.757 L
336.624 231.488 L
336.748 123.218 L
336.872 61.723 L
336.996 56.407 L
337.12 76.312 L
337.244 63.289 L
337.368 61.117 L
337.492 55.825 L
337.616 78.408 L
337.74 183.349 L
337.864 181.434 L
337.988 173.426 L
338.112 174.297 L
338.236 95.95 L
338.36 68.683 L
338.484 55.229 L
338.608 52.184 L
338.732 88.81 L
338.856 162.238 L
338.98 213.587 L
339.104 257.894 L
339.228 332.831 L
339.352 339.869 L
339.476 335.772 L
339.6 332.155 L
339.724 332.007 L
339.848 271.287 L
339.972 192.696 L
340.096 126.334 L
340.22 73.315 L
340.344 140.428 L
340.468 214.33 L
S
GR
GS
[0.75 0 0 0.75 0 0] CT
0 0.447 0.741 RC
2 LJ
N
340.468 214.33 M
340.592 272.147 L
340.716 330.608 L
340.84 282.664 L
340.964 202.309 L
341.088 119.687 L
341.212 65.108 L
341.336 70.776 L
341.46 151.346 L
341.584 222.612 L
341.708 227.818 L
341.832 216.328 L
341.956 157.561 L
342.08 85.369 L
342.204 70.141 L
342.328 49.875 L
342.452 63.963 L
342.576 81.308 L
342.7 79.824 L
342.824 50.8 L
342.948 58.836 L
343.072 74.651 L
343.196 90.377 L
343.32 163.983 L
343.444 219.213 L
343.568 281.557 L
343.692 335.966 L
343.816 331.548 L
343.94 281.125 L
344.064 238.948 L
344.188 185.6 L
344.312 73.416 L
344.436 53.861 L
344.56 60.87 L
344.684 69.473 L
344.808 73.376 L
344.932 53.816 L
345.056 58.176 L
345.18 71.664 L
345.304 185.284 L
345.428 251.141 L
345.552 291.131 L
345.676 331.331 L
345.8 340.574 L
345.924 332.315 L
346.048 296.026 L
346.172 247.232 L
346.296 172.563 L
346.42 76.216 L
346.544 63.356 L
S
GR
GS
[0.75 0 0 0.75 0 0] CT
0 0.447 0.741 RC
2 LJ
N
346.544 63.356 M
346.668 52.058 L
346.792 69.027 L
346.916 71.087 L
347.04 70.318 L
347.164 53.652 L
347.288 67.031 L
347.412 64.446 L
347.536 76.759 L
347.66 131.685 L
347.784 143.74 L
347.908 132.74 L
348.032 130.783 L
348.156 78.549 L
348.28 76.638 L
348.404 55.219 L
348.528 52.698 L
348.652 70.883 L
348.776 86.501 L
348.9 191.206 L
349.024 230.389 L
349.148 285.684 L
349.272 335.183 L
349.396 332.5 L
349.52 285.969 L
349.644 250.326 L
349.768 204.819 L
349.892 78.004 L
350.016 52.178 L
350.14 57.4 L
350.264 67.102 L
350.388 77.044 L
350.512 52.735 L
350.636 54.829 L
350.76 69.452 L
350.884 199.003 L
351.008 264.03 L
351.132 298.367 L
351.256 331.022 L
351.38 341.681 L
351.504 332.325 L
351.628 294.657 L
351.752 259.68 L
351.876 179.433 L
352 78.517 L
352.124 57.079 L
352.248 51.765 L
352.372 70.8 L
352.496 76.538 L
352.62 61.149 L
S
GR
GS
[0.75 0 0 0.75 0 0] CT
0 0.447 0.741 RC
2 LJ
N
352.62 61.149 M
352.744 53.73 L
352.868 67.652 L
352.992 74.281 L
353.116 63.87 L
353.24 55.747 L
353.364 65.763 L
353.488 72.053 L
353.612 65.579 L
353.736 57.481 L
353.86 64.894 L
353.984 70.025 L
354.108 66.621 L
354.232 58.689 L
354.356 64.843 L
354.48 68.261 L
354.604 67.343 L
354.728 59.175 L
354.852 65.454 L
354.976 66.727 L
355.1 68.102 L
355.224 58.759 L
355.348 66.644 L
355.472 65.291 L
355.596 69.294 L
355.72 57.24 L
355.844 68.417 L
355.968 152.474 L
356.092 224.08 L
356.216 291.441 L
356.34 286.353 L
356.464 206.731 L
356.588 158.46 L
356.712 86.915 L
356.836 55.88 L
356.96 53.776 L
357.084 68.523 L
357.208 89.639 L
357.332 63.092 L
357.456 50.578 L
357.58 61.707 L
357.704 91.301 L
357.828 162.224 L
357.952 245.046 L
358.076 250.073 L
358.2 253.942 L
358.324 179.602 L
358.448 66.882 L
358.572 56.886 L
358.696 57.71 L
S
GR
GS
[0.75 0 0 0.75 0 0] CT
0 0.447 0.741 RC
2 LJ
N
358.696 57.71 M
358.82 73.75 L
358.944 64.36 L
359.068 58.678 L
359.192 57.737 L
359.316 75.09 L
359.44 185.288 L
359.564 182.862 L
359.688 180.08 L
359.812 175.486 L
359.936 90.485 L
360.06 67.7 L
360.184 61.804 L
360.308 121.264 L
360.432 233.7 L
360.556 290.206 L
360.68 330.561 L
360.804 330.567 L
360.928 272.438 L
361.052 210.613 L
361.176 122.169 L
361.3 64.089 L
361.424 69.053 L
361.548 84.903 L
361.672 150.342 L
361.796 157.887 L
361.92 159.028 L
362.044 155.155 L
362.168 76.814 L
362.292 64.714 L
362.416 62.807 L
362.54 58.359 L
362.664 73.224 L
362.788 66.968 L
362.912 64.068 L
363.036 58.309 L
363.16 70.372 L
363.284 68.152 L
363.408 65.796 L
363.532 58.145 L
363.656 68.097 L
363.78 138.953 L
363.904 207.424 L
364.028 270.558 L
364.152 330.14 L
364.276 336.714 L
364.4 339.148 L
364.524 335.842 L
364.648 329.915 L
364.772 281.606 L
S
GR
GS
[0.75 0 0 0.75 0 0] CT
0 0.447 0.741 RC
2 LJ
N
364.772 281.606 M
364.896 227.318 L
365.02 144.786 L
365.144 63.998 L
365.268 58.675 L
365.392 70.697 L
365.516 67.202 L
365.64 63.744 L
365.764 56.81 L
365.888 71.342 L
366.012 68.617 L
366.136 64.436 L
366.26 53.618 L
366.384 72.055 L
366.508 155.773 L
366.632 238.866 L
366.756 298.893 L
366.88 299.901 L
367.004 231.14 L
367.128 147.303 L
367.252 69.556 L
367.376 55.007 L
367.5 64.645 L
367.624 68.13 L
367.748 68.303 L
367.872 58.997 L
367.996 63.85 L
368.12 66.835 L
368.244 66.475 L
368.368 62.027 L
368.492 64.026 L
368.616 66.108 L
368.74 64.149 L
368.864 64.161 L
368.988 130.142 L
369.112 210.576 L
369.236 287.613 L
369.36 330.003 L
369.484 335.933 L
369.608 337.805 L
369.732 336.744 L
369.856 330.082 L
369.98 285.544 L
370.104 215.977 L
370.228 133.3 L
370.352 65.693 L
370.476 61.544 L
370.6 65.784 L
370.724 65.407 L
370.848 64.831 L
S
GR
GS
[0.75 0 0 0.75 0 0] CT
0 0.447 0.741 RC
2 LJ
N
370.848 64.831 M
370.972 63.264 L
371.096 66.401 L
371.22 64.462 L
371.344 63.46 L
371.468 64.305 L
371.592 67.707 L
371.716 64.023 L
371.84 61.711 L
371.964 64.517 L
372.088 69.581 L
372.212 64.228 L
372.336 59.744 L
372.46 63.711 L
372.584 71.898 L
372.708 65.215 L
372.832 57.77 L
372.956 61.659 L
373.08 74.506 L
373.204 165.26 L
373.328 237.455 L
373.452 284.181 L
373.576 331.91 L
373.7 247.713 L
373.824 153.371 L
373.948 113.637 L
374.072 79.639 L
374.196 165.689 L
374.32 248.522 L
374.444 249.52 L
374.568 249.181 L
374.692 170.889 L
374.816 77.541 L
374.94 59.246 L
375.064 54.948 L
375.188 67.086 L
375.312 74.844 L
375.436 62.937 L
375.56 57.033 L
375.684 64.753 L
375.808 72.062 L
375.932 65.177 L
376.056 59.402 L
376.18 63.441 L
376.304 69.427 L
376.428 66.195 L
376.552 61.815 L
376.676 62.985 L
376.8 67.097 L
376.924 66.171 L
S
GR
GS
[0.75 0 0 0.75 0 0] CT
0 0.447 0.741 RC
2 LJ
N
376.924 66.171 M
377.048 64.11 L
377.172 63.252 L
377.296 65.189 L
377.42 65.241 L
377.544 66.169 L
377.668 64.138 L
377.792 63.812 L
377.916 63.492 L
378.04 67.886 L
378.164 65.558 L
378.288 63.096 L
378.412 60.969 L
378.536 69.155 L
378.66 67.422 L
378.784 63.231 L
378.908 57.682 L
379.032 69.861 L
379.156 69.598 L
379.28 64.499 L
379.404 53.614 L
379.528 69.885 L
379.652 145.204 L
379.776 230.541 L
379.9 300.071 L
380.024 299.879 L
380.148 246.672 L
380.272 159.299 L
380.396 68.986 L
380.52 52.048 L
380.644 66.568 L
380.768 70.792 L
380.892 68.628 L
381.016 53.772 L
381.14 65.688 L
381.264 70.561 L
381.388 68.811 L
381.512 53.819 L
381.636 65.512 L
381.76 70.557 L
381.884 69.912 L
382.008 52.276 L
382.132 65.628 L
382.256 147.592 L
382.38 240.442 L
382.504 300.28 L
382.628 298.25 L
382.752 240.425 L
382.876 158.923 L
383 72.584 L
S
GR
GS
[0.75 0 0 0.75 0 0] CT
0 0.447 0.741 RC
2 LJ
N
383 72.584 M
383.124 51.304 L
383.248 62.948 L
383.372 73.671 L
383.496 74.155 L
383.62 54.426 L
383.744 60.906 L
383.868 71.232 L
383.992 75.723 L
384.116 56.72 L
384.24 59.711 L
384.364 68.601 L
384.488 77.52 L
384.612 58.367 L
384.736 59.079 L
384.86 65.608 L
384.984 79.769 L
385.108 59.535 L
385.232 58.934 L
385.356 61.908 L
385.48 82.695 L
385.604 164.823 L
385.728 217.33 L
385.852 278.153 L
385.976 333.429 L
386.1 334.069 L
386.224 283.827 L
386.348 217.598 L
386.472 161.142 L
386.596 83.387 L
386.72 67.855 L
386.844 58.508 L
386.968 56.243 L
387.092 76.774 L
387.216 73.716 L
387.34 60.607 L
387.464 55.209 L
387.588 70.305 L
387.712 78.364 L
387.836 63.457 L
387.96 54.634 L
388.084 63.594 L
388.208 82.093 L
388.332 66.987 L
388.456 54.789 L
388.58 56.196 L
388.704 85.051 L
388.828 175.814 L
388.952 160.864 L
389.076 152.264 L
S
GR
GS
[0.75 0 0 0.75 0 0] CT
0 0.447 0.741 RC
2 LJ
N
389.076 152.264 M
389.2 160.543 L
389.324 122.457 L
389.448 182.362 L
389.572 239.916 L
389.696 243.806 L
389.82 263.563 L
389.944 146.967 L
390.068 59.212 L
390.192 52.398 L
390.316 69.973 L
390.44 69.064 L
390.564 56.454 L
390.688 52.396 L
390.812 72.163 L
390.936 188.493 L
391.06 273.341 L
391.184 299.999 L
391.308 331.602 L
391.432 339.033 L
391.556 332.517 L
391.68 296.72 L
391.804 270.083 L
391.928 180.15 L
392.052 78.387 L
392.176 53.427 L
392.3 55.162 L
392.424 156.337 L
392.548 265.961 L
392.672 306.011 L
392.796 328.954 L
392.92 335.756 L
393.044 341.546 L
393.168 334.259 L
393.292 329.687 L
393.416 334.196 L
393.54 341.037 L
393.664 335.421 L
393.788 330.504 L
393.912 332.885 L
394.036 340.446 L
394.16 336.358 L
394.284 277.442 L
394.408 208.21 L
394.532 159.135 L
394.656 108.999 L
394.78 143.242 L
394.904 208.477 L
395.028 219.044 L
395.152 224.988 L
S
GR
GS
[0.75 0 0 0.75 0 0] CT
0 0.447 0.741 RC
2 LJ
N
395.152 224.988 M
395.276 138.423 L
395.4 68.928 L
395.524 61.859 L
395.648 67.629 L
395.772 61.351 L
395.896 66.975 L
396.02 62.114 L
396.144 70.487 L
396.268 60.511 L
396.392 65.51 L
396.516 60.471 L
396.64 74.391 L
396.764 163.468 L
396.888 231.241 L
397.012 288.862 L
397.136 332.274 L
397.26 333.722 L
397.384 279.818 L
397.508 206.117 L
397.632 156.685 L
397.756 80.384 L
397.88 72.349 L
398.004 58.605 L
398.128 54.925 L
398.252 72.945 L
398.376 78.275 L
398.5 60.385 L
398.624 54.933 L
398.748 65.481 L
398.872 83.482 L
398.996 164.514 L
399.12 215.748 L
399.244 285.817 L
399.368 333.731 L
399.492 335.415 L
399.616 273.577 L
399.74 204.532 L
399.864 157.804 L
399.988 94.72 L
400.112 64.412 L
400.236 55.45 L
400.36 55.061 L
400.484 91.301 L
400.608 161.613 L
400.732 229.665 L
400.856 275.383 L
400.98 333.69 L
401.104 339.552 L
401.228 334.159 L
S
GR
GS
[0.75 0 0 0.75 0 0] CT
0 0.447 0.741 RC
2 LJ
N
401.228 334.159 M
401.352 276.846 L
401.476 227.749 L
401.6 161.786 L
401.724 93.779 L
401.848 56.473 L
401.972 54.251 L
402.096 63.413 L
402.22 96.462 L
402.344 159.218 L
402.468 153.195 L
402.592 153.583 L
402.716 158.959 L
402.84 96.805 L
402.964 63.239 L
403.088 54.868 L
403.212 56.13 L
403.336 93.835 L
403.46 160.04 L
403.584 225.753 L
403.708 220.626 L
403.832 227.205 L
403.956 150.78 L
404.08 91.56 L
404.204 133.458 L
404.328 184.529 L
404.452 268.384 L
404.576 334.962 L
404.7 332.628 L
404.824 287.31 L
404.948 212.924 L
405.072 143.373 L
405.196 78.177 L
405.32 63.761 L
405.444 61.378 L
405.568 58.781 L
405.692 74.419 L
405.816 69.129 L
405.94 62.781 L
406.064 56.282 L
406.188 70.147 L
406.312 73.559 L
406.436 65.508 L
406.56 54.038 L
406.684 65.168 L
406.808 77.024 L
406.932 69.63 L
407.056 52.262 L
407.18 59.292 L
407.304 79.316 L
S
GR
GS
[0.75 0 0 0.75 0 0] CT
0 0.447 0.741 RC
2 LJ
N
407.304 79.316 M
407.428 168.168 L
407.552 250.67 L
407.676 251.731 L
407.8 252.329 L
407.924 182.74 L
408.048 75.47 L
408.172 56.092 L
408.296 53.358 L
408.42 73.287 L
408.544 74.826 L
408.668 58.631 L
408.792 53.709 L
408.916 71.506 L
409.04 74.307 L
409.164 60.451 L
409.288 53.426 L
409.412 70.658 L
409.536 176.419 L
409.66 243.996 L
409.784 285.849 L
409.908 330.824 L
410.032 249.484 L
410.156 163.512 L
410.28 102.206 L
410.404 70.773 L
410.528 160.685 L
410.652 241.63 L
410.776 293.573 L
410.9 330.944 L
411.024 338.331 L
411.148 338.064 L
411.272 332.021 L
411.396 331.015 L
411.52 337.149 L
411.644 253.954 L
411.768 163.064 L
411.892 119.285 L
412.016 102.677 L
412.14 178.255 L
412.264 252.516 L
412.388 241.99 L
412.512 257.406 L
412.636 180.234 L
412.76 91.029 L
412.884 121.272 L
413.008 133.619 L
413.132 150.202 L
413.256 137.2 L
413.38 53.641 L
S
GR
GS
[0.75 0 0 0.75 0 0] CT
0 0.447 0.741 RC
2 LJ
N
413.38 53.641 M
413.504 61.202 L
413.628 143.001 L
413.752 239.056 L
413.876 312.907 L
414 312.166 L
414.124 272.832 L
414.248 157.566 L
414.372 60.466 L
414.496 49.05 L
414.62 73.637 L
414.744 183.971 L
414.868 274.261 L
414.992 294.632 L
415.116 331.632 L
415.24 337.883 L
415.364 333.667 L
415.488 331.155 L
415.612 332.122 L
415.736 337.641 L
415.86 333.003 L
415.984 331.309 L
416.108 332.686 L
416.232 337.774 L
416.356 332.407 L
416.48 293.002 L
416.604 267.639 L
416.728 189.402 L
416.852 77.566 L
416.976 51.981 L
417.1 57.292 L
417.224 144.131 L
417.348 264.159 L
417.472 307.215 L
417.596 329.155 L
417.72 336.114 L
417.844 341.934 L
417.968 332.389 L
418.092 297.597 L
418.216 242.595 L
418.34 159.665 L
418.464 83.583 L
418.588 52.413 L
418.712 56.999 L
418.836 70.174 L
418.96 86.016 L
419.084 57.79 L
419.208 56.698 L
419.332 63.205 L
419.456 87.789 L
S
GR
GS
[0.75 0 0 0.75 0 0] CT
0 0.447 0.741 RC
2 LJ
N
419.456 87.789 M
419.58 145.061 L
419.704 201.341 L
419.828 279 L
419.952 279.737 L
420.076 201.211 L
420.2 139.574 L
420.324 85.124 L
420.448 130.457 L
420.572 209.371 L
420.696 205.393 L
420.82 203.336 L
420.944 145.113 L
421.068 98.082 L
421.192 147.908 L
421.316 138.052 L
421.44 139.545 L
421.564 144.249 L
421.688 108.218 L
421.812 160.71 L
421.936 155.531 L
422.06 152.095 L
422.184 165.342 L
422.308 98.144 L
422.432 62.746 L
422.556 50.554 L
422.68 59.498 L
422.804 97.469 L
422.928 171.61 L
423.052 231.221 L
423.176 274.562 L
423.3 335.041 L
423.424 339.699 L
423.548 331.236 L
423.672 293.038 L
423.796 245.625 L
423.92 165.063 L
424.044 72.358 L
424.168 56.281 L
424.292 58.739 L
424.416 70.516 L
424.54 71.352 L
424.664 58.85 L
424.788 59.251 L
424.912 68.99 L
425.036 70.346 L
425.16 60.255 L
425.284 59.958 L
425.408 68.218 L
425.532 69.599 L
S
GR
GS
[0.75 0 0 0.75 0 0] CT
0 0.447 0.741 RC
2 LJ
N
425.532 69.599 M
425.656 60.725 L
425.78 60.507 L
425.904 68.074 L
426.028 69.318 L
426.152 60.515 L
426.276 60.61 L
426.4 68.388 L
426.524 69.673 L
426.648 59.897 L
426.772 60.037 L
426.896 68.945 L
427.02 70.807 L
427.144 59.171 L
427.268 58.607 L
427.392 69.471 L
427.516 72.836 L
427.64 58.673 L
427.764 56.202 L
427.888 69.613 L
428.012 157.859 L
428.136 244.955 L
428.26 238.95 L
428.384 234.63 L
428.508 178.633 L
428.632 95.916 L
428.756 60.097 L
428.88 48.5 L
429.004 66.629 L
429.128 96.282 L
429.252 159.789 L
429.376 201.487 L
429.5 211.715 L
429.624 211.748 L
429.748 127.201 L
429.872 71.228 L
429.996 64.208 L
430.12 59.632 L
430.244 62.482 L
430.368 70.145 L
430.492 69.129 L
430.616 61.237 L
430.74 58.184 L
430.864 67.231 L
430.988 73.805 L
431.112 64.186 L
431.236 54.694 L
431.36 62.519 L
431.484 77.933 L
431.608 68.633 L
S
GR
GS
[0.75 0 0 0.75 0 0] CT
0 0.447 0.741 RC
2 LJ
N
431.608 68.633 M
431.732 52.214 L
431.856 55.973 L
431.98 81.099 L
432.104 170.921 L
432.228 264.824 L
432.352 261.23 L
432.476 267.735 L
432.6 193.682 L
432.724 76.579 L
432.848 48.098 L
432.972 54.937 L
433.096 145.506 L
433.22 264.871 L
433.344 311.446 L
433.468 328.433 L
433.592 338.726 L
433.716 344.347 L
433.84 330.112 L
433.964 305.906 L
434.088 270.102 L
434.212 186.975 L
434.336 68.213 L
434.46 46.302 L
434.584 59.985 L
434.708 85.938 L
434.832 70.455 L
434.956 47.77 L
435.08 56.711 L
435.204 85.686 L
435.328 73.341 L
435.452 48.131 L
435.576 53.076 L
435.7 85.873 L
435.824 210.345 L
435.948 262.842 L
436.072 290.503 L
436.196 333.391 L
436.32 342.09 L
436.444 330.508 L
436.568 302.102 L
436.692 274.581 L
436.816 176.682 L
436.94 68.215 L
437.064 50.385 L
437.188 56.661 L
437.312 75.398 L
437.436 67.95 L
437.56 50.665 L
437.684 58.415 L
S
GR
GS
[0.75 0 0 0.75 0 0] CT
0 0.447 0.741 RC
2 LJ
N
437.684 58.415 M
437.808 160.489 L
437.932 267.221 L
438.056 308.203 L
438.18 329.149 L
438.304 339.477 L
438.428 339.333 L
438.552 331.012 L
438.676 302.38 L
438.8 253.597 L
438.924 145.283 L
439.048 73.591 L
439.172 49.621 L
439.296 66.317 L
439.42 176.916 L
439.544 252.386 L
439.668 284.114 L
439.792 330.285 L
439.916 335.503 L
440.04 283.979 L
440.164 207.708 L
440.288 150.418 L
440.412 83.5 L
440.536 88.12 L
440.66 145.434 L
440.784 194.327 L
440.908 283.424 L
441.032 334.941 L
441.156 336.445 L
441.28 330.387 L
441.404 279.034 L
441.528 213.975 L
441.652 136.692 L
441.776 66.33 L
441.9 67.126 L
442.024 62.798 L
442.148 63.874 L
442.272 64.222 L
442.396 68.434 L
442.52 64.701 L
442.644 63.39 L
442.768 61.587 L
442.892 69.174 L
443.016 66.802 L
443.14 63.826 L
443.264 58.468 L
443.388 69.289 L
443.512 68.956 L
443.636 65.385 L
443.76 54.871 L
S
GR
GS
[0.75 0 0 0.75 0 0] CT
0 0.447 0.741 RC
2 LJ
N
443.76 54.871 M
443.884 68.726 L
444.008 70.925 L
444.132 68.392 L
444.256 50.787 L
444.38 67.458 L
444.504 137.93 L
444.628 222.786 L
444.752 303.537 L
444.876 304.439 L
445 259.254 L
445.124 187.371 L
445.248 62.354 L
445.372 49.636 L
445.496 63.102 L
445.62 82.701 L
445.744 61.767 L
445.868 50.877 L
445.992 58.604 L
446.116 86.808 L
446.24 207.271 L
446.364 242.872 L
446.488 284.145 L
446.612 334.343 L
446.736 334.758 L
446.86 282.346 L
446.984 242.347 L
447.108 205.627 L
447.232 89.603 L
447.356 57.679 L
447.48 51.629 L
447.604 60.525 L
447.728 85.986 L
447.852 61.664 L
447.976 50.759 L
448.1 60.603 L
448.224 182.37 L
448.348 258.275 L
448.472 301.835 L
448.596 297.975 L
448.72 232.3 L
448.844 128.698 L
448.968 74.355 L
449.092 95.169 L
449.216 121.288 L
449.34 111.181 L
449.464 99.21 L
449.588 65.306 L
449.712 78.716 L
449.836 66.569 L
S
GR
GS
[0.75 0 0 0.75 0 0] CT
0 0.447 0.741 RC
2 LJ
N
449.836 66.569 M
449.96 50.463 L
450.084 60.463 L
450.208 82.85 L
450.332 190.828 L
450.456 255.464 L
450.58 260.732 L
450.704 262.582 L
450.828 156.577 L
450.952 65.785 L
451.076 58.435 L
451.2 58.43 L
451.324 67.944 L
451.448 61.596 L
451.572 60.589 L
451.696 62.258 L
451.82 67.424 L
451.944 57.257 L
452.068 60.11 L
452.192 66.686 L
452.316 68.83 L
452.44 53.364 L
452.564 56.874 L
452.688 71.169 L
452.812 173.493 L
452.936 272.76 L
453.06 273.074 L
453.184 273.184 L
453.308 193.901 L
453.432 70.283 L
453.556 54.79 L
453.68 53.242 L
453.804 71.325 L
453.928 66.977 L
454.052 56.074 L
454.176 55.676 L
454.3 71.584 L
454.424 64.496 L
454.548 55.218 L
454.672 57.333 L
454.796 73.595 L
454.92 63.158 L
455.044 52.883 L
455.168 57.307 L
455.292 77.305 L
455.416 207.248 L
455.54 260.254 L
455.664 265.016 L
455.788 264.377 L
455.912 128.088 L
S
GR
GS
[0.75 0 0 0.75 0 0] CT
0 0.447 0.741 RC
2 LJ
N
455.912 128.088 M
456.036 65.036 L
456.16 63.956 L
456.284 108.324 L
456.408 247.531 L
456.532 245.007 L
456.656 238.476 L
456.78 199.77 L
456.904 88.603 L
457.028 58.051 L
457.152 50.788 L
457.276 59.24 L
457.4 86.455 L
457.524 59.015 L
457.648 51.82 L
457.772 58.824 L
457.896 86.041 L
458.02 59.252 L
458.144 51.754 L
458.268 58.11 L
458.392 87.375 L
458.516 59.48 L
458.64 50.714 L
458.764 56.228 L
458.888 90.499 L
459.012 211.442 L
459.136 251.739 L
459.26 254.609 L
459.384 261.69 L
459.508 109.924 L
459.632 67.352 L
459.756 58.38 L
459.88 63.658 L
460.004 211.078 L
460.128 220.076 L
460.252 218.734 L
460.376 207.063 L
460.5 69.592 L
460.624 62.575 L
460.748 69.256 L
460.872 114.424 L
460.996 123.747 L
461.12 118.07 L
461.244 113.879 L
461.368 81.535 L
461.492 213.118 L
461.616 208.43 L
461.74 202.482 L
461.864 207.917 L
461.988 90.315 L
S
GR
GS
[0.75 0 0 0.75 0 0] CT
0 0.447 0.741 RC
2 LJ
N
461.988 90.315 M
462.112 62.146 L
462.236 52.135 L
462.36 55.386 L
462.484 83.692 L
462.608 65.753 L
462.732 54.183 L
462.856 56.113 L
462.98 78.75 L
463.104 67.81 L
463.228 55.487 L
463.352 57.284 L
463.476 75.205 L
463.6 69.22 L
463.724 55.752 L
463.848 58.628 L
463.972 72.751 L
464.096 70.715 L
464.22 54.865 L
464.344 59.894 L
464.468 71.032 L
464.592 72.929 L
464.716 52.818 L
464.84 60.887 L
464.964 139.896 L
465.088 231.476 L
465.212 303.805 L
465.336 299.641 L
465.46 247.968 L
465.584 180.113 L
465.708 73.743 L
465.832 49.559 L
465.956 59.386 L
466.08 79.919 L
466.204 75.684 L
466.328 52.802 L
466.452 55.418 L
466.576 78.727 L
466.7 77.787 L
466.824 55.816 L
466.948 51.396 L
467.072 77.47 L
467.196 185.058 L
467.32 247.662 L
467.444 296.923 L
467.568 301.64 L
467.692 222.165 L
467.816 125.503 L
467.94 63.189 L
468.064 55.067 L
S
GR
GS
[0.75 0 0 0.75 0 0] CT
0 0.447 0.741 RC
2 LJ
N
468.064 55.067 M
468.188 74.998 L
468.312 63.282 L
468.436 61.623 L
468.56 57.431 L
468.684 75.022 L
468.808 63.062 L
468.932 59.748 L
469.056 58.142 L
469.18 76.667 L
469.304 63.247 L
469.428 57.851 L
469.552 56.764 L
469.676 79.734 L
469.8 186.843 L
469.924 252.143 L
470.048 248.415 L
470.172 250.268 L
470.296 134.965 L
470.42 87.138 L
470.544 117.215 L
470.668 158.305 L
470.792 275.078 L
470.916 275.489 L
471.04 219.664 L
471.164 183.689 L
471.288 81.204 L
471.412 59.009 L
471.536 54.131 L
471.66 64.218 L
471.784 79.497 L
471.908 62.72 L
472.032 50.81 L
472.156 64.959 L
472.28 171.071 L
472.404 247.446 L
472.528 305.827 L
472.652 306.286 L
472.776 240.125 L
472.9 151.221 L
473.024 63.54 L
473.148 51.039 L
473.272 69.503 L
473.396 73.221 L
473.52 62.649 L
473.644 53.783 L
473.768 66.933 L
473.892 74.483 L
474.016 61.57 L
474.14 55.339 L
S
GR
GS
[0.75 0 0 0.75 0 0] CT
0 0.447 0.741 RC
2 LJ
N
474.14 55.339 M
474.264 64.987 L
474.388 76.467 L
474.512 60.473 L
474.636 55.903 L
474.76 62.932 L
474.884 79.483 L
475.008 59.528 L
475.132 55.815 L
475.256 59.957 L
475.38 83.805 L
475.504 193.393 L
475.628 190.171 L
475.752 189.639 L
475.876 191.383 L
476 86.744 L
476.124 62.172 L
476.248 56.582 L
476.372 56.787 L
476.496 80.447 L
476.62 66.015 L
476.744 58.561 L
476.868 57.16 L
476.992 75.554 L
477.116 68.022 L
477.24 60.545 L
477.364 57.871 L
477.488 71.841 L
477.612 68.829 L
477.736 62.279 L
477.86 58.795 L
477.984 69.104 L
478.108 68.894 L
478.232 63.66 L
478.356 59.812 L
478.48 67.158 L
478.604 68.54 L
478.728 64.675 L
478.852 60.825 L
478.976 65.833 L
479.1 67.988 L
479.224 65.361 L
479.348 61.762 L
479.472 64.983 L
479.596 67.38 L
479.72 65.777 L
479.844 62.582 L
479.968 64.481 L
480.092 66.802 L
480.216 65.99 L
S
GR
GS
[0.75 0 0 0.75 0 0] CT
0 0.447 0.741 RC
2 LJ
N
480.216 65.99 M
480.34 63.266 L
480.464 64.222 L
480.588 66.299 L
480.712 66.061 L
480.836 63.813 L
480.96 64.121 L
481.084 65.889 L
481.208 66.044 L
481.332 64.233 L
481.456 64.114 L
481.58 65.571 L
481.704 65.982 L
481.828 64.546 L
481.952 64.151 L
482.076 65.333 L
482.2 65.907 L
482.324 64.778 L
482.448 64.198 L
482.572 65.156 L
482.696 65.841 L
482.82 64.957 L
482.944 64.233 L
483.068 65.016 L
483.192 65.794 L
483.316 65.11 L
483.44 64.244 L
483.564 64.89 L
483.688 65.77 L
483.812 65.268 L
483.936 64.229 L
484.06 64.753 L
484.184 65.76 L
484.308 65.457 L
484.432 64.194 L
484.556 64.584 L
484.68 65.748 L
484.804 65.706 L
484.928 64.153 L
485.052 64.367 L
485.176 65.705 L
485.3 66.039 L
485.424 64.129 L
485.548 64.09 L
485.672 65.591 L
485.796 66.478 L
485.92 64.152 L
486.044 63.756 L
486.168 65.349 L
486.292 67.041 L
S
GR
GS
[0.75 0 0 0.75 0 0] CT
0 0.447 0.741 RC
2 LJ
N
486.292 67.041 M
486.416 64.256 L
486.54 63.381 L
486.664 64.906 L
486.788 67.738 L
486.912 64.479 L
487.036 63.012 L
487.16 64.166 L
487.284 68.573 L
487.408 64.856 L
487.532 62.73 L
487.656 63.01 L
487.78 69.54 L
487.904 65.407 L
488.028 62.671 L
488.152 61.288 L
488.276 70.625 L
488.4 66.121 L
488.524 63.05 L
S
GR
%%Trailer
%%Pages: 1
%%EOF
