%!PS-Adobe-3.0 EPSF-3.0
%%Creator: (MATLAB, The Mathworks, Inc. Version 8.6.0.267246 \(R2015b\). Operating System: Linux)
%%Title: /home/william/som16_albertas/git/contig_assembly/Paper/FIGURES/autocorr/c1.eps
%%CreationDate: 2016-11-10T15:32:27
%%Pages: (atend)
%%BoundingBox: 0 0 498 373
%%LanguageLevel: 2
%%EndComments
%%BeginProlog
%%BeginResource: procset (Apache XML Graphics Std ProcSet) 1.2 0
%%Version: 1.2 0
%%Copyright: (Copyright 2001-2003,2010 The Apache Software Foundation. License terms: http://www.apache.org/licenses/LICENSE-2.0)
/bd{bind def}bind def
/ld{load def}bd
/GR/grestore ld
/M/moveto ld
/LJ/setlinejoin ld
/C/curveto ld
/f/fill ld
/LW/setlinewidth ld
/GC/setgray ld
/t/show ld
/N/newpath ld
/CT/concat ld
/cp/closepath ld
/S/stroke ld
/L/lineto ld
/CC/setcmykcolor ld
/A/ashow ld
/GS/gsave ld
/RC/setrgbcolor ld
/RM/rmoveto ld
/ML/setmiterlimit ld
/re {4 2 roll M
1 index 0 rlineto
0 exch rlineto
neg 0 rlineto
cp } bd
/_ctm matrix def
/_tm matrix def
/BT { _ctm currentmatrix pop matrix _tm copy pop 0 0 moveto } bd
/ET { _ctm setmatrix } bd
/iTm { _ctm setmatrix _tm concat } bd
/Tm { _tm astore pop iTm 0 0 moveto } bd
/ux 0.0 def
/uy 0.0 def
/F {
  /Tp exch def
  /Tf exch def
  Tf findfont Tp scalefont setfont
  /cf Tf def  /cs Tp def
} bd
/ULS {currentpoint /uy exch def /ux exch def} bd
/ULE {
  /Tcx currentpoint pop def
  gsave
  newpath
  cf findfont cs scalefont dup
  /FontMatrix get 0 get /Ts exch def /FontInfo get dup
  /UnderlinePosition get Ts mul /To exch def
  /UnderlineThickness get Ts mul /Tt exch def
  ux uy To add moveto  Tcx uy To add lineto
  Tt setlinewidth stroke
  grestore
} bd
/OLE {
  /Tcx currentpoint pop def
  gsave
  newpath
  cf findfont cs scalefont dup
  /FontMatrix get 0 get /Ts exch def /FontInfo get dup
  /UnderlinePosition get Ts mul /To exch def
  /UnderlineThickness get Ts mul /Tt exch def
  ux uy To add cs add moveto Tcx uy To add cs add lineto
  Tt setlinewidth stroke
  grestore
} bd
/SOE {
  /Tcx currentpoint pop def
  gsave
  newpath
  cf findfont cs scalefont dup
  /FontMatrix get 0 get /Ts exch def /FontInfo get dup
  /UnderlinePosition get Ts mul /To exch def
  /UnderlineThickness get Ts mul /Tt exch def
  ux uy To add cs 10 mul 26 idiv add moveto Tcx uy To add cs 10 mul 26 idiv add lineto
  Tt setlinewidth stroke
  grestore
} bd
/QT {
/Y22 exch store
/X22 exch store
/Y21 exch store
/X21 exch store
currentpoint
/Y21 load 2 mul add 3 div exch
/X21 load 2 mul add 3 div exch
/X21 load 2 mul /X22 load add 3 div
/Y21 load 2 mul /Y22 load add 3 div
/X22 load /Y22 load curveto
} bd
/SSPD {
dup length /d exch dict def
{
/v exch def
/k exch def
currentpagedevice k known {
/cpdv currentpagedevice k get def
v cpdv ne {
/upd false def
/nullv v type /nulltype eq def
/nullcpdv cpdv type /nulltype eq def
nullv nullcpdv or
{
/upd true def
} {
/sametype v type cpdv type eq def
sametype {
v type /arraytype eq {
/vlen v length def
/cpdvlen cpdv length def
vlen cpdvlen eq {
0 1 vlen 1 sub {
/i exch def
/obj v i get def
/cpdobj cpdv i get def
obj cpdobj ne {
/upd true def
exit
} if
} for
} {
/upd true def
} ifelse
} {
v type /dicttype eq {
v {
/dv exch def
/dk exch def
/cpddv cpdv dk get def
dv cpddv ne {
/upd true def
exit
} if
} forall
} {
/upd true def
} ifelse
} ifelse
} if
} ifelse
upd true eq {
d k v put
} if
} if
} if
} forall
d length 0 gt {
d setpagedevice
} if
} bd
%%EndResource
%%BeginResource: procset (Apache XML Graphics EPS ProcSet) 1.0 0
%%Version: 1.0 0
%%Copyright: (Copyright 2002-2003 The Apache Software Foundation. License terms: http://www.apache.org/licenses/LICENSE-2.0)
/BeginEPSF { %def
/b4_Inc_state save def         % Save state for cleanup
/dict_count countdictstack def % Count objects on dict stack
/op_count count 1 sub def      % Count objects on operand stack
userdict begin                 % Push userdict on dict stack
/showpage { } def              % Redefine showpage, { } = null proc
0 setgray 0 setlinecap         % Prepare graphics state
1 setlinewidth 0 setlinejoin
10 setmiterlimit [ ] 0 setdash newpath
/languagelevel where           % If level not equal to 1 then
{pop languagelevel             % set strokeadjust and
1 ne                           % overprint to their defaults.
{false setstrokeadjust false setoverprint
} if
} if
} bd
/EndEPSF { %def
count op_count sub {pop} repeat            % Clean up stacks
countdictstack dict_count sub {end} repeat
b4_Inc_state restore
} bd
%%EndResource
%FOPBeginFontDict
%%IncludeResource: font Courier-Bold
%%IncludeResource: font Helvetica
%%IncludeResource: font Courier-BoldOblique
%%IncludeResource: font Courier-Oblique
%%IncludeResource: font Times-Roman
%%IncludeResource: font Helvetica-BoldOblique
%%IncludeResource: font Helvetica-Bold
%%IncludeResource: font Helvetica-Oblique
%%IncludeResource: font Times-BoldItalic
%%IncludeResource: font Courier
%%IncludeResource: font Times-Italic
%%IncludeResource: font Times-Bold
%%IncludeResource: font Symbol
%%IncludeResource: font ZapfDingbats
%FOPEndFontDict
%%BeginResource: encoding WinAnsiEncoding
/WinAnsiEncoding [
/.notdef /.notdef /.notdef /.notdef /.notdef
/.notdef /.notdef /.notdef /.notdef /.notdef
/.notdef /.notdef /.notdef /.notdef /.notdef
/.notdef /.notdef /.notdef /.notdef /.notdef
/.notdef /.notdef /.notdef /.notdef /.notdef
/.notdef /.notdef /.notdef /.notdef /.notdef
/.notdef /.notdef /space /exclam /quotedbl
/numbersign /dollar /percent /ampersand /quotesingle
/parenleft /parenright /asterisk /plus /comma
/hyphen /period /slash /zero /one
/two /three /four /five /six
/seven /eight /nine /colon /semicolon
/less /equal /greater /question /at
/A /B /C /D /E
/F /G /H /I /J
/K /L /M /N /O
/P /Q /R /S /T
/U /V /W /X /Y
/Z /bracketleft /backslash /bracketright /asciicircum
/underscore /quoteleft /a /b /c
/d /e /f /g /h
/i /j /k /l /m
/n /o /p /q /r
/s /t /u /v /w
/x /y /z /braceleft /bar
/braceright /asciitilde /bullet /Euro /bullet
/quotesinglbase /florin /quotedblbase /ellipsis /dagger
/daggerdbl /circumflex /perthousand /Scaron /guilsinglleft
/OE /bullet /Zcaron /bullet /bullet
/quoteleft /quoteright /quotedblleft /quotedblright /bullet
/endash /emdash /asciitilde /trademark /scaron
/guilsinglright /oe /bullet /zcaron /Ydieresis
/space /exclamdown /cent /sterling /currency
/yen /brokenbar /section /dieresis /copyright
/ordfeminine /guillemotleft /logicalnot /sfthyphen /registered
/macron /degree /plusminus /twosuperior /threesuperior
/acute /mu /paragraph /middot /cedilla
/onesuperior /ordmasculine /guillemotright /onequarter /onehalf
/threequarters /questiondown /Agrave /Aacute /Acircumflex
/Atilde /Adieresis /Aring /AE /Ccedilla
/Egrave /Eacute /Ecircumflex /Edieresis /Igrave
/Iacute /Icircumflex /Idieresis /Eth /Ntilde
/Ograve /Oacute /Ocircumflex /Otilde /Odieresis
/multiply /Oslash /Ugrave /Uacute /Ucircumflex
/Udieresis /Yacute /Thorn /germandbls /agrave
/aacute /acircumflex /atilde /adieresis /aring
/ae /ccedilla /egrave /eacute /ecircumflex
/edieresis /igrave /iacute /icircumflex /idieresis
/eth /ntilde /ograve /oacute /ocircumflex
/otilde /odieresis /divide /oslash /ugrave
/uacute /ucircumflex /udieresis /yacute /thorn
/ydieresis
] def
%%EndResource
%FOPBeginFontReencode
/Courier-Bold findfont
dup length dict begin
  {1 index /FID ne {def} {pop pop} ifelse} forall
  /Encoding WinAnsiEncoding def
  currentdict
end
/Courier-Bold exch definefont pop
/Helvetica findfont
dup length dict begin
  {1 index /FID ne {def} {pop pop} ifelse} forall
  /Encoding WinAnsiEncoding def
  currentdict
end
/Helvetica exch definefont pop
/Courier-BoldOblique findfont
dup length dict begin
  {1 index /FID ne {def} {pop pop} ifelse} forall
  /Encoding WinAnsiEncoding def
  currentdict
end
/Courier-BoldOblique exch definefont pop
/Courier-Oblique findfont
dup length dict begin
  {1 index /FID ne {def} {pop pop} ifelse} forall
  /Encoding WinAnsiEncoding def
  currentdict
end
/Courier-Oblique exch definefont pop
/Times-Roman findfont
dup length dict begin
  {1 index /FID ne {def} {pop pop} ifelse} forall
  /Encoding WinAnsiEncoding def
  currentdict
end
/Times-Roman exch definefont pop
/Helvetica-BoldOblique findfont
dup length dict begin
  {1 index /FID ne {def} {pop pop} ifelse} forall
  /Encoding WinAnsiEncoding def
  currentdict
end
/Helvetica-BoldOblique exch definefont pop
/Helvetica-Bold findfont
dup length dict begin
  {1 index /FID ne {def} {pop pop} ifelse} forall
  /Encoding WinAnsiEncoding def
  currentdict
end
/Helvetica-Bold exch definefont pop
/Helvetica-Oblique findfont
dup length dict begin
  {1 index /FID ne {def} {pop pop} ifelse} forall
  /Encoding WinAnsiEncoding def
  currentdict
end
/Helvetica-Oblique exch definefont pop
/Times-BoldItalic findfont
dup length dict begin
  {1 index /FID ne {def} {pop pop} ifelse} forall
  /Encoding WinAnsiEncoding def
  currentdict
end
/Times-BoldItalic exch definefont pop
/Courier findfont
dup length dict begin
  {1 index /FID ne {def} {pop pop} ifelse} forall
  /Encoding WinAnsiEncoding def
  currentdict
end
/Courier exch definefont pop
/Times-Italic findfont
dup length dict begin
  {1 index /FID ne {def} {pop pop} ifelse} forall
  /Encoding WinAnsiEncoding def
  currentdict
end
/Times-Italic exch definefont pop
/Times-Bold findfont
dup length dict begin
  {1 index /FID ne {def} {pop pop} ifelse} forall
  /Encoding WinAnsiEncoding def
  currentdict
end
/Times-Bold exch definefont pop
%FOPEndFontReencode
%%EndProlog
%%Page: 1 1
%%PageBoundingBox: 0 0 498 373
%%BeginPageSetup
[1 0 0 -1 0 373] CT
%%EndPageSetup
GS
[0.88889 0 0 0.88889 0 -0.33331] CT
1 GC
N
0 0 560 420 re
f
GR
GS
[0.88889 0 0 0.88889 0 -0.33331] CT
1 GC
N
0 0 560 420 re
f
GR
GS
[0.88889 0 0 0.88889 0 -0.33331] CT
1 GC
N
73 374 M
507 374 L
507 31 L
73 31 L
cp
f
GR
GS
[0.88889 0 0 0.88889 0 -0.33331] CT
0.149 GC
2 setlinecap
1 LJ
0.563 LW
N
73 374 M
507 374 L
S
GR
GS
[0.88889 0 0 0.88889 0 -0.33331] CT
0.149 GC
2 setlinecap
1 LJ
0.563 LW
N
73 31 M
507 31 L
S
GR
GS
[0.88889 0 0 0.88889 0 -0.33331] CT
0.149 GC
2 setlinecap
1 LJ
0.563 LW
N
121.879 374 M
121.879 369.66 L
S
GR
GS
[0.88889 0 0 0.88889 0 -0.33331] CT
0.149 GC
2 setlinecap
1 LJ
0.563 LW
N
195.867 374 M
195.867 369.66 L
S
GR
GS
[0.88889 0 0 0.88889 0 -0.33331] CT
0.149 GC
2 setlinecap
1 LJ
0.563 LW
N
269.856 374 M
269.856 369.66 L
S
GR
GS
[0.88889 0 0 0.88889 0 -0.33331] CT
0.149 GC
2 setlinecap
1 LJ
0.563 LW
N
343.845 374 M
343.845 369.66 L
S
GR
GS
[0.88889 0 0 0.88889 0 -0.33331] CT
0.149 GC
2 setlinecap
1 LJ
0.563 LW
N
417.834 374 M
417.834 369.66 L
S
GR
GS
[0.88889 0 0 0.88889 0 -0.33331] CT
0.149 GC
2 setlinecap
1 LJ
0.563 LW
N
491.823 374 M
491.823 369.66 L
S
GR
GS
[0.88889 0 0 0.88889 0 -0.33331] CT
0.149 GC
2 setlinecap
1 LJ
0.563 LW
N
121.879 31 M
121.879 35.34 L
S
GR
GS
[0.88889 0 0 0.88889 0 -0.33331] CT
0.149 GC
2 setlinecap
1 LJ
0.563 LW
N
195.867 31 M
195.867 35.34 L
S
GR
GS
[0.88889 0 0 0.88889 0 -0.33331] CT
0.149 GC
2 setlinecap
1 LJ
0.563 LW
N
269.856 31 M
269.856 35.34 L
S
GR
GS
[0.88889 0 0 0.88889 0 -0.33331] CT
0.149 GC
2 setlinecap
1 LJ
0.563 LW
N
343.845 31 M
343.845 35.34 L
S
GR
GS
[0.88889 0 0 0.88889 0 -0.33331] CT
0.149 GC
2 setlinecap
1 LJ
0.563 LW
N
417.834 31 M
417.834 35.34 L
S
GR
GS
[0.88889 0 0 0.88889 0 -0.33331] CT
0.149 GC
2 setlinecap
1 LJ
0.563 LW
N
491.823 31 M
491.823 35.34 L
S
GR
GS
[0.88889 0 0 0.88889 108.33646 336.11111] CT
0.149 GC
/Helvetica 11 F
GS
[1 0 0 1 0 0] CT
-3.5 11 moveto 
1 -1 scale
(0) t 
GR
GR
GS
[0.88889 0 0 0.88889 174.10443 336.11111] CT
0.149 GC
/Helvetica 11 F
GS
[1 0 0 1 0 0] CT
-6.5 11 moveto 
1 -1 scale
(10) t 
GR
GR
GS
[0.88889 0 0 0.88889 239.87241 336.11111] CT
0.149 GC
/Helvetica 11 F
GS
[1 0 0 1 0 0] CT
-6.5 11 moveto 
1 -1 scale
(20) t 
GR
GR
GS
[0.88889 0 0 0.88889 305.6404 336.11111] CT
0.149 GC
/Helvetica 11 F
GS
[1 0 0 1 0 0] CT
-6.5 11 moveto 
1 -1 scale
(30) t 
GR
GR
GS
[0.88889 0 0 0.88889 371.40836 336.11111] CT
0.149 GC
/Helvetica 11 F
GS
[1 0 0 1 0 0] CT
-6.5 11 moveto 
1 -1 scale
(40) t 
GR
GR
GS
[0.88889 0 0 0.88889 437.17634 336.11111] CT
0.149 GC
/Helvetica 11 F
GS
[1 0 0 1 0 0] CT
-6.5 11 moveto 
1 -1 scale
(50) t 
GR
GR
GS
[0.88889 0 0 0.88889 0 -0.33331] CT
0.149 GC
2 setlinecap
1 LJ
0.563 LW
N
73 374 M
73 31 L
S
GR
GS
[0.88889 0 0 0.88889 0 -0.33331] CT
0.149 GC
2 setlinecap
1 LJ
0.563 LW
N
507 374 M
507 31 L
S
GR
GS
[0.88889 0 0 0.88889 0 -0.33331] CT
0.149 GC
2 setlinecap
1 LJ
0.563 LW
N
73 343.387 M
77.34 343.387 L
S
GR
GS
[0.88889 0 0 0.88889 0 -0.33331] CT
0.149 GC
2 setlinecap
1 LJ
0.563 LW
N
73 283.961 M
77.34 283.961 L
S
GR
GS
[0.88889 0 0 0.88889 0 -0.33331] CT
0.149 GC
2 setlinecap
1 LJ
0.563 LW
N
73 224.535 M
77.34 224.535 L
S
GR
GS
[0.88889 0 0 0.88889 0 -0.33331] CT
0.149 GC
2 setlinecap
1 LJ
0.563 LW
N
73 165.109 M
77.34 165.109 L
S
GR
GS
[0.88889 0 0 0.88889 0 -0.33331] CT
0.149 GC
2 setlinecap
1 LJ
0.563 LW
N
73 105.683 M
77.34 105.683 L
S
GR
GS
[0.88889 0 0 0.88889 0 -0.33331] CT
0.149 GC
2 setlinecap
1 LJ
0.563 LW
N
73 46.257 M
77.34 46.257 L
S
GR
GS
[0.88889 0 0 0.88889 0 -0.33331] CT
0.149 GC
2 setlinecap
1 LJ
0.563 LW
N
507 343.387 M
502.66 343.387 L
S
GR
GS
[0.88889 0 0 0.88889 0 -0.33331] CT
0.149 GC
2 setlinecap
1 LJ
0.563 LW
N
507 283.961 M
502.66 283.961 L
S
GR
GS
[0.88889 0 0 0.88889 0 -0.33331] CT
0.149 GC
2 setlinecap
1 LJ
0.563 LW
N
507 224.535 M
502.66 224.535 L
S
GR
GS
[0.88889 0 0 0.88889 0 -0.33331] CT
0.149 GC
2 setlinecap
1 LJ
0.563 LW
N
507 165.109 M
502.66 165.109 L
S
GR
GS
[0.88889 0 0 0.88889 0 -0.33331] CT
0.149 GC
2 setlinecap
1 LJ
0.563 LW
N
507 105.683 M
502.66 105.683 L
S
GR
GS
[0.88889 0 0 0.88889 0 -0.33331] CT
0.149 GC
2 setlinecap
1 LJ
0.563 LW
N
507 46.257 M
502.66 46.257 L
S
GR
GS
[0.88889 0 0 0.88889 60.88889 304.89939] CT
0.149 GC
/Helvetica 11 F
GS
[1 0 0 1 0 0] CT
-7 4 moveto 
1 -1 scale
(0) t 
GR
GR
GS
[0.88889 0 0 0.88889 60.88889 252.07634] CT
0.149 GC
/Helvetica 11 F
GS
[1 0 0 1 0 0] CT
-19 4 moveto 
1 -1 scale
(100) t 
GR
GR
GS
[0.88889 0 0 0.88889 60.88889 199.25332] CT
0.149 GC
/Helvetica 11 F
GS
[1 0 0 1 0 0] CT
-19 4 moveto 
1 -1 scale
(200) t 
GR
GR
GS
[0.88889 0 0 0.88889 60.88889 146.43027] CT
0.149 GC
/Helvetica 11 F
GS
[1 0 0 1 0 0] CT
-19 4 moveto 
1 -1 scale
(300) t 
GR
GR
GS
[0.88889 0 0 0.88889 60.88889 93.60723] CT
0.149 GC
/Helvetica 11 F
GS
[1 0 0 1 0 0] CT
-19 4 moveto 
1 -1 scale
(400) t 
GR
GR
GS
[0.88889 0 0 0.88889 60.88889 40.7842] CT
0.149 GC
/Helvetica 11 F
GS
[1 0 0 1 0 0] CT
-19 4 moveto 
1 -1 scale
(500) t 
GR
GR
GS
[0.88889 0 0 0.88889 0 -0.33331] CT
0 0.447 0.741 RC
1 LJ
0.563 LW
N
136.623 30.966 M
136.676 241.064 L
144.075 292.98 L
151.474 56.453 L
158.873 179.338 L
166.272 279.522 L
173.671 233.084 L
181.07 229.483 L
188.469 282.712 L
195.867 251.428 L
203.266 274.473 L
210.665 334.817 L
218.064 317.297 L
225.463 325.171 L
232.862 328.874 L
240.261 331.63 L
247.66 338.596 L
255.059 337.79 L
262.458 339.123 L
269.856 341.201 L
277.255 340.656 L
284.654 340.118 L
292.053 342.351 L
299.452 341.712 L
306.851 342.258 L
314.25 342.953 L
321.649 343.227 L
329.048 343.161 L
336.447 343.164 L
343.845 343.289 L
351.244 343.344 L
358.643 343.364 L
366.042 343.381 L
373.441 343.372 L
380.84 343.383 L
388.239 343.386 L
395.638 343.387 L
403.037 343.386 L
410.435 343.387 L
417.834 343.387 L
425.233 343.386 L
432.632 343.385 L
440.031 343.384 L
447.43 343.385 L
454.829 343.385 L
462.228 343.386 L
469.627 343.386 L
477.026 343.385 L
484.424 343.386 L
491.823 343.385 L
S
GR
GS
[0.88889 0 0 0.88889 0 -0.33331] CT
0 0.447 0.741 RC
1 LJ
0.563 LW
N
484.424 343.386 M
491.823 343.385 L
499.222 343.386 L
506.621 343.386 L
507.043 343.386 L
S
GR
GS
[0.88889 0 0 0.88889 0 -0.33331] CT
0.851 0.325 0.098 RC
1 LJ
0.563 LW
N
136.624 30.966 M
136.676 238.449 L
144.075 291.768 L
151.474 50.011 L
158.873 187.407 L
166.272 286.992 L
173.671 242.37 L
181.07 223.305 L
188.469 269.668 L
195.867 238.846 L
203.266 259.68 L
210.665 321.568 L
218.064 309.513 L
225.463 326.072 L
232.862 314.9 L
240.261 320.446 L
247.66 332.117 L
255.059 324.208 L
262.458 327.386 L
269.856 331.479 L
277.255 332.1 L
284.654 327.463 L
292.053 330.654 L
299.452 333.244 L
306.851 330.996 L
314.25 332.532 L
321.649 332.872 L
329.048 333.048 L
336.447 333.416 L
343.845 334.041 L
351.244 334.299 L
358.643 334.548 L
366.042 334.824 L
373.441 335.1 L
380.84 335.339 L
388.239 335.569 L
395.638 335.789 L
403.037 335.997 L
410.435 336.194 L
417.834 336.381 L
425.233 336.559 L
432.632 336.726 L
440.031 336.885 L
447.43 337.04 L
454.829 337.185 L
462.228 337.324 L
469.627 337.457 L
477.026 337.586 L
484.424 337.706 L
491.823 337.823 L
S
GR
GS
[0.88889 0 0 0.88889 0 -0.33331] CT
0.851 0.325 0.098 RC
1 LJ
0.563 LW
N
484.424 337.706 M
491.823 337.823 L
499.222 337.935 L
506.621 338.045 L
507.043 338.051 L
S
GR
GS
[0.88889 0 0 0.88889 0 -0.33331] CT
1 GC
N
341 71 M
341 42 L
496 42 L
496 71 L
cp
f
GR
GS
[0.88889 0 0 0.88889 342.04833 44.31758] CT
/Helvetica 10 F
GS
[1 0 0 1 0 0] CT
0 4 moveto 
1 -1 scale
(|Ith\(omega\)|) t 
GR
GR
GS
[0.88889 0 0 0.88889 0 -0.33331] CT
0 0.447 0.741 RC
1 LJ
0.563 LW
N
347.739 50.232 M
381.435 50.232 L
S
GR
GS
[0.88889 0 0 0.88889 342.04833 55.46023] CT
/Helvetica 10 F
GS
[1 0 0 1 0 0] CT
0 4 moveto 
1 -1 scale
(|phi\(omega\)|*|p\(omega\)|) t 
GR
GR
GS
[0.88889 0 0 0.88889 0 -0.33331] CT
0.851 0.325 0.098 RC
1 LJ
0.563 LW
N
347.739 62.768 M
381.435 62.768 L
S
GR
GS
[0.88889 0 0 0.88889 0 -0.33331] CT
0.149 GC
10.0 ML
0.563 LW
N
341 71 M
341 42 L
496 42 L
496 71 L
cp
S
GR
%%Trailer
%%Pages: 1
%%EOF
