%!PS-Adobe-3.0 EPSF-3.0
%%Creator: (MATLAB, The Mathworks, Inc. Version 8.5.0.197613 \(R2015a\). Operating System: Linux)
%%Title: /home/albyback/git/contig_assembly/Paper/FIGURES/evd/evdExact2.eps
%%CreationDate: 2016-12-01T21:13:12
%%Pages: (atend)
%%BoundingBox: 0 0 420 315
%%LanguageLevel: 2
%%EndComments
%%BeginProlog
%%BeginResource: procset (Apache XML Graphics Std ProcSet) 1.2 0
%%Version: 1.2 0
%%Copyright: (Copyright 2001-2003,2010 The Apache Software Foundation. License terms: http://www.apache.org/licenses/LICENSE-2.0)
/bd{bind def}bind def
/ld{load def}bd
/GR/grestore ld
/M/moveto ld
/LJ/setlinejoin ld
/C/curveto ld
/f/fill ld
/LW/setlinewidth ld
/GC/setgray ld
/t/show ld
/N/newpath ld
/CT/concat ld
/cp/closepath ld
/S/stroke ld
/L/lineto ld
/CC/setcmykcolor ld
/A/ashow ld
/GS/gsave ld
/RC/setrgbcolor ld
/RM/rmoveto ld
/ML/setmiterlimit ld
/re {4 2 roll M
1 index 0 rlineto
0 exch rlineto
neg 0 rlineto
cp } bd
/_ctm matrix def
/_tm matrix def
/BT { _ctm currentmatrix pop matrix _tm copy pop 0 0 moveto } bd
/ET { _ctm setmatrix } bd
/iTm { _ctm setmatrix _tm concat } bd
/Tm { _tm astore pop iTm 0 0 moveto } bd
/ux 0.0 def
/uy 0.0 def
/F {
  /Tp exch def
  /Tf exch def
  Tf findfont Tp scalefont setfont
  /cf Tf def  /cs Tp def
} bd
/ULS {currentpoint /uy exch def /ux exch def} bd
/ULE {
  /Tcx currentpoint pop def
  gsave
  newpath
  cf findfont cs scalefont dup
  /FontMatrix get 0 get /Ts exch def /FontInfo get dup
  /UnderlinePosition get Ts mul /To exch def
  /UnderlineThickness get Ts mul /Tt exch def
  ux uy To add moveto  Tcx uy To add lineto
  Tt setlinewidth stroke
  grestore
} bd
/OLE {
  /Tcx currentpoint pop def
  gsave
  newpath
  cf findfont cs scalefont dup
  /FontMatrix get 0 get /Ts exch def /FontInfo get dup
  /UnderlinePosition get Ts mul /To exch def
  /UnderlineThickness get Ts mul /Tt exch def
  ux uy To add cs add moveto Tcx uy To add cs add lineto
  Tt setlinewidth stroke
  grestore
} bd
/SOE {
  /Tcx currentpoint pop def
  gsave
  newpath
  cf findfont cs scalefont dup
  /FontMatrix get 0 get /Ts exch def /FontInfo get dup
  /UnderlinePosition get Ts mul /To exch def
  /UnderlineThickness get Ts mul /Tt exch def
  ux uy To add cs 10 mul 26 idiv add moveto Tcx uy To add cs 10 mul 26 idiv add lineto
  Tt setlinewidth stroke
  grestore
} bd
/QT {
/Y22 exch store
/X22 exch store
/Y21 exch store
/X21 exch store
currentpoint
/Y21 load 2 mul add 3 div exch
/X21 load 2 mul add 3 div exch
/X21 load 2 mul /X22 load add 3 div
/Y21 load 2 mul /Y22 load add 3 div
/X22 load /Y22 load curveto
} bd
/SSPD {
dup length /d exch dict def
{
/v exch def
/k exch def
currentpagedevice k known {
/cpdv currentpagedevice k get def
v cpdv ne {
/upd false def
/nullv v type /nulltype eq def
/nullcpdv cpdv type /nulltype eq def
nullv nullcpdv or
{
/upd true def
} {
/sametype v type cpdv type eq def
sametype {
v type /arraytype eq {
/vlen v length def
/cpdvlen cpdv length def
vlen cpdvlen eq {
0 1 vlen 1 sub {
/i exch def
/obj v i get def
/cpdobj cpdv i get def
obj cpdobj ne {
/upd true def
exit
} if
} for
} {
/upd true def
} ifelse
} {
v type /dicttype eq {
v {
/dv exch def
/dk exch def
/cpddv cpdv dk get def
dv cpddv ne {
/upd true def
exit
} if
} forall
} {
/upd true def
} ifelse
} ifelse
} if
} ifelse
upd true eq {
d k v put
} if
} if
} if
} forall
d length 0 gt {
d setpagedevice
} if
} bd
%%EndResource
%%BeginResource: procset (Apache XML Graphics EPS ProcSet) 1.0 0
%%Version: 1.0 0
%%Copyright: (Copyright 2002-2003 The Apache Software Foundation. License terms: http://www.apache.org/licenses/LICENSE-2.0)
/BeginEPSF { %def
/b4_Inc_state save def         % Save state for cleanup
/dict_count countdictstack def % Count objects on dict stack
/op_count count 1 sub def      % Count objects on operand stack
userdict begin                 % Push userdict on dict stack
/showpage { } def              % Redefine showpage, { } = null proc
0 setgray 0 setlinecap         % Prepare graphics state
1 setlinewidth 0 setlinejoin
10 setmiterlimit [ ] 0 setdash newpath
/languagelevel where           % If level not equal to 1 then
{pop languagelevel             % set strokeadjust and
1 ne                           % overprint to their defaults.
{false setstrokeadjust false setoverprint
} if
} if
} bd
/EndEPSF { %def
count op_count sub {pop} repeat            % Clean up stacks
countdictstack dict_count sub {end} repeat
b4_Inc_state restore
} bd
%%EndResource
%FOPBeginFontDict
%%IncludeResource: font Courier-Bold
%%IncludeResource: font Helvetica
%%IncludeResource: font Courier-BoldOblique
%%IncludeResource: font Courier-Oblique
%%IncludeResource: font Times-Roman
%%IncludeResource: font Helvetica-BoldOblique
%%IncludeResource: font Helvetica-Bold
%%IncludeResource: font Helvetica-Oblique
%%IncludeResource: font Times-BoldItalic
%%IncludeResource: font Courier
%%IncludeResource: font Times-Italic
%%IncludeResource: font Times-Bold
%%IncludeResource: font Symbol
%%IncludeResource: font ZapfDingbats
%FOPEndFontDict
%%BeginResource: encoding WinAnsiEncoding
/WinAnsiEncoding [
/.notdef /.notdef /.notdef /.notdef /.notdef
/.notdef /.notdef /.notdef /.notdef /.notdef
/.notdef /.notdef /.notdef /.notdef /.notdef
/.notdef /.notdef /.notdef /.notdef /.notdef
/.notdef /.notdef /.notdef /.notdef /.notdef
/.notdef /.notdef /.notdef /.notdef /.notdef
/.notdef /.notdef /space /exclam /quotedbl
/numbersign /dollar /percent /ampersand /quotesingle
/parenleft /parenright /asterisk /plus /comma
/hyphen /period /slash /zero /one
/two /three /four /five /six
/seven /eight /nine /colon /semicolon
/less /equal /greater /question /at
/A /B /C /D /E
/F /G /H /I /J
/K /L /M /N /O
/P /Q /R /S /T
/U /V /W /X /Y
/Z /bracketleft /backslash /bracketright /asciicircum
/underscore /quoteleft /a /b /c
/d /e /f /g /h
/i /j /k /l /m
/n /o /p /q /r
/s /t /u /v /w
/x /y /z /braceleft /bar
/braceright /asciitilde /bullet /Euro /bullet
/quotesinglbase /florin /quotedblbase /ellipsis /dagger
/daggerdbl /circumflex /perthousand /Scaron /guilsinglleft
/OE /bullet /Zcaron /bullet /bullet
/quoteleft /quoteright /quotedblleft /quotedblright /bullet
/endash /emdash /asciitilde /trademark /scaron
/guilsinglright /oe /bullet /zcaron /Ydieresis
/space /exclamdown /cent /sterling /currency
/yen /brokenbar /section /dieresis /copyright
/ordfeminine /guillemotleft /logicalnot /sfthyphen /registered
/macron /degree /plusminus /twosuperior /threesuperior
/acute /mu /paragraph /middot /cedilla
/onesuperior /ordmasculine /guillemotright /onequarter /onehalf
/threequarters /questiondown /Agrave /Aacute /Acircumflex
/Atilde /Adieresis /Aring /AE /Ccedilla
/Egrave /Eacute /Ecircumflex /Edieresis /Igrave
/Iacute /Icircumflex /Idieresis /Eth /Ntilde
/Ograve /Oacute /Ocircumflex /Otilde /Odieresis
/multiply /Oslash /Ugrave /Uacute /Ucircumflex
/Udieresis /Yacute /Thorn /germandbls /agrave
/aacute /acircumflex /atilde /adieresis /aring
/ae /ccedilla /egrave /eacute /ecircumflex
/edieresis /igrave /iacute /icircumflex /idieresis
/eth /ntilde /ograve /oacute /ocircumflex
/otilde /odieresis /divide /oslash /ugrave
/uacute /ucircumflex /udieresis /yacute /thorn
/ydieresis
] def
%%EndResource
%FOPBeginFontReencode
/Courier-Bold findfont
dup length dict begin
  {1 index /FID ne {def} {pop pop} ifelse} forall
  /Encoding WinAnsiEncoding def
  currentdict
end
/Courier-Bold exch definefont pop
/Helvetica findfont
dup length dict begin
  {1 index /FID ne {def} {pop pop} ifelse} forall
  /Encoding WinAnsiEncoding def
  currentdict
end
/Helvetica exch definefont pop
/Courier-BoldOblique findfont
dup length dict begin
  {1 index /FID ne {def} {pop pop} ifelse} forall
  /Encoding WinAnsiEncoding def
  currentdict
end
/Courier-BoldOblique exch definefont pop
/Courier-Oblique findfont
dup length dict begin
  {1 index /FID ne {def} {pop pop} ifelse} forall
  /Encoding WinAnsiEncoding def
  currentdict
end
/Courier-Oblique exch definefont pop
/Times-Roman findfont
dup length dict begin
  {1 index /FID ne {def} {pop pop} ifelse} forall
  /Encoding WinAnsiEncoding def
  currentdict
end
/Times-Roman exch definefont pop
/Helvetica-BoldOblique findfont
dup length dict begin
  {1 index /FID ne {def} {pop pop} ifelse} forall
  /Encoding WinAnsiEncoding def
  currentdict
end
/Helvetica-BoldOblique exch definefont pop
/Helvetica-Bold findfont
dup length dict begin
  {1 index /FID ne {def} {pop pop} ifelse} forall
  /Encoding WinAnsiEncoding def
  currentdict
end
/Helvetica-Bold exch definefont pop
/Helvetica-Oblique findfont
dup length dict begin
  {1 index /FID ne {def} {pop pop} ifelse} forall
  /Encoding WinAnsiEncoding def
  currentdict
end
/Helvetica-Oblique exch definefont pop
/Times-BoldItalic findfont
dup length dict begin
  {1 index /FID ne {def} {pop pop} ifelse} forall
  /Encoding WinAnsiEncoding def
  currentdict
end
/Times-BoldItalic exch definefont pop
/Courier findfont
dup length dict begin
  {1 index /FID ne {def} {pop pop} ifelse} forall
  /Encoding WinAnsiEncoding def
  currentdict
end
/Courier exch definefont pop
/Times-Italic findfont
dup length dict begin
  {1 index /FID ne {def} {pop pop} ifelse} forall
  /Encoding WinAnsiEncoding def
  currentdict
end
/Times-Italic exch definefont pop
/Times-Bold findfont
dup length dict begin
  {1 index /FID ne {def} {pop pop} ifelse} forall
  /Encoding WinAnsiEncoding def
  currentdict
end
/Times-Bold exch definefont pop
%FOPEndFontReencode
%%EndProlog
%%Page: 1 1
%%PageBoundingBox: 0 0 420 315
%%BeginPageSetup
[1 0 0 -1 0 315] CT
%%EndPageSetup
GS
[0.75 0 0 0.75 0 0] CT
1 GC
N
0 0 560 420 re
f
GR
GS
[0.75 0 0 0.75 0 0] CT
1 GC
N
0 0 560 420 re
f
GR
GS
[0.75 0 0 0.75 0 0] CT
1 GC
N
73 374 M
507 374 L
507 31 L
73 31 L
cp
f
GR
GS
[0.75 0 0 0.75 217.50016 298.24999] CT
0.149 GC
/Helvetica 15 F
GS
[1 0 0 1 0 0] CT
-10.5 14 moveto 
1 -1 scale
(CC) t 
GR
GR
GS
[0.75 0 0 0.75 0 0] CT
0.149 GC
2 setlinecap
10.0 ML
N
73 374 M
507 374 L
S
GR
GS
[0.75 0 0 0.75 0 0] CT
0.149 GC
2 setlinecap
10.0 ML
N
73 31 M
507 31 L
S
GR
GS
[0.75 0 0 0.75 0 0] CT
0.149 GC
2 setlinecap
10.0 ML
N
73 374 M
73 369.66 L
S
GR
GS
[0.75 0 0 0.75 0 0] CT
0.149 GC
2 setlinecap
10.0 ML
N
159.8 374 M
159.8 369.66 L
S
GR
GS
[0.75 0 0 0.75 0 0] CT
0.149 GC
2 setlinecap
10.0 ML
N
246.6 374 M
246.6 369.66 L
S
GR
GS
[0.75 0 0 0.75 0 0] CT
0.149 GC
2 setlinecap
10.0 ML
N
333.4 374 M
333.4 369.66 L
S
GR
GS
[0.75 0 0 0.75 0 0] CT
0.149 GC
2 setlinecap
10.0 ML
N
420.2 374 M
420.2 369.66 L
S
GR
GS
[0.75 0 0 0.75 0 0] CT
0.149 GC
2 setlinecap
10.0 ML
N
507 374 M
507 369.66 L
S
GR
GS
[0.75 0 0 0.75 0 0] CT
0.149 GC
2 setlinecap
10.0 ML
N
73 31 M
73 35.34 L
S
GR
GS
[0.75 0 0 0.75 0 0] CT
0.149 GC
2 setlinecap
10.0 ML
N
159.8 31 M
159.8 35.34 L
S
GR
GS
[0.75 0 0 0.75 0 0] CT
0.149 GC
2 setlinecap
10.0 ML
N
246.6 31 M
246.6 35.34 L
S
GR
GS
[0.75 0 0 0.75 0 0] CT
0.149 GC
2 setlinecap
10.0 ML
N
333.4 31 M
333.4 35.34 L
S
GR
GS
[0.75 0 0 0.75 0 0] CT
0.149 GC
2 setlinecap
10.0 ML
N
420.2 31 M
420.2 35.34 L
S
GR
GS
[0.75 0 0 0.75 0 0] CT
0.149 GC
2 setlinecap
10.0 ML
N
507 31 M
507 35.34 L
S
GR
GS
[0.75 0 0 0.75 54.75 284.50001] CT
0.149 GC
/Helvetica 13 F
GS
[1 0 0 1 0 0] CT
-4.5 13 moveto 
1 -1 scale
(0) t 
GR
GR
GS
[0.75 0 0 0.75 119.85 284.50001] CT
0.149 GC
/Helvetica 13 F
GS
[1 0 0 1 0 0] CT
-10.5 13 moveto 
1 -1 scale
(0.2) t 
GR
GR
GS
[0.75 0 0 0.75 184.95 284.50001] CT
0.149 GC
/Helvetica 13 F
GS
[1 0 0 1 0 0] CT
-10.5 13 moveto 
1 -1 scale
(0.4) t 
GR
GR
GS
[0.75 0 0 0.75 250.05002 284.50001] CT
0.149 GC
/Helvetica 13 F
GS
[1 0 0 1 0 0] CT
-10.5 13 moveto 
1 -1 scale
(0.6) t 
GR
GR
GS
[0.75 0 0 0.75 315.15001 284.50001] CT
0.149 GC
/Helvetica 13 F
GS
[1 0 0 1 0 0] CT
-10.5 13 moveto 
1 -1 scale
(0.8) t 
GR
GR
GS
[0.75 0 0 0.75 380.25 284.50001] CT
0.149 GC
/Helvetica 13 F
GS
[1 0 0 1 0 0] CT
-4.5 13 moveto 
1 -1 scale
(1) t 
GR
GR
GS
[0 -0.75 0.75 0 41 151.87487] CT
0.149 GC
/Helvetica 15 F
GS
[1 0 0 1 0 0] CT
-15 -4 moveto 
1 -1 scale
(PDF) t 
GR
GR
GS
[0.75 0 0 0.75 0 0] CT
0.149 GC
2 setlinecap
10.0 ML
N
73 374 M
73 31 L
S
GR
GS
[0.75 0 0 0.75 0 0] CT
0.149 GC
2 setlinecap
10.0 ML
N
507 374 M
507 31 L
S
GR
GS
[0.75 0 0 0.75 0 0] CT
0.149 GC
2 setlinecap
10.0 ML
N
73 374 M
77.34 374 L
S
GR
GS
[0.75 0 0 0.75 0 0] CT
0.149 GC
2 setlinecap
10.0 ML
N
73 316.833 M
77.34 316.833 L
S
GR
GS
[0.75 0 0 0.75 0 0] CT
0.149 GC
2 setlinecap
10.0 ML
N
73 259.667 M
77.34 259.667 L
S
GR
GS
[0.75 0 0 0.75 0 0] CT
0.149 GC
2 setlinecap
10.0 ML
N
73 202.5 M
77.34 202.5 L
S
GR
GS
[0.75 0 0 0.75 0 0] CT
0.149 GC
2 setlinecap
10.0 ML
N
73 145.333 M
77.34 145.333 L
S
GR
GS
[0.75 0 0 0.75 0 0] CT
0.149 GC
2 setlinecap
10.0 ML
N
73 88.167 M
77.34 88.167 L
S
GR
GS
[0.75 0 0 0.75 0 0] CT
0.149 GC
2 setlinecap
10.0 ML
N
73 31 M
77.34 31 L
S
GR
GS
[0.75 0 0 0.75 0 0] CT
0.149 GC
2 setlinecap
10.0 ML
N
507 374 M
502.66 374 L
S
GR
GS
[0.75 0 0 0.75 0 0] CT
0.149 GC
2 setlinecap
10.0 ML
N
507 316.833 M
502.66 316.833 L
S
GR
GS
[0.75 0 0 0.75 0 0] CT
0.149 GC
2 setlinecap
10.0 ML
N
507 259.667 M
502.66 259.667 L
S
GR
GS
[0.75 0 0 0.75 0 0] CT
0.149 GC
2 setlinecap
10.0 ML
N
507 202.5 M
502.66 202.5 L
S
GR
GS
[0.75 0 0 0.75 0 0] CT
0.149 GC
2 setlinecap
10.0 ML
N
507 145.333 M
502.66 145.333 L
S
GR
GS
[0.75 0 0 0.75 0 0] CT
0.149 GC
2 setlinecap
10.0 ML
N
507 88.167 M
502.66 88.167 L
S
GR
GS
[0.75 0 0 0.75 0 0] CT
0.149 GC
2 setlinecap
10.0 ML
N
507 31 M
502.66 31 L
S
GR
GS
[0.75 0 0 0.75 50.75 280.5] CT
0.149 GC
/Helvetica 13 F
GS
[1 0 0 1 0 0] CT
-9 4.5 moveto 
1 -1 scale
(0) t 
GR
GR
GS
[0.75 0 0 0.75 50.75 237.62501] CT
0.149 GC
/Helvetica 13 F
GS
[1 0 0 1 0 0] CT
-9 4.5 moveto 
1 -1 scale
(1) t 
GR
GR
GS
[0.75 0 0 0.75 50.75 194.74999] CT
0.149 GC
/Helvetica 13 F
GS
[1 0 0 1 0 0] CT
-9 4.5 moveto 
1 -1 scale
(2) t 
GR
GR
GS
[0.75 0 0 0.75 50.75 151.875] CT
0.149 GC
/Helvetica 13 F
GS
[1 0 0 1 0 0] CT
-9 4.5 moveto 
1 -1 scale
(3) t 
GR
GR
GS
[0.75 0 0 0.75 50.75 109] CT
0.149 GC
/Helvetica 13 F
GS
[1 0 0 1 0 0] CT
-9 4.5 moveto 
1 -1 scale
(4) t 
GR
GR
GS
[0.75 0 0 0.75 50.75 66.125] CT
0.149 GC
/Helvetica 13 F
GS
[1 0 0 1 0 0] CT
-9 4.5 moveto 
1 -1 scale
(5) t 
GR
GR
GS
[0.75 0 0 0.75 50.75 23.25] CT
0.149 GC
/Helvetica 13 F
GS
[1 0 0 1 0 0] CT
-9 4.5 moveto 
1 -1 scale
(6) t 
GR
GR
GS
[0.75 0 0 0.75 0 0] CT
0.208 0.165 0.525 RC
N
178.169 374 M
183.448 374 L
183.448 366.469 L
178.169 366.469 L
cp
f
GR
GS
[0.75 0 0 0.75 0 0] CT
0.208 0.165 0.525 RC
N
184.768 374 M
190.047 374 L
190.047 362.704 L
184.768 362.704 L
cp
f
GR
GS
[0.75 0 0 0.75 0 0] CT
0.208 0.165 0.525 RC
N
191.366 374 M
196.645 374 L
196.645 336.346 L
191.366 336.346 L
cp
f
GR
GS
[0.75 0 0 0.75 0 0] CT
0.208 0.165 0.525 RC
N
197.965 374 M
203.244 374 L
203.244 325.049 L
197.965 325.049 L
cp
f
GR
GS
[0.75 0 0 0.75 0 0] CT
0.208 0.165 0.525 RC
N
204.564 374 M
209.843 374 L
209.843 249.741 L
204.564 249.741 L
cp
f
GR
GS
[0.75 0 0 0.75 0 0] CT
0.208 0.165 0.525 RC
N
211.163 374 M
216.442 374 L
216.442 230.913 L
211.163 230.913 L
cp
f
GR
GS
[0.75 0 0 0.75 0 0] CT
0.208 0.165 0.525 RC
N
217.762 374 M
223.041 374 L
223.041 166.901 L
217.762 166.901 L
cp
f
GR
GS
[0.75 0 0 0.75 0 0] CT
0.208 0.165 0.525 RC
N
224.361 374 M
229.64 374 L
229.64 125.481 L
224.361 125.481 L
cp
f
GR
GS
[0.75 0 0 0.75 0 0] CT
0.208 0.165 0.525 RC
N
230.96 374 M
236.239 374 L
236.239 136.777 L
230.96 136.777 L
cp
f
GR
GS
[0.75 0 0 0.75 0 0] CT
0.208 0.165 0.525 RC
N
237.558 374 M
242.837 374 L
242.837 65.234 L
237.558 65.234 L
cp
f
GR
GS
[0.75 0 0 0.75 0 0] CT
0.208 0.165 0.525 RC
N
244.157 374 M
249.436 374 L
249.436 50.172 L
244.157 50.172 L
cp
f
GR
GS
[0.75 0 0 0.75 0 0] CT
0.208 0.165 0.525 RC
N
250.756 374 M
256.035 374 L
256.035 57.703 L
250.756 57.703 L
cp
f
GR
GS
[0.75 0 0 0.75 0 0] CT
0.208 0.165 0.525 RC
N
257.355 374 M
262.634 374 L
262.634 102.888 L
257.355 102.888 L
cp
f
GR
GS
[0.75 0 0 0.75 0 0] CT
0.208 0.165 0.525 RC
N
263.954 374 M
269.233 374 L
269.233 136.777 L
263.954 136.777 L
cp
f
GR
GS
[0.75 0 0 0.75 0 0] CT
0.208 0.165 0.525 RC
N
270.553 374 M
275.832 374 L
275.832 204.555 L
270.553 204.555 L
cp
f
GR
GS
[0.75 0 0 0.75 0 0] CT
0.208 0.165 0.525 RC
N
277.152 374 M
282.431 374 L
282.431 151.839 L
277.152 151.839 L
cp
f
GR
GS
[0.75 0 0 0.75 0 0] CT
0.208 0.165 0.525 RC
N
283.75 374 M
289.03 374 L
289.03 238.444 L
283.75 238.444 L
cp
f
GR
GS
[0.75 0 0 0.75 0 0] CT
0.208 0.165 0.525 RC
N
290.349 374 M
295.628 374 L
295.628 227.148 L
290.349 227.148 L
cp
f
GR
GS
[0.75 0 0 0.75 0 0] CT
0.208 0.165 0.525 RC
N
296.948 374 M
302.227 374 L
302.227 287.395 L
296.948 287.395 L
cp
f
GR
GS
[0.75 0 0 0.75 0 0] CT
0.208 0.165 0.525 RC
N
303.547 374 M
308.826 374 L
308.826 261.037 L
303.547 261.037 L
cp
f
GR
GS
[0.75 0 0 0.75 0 0] CT
0.208 0.165 0.525 RC
N
310.146 374 M
315.425 374 L
315.425 253.506 L
310.146 253.506 L
cp
f
GR
GS
[0.75 0 0 0.75 0 0] CT
0.208 0.165 0.525 RC
N
316.745 374 M
322.024 374 L
322.024 298.691 L
316.745 298.691 L
cp
f
GR
GS
[0.75 0 0 0.75 0 0] CT
0.208 0.165 0.525 RC
N
323.344 374 M
328.623 374 L
328.623 347.642 L
323.344 347.642 L
cp
f
GR
GS
[0.75 0 0 0.75 0 0] CT
0.208 0.165 0.525 RC
N
329.942 374 M
335.222 374 L
335.222 309.988 L
329.942 309.988 L
cp
f
GR
GS
[0.75 0 0 0.75 0 0] CT
0.208 0.165 0.525 RC
N
336.541 374 M
341.82 374 L
341.82 355.173 L
336.541 355.173 L
cp
f
GR
GS
[0.75 0 0 0.75 0 0] CT
0.208 0.165 0.525 RC
N
343.14 374 M
348.419 374 L
348.419 343.876 L
343.14 343.876 L
cp
f
GR
GS
[0.75 0 0 0.75 0 0] CT
0.208 0.165 0.525 RC
N
349.739 374 M
355.018 374 L
355.018 358.938 L
349.739 358.938 L
cp
f
GR
GS
[0.75 0 0 0.75 0 0] CT
0.208 0.165 0.525 RC
N
356.338 374 M
361.617 374 L
361.617 358.938 L
356.338 358.938 L
cp
f
GR
GS
[0.75 0 0 0.75 0 0] CT
0.208 0.165 0.525 RC
N
362.937 374 M
368.216 374 L
368.216 374 L
362.937 374 L
cp
f
GR
GS
[0.75 0 0 0.75 0 0] CT
0.208 0.165 0.525 RC
N
369.536 374 M
374.815 374 L
374.815 374 L
369.536 374 L
cp
f
GR
GS
[0.75 0 0 0.75 0 0] CT
0.208 0.165 0.525 RC
N
376.134 374 M
381.414 374 L
381.414 370.235 L
376.134 370.235 L
cp
f
GR
GS
[0.75 0 0 0.75 0 0] CT
2 setlinecap
10.0 ML
N
178.169 374 M
178.169 366.469 L
183.448 366.469 L
183.448 374 L
178.169 374 L
S
GR
GS
[0.75 0 0 0.75 0 0] CT
2 setlinecap
10.0 ML
N
184.768 374 M
184.768 362.704 L
190.047 362.704 L
190.047 374 L
184.768 374 L
S
GR
GS
[0.75 0 0 0.75 0 0] CT
2 setlinecap
10.0 ML
N
191.366 374 M
191.366 336.346 L
196.645 336.346 L
196.645 374 L
191.366 374 L
S
GR
GS
[0.75 0 0 0.75 0 0] CT
2 setlinecap
10.0 ML
N
197.965 374 M
197.965 325.049 L
203.244 325.049 L
203.244 374 L
197.965 374 L
S
GR
GS
[0.75 0 0 0.75 0 0] CT
2 setlinecap
10.0 ML
N
204.564 374 M
204.564 249.741 L
209.843 249.741 L
209.843 374 L
204.564 374 L
S
GR
GS
[0.75 0 0 0.75 0 0] CT
2 setlinecap
10.0 ML
N
211.163 374 M
211.163 230.913 L
216.442 230.913 L
216.442 374 L
211.163 374 L
S
GR
GS
[0.75 0 0 0.75 0 0] CT
2 setlinecap
10.0 ML
N
217.762 374 M
217.762 166.901 L
223.041 166.901 L
223.041 374 L
217.762 374 L
S
GR
GS
[0.75 0 0 0.75 0 0] CT
2 setlinecap
10.0 ML
N
224.361 374 M
224.361 125.481 L
229.64 125.481 L
229.64 374 L
224.361 374 L
S
GR
GS
[0.75 0 0 0.75 0 0] CT
2 setlinecap
10.0 ML
N
230.96 374 M
230.96 136.777 L
236.239 136.777 L
236.239 374 L
230.96 374 L
S
GR
GS
[0.75 0 0 0.75 0 0] CT
2 setlinecap
10.0 ML
N
237.558 374 M
237.558 65.234 L
242.837 65.234 L
242.837 374 L
237.558 374 L
S
GR
GS
[0.75 0 0 0.75 0 0] CT
2 setlinecap
10.0 ML
N
244.157 374 M
244.157 50.172 L
249.436 50.172 L
249.436 374 L
244.157 374 L
S
GR
GS
[0.75 0 0 0.75 0 0] CT
2 setlinecap
10.0 ML
N
250.756 374 M
250.756 57.703 L
256.035 57.703 L
256.035 374 L
250.756 374 L
S
GR
GS
[0.75 0 0 0.75 0 0] CT
2 setlinecap
10.0 ML
N
257.355 374 M
257.355 102.888 L
262.634 102.888 L
262.634 374 L
257.355 374 L
S
GR
GS
[0.75 0 0 0.75 0 0] CT
2 setlinecap
10.0 ML
N
263.954 374 M
263.954 136.777 L
269.233 136.777 L
269.233 374 L
263.954 374 L
S
GR
GS
[0.75 0 0 0.75 0 0] CT
2 setlinecap
10.0 ML
N
270.553 374 M
270.553 204.555 L
275.832 204.555 L
275.832 374 L
270.553 374 L
S
GR
GS
[0.75 0 0 0.75 0 0] CT
2 setlinecap
10.0 ML
N
277.152 374 M
277.152 151.839 L
282.431 151.839 L
282.431 374 L
277.152 374 L
S
GR
GS
[0.75 0 0 0.75 0 0] CT
2 setlinecap
10.0 ML
N
283.75 374 M
283.75 238.444 L
289.03 238.444 L
289.03 374 L
283.75 374 L
S
GR
GS
[0.75 0 0 0.75 0 0] CT
2 setlinecap
10.0 ML
N
290.349 374 M
290.349 227.148 L
295.628 227.148 L
295.628 374 L
290.349 374 L
S
GR
GS
[0.75 0 0 0.75 0 0] CT
2 setlinecap
10.0 ML
N
296.948 374 M
296.948 287.395 L
302.227 287.395 L
302.227 374 L
296.948 374 L
S
GR
GS
[0.75 0 0 0.75 0 0] CT
2 setlinecap
10.0 ML
N
303.547 374 M
303.547 261.037 L
308.826 261.037 L
308.826 374 L
303.547 374 L
S
GR
GS
[0.75 0 0 0.75 0 0] CT
2 setlinecap
10.0 ML
N
310.146 374 M
310.146 253.506 L
315.425 253.506 L
315.425 374 L
310.146 374 L
S
GR
GS
[0.75 0 0 0.75 0 0] CT
2 setlinecap
10.0 ML
N
316.745 374 M
316.745 298.691 L
322.024 298.691 L
322.024 374 L
316.745 374 L
S
GR
GS
[0.75 0 0 0.75 0 0] CT
2 setlinecap
10.0 ML
N
323.344 374 M
323.344 347.642 L
328.623 347.642 L
328.623 374 L
323.344 374 L
S
GR
GS
[0.75 0 0 0.75 0 0] CT
2 setlinecap
10.0 ML
N
329.942 374 M
329.942 309.988 L
335.222 309.988 L
335.222 374 L
329.942 374 L
S
GR
GS
[0.75 0 0 0.75 0 0] CT
2 setlinecap
10.0 ML
N
336.541 374 M
336.541 355.173 L
341.82 355.173 L
341.82 374 L
336.541 374 L
S
GR
GS
[0.75 0 0 0.75 0 0] CT
2 setlinecap
10.0 ML
N
343.14 374 M
343.14 343.876 L
348.419 343.876 L
348.419 374 L
343.14 374 L
S
GR
GS
[0.75 0 0 0.75 0 0] CT
2 setlinecap
10.0 ML
N
349.739 374 M
349.739 358.938 L
355.018 358.938 L
355.018 374 L
349.739 374 L
S
GR
GS
[0.75 0 0 0.75 0 0] CT
2 setlinecap
10.0 ML
N
356.338 374 M
356.338 358.938 L
361.617 358.938 L
361.617 374 L
356.338 374 L
S
GR
GS
[0.75 0 0 0.75 0 0] CT
2 setlinecap
10.0 ML
N
362.937 374 M
362.937 374 L
368.216 374 L
368.216 374 L
362.937 374 L
S
GR
GS
[0.75 0 0 0.75 0 0] CT
2 setlinecap
10.0 ML
N
369.536 374 M
369.536 374 L
374.815 374 L
374.815 374 L
369.536 374 L
S
GR
GS
[0.75 0 0 0.75 0 0] CT
2 setlinecap
10.0 ML
N
376.134 374 M
376.134 370.235 L
381.414 370.235 L
381.414 374 L
376.134 374 L
S
GR
GS
[0.75 0 0 0.75 0 0] CT
1 0 0 RC
2 LJ
4 LW
N
73 374 M
73.434 374 L
73.868 374 L
74.302 374 L
74.736 374 L
75.17 374 L
75.604 374 L
76.038 374 L
76.472 374 L
76.906 374 L
77.34 374 L
77.774 374 L
78.208 374 L
78.642 374 L
79.076 374 L
79.51 374 L
79.944 374 L
80.378 374 L
80.812 374 L
81.246 374 L
81.68 374 L
82.114 374 L
82.548 374 L
82.982 374 L
83.416 374 L
83.85 374 L
84.284 374 L
84.718 374 L
85.152 374 L
85.586 374 L
86.02 374 L
86.454 374 L
86.888 374 L
87.322 374 L
87.756 374 L
88.19 374 L
88.624 374 L
89.058 374 L
89.492 374 L
89.926 374 L
90.36 374 L
90.794 374 L
91.228 374 L
91.662 374 L
92.096 374 L
92.53 374 L
92.964 374 L
93.398 374 L
93.832 374 L
94.266 374 L
S
GR
GS
[0.75 0 0 0.75 0 0] CT
1 0 0 RC
2 LJ
4 LW
N
94.266 374 M
94.7 374 L
95.134 374 L
95.568 374 L
96.002 374 L
96.436 374 L
96.87 374 L
97.304 374 L
97.738 374 L
98.172 374 L
98.606 374 L
99.04 374 L
99.474 374 L
99.908 374 L
100.342 374 L
100.776 374 L
101.21 374 L
101.644 374 L
102.078 374 L
102.512 374 L
102.946 374 L
103.38 374 L
103.814 374 L
104.248 374 L
104.682 374 L
105.116 374 L
105.55 374 L
105.984 374 L
106.418 374 L
106.852 374 L
107.286 374 L
107.72 374 L
108.154 374 L
108.588 374 L
109.022 374 L
109.456 374 L
109.89 374 L
110.324 374 L
110.758 374 L
111.192 374 L
111.626 374 L
112.06 374 L
112.494 374 L
112.928 374 L
113.362 374 L
113.796 374 L
114.23 374 L
114.664 374 L
115.098 374 L
115.532 374 L
S
GR
GS
[0.75 0 0 0.75 0 0] CT
1 0 0 RC
2 LJ
4 LW
N
115.532 374 M
115.966 374 L
116.4 374 L
116.834 374 L
117.268 374 L
117.702 374 L
118.136 374 L
118.57 374 L
119.004 374 L
119.438 374 L
119.872 374 L
120.306 374 L
120.74 374 L
121.174 374 L
121.608 374 L
122.042 374 L
122.476 374 L
122.91 374 L
123.344 374 L
123.778 374 L
124.212 374 L
124.646 374 L
125.08 373.999 L
125.514 373.999 L
125.948 373.999 L
126.382 373.999 L
126.816 373.999 L
127.25 373.999 L
127.684 373.999 L
128.118 373.999 L
128.552 373.999 L
128.986 373.999 L
129.42 373.998 L
129.854 373.998 L
130.288 373.998 L
130.722 373.998 L
131.156 373.997 L
131.59 373.997 L
132.024 373.997 L
132.458 373.997 L
132.892 373.996 L
133.326 373.996 L
133.76 373.995 L
134.194 373.995 L
134.628 373.994 L
135.062 373.994 L
135.496 373.993 L
135.93 373.992 L
136.364 373.992 L
136.798 373.991 L
S
GR
GS
[0.75 0 0 0.75 0 0] CT
1 0 0 RC
2 LJ
4 LW
N
136.798 373.991 M
137.232 373.99 L
137.666 373.989 L
138.1 373.988 L
138.534 373.986 L
138.968 373.985 L
139.402 373.983 L
139.836 373.982 L
140.27 373.98 L
140.704 373.978 L
141.138 373.976 L
141.572 373.974 L
142.006 373.971 L
142.44 373.969 L
142.874 373.966 L
143.308 373.963 L
143.742 373.959 L
144.176 373.956 L
144.61 373.952 L
145.044 373.947 L
145.478 373.942 L
145.912 373.937 L
146.346 373.932 L
146.78 373.926 L
147.214 373.919 L
147.648 373.912 L
148.082 373.905 L
148.516 373.897 L
148.95 373.888 L
149.384 373.879 L
149.818 373.868 L
150.252 373.857 L
150.686 373.846 L
151.12 373.833 L
151.554 373.819 L
151.988 373.805 L
152.422 373.789 L
152.856 373.773 L
153.29 373.755 L
153.724 373.735 L
154.158 373.715 L
154.592 373.693 L
155.026 373.669 L
155.46 373.644 L
155.894 373.617 L
156.328 373.588 L
156.762 373.557 L
157.196 373.524 L
157.63 373.489 L
158.064 373.452 L
S
GR
GS
[0.75 0 0 0.75 0 0] CT
1 0 0 RC
2 LJ
4 LW
N
158.064 373.452 M
158.498 373.412 L
158.932 373.37 L
159.366 373.325 L
159.8 373.277 L
160.234 373.226 L
160.668 373.172 L
161.102 373.115 L
161.536 373.054 L
161.97 372.989 L
162.404 372.92 L
162.838 372.848 L
163.272 372.771 L
163.706 372.689 L
164.14 372.603 L
164.574 372.512 L
165.008 372.416 L
165.442 372.314 L
165.876 372.206 L
166.31 372.093 L
166.744 371.973 L
167.178 371.847 L
167.612 371.714 L
168.046 371.573 L
168.48 371.426 L
168.914 371.271 L
169.348 371.107 L
169.782 370.936 L
170.216 370.755 L
170.65 370.566 L
171.084 370.367 L
171.518 370.158 L
171.952 369.939 L
172.386 369.709 L
172.82 369.469 L
173.254 369.217 L
173.688 368.953 L
174.122 368.677 L
174.556 368.389 L
174.99 368.087 L
175.424 367.772 L
175.858 367.443 L
176.292 367.099 L
176.726 366.741 L
177.16 366.367 L
177.594 365.977 L
178.028 365.571 L
178.462 365.148 L
178.896 364.708 L
179.33 364.25 L
S
GR
GS
[0.75 0 0 0.75 0 0] CT
1 0 0 RC
2 LJ
4 LW
N
179.33 364.25 M
179.764 363.774 L
180.198 363.279 L
180.632 362.765 L
181.066 362.23 L
181.5 361.676 L
181.934 361.1 L
182.368 360.503 L
182.802 359.885 L
183.236 359.243 L
183.67 358.579 L
184.104 357.892 L
184.538 357.18 L
184.972 356.444 L
185.406 355.683 L
185.84 354.896 L
186.274 354.084 L
186.708 353.245 L
187.142 352.379 L
187.576 351.485 L
188.01 350.564 L
188.444 349.614 L
188.878 348.636 L
189.312 347.628 L
189.746 346.591 L
190.18 345.523 L
190.614 344.425 L
191.048 343.296 L
191.482 342.136 L
191.916 340.945 L
192.35 339.721 L
192.784 338.465 L
193.218 337.177 L
193.652 335.856 L
194.086 334.501 L
194.52 333.114 L
194.954 331.692 L
195.388 330.237 L
195.822 328.748 L
196.256 327.225 L
196.69 325.668 L
197.124 324.076 L
197.558 322.45 L
197.992 320.79 L
198.426 319.095 L
198.86 317.365 L
199.294 315.601 L
199.728 313.803 L
200.162 311.971 L
200.596 310.104 L
S
GR
GS
[0.75 0 0 0.75 0 0] CT
1 0 0 RC
2 LJ
4 LW
N
200.596 310.104 M
201.03 308.203 L
201.464 306.268 L
201.898 304.3 L
202.332 302.298 L
202.766 300.264 L
203.2 298.196 L
203.634 296.096 L
204.068 293.964 L
204.502 291.8 L
204.936 289.604 L
205.37 287.378 L
205.804 285.122 L
206.238 282.836 L
206.672 280.52 L
207.106 278.176 L
207.54 275.804 L
207.974 273.405 L
208.408 270.978 L
208.842 268.526 L
209.276 266.049 L
209.71 263.547 L
210.144 261.022 L
210.578 258.474 L
211.012 255.904 L
211.446 253.313 L
211.88 250.701 L
212.314 248.071 L
212.748 245.422 L
213.182 242.757 L
213.616 240.075 L
214.05 237.378 L
214.484 234.667 L
214.918 231.943 L
215.352 229.207 L
215.786 226.46 L
216.22 223.704 L
216.654 220.94 L
217.088 218.168 L
217.522 215.39 L
217.956 212.608 L
218.39 209.822 L
218.824 207.033 L
219.258 204.244 L
219.692 201.455 L
220.126 198.667 L
220.56 195.882 L
220.994 193.101 L
221.428 190.326 L
221.862 187.557 L
S
GR
GS
[0.75 0 0 0.75 0 0] CT
1 0 0 RC
2 LJ
4 LW
N
221.862 187.557 M
222.296 184.796 L
222.73 182.044 L
223.164 179.303 L
223.598 176.574 L
224.032 173.858 L
224.466 171.157 L
224.9 168.471 L
225.334 165.802 L
225.768 163.152 L
226.202 160.522 L
226.636 157.912 L
227.07 155.324 L
227.504 152.76 L
227.938 150.221 L
228.372 147.707 L
228.806 145.221 L
229.24 142.762 L
229.674 140.334 L
230.108 137.935 L
230.542 135.569 L
230.976 133.235 L
231.41 130.936 L
231.844 128.671 L
232.278 126.443 L
232.712 124.251 L
233.146 122.098 L
233.58 119.984 L
234.014 117.91 L
234.448 115.876 L
234.882 113.885 L
235.316 111.937 L
235.75 110.032 L
236.184 108.171 L
236.618 106.356 L
237.052 104.587 L
237.486 102.865 L
237.92 101.19 L
238.354 99.563 L
238.788 97.984 L
239.222 96.455 L
239.656 94.976 L
240.09 93.548 L
240.524 92.17 L
240.958 90.844 L
241.392 89.569 L
241.826 88.347 L
242.26 87.177 L
242.694 86.061 L
243.128 84.997 L
S
GR
GS
[0.75 0 0 0.75 0 0] CT
1 0 0 RC
2 LJ
4 LW
N
243.128 84.997 M
243.562 83.988 L
243.996 83.032 L
244.43 82.13 L
244.864 81.282 L
245.298 80.488 L
245.732 79.749 L
246.166 79.065 L
246.6 78.435 L
247.034 77.859 L
247.468 77.338 L
247.902 76.872 L
248.336 76.46 L
248.77 76.102 L
249.204 75.799 L
249.638 75.55 L
250.072 75.354 L
250.506 75.212 L
250.94 75.123 L
251.374 75.088 L
251.808 75.105 L
252.242 75.175 L
252.676 75.297 L
253.11 75.47 L
253.544 75.695 L
253.978 75.97 L
254.412 76.296 L
254.846 76.672 L
255.28 77.098 L
255.714 77.572 L
256.148 78.095 L
256.582 78.665 L
257.016 79.283 L
257.45 79.947 L
257.884 80.657 L
258.318 81.413 L
258.752 82.214 L
259.186 83.058 L
259.62 83.946 L
260.054 84.877 L
260.488 85.849 L
260.922 86.863 L
261.356 87.918 L
261.79 89.012 L
262.224 90.146 L
262.658 91.317 L
263.092 92.527 L
263.526 93.772 L
263.96 95.054 L
264.394 96.371 L
S
GR
GS
[0.75 0 0 0.75 0 0] CT
1 0 0 RC
2 LJ
4 LW
N
264.394 96.371 M
264.828 97.723 L
265.262 99.108 L
265.696 100.526 L
266.13 101.975 L
266.564 103.456 L
266.998 104.967 L
267.432 106.508 L
267.866 108.077 L
268.3 109.674 L
268.734 111.298 L
269.168 112.948 L
269.602 114.623 L
270.036 116.323 L
270.47 118.046 L
270.904 119.792 L
271.338 121.561 L
271.772 123.35 L
272.206 125.16 L
272.64 126.989 L
273.074 128.837 L
273.508 130.702 L
273.942 132.585 L
274.376 134.485 L
274.81 136.399 L
275.244 138.329 L
275.678 140.272 L
276.112 142.228 L
276.546 144.197 L
276.98 146.178 L
277.414 148.169 L
277.848 150.171 L
278.282 152.182 L
278.716 154.202 L
279.15 156.23 L
279.584 158.265 L
280.018 160.306 L
280.452 162.354 L
280.886 164.406 L
281.32 166.463 L
281.754 168.525 L
282.188 170.589 L
282.622 172.656 L
283.056 174.725 L
283.49 176.795 L
283.924 178.866 L
284.358 180.938 L
284.792 183.008 L
285.226 185.078 L
285.66 187.147 L
S
GR
GS
[0.75 0 0 0.75 0 0] CT
1 0 0 RC
2 LJ
4 LW
N
285.66 187.147 M
286.094 189.213 L
286.528 191.277 L
286.962 193.337 L
287.396 195.394 L
287.83 197.447 L
288.264 199.495 L
288.698 201.538 L
289.132 203.575 L
289.566 205.606 L
290 207.631 L
290.434 209.649 L
290.868 211.66 L
291.302 213.662 L
291.736 215.657 L
292.17 217.643 L
292.604 219.62 L
293.038 221.588 L
293.472 223.547 L
293.906 225.495 L
294.34 227.433 L
294.774 229.361 L
295.208 231.277 L
295.642 233.182 L
296.076 235.076 L
296.51 236.958 L
296.944 238.828 L
297.378 240.686 L
297.812 242.531 L
298.246 244.363 L
298.68 246.182 L
299.114 247.988 L
299.548 249.781 L
299.982 251.56 L
300.416 253.325 L
300.85 255.076 L
301.284 256.813 L
301.718 258.535 L
302.152 260.244 L
302.586 261.937 L
303.02 263.616 L
303.454 265.28 L
303.888 266.928 L
304.322 268.562 L
304.756 270.181 L
305.19 271.784 L
305.624 273.371 L
306.058 274.944 L
306.492 276.5 L
306.926 278.042 L
S
GR
GS
[0.75 0 0 0.75 0 0] CT
1 0 0 RC
2 LJ
4 LW
N
306.926 278.042 M
307.36 279.567 L
307.794 281.077 L
308.228 282.571 L
308.662 284.049 L
309.096 285.511 L
309.53 286.958 L
309.964 288.388 L
310.398 289.803 L
310.832 291.202 L
311.266 292.585 L
311.7 293.952 L
312.134 295.303 L
312.568 296.638 L
313.002 297.957 L
313.436 299.261 L
313.87 300.549 L
314.304 301.821 L
314.738 303.077 L
315.172 304.318 L
315.606 305.543 L
316.04 306.752 L
316.474 307.946 L
316.908 309.125 L
317.342 310.288 L
317.776 311.436 L
318.21 312.568 L
318.644 313.685 L
319.078 314.788 L
319.512 315.875 L
319.946 316.947 L
320.38 318.004 L
320.814 319.047 L
321.248 320.075 L
321.682 321.088 L
322.116 322.087 L
322.55 323.072 L
322.984 324.042 L
323.418 324.998 L
323.852 325.94 L
324.286 326.868 L
324.72 327.782 L
325.154 328.682 L
325.588 329.569 L
326.022 330.442 L
326.456 331.302 L
326.89 332.149 L
327.324 332.982 L
327.758 333.802 L
328.192 334.61 L
S
GR
GS
[0.75 0 0 0.75 0 0] CT
1 0 0 RC
2 LJ
4 LW
N
328.192 334.61 M
328.626 335.404 L
329.06 336.186 L
329.494 336.955 L
329.928 337.712 L
330.362 338.457 L
330.796 339.189 L
331.23 339.909 L
331.664 340.618 L
332.098 341.314 L
332.532 341.999 L
332.966 342.672 L
333.4 343.334 L
333.834 343.985 L
334.268 344.624 L
334.702 345.252 L
335.136 345.87 L
335.57 346.477 L
336.004 347.073 L
336.438 347.658 L
336.872 348.233 L
337.306 348.798 L
337.74 349.353 L
338.174 349.897 L
338.608 350.432 L
339.042 350.957 L
339.476 351.473 L
339.91 351.978 L
340.344 352.475 L
340.778 352.962 L
341.212 353.44 L
341.646 353.91 L
342.08 354.37 L
342.514 354.821 L
342.948 355.264 L
343.382 355.699 L
343.816 356.125 L
344.25 356.543 L
344.684 356.952 L
345.118 357.354 L
345.552 357.747 L
345.986 358.133 L
346.42 358.511 L
346.854 358.882 L
347.288 359.245 L
347.722 359.601 L
348.156 359.95 L
348.59 360.291 L
349.024 360.626 L
349.458 360.954 L
S
GR
GS
[0.75 0 0 0.75 0 0] CT
1 0 0 RC
2 LJ
4 LW
N
349.458 360.954 M
349.892 361.275 L
350.326 361.589 L
350.76 361.897 L
351.194 362.198 L
351.628 362.493 L
352.062 362.781 L
352.496 363.064 L
352.93 363.34 L
353.364 363.611 L
353.798 363.876 L
354.232 364.135 L
354.666 364.388 L
355.1 364.636 L
355.534 364.878 L
355.968 365.115 L
356.402 365.347 L
356.836 365.574 L
357.27 365.795 L
357.704 366.012 L
358.138 366.224 L
358.572 366.431 L
359.006 366.633 L
359.44 366.83 L
359.874 367.023 L
360.308 367.212 L
360.742 367.396 L
361.176 367.576 L
361.61 367.752 L
362.044 367.923 L
362.478 368.091 L
362.912 368.254 L
363.346 368.414 L
363.78 368.57 L
364.214 368.722 L
364.648 368.87 L
365.082 369.015 L
365.516 369.157 L
365.95 369.294 L
366.384 369.429 L
366.818 369.56 L
367.252 369.688 L
367.686 369.813 L
368.12 369.934 L
368.554 370.053 L
368.988 370.168 L
369.422 370.281 L
369.856 370.391 L
370.29 370.498 L
370.724 370.602 L
S
GR
GS
[0.75 0 0 0.75 0 0] CT
1 0 0 RC
2 LJ
4 LW
N
370.724 370.602 M
371.158 370.703 L
371.592 370.802 L
372.026 370.898 L
372.46 370.992 L
372.894 371.083 L
373.328 371.172 L
373.762 371.259 L
374.196 371.343 L
374.63 371.425 L
375.064 371.505 L
375.498 371.583 L
375.932 371.658 L
376.366 371.732 L
376.8 371.803 L
377.234 371.873 L
377.668 371.94 L
378.102 372.006 L
378.536 372.07 L
378.97 372.132 L
379.404 372.192 L
379.838 372.251 L
380.272 372.308 L
380.706 372.363 L
381.14 372.417 L
381.574 372.469 L
382.008 372.52 L
382.442 372.569 L
382.876 372.617 L
383.31 372.663 L
383.744 372.708 L
384.178 372.752 L
384.612 372.794 L
385.046 372.836 L
385.48 372.876 L
385.914 372.914 L
386.348 372.952 L
386.782 372.988 L
387.216 373.023 L
387.65 373.058 L
388.084 373.091 L
388.518 373.123 L
388.952 373.154 L
389.386 373.184 L
389.82 373.214 L
390.254 373.242 L
390.688 373.269 L
391.122 373.296 L
391.556 373.321 L
391.99 373.346 L
S
GR
GS
[0.75 0 0 0.75 0 0] CT
1 0 0 RC
2 LJ
4 LW
N
391.99 373.346 M
392.424 373.37 L
392.858 373.394 L
393.292 373.416 L
393.726 373.438 L
394.16 373.459 L
394.594 373.479 L
395.028 373.499 L
395.462 373.518 L
395.896 373.536 L
396.33 373.554 L
396.764 373.571 L
397.198 373.588 L
397.632 373.604 L
398.066 373.619 L
398.5 373.634 L
398.934 373.649 L
399.368 373.663 L
399.802 373.676 L
400.236 373.689 L
400.67 373.701 L
401.104 373.714 L
401.538 373.725 L
401.972 373.736 L
402.406 373.747 L
402.84 373.758 L
403.274 373.768 L
403.708 373.777 L
404.142 373.786 L
404.576 373.795 L
405.01 373.804 L
405.444 373.812 L
405.878 373.82 L
406.312 373.828 L
406.746 373.835 L
407.18 373.842 L
407.614 373.849 L
408.048 373.856 L
408.482 373.862 L
408.916 373.868 L
409.35 373.874 L
409.784 373.88 L
410.218 373.885 L
410.652 373.89 L
411.086 373.895 L
411.52 373.9 L
411.954 373.905 L
412.388 373.909 L
412.822 373.913 L
413.256 373.917 L
S
GR
GS
[0.75 0 0 0.75 0 0] CT
1 0 0 RC
2 LJ
4 LW
N
413.256 373.917 M
413.69 373.921 L
414.124 373.925 L
414.558 373.928 L
414.992 373.932 L
415.426 373.935 L
415.86 373.938 L
416.294 373.941 L
416.728 373.944 L
417.162 373.947 L
417.596 373.949 L
418.03 373.952 L
418.464 373.954 L
418.898 373.956 L
419.332 373.959 L
419.766 373.961 L
420.2 373.963 L
420.634 373.965 L
421.068 373.966 L
421.502 373.968 L
421.936 373.97 L
422.37 373.971 L
422.804 373.973 L
423.238 373.974 L
423.672 373.976 L
424.106 373.977 L
424.54 373.978 L
424.974 373.979 L
425.408 373.98 L
425.842 373.981 L
426.276 373.982 L
426.71 373.983 L
427.144 373.984 L
427.578 373.985 L
428.012 373.986 L
428.446 373.987 L
428.88 373.988 L
429.314 373.988 L
429.748 373.989 L
430.182 373.99 L
430.616 373.99 L
431.05 373.991 L
431.484 373.991 L
431.918 373.992 L
432.352 373.992 L
432.786 373.993 L
433.22 373.993 L
433.654 373.994 L
434.088 373.994 L
434.522 373.994 L
S
GR
GS
[0.75 0 0 0.75 0 0] CT
1 0 0 RC
2 LJ
4 LW
N
434.522 373.994 M
434.956 373.995 L
435.39 373.995 L
435.824 373.995 L
436.258 373.996 L
436.692 373.996 L
437.126 373.996 L
437.56 373.996 L
437.994 373.997 L
438.428 373.997 L
438.862 373.997 L
439.296 373.997 L
439.73 373.997 L
440.164 373.998 L
440.598 373.998 L
441.032 373.998 L
441.466 373.998 L
441.9 373.998 L
442.334 373.998 L
442.768 373.998 L
443.202 373.999 L
443.636 373.999 L
444.07 373.999 L
444.504 373.999 L
444.938 373.999 L
445.372 373.999 L
445.806 373.999 L
446.24 373.999 L
446.674 373.999 L
447.108 373.999 L
447.542 373.999 L
447.976 373.999 L
448.41 373.999 L
448.844 373.999 L
449.278 374 L
449.712 374 L
450.146 374 L
450.58 374 L
451.014 374 L
451.448 374 L
451.882 374 L
452.316 374 L
452.75 374 L
453.184 374 L
453.618 374 L
454.052 374 L
454.486 374 L
454.92 374 L
455.354 374 L
455.788 374 L
S
GR
GS
[0.75 0 0 0.75 0 0] CT
1 0 0 RC
2 LJ
4 LW
N
455.788 374 M
456.222 374 L
456.656 374 L
457.09 374 L
457.524 374 L
457.958 374 L
458.392 374 L
458.826 374 L
459.26 374 L
459.694 374 L
460.128 374 L
460.562 374 L
460.996 374 L
461.43 374 L
461.864 374 L
462.298 374 L
462.732 374 L
463.166 374 L
463.6 374 L
464.034 374 L
464.468 374 L
464.902 374 L
465.336 374 L
465.77 374 L
466.204 374 L
466.638 374 L
467.072 374 L
467.506 374 L
467.94 374 L
468.374 374 L
468.808 374 L
469.242 374 L
469.676 374 L
470.11 374 L
470.544 374 L
470.978 374 L
471.412 374 L
471.846 374 L
472.28 374 L
472.714 374 L
473.148 374 L
473.582 374 L
474.016 374 L
474.45 374 L
474.884 374 L
475.318 374 L
475.752 374 L
476.186 374 L
476.62 374 L
477.054 374 L
S
GR
GS
[0.75 0 0 0.75 0 0] CT
1 0 0 RC
2 LJ
4 LW
N
477.054 374 M
477.488 374 L
477.922 374 L
478.356 374 L
478.79 374 L
479.224 374 L
479.658 374 L
480.092 374 L
480.526 374 L
480.96 374 L
481.394 374 L
481.828 374 L
482.262 374 L
482.696 374 L
483.13 374 L
483.564 374 L
483.998 374 L
484.432 374 L
484.866 374 L
485.3 374 L
485.734 374 L
486.168 374 L
486.602 374 L
487.036 374 L
487.47 374 L
487.904 374 L
488.338 374 L
488.772 374 L
489.206 374 L
489.64 374 L
490.074 374 L
490.508 374 L
490.942 374 L
491.376 374 L
491.81 374 L
492.244 374 L
492.678 374 L
493.112 374 L
493.546 374 L
493.98 374 L
494.414 374 L
494.848 374 L
495.282 374 L
495.716 374 L
496.15 374 L
496.584 374 L
497.018 374 L
497.452 374 L
497.886 374 L
498.32 374 L
S
GR
GS
[0.75 0 0 0.75 0 0] CT
1 0 0 RC
2 LJ
4 LW
N
498.32 374 M
498.754 374 L
499.188 374 L
499.622 374 L
500.056 374 L
500.49 374 L
500.924 374 L
501.358 374 L
501.792 374 L
502.226 374 L
502.66 374 L
503.094 374 L
503.528 374 L
503.962 374 L
504.396 374 L
504.83 374 L
505.264 374 L
505.698 374 L
506.132 374 L
506.566 374 L
507 374 L
S
GR
GS
[0.75 0 0 0.75 0 0] CT
0.149 GC
2 setlinecap
10.0 ML
N
73 374 M
507 374 L
S
GR
GS
[0.75 0 0 0.75 0 0] CT
1 GC
N
279 80 M
279 44 L
494 44 L
494 80 L
cp
f
GR
GS
[0.75 0 0 0.75 248.25 40.625] CT
/Helvetica 12 F
GS
[1 0 0 1 0 0] CT
0 4.5 moveto 
1 -1 scale
(Correlation coefficient hist) t 
GR
GR
GS
[0.75 0 0 0.75 0 0] CT
0.208 0.165 0.525 RC
N
287 59.833 M
287 48.5 L
327 48.5 L
327 59.833 L
cp
f
GR
GS
[0.75 0 0 0.75 0 0] CT
2 setlinecap
10.0 ML
N
287 59.833 M
287 48.5 L
327 48.5 L
327 59.833 L
287 59.833 L
S
GR
GS
[0.75 0 0 0.75 248.25 52.375] CT
/Helvetica 12 F
GS
[1 0 0 1 0 0] CT
0 4.5 moveto 
1 -1 scale
(Exact PDF) t 
GR
GR
GS
[0.75 0 0 0.75 0 0] CT
1 0 0 RC
2 setlinecap
10.0 ML
4 LW
N
287 69.833 M
327 69.833 L
S
GR
GS
[0.75 0 0 0.75 0 0] CT
0.149 GC
2 setlinecap
10.0 ML
N
279 80 M
279 44 L
494 44 L
494 80 L
279 80 L
S
GR
%%Trailer
%%Pages: 1
%%EOF
