%!PS-Adobe-3.0 EPSF-3.0
%%Creator: (MATLAB, The Mathworks, Inc. Version 8.5.0.197613 \(R2015a\). Operating System: Linux)
%%Title: /home/albyback/git/contig_assembly/Paper/FIGURES/evd/evdGEV2.eps
%%CreationDate: 2016-12-01T21:12:40
%%Pages: (atend)
%%BoundingBox: 0 0 420 315
%%LanguageLevel: 2
%%EndComments
%%BeginProlog
%%BeginResource: procset (Apache XML Graphics Std ProcSet) 1.2 0
%%Version: 1.2 0
%%Copyright: (Copyright 2001-2003,2010 The Apache Software Foundation. License terms: http://www.apache.org/licenses/LICENSE-2.0)
/bd{bind def}bind def
/ld{load def}bd
/GR/grestore ld
/M/moveto ld
/LJ/setlinejoin ld
/C/curveto ld
/f/fill ld
/LW/setlinewidth ld
/GC/setgray ld
/t/show ld
/N/newpath ld
/CT/concat ld
/cp/closepath ld
/S/stroke ld
/L/lineto ld
/CC/setcmykcolor ld
/A/ashow ld
/GS/gsave ld
/RC/setrgbcolor ld
/RM/rmoveto ld
/ML/setmiterlimit ld
/re {4 2 roll M
1 index 0 rlineto
0 exch rlineto
neg 0 rlineto
cp } bd
/_ctm matrix def
/_tm matrix def
/BT { _ctm currentmatrix pop matrix _tm copy pop 0 0 moveto } bd
/ET { _ctm setmatrix } bd
/iTm { _ctm setmatrix _tm concat } bd
/Tm { _tm astore pop iTm 0 0 moveto } bd
/ux 0.0 def
/uy 0.0 def
/F {
  /Tp exch def
  /Tf exch def
  Tf findfont Tp scalefont setfont
  /cf Tf def  /cs Tp def
} bd
/ULS {currentpoint /uy exch def /ux exch def} bd
/ULE {
  /Tcx currentpoint pop def
  gsave
  newpath
  cf findfont cs scalefont dup
  /FontMatrix get 0 get /Ts exch def /FontInfo get dup
  /UnderlinePosition get Ts mul /To exch def
  /UnderlineThickness get Ts mul /Tt exch def
  ux uy To add moveto  Tcx uy To add lineto
  Tt setlinewidth stroke
  grestore
} bd
/OLE {
  /Tcx currentpoint pop def
  gsave
  newpath
  cf findfont cs scalefont dup
  /FontMatrix get 0 get /Ts exch def /FontInfo get dup
  /UnderlinePosition get Ts mul /To exch def
  /UnderlineThickness get Ts mul /Tt exch def
  ux uy To add cs add moveto Tcx uy To add cs add lineto
  Tt setlinewidth stroke
  grestore
} bd
/SOE {
  /Tcx currentpoint pop def
  gsave
  newpath
  cf findfont cs scalefont dup
  /FontMatrix get 0 get /Ts exch def /FontInfo get dup
  /UnderlinePosition get Ts mul /To exch def
  /UnderlineThickness get Ts mul /Tt exch def
  ux uy To add cs 10 mul 26 idiv add moveto Tcx uy To add cs 10 mul 26 idiv add lineto
  Tt setlinewidth stroke
  grestore
} bd
/QT {
/Y22 exch store
/X22 exch store
/Y21 exch store
/X21 exch store
currentpoint
/Y21 load 2 mul add 3 div exch
/X21 load 2 mul add 3 div exch
/X21 load 2 mul /X22 load add 3 div
/Y21 load 2 mul /Y22 load add 3 div
/X22 load /Y22 load curveto
} bd
/SSPD {
dup length /d exch dict def
{
/v exch def
/k exch def
currentpagedevice k known {
/cpdv currentpagedevice k get def
v cpdv ne {
/upd false def
/nullv v type /nulltype eq def
/nullcpdv cpdv type /nulltype eq def
nullv nullcpdv or
{
/upd true def
} {
/sametype v type cpdv type eq def
sametype {
v type /arraytype eq {
/vlen v length def
/cpdvlen cpdv length def
vlen cpdvlen eq {
0 1 vlen 1 sub {
/i exch def
/obj v i get def
/cpdobj cpdv i get def
obj cpdobj ne {
/upd true def
exit
} if
} for
} {
/upd true def
} ifelse
} {
v type /dicttype eq {
v {
/dv exch def
/dk exch def
/cpddv cpdv dk get def
dv cpddv ne {
/upd true def
exit
} if
} forall
} {
/upd true def
} ifelse
} ifelse
} if
} ifelse
upd true eq {
d k v put
} if
} if
} if
} forall
d length 0 gt {
d setpagedevice
} if
} bd
%%EndResource
%%BeginResource: procset (Apache XML Graphics EPS ProcSet) 1.0 0
%%Version: 1.0 0
%%Copyright: (Copyright 2002-2003 The Apache Software Foundation. License terms: http://www.apache.org/licenses/LICENSE-2.0)
/BeginEPSF { %def
/b4_Inc_state save def         % Save state for cleanup
/dict_count countdictstack def % Count objects on dict stack
/op_count count 1 sub def      % Count objects on operand stack
userdict begin                 % Push userdict on dict stack
/showpage { } def              % Redefine showpage, { } = null proc
0 setgray 0 setlinecap         % Prepare graphics state
1 setlinewidth 0 setlinejoin
10 setmiterlimit [ ] 0 setdash newpath
/languagelevel where           % If level not equal to 1 then
{pop languagelevel             % set strokeadjust and
1 ne                           % overprint to their defaults.
{false setstrokeadjust false setoverprint
} if
} if
} bd
/EndEPSF { %def
count op_count sub {pop} repeat            % Clean up stacks
countdictstack dict_count sub {end} repeat
b4_Inc_state restore
} bd
%%EndResource
%FOPBeginFontDict
%%IncludeResource: font Courier-Bold
%%IncludeResource: font Helvetica
%%IncludeResource: font Courier-BoldOblique
%%IncludeResource: font Courier-Oblique
%%IncludeResource: font Times-Roman
%%IncludeResource: font Helvetica-BoldOblique
%%IncludeResource: font Helvetica-Bold
%%IncludeResource: font Helvetica-Oblique
%%IncludeResource: font Times-BoldItalic
%%IncludeResource: font Courier
%%IncludeResource: font Times-Italic
%%IncludeResource: font Times-Bold
%%IncludeResource: font Symbol
%%IncludeResource: font ZapfDingbats
%FOPEndFontDict
%%BeginResource: encoding WinAnsiEncoding
/WinAnsiEncoding [
/.notdef /.notdef /.notdef /.notdef /.notdef
/.notdef /.notdef /.notdef /.notdef /.notdef
/.notdef /.notdef /.notdef /.notdef /.notdef
/.notdef /.notdef /.notdef /.notdef /.notdef
/.notdef /.notdef /.notdef /.notdef /.notdef
/.notdef /.notdef /.notdef /.notdef /.notdef
/.notdef /.notdef /space /exclam /quotedbl
/numbersign /dollar /percent /ampersand /quotesingle
/parenleft /parenright /asterisk /plus /comma
/hyphen /period /slash /zero /one
/two /three /four /five /six
/seven /eight /nine /colon /semicolon
/less /equal /greater /question /at
/A /B /C /D /E
/F /G /H /I /J
/K /L /M /N /O
/P /Q /R /S /T
/U /V /W /X /Y
/Z /bracketleft /backslash /bracketright /asciicircum
/underscore /quoteleft /a /b /c
/d /e /f /g /h
/i /j /k /l /m
/n /o /p /q /r
/s /t /u /v /w
/x /y /z /braceleft /bar
/braceright /asciitilde /bullet /Euro /bullet
/quotesinglbase /florin /quotedblbase /ellipsis /dagger
/daggerdbl /circumflex /perthousand /Scaron /guilsinglleft
/OE /bullet /Zcaron /bullet /bullet
/quoteleft /quoteright /quotedblleft /quotedblright /bullet
/endash /emdash /asciitilde /trademark /scaron
/guilsinglright /oe /bullet /zcaron /Ydieresis
/space /exclamdown /cent /sterling /currency
/yen /brokenbar /section /dieresis /copyright
/ordfeminine /guillemotleft /logicalnot /sfthyphen /registered
/macron /degree /plusminus /twosuperior /threesuperior
/acute /mu /paragraph /middot /cedilla
/onesuperior /ordmasculine /guillemotright /onequarter /onehalf
/threequarters /questiondown /Agrave /Aacute /Acircumflex
/Atilde /Adieresis /Aring /AE /Ccedilla
/Egrave /Eacute /Ecircumflex /Edieresis /Igrave
/Iacute /Icircumflex /Idieresis /Eth /Ntilde
/Ograve /Oacute /Ocircumflex /Otilde /Odieresis
/multiply /Oslash /Ugrave /Uacute /Ucircumflex
/Udieresis /Yacute /Thorn /germandbls /agrave
/aacute /acircumflex /atilde /adieresis /aring
/ae /ccedilla /egrave /eacute /ecircumflex
/edieresis /igrave /iacute /icircumflex /idieresis
/eth /ntilde /ograve /oacute /ocircumflex
/otilde /odieresis /divide /oslash /ugrave
/uacute /ucircumflex /udieresis /yacute /thorn
/ydieresis
] def
%%EndResource
%FOPBeginFontReencode
/Courier-Bold findfont
dup length dict begin
  {1 index /FID ne {def} {pop pop} ifelse} forall
  /Encoding WinAnsiEncoding def
  currentdict
end
/Courier-Bold exch definefont pop
/Helvetica findfont
dup length dict begin
  {1 index /FID ne {def} {pop pop} ifelse} forall
  /Encoding WinAnsiEncoding def
  currentdict
end
/Helvetica exch definefont pop
/Courier-BoldOblique findfont
dup length dict begin
  {1 index /FID ne {def} {pop pop} ifelse} forall
  /Encoding WinAnsiEncoding def
  currentdict
end
/Courier-BoldOblique exch definefont pop
/Courier-Oblique findfont
dup length dict begin
  {1 index /FID ne {def} {pop pop} ifelse} forall
  /Encoding WinAnsiEncoding def
  currentdict
end
/Courier-Oblique exch definefont pop
/Times-Roman findfont
dup length dict begin
  {1 index /FID ne {def} {pop pop} ifelse} forall
  /Encoding WinAnsiEncoding def
  currentdict
end
/Times-Roman exch definefont pop
/Helvetica-BoldOblique findfont
dup length dict begin
  {1 index /FID ne {def} {pop pop} ifelse} forall
  /Encoding WinAnsiEncoding def
  currentdict
end
/Helvetica-BoldOblique exch definefont pop
/Helvetica-Bold findfont
dup length dict begin
  {1 index /FID ne {def} {pop pop} ifelse} forall
  /Encoding WinAnsiEncoding def
  currentdict
end
/Helvetica-Bold exch definefont pop
/Helvetica-Oblique findfont
dup length dict begin
  {1 index /FID ne {def} {pop pop} ifelse} forall
  /Encoding WinAnsiEncoding def
  currentdict
end
/Helvetica-Oblique exch definefont pop
/Times-BoldItalic findfont
dup length dict begin
  {1 index /FID ne {def} {pop pop} ifelse} forall
  /Encoding WinAnsiEncoding def
  currentdict
end
/Times-BoldItalic exch definefont pop
/Courier findfont
dup length dict begin
  {1 index /FID ne {def} {pop pop} ifelse} forall
  /Encoding WinAnsiEncoding def
  currentdict
end
/Courier exch definefont pop
/Times-Italic findfont
dup length dict begin
  {1 index /FID ne {def} {pop pop} ifelse} forall
  /Encoding WinAnsiEncoding def
  currentdict
end
/Times-Italic exch definefont pop
/Times-Bold findfont
dup length dict begin
  {1 index /FID ne {def} {pop pop} ifelse} forall
  /Encoding WinAnsiEncoding def
  currentdict
end
/Times-Bold exch definefont pop
%FOPEndFontReencode
%%EndProlog
%%Page: 1 1
%%PageBoundingBox: 0 0 420 315
%%BeginPageSetup
[1 0 0 -1 0 315] CT
%%EndPageSetup
GS
[0.75 0 0 0.75 0 0] CT
1 GC
N
0 0 560 420 re
f
GR
GS
[0.75 0 0 0.75 0 0] CT
1 GC
N
0 0 560 420 re
f
GR
GS
[0.75 0 0 0.75 0 0] CT
1 GC
N
73 374 M
507 374 L
507 31 L
73 31 L
cp
f
GR
GS
[0.75 0 0 0.75 217.50016 298.24999] CT
0.149 GC
/Helvetica 15 F
GS
[1 0 0 1 0 0] CT
-10.5 14 moveto 
1 -1 scale
(CC) t 
GR
GR
GS
[0.75 0 0 0.75 0 0] CT
0.149 GC
2 setlinecap
10.0 ML
N
73 374 M
507 374 L
S
GR
GS
[0.75 0 0 0.75 0 0] CT
0.149 GC
2 setlinecap
10.0 ML
N
73 31 M
507 31 L
S
GR
GS
[0.75 0 0 0.75 0 0] CT
0.149 GC
2 setlinecap
10.0 ML
N
73 374 M
73 369.66 L
S
GR
GS
[0.75 0 0 0.75 0 0] CT
0.149 GC
2 setlinecap
10.0 ML
N
159.8 374 M
159.8 369.66 L
S
GR
GS
[0.75 0 0 0.75 0 0] CT
0.149 GC
2 setlinecap
10.0 ML
N
246.6 374 M
246.6 369.66 L
S
GR
GS
[0.75 0 0 0.75 0 0] CT
0.149 GC
2 setlinecap
10.0 ML
N
333.4 374 M
333.4 369.66 L
S
GR
GS
[0.75 0 0 0.75 0 0] CT
0.149 GC
2 setlinecap
10.0 ML
N
420.2 374 M
420.2 369.66 L
S
GR
GS
[0.75 0 0 0.75 0 0] CT
0.149 GC
2 setlinecap
10.0 ML
N
507 374 M
507 369.66 L
S
GR
GS
[0.75 0 0 0.75 0 0] CT
0.149 GC
2 setlinecap
10.0 ML
N
73 31 M
73 35.34 L
S
GR
GS
[0.75 0 0 0.75 0 0] CT
0.149 GC
2 setlinecap
10.0 ML
N
159.8 31 M
159.8 35.34 L
S
GR
GS
[0.75 0 0 0.75 0 0] CT
0.149 GC
2 setlinecap
10.0 ML
N
246.6 31 M
246.6 35.34 L
S
GR
GS
[0.75 0 0 0.75 0 0] CT
0.149 GC
2 setlinecap
10.0 ML
N
333.4 31 M
333.4 35.34 L
S
GR
GS
[0.75 0 0 0.75 0 0] CT
0.149 GC
2 setlinecap
10.0 ML
N
420.2 31 M
420.2 35.34 L
S
GR
GS
[0.75 0 0 0.75 0 0] CT
0.149 GC
2 setlinecap
10.0 ML
N
507 31 M
507 35.34 L
S
GR
GS
[0.75 0 0 0.75 54.75 284.50001] CT
0.149 GC
/Helvetica 13 F
GS
[1 0 0 1 0 0] CT
-4.5 13 moveto 
1 -1 scale
(0) t 
GR
GR
GS
[0.75 0 0 0.75 119.85 284.50001] CT
0.149 GC
/Helvetica 13 F
GS
[1 0 0 1 0 0] CT
-10.5 13 moveto 
1 -1 scale
(0.2) t 
GR
GR
GS
[0.75 0 0 0.75 184.95 284.50001] CT
0.149 GC
/Helvetica 13 F
GS
[1 0 0 1 0 0] CT
-10.5 13 moveto 
1 -1 scale
(0.4) t 
GR
GR
GS
[0.75 0 0 0.75 250.05002 284.50001] CT
0.149 GC
/Helvetica 13 F
GS
[1 0 0 1 0 0] CT
-10.5 13 moveto 
1 -1 scale
(0.6) t 
GR
GR
GS
[0.75 0 0 0.75 315.15001 284.50001] CT
0.149 GC
/Helvetica 13 F
GS
[1 0 0 1 0 0] CT
-10.5 13 moveto 
1 -1 scale
(0.8) t 
GR
GR
GS
[0.75 0 0 0.75 380.25 284.50001] CT
0.149 GC
/Helvetica 13 F
GS
[1 0 0 1 0 0] CT
-4.5 13 moveto 
1 -1 scale
(1) t 
GR
GR
GS
[0 -0.75 0.75 0 41 151.87487] CT
0.149 GC
/Helvetica 15 F
GS
[1 0 0 1 0 0] CT
-15 -4 moveto 
1 -1 scale
(PDF) t 
GR
GR
GS
[0.75 0 0 0.75 0 0] CT
0.149 GC
2 setlinecap
10.0 ML
N
73 374 M
73 31 L
S
GR
GS
[0.75 0 0 0.75 0 0] CT
0.149 GC
2 setlinecap
10.0 ML
N
507 374 M
507 31 L
S
GR
GS
[0.75 0 0 0.75 0 0] CT
0.149 GC
2 setlinecap
10.0 ML
N
73 374 M
77.34 374 L
S
GR
GS
[0.75 0 0 0.75 0 0] CT
0.149 GC
2 setlinecap
10.0 ML
N
73 316.833 M
77.34 316.833 L
S
GR
GS
[0.75 0 0 0.75 0 0] CT
0.149 GC
2 setlinecap
10.0 ML
N
73 259.667 M
77.34 259.667 L
S
GR
GS
[0.75 0 0 0.75 0 0] CT
0.149 GC
2 setlinecap
10.0 ML
N
73 202.5 M
77.34 202.5 L
S
GR
GS
[0.75 0 0 0.75 0 0] CT
0.149 GC
2 setlinecap
10.0 ML
N
73 145.333 M
77.34 145.333 L
S
GR
GS
[0.75 0 0 0.75 0 0] CT
0.149 GC
2 setlinecap
10.0 ML
N
73 88.167 M
77.34 88.167 L
S
GR
GS
[0.75 0 0 0.75 0 0] CT
0.149 GC
2 setlinecap
10.0 ML
N
73 31 M
77.34 31 L
S
GR
GS
[0.75 0 0 0.75 0 0] CT
0.149 GC
2 setlinecap
10.0 ML
N
507 374 M
502.66 374 L
S
GR
GS
[0.75 0 0 0.75 0 0] CT
0.149 GC
2 setlinecap
10.0 ML
N
507 316.833 M
502.66 316.833 L
S
GR
GS
[0.75 0 0 0.75 0 0] CT
0.149 GC
2 setlinecap
10.0 ML
N
507 259.667 M
502.66 259.667 L
S
GR
GS
[0.75 0 0 0.75 0 0] CT
0.149 GC
2 setlinecap
10.0 ML
N
507 202.5 M
502.66 202.5 L
S
GR
GS
[0.75 0 0 0.75 0 0] CT
0.149 GC
2 setlinecap
10.0 ML
N
507 145.333 M
502.66 145.333 L
S
GR
GS
[0.75 0 0 0.75 0 0] CT
0.149 GC
2 setlinecap
10.0 ML
N
507 88.167 M
502.66 88.167 L
S
GR
GS
[0.75 0 0 0.75 0 0] CT
0.149 GC
2 setlinecap
10.0 ML
N
507 31 M
502.66 31 L
S
GR
GS
[0.75 0 0 0.75 50.75 280.5] CT
0.149 GC
/Helvetica 13 F
GS
[1 0 0 1 0 0] CT
-9 4.5 moveto 
1 -1 scale
(0) t 
GR
GR
GS
[0.75 0 0 0.75 50.75 237.62501] CT
0.149 GC
/Helvetica 13 F
GS
[1 0 0 1 0 0] CT
-9 4.5 moveto 
1 -1 scale
(1) t 
GR
GR
GS
[0.75 0 0 0.75 50.75 194.74999] CT
0.149 GC
/Helvetica 13 F
GS
[1 0 0 1 0 0] CT
-9 4.5 moveto 
1 -1 scale
(2) t 
GR
GR
GS
[0.75 0 0 0.75 50.75 151.875] CT
0.149 GC
/Helvetica 13 F
GS
[1 0 0 1 0 0] CT
-9 4.5 moveto 
1 -1 scale
(3) t 
GR
GR
GS
[0.75 0 0 0.75 50.75 109] CT
0.149 GC
/Helvetica 13 F
GS
[1 0 0 1 0 0] CT
-9 4.5 moveto 
1 -1 scale
(4) t 
GR
GR
GS
[0.75 0 0 0.75 50.75 66.125] CT
0.149 GC
/Helvetica 13 F
GS
[1 0 0 1 0 0] CT
-9 4.5 moveto 
1 -1 scale
(5) t 
GR
GR
GS
[0.75 0 0 0.75 50.75 23.25] CT
0.149 GC
/Helvetica 13 F
GS
[1 0 0 1 0 0] CT
-9 4.5 moveto 
1 -1 scale
(6) t 
GR
GR
GS
[0.75 0 0 0.75 0 0] CT
0.208 0.165 0.525 RC
N
178.169 374 M
183.448 374 L
183.448 366.469 L
178.169 366.469 L
cp
f
GR
GS
[0.75 0 0 0.75 0 0] CT
0.208 0.165 0.525 RC
N
184.768 374 M
190.047 374 L
190.047 362.704 L
184.768 362.704 L
cp
f
GR
GS
[0.75 0 0 0.75 0 0] CT
0.208 0.165 0.525 RC
N
191.366 374 M
196.645 374 L
196.645 336.346 L
191.366 336.346 L
cp
f
GR
GS
[0.75 0 0 0.75 0 0] CT
0.208 0.165 0.525 RC
N
197.965 374 M
203.244 374 L
203.244 325.049 L
197.965 325.049 L
cp
f
GR
GS
[0.75 0 0 0.75 0 0] CT
0.208 0.165 0.525 RC
N
204.564 374 M
209.843 374 L
209.843 249.741 L
204.564 249.741 L
cp
f
GR
GS
[0.75 0 0 0.75 0 0] CT
0.208 0.165 0.525 RC
N
211.163 374 M
216.442 374 L
216.442 230.913 L
211.163 230.913 L
cp
f
GR
GS
[0.75 0 0 0.75 0 0] CT
0.208 0.165 0.525 RC
N
217.762 374 M
223.041 374 L
223.041 166.901 L
217.762 166.901 L
cp
f
GR
GS
[0.75 0 0 0.75 0 0] CT
0.208 0.165 0.525 RC
N
224.361 374 M
229.64 374 L
229.64 125.481 L
224.361 125.481 L
cp
f
GR
GS
[0.75 0 0 0.75 0 0] CT
0.208 0.165 0.525 RC
N
230.96 374 M
236.239 374 L
236.239 136.777 L
230.96 136.777 L
cp
f
GR
GS
[0.75 0 0 0.75 0 0] CT
0.208 0.165 0.525 RC
N
237.558 374 M
242.837 374 L
242.837 65.234 L
237.558 65.234 L
cp
f
GR
GS
[0.75 0 0 0.75 0 0] CT
0.208 0.165 0.525 RC
N
244.157 374 M
249.436 374 L
249.436 50.172 L
244.157 50.172 L
cp
f
GR
GS
[0.75 0 0 0.75 0 0] CT
0.208 0.165 0.525 RC
N
250.756 374 M
256.035 374 L
256.035 57.703 L
250.756 57.703 L
cp
f
GR
GS
[0.75 0 0 0.75 0 0] CT
0.208 0.165 0.525 RC
N
257.355 374 M
262.634 374 L
262.634 102.888 L
257.355 102.888 L
cp
f
GR
GS
[0.75 0 0 0.75 0 0] CT
0.208 0.165 0.525 RC
N
263.954 374 M
269.233 374 L
269.233 136.777 L
263.954 136.777 L
cp
f
GR
GS
[0.75 0 0 0.75 0 0] CT
0.208 0.165 0.525 RC
N
270.553 374 M
275.832 374 L
275.832 204.555 L
270.553 204.555 L
cp
f
GR
GS
[0.75 0 0 0.75 0 0] CT
0.208 0.165 0.525 RC
N
277.152 374 M
282.431 374 L
282.431 151.839 L
277.152 151.839 L
cp
f
GR
GS
[0.75 0 0 0.75 0 0] CT
0.208 0.165 0.525 RC
N
283.75 374 M
289.03 374 L
289.03 238.444 L
283.75 238.444 L
cp
f
GR
GS
[0.75 0 0 0.75 0 0] CT
0.208 0.165 0.525 RC
N
290.349 374 M
295.628 374 L
295.628 227.148 L
290.349 227.148 L
cp
f
GR
GS
[0.75 0 0 0.75 0 0] CT
0.208 0.165 0.525 RC
N
296.948 374 M
302.227 374 L
302.227 287.395 L
296.948 287.395 L
cp
f
GR
GS
[0.75 0 0 0.75 0 0] CT
0.208 0.165 0.525 RC
N
303.547 374 M
308.826 374 L
308.826 261.037 L
303.547 261.037 L
cp
f
GR
GS
[0.75 0 0 0.75 0 0] CT
0.208 0.165 0.525 RC
N
310.146 374 M
315.425 374 L
315.425 253.506 L
310.146 253.506 L
cp
f
GR
GS
[0.75 0 0 0.75 0 0] CT
0.208 0.165 0.525 RC
N
316.745 374 M
322.024 374 L
322.024 298.691 L
316.745 298.691 L
cp
f
GR
GS
[0.75 0 0 0.75 0 0] CT
0.208 0.165 0.525 RC
N
323.344 374 M
328.623 374 L
328.623 347.642 L
323.344 347.642 L
cp
f
GR
GS
[0.75 0 0 0.75 0 0] CT
0.208 0.165 0.525 RC
N
329.942 374 M
335.222 374 L
335.222 309.988 L
329.942 309.988 L
cp
f
GR
GS
[0.75 0 0 0.75 0 0] CT
0.208 0.165 0.525 RC
N
336.541 374 M
341.82 374 L
341.82 355.173 L
336.541 355.173 L
cp
f
GR
GS
[0.75 0 0 0.75 0 0] CT
0.208 0.165 0.525 RC
N
343.14 374 M
348.419 374 L
348.419 343.876 L
343.14 343.876 L
cp
f
GR
GS
[0.75 0 0 0.75 0 0] CT
0.208 0.165 0.525 RC
N
349.739 374 M
355.018 374 L
355.018 358.938 L
349.739 358.938 L
cp
f
GR
GS
[0.75 0 0 0.75 0 0] CT
0.208 0.165 0.525 RC
N
356.338 374 M
361.617 374 L
361.617 358.938 L
356.338 358.938 L
cp
f
GR
GS
[0.75 0 0 0.75 0 0] CT
0.208 0.165 0.525 RC
N
362.937 374 M
368.216 374 L
368.216 374 L
362.937 374 L
cp
f
GR
GS
[0.75 0 0 0.75 0 0] CT
0.208 0.165 0.525 RC
N
369.536 374 M
374.815 374 L
374.815 374 L
369.536 374 L
cp
f
GR
GS
[0.75 0 0 0.75 0 0] CT
0.208 0.165 0.525 RC
N
376.134 374 M
381.414 374 L
381.414 370.235 L
376.134 370.235 L
cp
f
GR
GS
[0.75 0 0 0.75 0 0] CT
2 setlinecap
10.0 ML
N
178.169 374 M
178.169 366.469 L
183.448 366.469 L
183.448 374 L
178.169 374 L
S
GR
GS
[0.75 0 0 0.75 0 0] CT
2 setlinecap
10.0 ML
N
184.768 374 M
184.768 362.704 L
190.047 362.704 L
190.047 374 L
184.768 374 L
S
GR
GS
[0.75 0 0 0.75 0 0] CT
2 setlinecap
10.0 ML
N
191.366 374 M
191.366 336.346 L
196.645 336.346 L
196.645 374 L
191.366 374 L
S
GR
GS
[0.75 0 0 0.75 0 0] CT
2 setlinecap
10.0 ML
N
197.965 374 M
197.965 325.049 L
203.244 325.049 L
203.244 374 L
197.965 374 L
S
GR
GS
[0.75 0 0 0.75 0 0] CT
2 setlinecap
10.0 ML
N
204.564 374 M
204.564 249.741 L
209.843 249.741 L
209.843 374 L
204.564 374 L
S
GR
GS
[0.75 0 0 0.75 0 0] CT
2 setlinecap
10.0 ML
N
211.163 374 M
211.163 230.913 L
216.442 230.913 L
216.442 374 L
211.163 374 L
S
GR
GS
[0.75 0 0 0.75 0 0] CT
2 setlinecap
10.0 ML
N
217.762 374 M
217.762 166.901 L
223.041 166.901 L
223.041 374 L
217.762 374 L
S
GR
GS
[0.75 0 0 0.75 0 0] CT
2 setlinecap
10.0 ML
N
224.361 374 M
224.361 125.481 L
229.64 125.481 L
229.64 374 L
224.361 374 L
S
GR
GS
[0.75 0 0 0.75 0 0] CT
2 setlinecap
10.0 ML
N
230.96 374 M
230.96 136.777 L
236.239 136.777 L
236.239 374 L
230.96 374 L
S
GR
GS
[0.75 0 0 0.75 0 0] CT
2 setlinecap
10.0 ML
N
237.558 374 M
237.558 65.234 L
242.837 65.234 L
242.837 374 L
237.558 374 L
S
GR
GS
[0.75 0 0 0.75 0 0] CT
2 setlinecap
10.0 ML
N
244.157 374 M
244.157 50.172 L
249.436 50.172 L
249.436 374 L
244.157 374 L
S
GR
GS
[0.75 0 0 0.75 0 0] CT
2 setlinecap
10.0 ML
N
250.756 374 M
250.756 57.703 L
256.035 57.703 L
256.035 374 L
250.756 374 L
S
GR
GS
[0.75 0 0 0.75 0 0] CT
2 setlinecap
10.0 ML
N
257.355 374 M
257.355 102.888 L
262.634 102.888 L
262.634 374 L
257.355 374 L
S
GR
GS
[0.75 0 0 0.75 0 0] CT
2 setlinecap
10.0 ML
N
263.954 374 M
263.954 136.777 L
269.233 136.777 L
269.233 374 L
263.954 374 L
S
GR
GS
[0.75 0 0 0.75 0 0] CT
2 setlinecap
10.0 ML
N
270.553 374 M
270.553 204.555 L
275.832 204.555 L
275.832 374 L
270.553 374 L
S
GR
GS
[0.75 0 0 0.75 0 0] CT
2 setlinecap
10.0 ML
N
277.152 374 M
277.152 151.839 L
282.431 151.839 L
282.431 374 L
277.152 374 L
S
GR
GS
[0.75 0 0 0.75 0 0] CT
2 setlinecap
10.0 ML
N
283.75 374 M
283.75 238.444 L
289.03 238.444 L
289.03 374 L
283.75 374 L
S
GR
GS
[0.75 0 0 0.75 0 0] CT
2 setlinecap
10.0 ML
N
290.349 374 M
290.349 227.148 L
295.628 227.148 L
295.628 374 L
290.349 374 L
S
GR
GS
[0.75 0 0 0.75 0 0] CT
2 setlinecap
10.0 ML
N
296.948 374 M
296.948 287.395 L
302.227 287.395 L
302.227 374 L
296.948 374 L
S
GR
GS
[0.75 0 0 0.75 0 0] CT
2 setlinecap
10.0 ML
N
303.547 374 M
303.547 261.037 L
308.826 261.037 L
308.826 374 L
303.547 374 L
S
GR
GS
[0.75 0 0 0.75 0 0] CT
2 setlinecap
10.0 ML
N
310.146 374 M
310.146 253.506 L
315.425 253.506 L
315.425 374 L
310.146 374 L
S
GR
GS
[0.75 0 0 0.75 0 0] CT
2 setlinecap
10.0 ML
N
316.745 374 M
316.745 298.691 L
322.024 298.691 L
322.024 374 L
316.745 374 L
S
GR
GS
[0.75 0 0 0.75 0 0] CT
2 setlinecap
10.0 ML
N
323.344 374 M
323.344 347.642 L
328.623 347.642 L
328.623 374 L
323.344 374 L
S
GR
GS
[0.75 0 0 0.75 0 0] CT
2 setlinecap
10.0 ML
N
329.942 374 M
329.942 309.988 L
335.222 309.988 L
335.222 374 L
329.942 374 L
S
GR
GS
[0.75 0 0 0.75 0 0] CT
2 setlinecap
10.0 ML
N
336.541 374 M
336.541 355.173 L
341.82 355.173 L
341.82 374 L
336.541 374 L
S
GR
GS
[0.75 0 0 0.75 0 0] CT
2 setlinecap
10.0 ML
N
343.14 374 M
343.14 343.876 L
348.419 343.876 L
348.419 374 L
343.14 374 L
S
GR
GS
[0.75 0 0 0.75 0 0] CT
2 setlinecap
10.0 ML
N
349.739 374 M
349.739 358.938 L
355.018 358.938 L
355.018 374 L
349.739 374 L
S
GR
GS
[0.75 0 0 0.75 0 0] CT
2 setlinecap
10.0 ML
N
356.338 374 M
356.338 358.938 L
361.617 358.938 L
361.617 374 L
356.338 374 L
S
GR
GS
[0.75 0 0 0.75 0 0] CT
2 setlinecap
10.0 ML
N
362.937 374 M
362.937 374 L
368.216 374 L
368.216 374 L
362.937 374 L
S
GR
GS
[0.75 0 0 0.75 0 0] CT
2 setlinecap
10.0 ML
N
369.536 374 M
369.536 374 L
374.815 374 L
374.815 374 L
369.536 374 L
S
GR
GS
[0.75 0 0 0.75 0 0] CT
2 setlinecap
10.0 ML
N
376.134 374 M
376.134 370.235 L
381.414 370.235 L
381.414 374 L
376.134 374 L
S
GR
GS
[0.75 0 0 0.75 0 0] CT
1 0 0 RC
2 LJ
4 LW
N
73 374 M
73.434 374 L
73.868 374 L
74.302 374 L
74.736 374 L
75.17 374 L
75.604 374 L
76.038 374 L
76.472 374 L
76.906 374 L
77.34 374 L
77.774 374 L
78.208 374 L
78.642 374 L
79.076 374 L
79.51 374 L
79.944 374 L
80.378 374 L
80.812 374 L
81.246 374 L
81.68 374 L
82.114 374 L
82.548 374 L
82.982 374 L
83.416 374 L
83.85 374 L
84.284 374 L
84.718 374 L
85.152 374 L
85.586 374 L
86.02 374 L
86.454 374 L
86.888 374 L
87.322 374 L
87.756 374 L
88.19 374 L
88.624 374 L
89.058 374 L
89.492 374 L
89.926 374 L
90.36 374 L
90.794 374 L
91.228 374 L
91.662 374 L
92.096 374 L
92.53 374 L
92.964 374 L
93.398 374 L
93.832 374 L
94.266 374 L
S
GR
GS
[0.75 0 0 0.75 0 0] CT
1 0 0 RC
2 LJ
4 LW
N
94.266 374 M
94.7 374 L
95.134 374 L
95.568 374 L
96.002 374 L
96.436 374 L
96.87 374 L
97.304 374 L
97.738 374 L
98.172 374 L
98.606 374 L
99.04 374 L
99.474 374 L
99.908 374 L
100.342 374 L
100.776 374 L
101.21 374 L
101.644 374 L
102.078 374 L
102.512 374 L
102.946 374 L
103.38 374 L
103.814 374 L
104.248 374 L
104.682 374 L
105.116 374 L
105.55 374 L
105.984 374 L
106.418 374 L
106.852 374 L
107.286 374 L
107.72 374 L
108.154 374 L
108.588 374 L
109.022 374 L
109.456 374 L
109.89 374 L
110.324 374 L
110.758 374 L
111.192 374 L
111.626 374 L
112.06 374 L
112.494 374 L
112.928 374 L
113.362 374 L
113.796 374 L
114.23 374 L
114.664 374 L
115.098 374 L
115.532 374 L
S
GR
GS
[0.75 0 0 0.75 0 0] CT
1 0 0 RC
2 LJ
4 LW
N
115.532 374 M
115.966 374 L
116.4 374 L
116.834 374 L
117.268 374 L
117.702 374 L
118.136 374 L
118.57 374 L
119.004 374 L
119.438 374 L
119.872 374 L
120.306 374 L
120.74 374 L
121.174 374 L
121.608 374 L
122.042 374 L
122.476 374 L
122.91 374 L
123.344 374 L
123.778 374 L
124.212 374 L
124.646 374 L
125.08 374 L
125.514 374 L
125.948 374 L
126.382 374 L
126.816 374 L
127.25 374 L
127.684 374 L
128.118 374 L
128.552 374 L
128.986 374 L
129.42 374 L
129.854 374 L
130.288 374 L
130.722 374 L
131.156 374 L
131.59 374 L
132.024 374 L
132.458 374 L
132.892 374 L
133.326 374 L
133.76 374 L
134.194 374 L
134.628 374 L
135.062 374 L
135.496 374 L
135.93 374 L
136.364 374 L
136.798 374 L
S
GR
GS
[0.75 0 0 0.75 0 0] CT
1 0 0 RC
2 LJ
4 LW
N
136.798 374 M
137.232 374 L
137.666 374 L
138.1 374 L
138.534 374 L
138.968 374 L
139.402 374 L
139.836 374 L
140.27 374 L
140.704 374 L
141.138 374 L
141.572 373.999 L
142.006 373.999 L
142.44 373.999 L
142.874 373.999 L
143.308 373.999 L
143.742 373.999 L
144.176 373.999 L
144.61 373.998 L
145.044 373.998 L
145.478 373.998 L
145.912 373.997 L
146.346 373.997 L
146.78 373.997 L
147.214 373.996 L
147.648 373.995 L
148.082 373.995 L
148.516 373.994 L
148.95 373.993 L
149.384 373.992 L
149.818 373.991 L
150.252 373.99 L
150.686 373.988 L
151.12 373.987 L
151.554 373.985 L
151.988 373.983 L
152.422 373.98 L
152.856 373.978 L
153.29 373.975 L
153.724 373.972 L
154.158 373.968 L
154.592 373.964 L
155.026 373.959 L
155.46 373.954 L
155.894 373.949 L
156.328 373.942 L
156.762 373.935 L
157.196 373.928 L
157.63 373.919 L
158.064 373.91 L
S
GR
GS
[0.75 0 0 0.75 0 0] CT
1 0 0 RC
2 LJ
4 LW
N
158.064 373.91 M
158.498 373.899 L
158.932 373.888 L
159.366 373.875 L
159.8 373.861 L
160.234 373.846 L
160.668 373.829 L
161.102 373.811 L
161.536 373.791 L
161.97 373.769 L
162.404 373.745 L
162.838 373.718 L
163.272 373.69 L
163.706 373.658 L
164.14 373.624 L
164.574 373.587 L
165.008 373.547 L
165.442 373.503 L
165.876 373.455 L
166.31 373.404 L
166.744 373.348 L
167.178 373.288 L
167.612 373.223 L
168.046 373.152 L
168.48 373.077 L
168.914 372.995 L
169.348 372.907 L
169.782 372.813 L
170.216 372.712 L
170.65 372.603 L
171.084 372.486 L
171.518 372.361 L
171.952 372.228 L
172.386 372.085 L
172.82 371.932 L
173.254 371.769 L
173.688 371.596 L
174.122 371.411 L
174.556 371.214 L
174.99 371.004 L
175.424 370.781 L
175.858 370.545 L
176.292 370.294 L
176.726 370.028 L
177.16 369.747 L
177.594 369.449 L
178.028 369.134 L
178.462 368.801 L
178.896 368.45 L
179.33 368.079 L
S
GR
GS
[0.75 0 0 0.75 0 0] CT
1 0 0 RC
2 LJ
4 LW
N
179.33 368.079 M
179.764 367.688 L
180.198 367.277 L
180.632 366.844 L
181.066 366.388 L
181.5 365.91 L
181.934 365.408 L
182.368 364.881 L
182.802 364.328 L
183.236 363.749 L
183.67 363.144 L
184.104 362.51 L
184.538 361.847 L
184.972 361.156 L
185.406 360.434 L
185.84 359.68 L
186.274 358.895 L
186.708 358.078 L
187.142 357.227 L
187.576 356.342 L
188.01 355.422 L
188.444 354.466 L
188.878 353.475 L
189.312 352.446 L
189.746 351.38 L
190.18 350.276 L
190.614 349.132 L
191.048 347.95 L
191.482 346.727 L
191.916 345.464 L
192.35 344.16 L
192.784 342.815 L
193.218 341.427 L
193.652 339.997 L
194.086 338.525 L
194.52 337.01 L
194.954 335.451 L
195.388 333.849 L
195.822 332.203 L
196.256 330.513 L
196.69 328.78 L
197.124 327.002 L
197.558 325.18 L
197.992 323.314 L
198.426 321.404 L
198.86 319.45 L
199.294 317.453 L
199.728 315.411 L
200.162 313.327 L
200.596 311.2 L
S
GR
GS
[0.75 0 0 0.75 0 0] CT
1 0 0 RC
2 LJ
4 LW
N
200.596 311.2 M
201.03 309.03 L
201.464 306.818 L
201.898 304.564 L
202.332 302.269 L
202.766 299.934 L
203.2 297.558 L
203.634 295.143 L
204.068 292.689 L
204.502 290.198 L
204.936 287.669 L
205.37 285.105 L
205.804 282.505 L
206.238 279.87 L
206.672 277.203 L
207.106 274.503 L
207.54 271.771 L
207.974 269.01 L
208.408 266.22 L
208.842 263.402 L
209.276 260.557 L
209.71 257.688 L
210.144 254.794 L
210.578 251.878 L
211.012 248.941 L
211.446 245.984 L
211.88 243.009 L
212.314 240.017 L
212.748 237.01 L
213.182 233.989 L
213.616 230.956 L
214.05 227.912 L
214.484 224.859 L
214.918 221.799 L
215.352 218.733 L
215.786 215.663 L
216.22 212.59 L
216.654 209.516 L
217.088 206.443 L
217.522 203.372 L
217.956 200.306 L
218.39 197.245 L
218.824 194.191 L
219.258 191.147 L
219.692 188.113 L
220.126 185.092 L
220.56 182.085 L
220.994 179.093 L
221.428 176.119 L
221.862 173.163 L
S
GR
GS
[0.75 0 0 0.75 0 0] CT
1 0 0 RC
2 LJ
4 LW
N
221.862 173.163 M
222.296 170.228 L
222.73 167.315 L
223.164 164.426 L
223.598 161.562 L
224.032 158.725 L
224.466 155.915 L
224.9 153.136 L
225.334 150.387 L
225.768 147.671 L
226.202 144.989 L
226.636 142.342 L
227.07 139.731 L
227.504 137.159 L
227.938 134.625 L
228.372 132.132 L
228.806 129.681 L
229.24 127.272 L
229.674 124.907 L
230.108 122.587 L
230.542 120.313 L
230.976 118.085 L
231.41 115.906 L
231.844 113.776 L
232.278 111.695 L
232.712 109.665 L
233.146 107.686 L
233.58 105.759 L
234.014 103.885 L
234.448 102.065 L
234.882 100.299 L
235.316 98.588 L
235.75 96.932 L
236.184 95.332 L
236.618 93.788 L
237.052 92.301 L
237.486 90.871 L
237.92 89.499 L
238.354 88.184 L
238.788 86.928 L
239.222 85.73 L
239.656 84.59 L
240.09 83.509 L
240.524 82.486 L
240.958 81.522 L
241.392 80.618 L
241.826 79.771 L
242.26 78.984 L
242.694 78.256 L
243.128 77.585 L
S
GR
GS
[0.75 0 0 0.75 0 0] CT
1 0 0 RC
2 LJ
4 LW
N
243.128 77.585 M
243.562 76.974 L
243.996 76.42 L
244.43 75.925 L
244.864 75.487 L
245.298 75.107 L
245.732 74.784 L
246.166 74.518 L
246.6 74.308 L
247.034 74.155 L
247.468 74.056 L
247.902 74.014 L
248.336 74.025 L
248.77 74.091 L
249.204 74.211 L
249.638 74.384 L
250.072 74.609 L
250.506 74.886 L
250.94 75.215 L
251.374 75.594 L
251.808 76.023 L
252.242 76.501 L
252.676 77.029 L
253.11 77.604 L
253.544 78.226 L
253.978 78.895 L
254.412 79.609 L
254.846 80.368 L
255.28 81.172 L
255.714 82.019 L
256.148 82.909 L
256.582 83.84 L
257.016 84.812 L
257.45 85.825 L
257.884 86.876 L
258.318 87.967 L
258.752 89.094 L
259.186 90.259 L
259.62 91.46 L
260.054 92.695 L
260.488 93.965 L
260.922 95.268 L
261.356 96.604 L
261.79 97.971 L
262.224 99.369 L
262.658 100.797 L
263.092 102.254 L
263.526 103.739 L
263.96 105.252 L
264.394 106.79 L
S
GR
GS
[0.75 0 0 0.75 0 0] CT
1 0 0 RC
2 LJ
4 LW
N
264.394 106.79 M
264.828 108.355 L
265.262 109.944 L
265.696 111.557 L
266.13 113.194 L
266.564 114.852 L
266.998 116.532 L
267.432 118.232 L
267.866 119.952 L
268.3 121.691 L
268.734 123.449 L
269.168 125.223 L
269.602 127.014 L
270.036 128.821 L
270.47 130.643 L
270.904 132.479 L
271.338 134.329 L
271.772 136.191 L
272.206 138.065 L
272.64 139.951 L
273.074 141.847 L
273.508 143.752 L
273.942 145.667 L
274.376 147.591 L
274.81 149.522 L
275.244 151.46 L
275.678 153.405 L
276.112 155.355 L
276.546 157.311 L
276.98 159.271 L
277.414 161.235 L
277.848 163.202 L
278.282 165.173 L
278.716 167.145 L
279.15 169.119 L
279.584 171.093 L
280.018 173.069 L
280.452 175.044 L
280.886 177.019 L
281.32 178.992 L
281.754 180.964 L
282.188 182.934 L
282.622 184.902 L
283.056 186.866 L
283.49 188.827 L
283.924 190.784 L
284.358 192.737 L
284.792 194.685 L
285.226 196.627 L
285.66 198.564 L
S
GR
GS
[0.75 0 0 0.75 0 0] CT
1 0 0 RC
2 LJ
4 LW
N
285.66 198.564 M
286.094 200.496 L
286.528 202.421 L
286.962 204.339 L
287.396 206.25 L
287.83 208.154 L
288.264 210.05 L
288.698 211.938 L
289.132 213.817 L
289.566 215.688 L
290 217.55 L
290.434 219.403 L
290.868 221.247 L
291.302 223.08 L
291.736 224.904 L
292.17 226.717 L
292.604 228.52 L
293.038 230.312 L
293.472 232.093 L
293.906 233.862 L
294.34 235.621 L
294.774 237.368 L
295.208 239.103 L
295.642 240.827 L
296.076 242.538 L
296.51 244.237 L
296.944 245.924 L
297.378 247.598 L
297.812 249.26 L
298.246 250.908 L
298.68 252.544 L
299.114 254.167 L
299.548 255.777 L
299.982 257.374 L
300.416 258.957 L
300.85 260.527 L
301.284 262.083 L
301.718 263.626 L
302.152 265.155 L
302.586 266.671 L
303.02 268.173 L
303.454 269.661 L
303.888 271.135 L
304.322 272.596 L
304.756 274.042 L
305.19 275.475 L
305.624 276.894 L
306.058 278.299 L
306.492 279.689 L
306.926 281.066 L
S
GR
GS
[0.75 0 0 0.75 0 0] CT
1 0 0 RC
2 LJ
4 LW
N
306.926 281.066 M
307.36 282.429 L
307.794 283.778 L
308.228 285.113 L
308.662 286.434 L
309.096 287.741 L
309.53 289.034 L
309.964 290.313 L
310.398 291.579 L
310.832 292.83 L
311.266 294.068 L
311.7 295.292 L
312.134 296.502 L
312.568 297.698 L
313.002 298.881 L
313.436 300.05 L
313.87 301.206 L
314.304 302.348 L
314.738 303.477 L
315.172 304.592 L
315.606 305.694 L
316.04 306.783 L
316.474 307.859 L
316.908 308.921 L
317.342 309.97 L
317.776 311.007 L
318.21 312.03 L
318.644 313.041 L
319.078 314.039 L
319.512 315.024 L
319.946 315.997 L
320.38 316.957 L
320.814 317.905 L
321.248 318.84 L
321.682 319.763 L
322.116 320.674 L
322.55 321.573 L
322.984 322.46 L
323.418 323.335 L
323.852 324.198 L
324.286 325.05 L
324.72 325.89 L
325.154 326.718 L
325.588 327.535 L
326.022 328.341 L
326.456 329.136 L
326.89 329.919 L
327.324 330.691 L
327.758 331.453 L
328.192 332.203 L
S
GR
GS
[0.75 0 0 0.75 0 0] CT
1 0 0 RC
2 LJ
4 LW
N
328.192 332.203 M
328.626 332.943 L
329.06 333.672 L
329.494 334.391 L
329.928 335.1 L
330.362 335.798 L
330.796 336.485 L
331.23 337.163 L
331.664 337.831 L
332.098 338.488 L
332.532 339.136 L
332.966 339.775 L
333.4 340.403 L
333.834 341.022 L
334.268 341.632 L
334.702 342.232 L
335.136 342.824 L
335.57 343.406 L
336.004 343.979 L
336.438 344.543 L
336.872 345.098 L
337.306 345.645 L
337.74 346.183 L
338.174 346.713 L
338.608 347.234 L
339.042 347.747 L
339.476 348.252 L
339.91 348.748 L
340.344 349.237 L
340.778 349.718 L
341.212 350.19 L
341.646 350.656 L
342.08 351.113 L
342.514 351.563 L
342.948 352.006 L
343.382 352.441 L
343.816 352.869 L
344.25 353.29 L
344.684 353.704 L
345.118 354.11 L
345.552 354.51 L
345.986 354.904 L
346.42 355.29 L
346.854 355.67 L
347.288 356.043 L
347.722 356.41 L
348.156 356.771 L
348.59 357.125 L
349.024 357.473 L
349.458 357.815 L
S
GR
GS
[0.75 0 0 0.75 0 0] CT
1 0 0 RC
2 LJ
4 LW
N
349.458 357.815 M
349.892 358.151 L
350.326 358.481 L
350.76 358.806 L
351.194 359.124 L
351.628 359.437 L
352.062 359.744 L
352.496 360.046 L
352.93 360.342 L
353.364 360.633 L
353.798 360.919 L
354.232 361.199 L
354.666 361.475 L
355.1 361.745 L
355.534 362.01 L
355.968 362.271 L
356.402 362.526 L
356.836 362.777 L
357.27 363.023 L
357.704 363.265 L
358.138 363.502 L
358.572 363.734 L
359.006 363.962 L
359.44 364.186 L
359.874 364.405 L
360.308 364.621 L
360.742 364.832 L
361.176 365.039 L
361.61 365.242 L
362.044 365.441 L
362.478 365.636 L
362.912 365.828 L
363.346 366.015 L
363.78 366.199 L
364.214 366.38 L
364.648 366.556 L
365.082 366.73 L
365.516 366.899 L
365.95 367.066 L
366.384 367.229 L
366.818 367.388 L
367.252 367.545 L
367.686 367.698 L
368.12 367.848 L
368.554 367.995 L
368.988 368.139 L
369.422 368.28 L
369.856 368.419 L
370.29 368.554 L
370.724 368.686 L
S
GR
GS
[0.75 0 0 0.75 0 0] CT
1 0 0 RC
2 LJ
4 LW
N
370.724 368.686 M
371.158 368.816 L
371.592 368.943 L
372.026 369.067 L
372.46 369.189 L
372.894 369.308 L
373.328 369.424 L
373.762 369.538 L
374.196 369.65 L
374.63 369.759 L
375.064 369.866 L
375.498 369.97 L
375.932 370.073 L
376.366 370.173 L
376.8 370.27 L
377.234 370.366 L
377.668 370.46 L
378.102 370.551 L
378.536 370.64 L
378.97 370.728 L
379.404 370.813 L
379.838 370.897 L
380.272 370.978 L
380.706 371.058 L
381.14 371.136 L
381.574 371.212 L
382.008 371.286 L
382.442 371.359 L
382.876 371.43 L
383.31 371.5 L
383.744 371.567 L
384.178 371.633 L
384.612 371.698 L
385.046 371.761 L
385.48 371.823 L
385.914 371.883 L
386.348 371.941 L
386.782 371.999 L
387.216 372.055 L
387.65 372.109 L
388.084 372.162 L
388.518 372.214 L
388.952 372.265 L
389.386 372.314 L
389.82 372.363 L
390.254 372.41 L
390.688 372.455 L
391.122 372.5 L
391.556 372.544 L
391.99 372.586 L
S
GR
GS
[0.75 0 0 0.75 0 0] CT
1 0 0 RC
2 LJ
4 LW
N
391.99 372.586 M
392.424 372.627 L
392.858 372.668 L
393.292 372.707 L
393.726 372.745 L
394.16 372.783 L
394.594 372.819 L
395.028 372.855 L
395.462 372.889 L
395.896 372.923 L
396.33 372.955 L
396.764 372.987 L
397.198 373.018 L
397.632 373.049 L
398.066 373.078 L
398.5 373.107 L
398.934 373.134 L
399.368 373.162 L
399.802 373.188 L
400.236 373.214 L
400.67 373.238 L
401.104 373.263 L
401.538 373.286 L
401.972 373.309 L
402.406 373.332 L
402.84 373.353 L
403.274 373.374 L
403.708 373.395 L
404.142 373.415 L
404.576 373.434 L
405.01 373.453 L
405.444 373.471 L
405.878 373.489 L
406.312 373.506 L
406.746 373.522 L
407.18 373.539 L
407.614 373.554 L
408.048 373.57 L
408.482 373.584 L
408.916 373.599 L
409.35 373.613 L
409.784 373.626 L
410.218 373.639 L
410.652 373.652 L
411.086 373.664 L
411.52 373.676 L
411.954 373.688 L
412.388 373.699 L
412.822 373.71 L
413.256 373.721 L
S
GR
GS
[0.75 0 0 0.75 0 0] CT
1 0 0 RC
2 LJ
4 LW
N
413.256 373.721 M
413.69 373.731 L
414.124 373.741 L
414.558 373.75 L
414.992 373.759 L
415.426 373.768 L
415.86 373.777 L
416.294 373.785 L
416.728 373.793 L
417.162 373.801 L
417.596 373.809 L
418.03 373.816 L
418.464 373.823 L
418.898 373.83 L
419.332 373.837 L
419.766 373.843 L
420.2 373.849 L
420.634 373.855 L
421.068 373.861 L
421.502 373.867 L
421.936 373.872 L
422.37 373.877 L
422.804 373.882 L
423.238 373.887 L
423.672 373.892 L
424.106 373.896 L
424.54 373.901 L
424.974 373.905 L
425.408 373.909 L
425.842 373.913 L
426.276 373.916 L
426.71 373.92 L
427.144 373.923 L
427.578 373.927 L
428.012 373.93 L
428.446 373.933 L
428.88 373.936 L
429.314 373.939 L
429.748 373.941 L
430.182 373.944 L
430.616 373.947 L
431.05 373.949 L
431.484 373.951 L
431.918 373.954 L
432.352 373.956 L
432.786 373.958 L
433.22 373.96 L
433.654 373.962 L
434.088 373.964 L
434.522 373.965 L
S
GR
GS
[0.75 0 0 0.75 0 0] CT
1 0 0 RC
2 LJ
4 LW
N
434.522 373.965 M
434.956 373.967 L
435.39 373.969 L
435.824 373.97 L
436.258 373.972 L
436.692 373.973 L
437.126 373.974 L
437.56 373.976 L
437.994 373.977 L
438.428 373.978 L
438.862 373.979 L
439.296 373.98 L
439.73 373.981 L
440.164 373.982 L
440.598 373.983 L
441.032 373.984 L
441.466 373.985 L
441.9 373.986 L
442.334 373.987 L
442.768 373.987 L
443.202 373.988 L
443.636 373.989 L
444.07 373.989 L
444.504 373.99 L
444.938 373.99 L
445.372 373.991 L
445.806 373.992 L
446.24 373.992 L
446.674 373.992 L
447.108 373.993 L
447.542 373.993 L
447.976 373.994 L
448.41 373.994 L
448.844 373.995 L
449.278 373.995 L
449.712 373.995 L
450.146 373.995 L
450.58 373.996 L
451.014 373.996 L
451.448 373.996 L
451.882 373.997 L
452.316 373.997 L
452.75 373.997 L
453.184 373.997 L
453.618 373.997 L
454.052 373.998 L
454.486 373.998 L
454.92 373.998 L
455.354 373.998 L
455.788 373.998 L
S
GR
GS
[0.75 0 0 0.75 0 0] CT
1 0 0 RC
2 LJ
4 LW
N
455.788 373.998 M
456.222 373.998 L
456.656 373.998 L
457.09 373.999 L
457.524 373.999 L
457.958 373.999 L
458.392 373.999 L
458.826 373.999 L
459.26 373.999 L
459.694 373.999 L
460.128 373.999 L
460.562 373.999 L
460.996 373.999 L
461.43 373.999 L
461.864 373.999 L
462.298 373.999 L
462.732 373.999 L
463.166 374 L
463.6 374 L
464.034 374 L
464.468 374 L
464.902 374 L
465.336 374 L
465.77 374 L
466.204 374 L
466.638 374 L
467.072 374 L
467.506 374 L
467.94 374 L
468.374 374 L
468.808 374 L
469.242 374 L
469.676 374 L
470.11 374 L
470.544 374 L
470.978 374 L
471.412 374 L
471.846 374 L
472.28 374 L
472.714 374 L
473.148 374 L
473.582 374 L
474.016 374 L
474.45 374 L
474.884 374 L
475.318 374 L
475.752 374 L
476.186 374 L
476.62 374 L
477.054 374 L
S
GR
GS
[0.75 0 0 0.75 0 0] CT
1 0 0 RC
2 LJ
4 LW
N
477.054 374 M
477.488 374 L
477.922 374 L
478.356 374 L
478.79 374 L
479.224 374 L
479.658 374 L
480.092 374 L
480.526 374 L
480.96 374 L
481.394 374 L
481.828 374 L
482.262 374 L
482.696 374 L
483.13 374 L
483.564 374 L
483.998 374 L
484.432 374 L
484.866 374 L
485.3 374 L
485.734 374 L
486.168 374 L
486.602 374 L
487.036 374 L
487.47 374 L
487.904 374 L
488.338 374 L
488.772 374 L
489.206 374 L
489.64 374 L
490.074 374 L
490.508 374 L
490.942 374 L
491.376 374 L
491.81 374 L
492.244 374 L
492.678 374 L
493.112 374 L
493.546 374 L
493.98 374 L
494.414 374 L
494.848 374 L
495.282 374 L
495.716 374 L
496.15 374 L
496.584 374 L
497.018 374 L
497.452 374 L
497.886 374 L
498.32 374 L
S
GR
GS
[0.75 0 0 0.75 0 0] CT
1 0 0 RC
2 LJ
4 LW
N
498.32 374 M
498.754 374 L
499.188 374 L
499.622 374 L
500.056 374 L
500.49 374 L
500.924 374 L
501.358 374 L
501.792 374 L
502.226 374 L
502.66 374 L
503.094 374 L
503.528 374 L
503.962 374 L
504.396 374 L
504.83 374 L
505.264 374 L
505.698 374 L
506.132 374 L
506.566 374 L
507 374 L
S
GR
GS
[0.75 0 0 0.75 0 0] CT
0.149 GC
2 setlinecap
10.0 ML
N
73 374 M
507 374 L
S
GR
GS
[0.75 0 0 0.75 0 0] CT
1 GC
N
279 80 M
279 44 L
494 44 L
494 80 L
cp
f
GR
GS
[0.75 0 0 0.75 248.25 40.625] CT
/Helvetica 12 F
GS
[1 0 0 1 0 0] CT
0 4.5 moveto 
1 -1 scale
(Correlation coefficient hist) t 
GR
GR
GS
[0.75 0 0 0.75 0 0] CT
0.208 0.165 0.525 RC
N
287 59.833 M
287 48.5 L
327 48.5 L
327 59.833 L
cp
f
GR
GS
[0.75 0 0 0.75 0 0] CT
2 setlinecap
10.0 ML
N
287 59.833 M
287 48.5 L
327 48.5 L
327 59.833 L
287 59.833 L
S
GR
GS
[0.75 0 0 0.75 248.25 52.375] CT
/Helvetica 12 F
GS
[1 0 0 1 0 0] CT
0 4.5 moveto 
1 -1 scale
(gev distribution) t 
GR
GR
GS
[0.75 0 0 0.75 0 0] CT
1 0 0 RC
2 setlinecap
10.0 ML
4 LW
N
287 69.833 M
327 69.833 L
S
GR
GS
[0.75 0 0 0.75 0 0] CT
0.149 GC
2 setlinecap
10.0 ML
N
279 80 M
279 44 L
494 44 L
494 80 L
279 80 L
S
GR
%%Trailer
%%Pages: 1
%%EOF
