%!PS-Adobe-3.0 EPSF-3.0
%%Creator: (MATLAB, The Mathworks, Inc. Version 8.5.0.197613 \(R2015a\). Operating System: Linux)
%%Title: /home/albyback/git/contig_assembly/Paper/FIGURES/evd/evdGEV.eps
%%CreationDate: 2016-12-01T21:07:50
%%Pages: (atend)
%%BoundingBox: 0 0 420 315
%%LanguageLevel: 2
%%EndComments
%%BeginProlog
%%BeginResource: procset (Apache XML Graphics Std ProcSet) 1.2 0
%%Version: 1.2 0
%%Copyright: (Copyright 2001-2003,2010 The Apache Software Foundation. License terms: http://www.apache.org/licenses/LICENSE-2.0)
/bd{bind def}bind def
/ld{load def}bd
/GR/grestore ld
/M/moveto ld
/LJ/setlinejoin ld
/C/curveto ld
/f/fill ld
/LW/setlinewidth ld
/GC/setgray ld
/t/show ld
/N/newpath ld
/CT/concat ld
/cp/closepath ld
/S/stroke ld
/L/lineto ld
/CC/setcmykcolor ld
/A/ashow ld
/GS/gsave ld
/RC/setrgbcolor ld
/RM/rmoveto ld
/ML/setmiterlimit ld
/re {4 2 roll M
1 index 0 rlineto
0 exch rlineto
neg 0 rlineto
cp } bd
/_ctm matrix def
/_tm matrix def
/BT { _ctm currentmatrix pop matrix _tm copy pop 0 0 moveto } bd
/ET { _ctm setmatrix } bd
/iTm { _ctm setmatrix _tm concat } bd
/Tm { _tm astore pop iTm 0 0 moveto } bd
/ux 0.0 def
/uy 0.0 def
/F {
  /Tp exch def
  /Tf exch def
  Tf findfont Tp scalefont setfont
  /cf Tf def  /cs Tp def
} bd
/ULS {currentpoint /uy exch def /ux exch def} bd
/ULE {
  /Tcx currentpoint pop def
  gsave
  newpath
  cf findfont cs scalefont dup
  /FontMatrix get 0 get /Ts exch def /FontInfo get dup
  /UnderlinePosition get Ts mul /To exch def
  /UnderlineThickness get Ts mul /Tt exch def
  ux uy To add moveto  Tcx uy To add lineto
  Tt setlinewidth stroke
  grestore
} bd
/OLE {
  /Tcx currentpoint pop def
  gsave
  newpath
  cf findfont cs scalefont dup
  /FontMatrix get 0 get /Ts exch def /FontInfo get dup
  /UnderlinePosition get Ts mul /To exch def
  /UnderlineThickness get Ts mul /Tt exch def
  ux uy To add cs add moveto Tcx uy To add cs add lineto
  Tt setlinewidth stroke
  grestore
} bd
/SOE {
  /Tcx currentpoint pop def
  gsave
  newpath
  cf findfont cs scalefont dup
  /FontMatrix get 0 get /Ts exch def /FontInfo get dup
  /UnderlinePosition get Ts mul /To exch def
  /UnderlineThickness get Ts mul /Tt exch def
  ux uy To add cs 10 mul 26 idiv add moveto Tcx uy To add cs 10 mul 26 idiv add lineto
  Tt setlinewidth stroke
  grestore
} bd
/QT {
/Y22 exch store
/X22 exch store
/Y21 exch store
/X21 exch store
currentpoint
/Y21 load 2 mul add 3 div exch
/X21 load 2 mul add 3 div exch
/X21 load 2 mul /X22 load add 3 div
/Y21 load 2 mul /Y22 load add 3 div
/X22 load /Y22 load curveto
} bd
/SSPD {
dup length /d exch dict def
{
/v exch def
/k exch def
currentpagedevice k known {
/cpdv currentpagedevice k get def
v cpdv ne {
/upd false def
/nullv v type /nulltype eq def
/nullcpdv cpdv type /nulltype eq def
nullv nullcpdv or
{
/upd true def
} {
/sametype v type cpdv type eq def
sametype {
v type /arraytype eq {
/vlen v length def
/cpdvlen cpdv length def
vlen cpdvlen eq {
0 1 vlen 1 sub {
/i exch def
/obj v i get def
/cpdobj cpdv i get def
obj cpdobj ne {
/upd true def
exit
} if
} for
} {
/upd true def
} ifelse
} {
v type /dicttype eq {
v {
/dv exch def
/dk exch def
/cpddv cpdv dk get def
dv cpddv ne {
/upd true def
exit
} if
} forall
} {
/upd true def
} ifelse
} ifelse
} if
} ifelse
upd true eq {
d k v put
} if
} if
} if
} forall
d length 0 gt {
d setpagedevice
} if
} bd
%%EndResource
%%BeginResource: procset (Apache XML Graphics EPS ProcSet) 1.0 0
%%Version: 1.0 0
%%Copyright: (Copyright 2002-2003 The Apache Software Foundation. License terms: http://www.apache.org/licenses/LICENSE-2.0)
/BeginEPSF { %def
/b4_Inc_state save def         % Save state for cleanup
/dict_count countdictstack def % Count objects on dict stack
/op_count count 1 sub def      % Count objects on operand stack
userdict begin                 % Push userdict on dict stack
/showpage { } def              % Redefine showpage, { } = null proc
0 setgray 0 setlinecap         % Prepare graphics state
1 setlinewidth 0 setlinejoin
10 setmiterlimit [ ] 0 setdash newpath
/languagelevel where           % If level not equal to 1 then
{pop languagelevel             % set strokeadjust and
1 ne                           % overprint to their defaults.
{false setstrokeadjust false setoverprint
} if
} if
} bd
/EndEPSF { %def
count op_count sub {pop} repeat            % Clean up stacks
countdictstack dict_count sub {end} repeat
b4_Inc_state restore
} bd
%%EndResource
%FOPBeginFontDict
%%IncludeResource: font Courier-Bold
%%IncludeResource: font Helvetica
%%IncludeResource: font Courier-BoldOblique
%%IncludeResource: font Courier-Oblique
%%IncludeResource: font Times-Roman
%%IncludeResource: font Helvetica-BoldOblique
%%IncludeResource: font Helvetica-Bold
%%IncludeResource: font Helvetica-Oblique
%%IncludeResource: font Times-BoldItalic
%%IncludeResource: font Courier
%%IncludeResource: font Times-Italic
%%IncludeResource: font Times-Bold
%%IncludeResource: font Symbol
%%IncludeResource: font ZapfDingbats
%FOPEndFontDict
%%BeginResource: encoding WinAnsiEncoding
/WinAnsiEncoding [
/.notdef /.notdef /.notdef /.notdef /.notdef
/.notdef /.notdef /.notdef /.notdef /.notdef
/.notdef /.notdef /.notdef /.notdef /.notdef
/.notdef /.notdef /.notdef /.notdef /.notdef
/.notdef /.notdef /.notdef /.notdef /.notdef
/.notdef /.notdef /.notdef /.notdef /.notdef
/.notdef /.notdef /space /exclam /quotedbl
/numbersign /dollar /percent /ampersand /quotesingle
/parenleft /parenright /asterisk /plus /comma
/hyphen /period /slash /zero /one
/two /three /four /five /six
/seven /eight /nine /colon /semicolon
/less /equal /greater /question /at
/A /B /C /D /E
/F /G /H /I /J
/K /L /M /N /O
/P /Q /R /S /T
/U /V /W /X /Y
/Z /bracketleft /backslash /bracketright /asciicircum
/underscore /quoteleft /a /b /c
/d /e /f /g /h
/i /j /k /l /m
/n /o /p /q /r
/s /t /u /v /w
/x /y /z /braceleft /bar
/braceright /asciitilde /bullet /Euro /bullet
/quotesinglbase /florin /quotedblbase /ellipsis /dagger
/daggerdbl /circumflex /perthousand /Scaron /guilsinglleft
/OE /bullet /Zcaron /bullet /bullet
/quoteleft /quoteright /quotedblleft /quotedblright /bullet
/endash /emdash /asciitilde /trademark /scaron
/guilsinglright /oe /bullet /zcaron /Ydieresis
/space /exclamdown /cent /sterling /currency
/yen /brokenbar /section /dieresis /copyright
/ordfeminine /guillemotleft /logicalnot /sfthyphen /registered
/macron /degree /plusminus /twosuperior /threesuperior
/acute /mu /paragraph /middot /cedilla
/onesuperior /ordmasculine /guillemotright /onequarter /onehalf
/threequarters /questiondown /Agrave /Aacute /Acircumflex
/Atilde /Adieresis /Aring /AE /Ccedilla
/Egrave /Eacute /Ecircumflex /Edieresis /Igrave
/Iacute /Icircumflex /Idieresis /Eth /Ntilde
/Ograve /Oacute /Ocircumflex /Otilde /Odieresis
/multiply /Oslash /Ugrave /Uacute /Ucircumflex
/Udieresis /Yacute /Thorn /germandbls /agrave
/aacute /acircumflex /atilde /adieresis /aring
/ae /ccedilla /egrave /eacute /ecircumflex
/edieresis /igrave /iacute /icircumflex /idieresis
/eth /ntilde /ograve /oacute /ocircumflex
/otilde /odieresis /divide /oslash /ugrave
/uacute /ucircumflex /udieresis /yacute /thorn
/ydieresis
] def
%%EndResource
%FOPBeginFontReencode
/Courier-Bold findfont
dup length dict begin
  {1 index /FID ne {def} {pop pop} ifelse} forall
  /Encoding WinAnsiEncoding def
  currentdict
end
/Courier-Bold exch definefont pop
/Helvetica findfont
dup length dict begin
  {1 index /FID ne {def} {pop pop} ifelse} forall
  /Encoding WinAnsiEncoding def
  currentdict
end
/Helvetica exch definefont pop
/Courier-BoldOblique findfont
dup length dict begin
  {1 index /FID ne {def} {pop pop} ifelse} forall
  /Encoding WinAnsiEncoding def
  currentdict
end
/Courier-BoldOblique exch definefont pop
/Courier-Oblique findfont
dup length dict begin
  {1 index /FID ne {def} {pop pop} ifelse} forall
  /Encoding WinAnsiEncoding def
  currentdict
end
/Courier-Oblique exch definefont pop
/Times-Roman findfont
dup length dict begin
  {1 index /FID ne {def} {pop pop} ifelse} forall
  /Encoding WinAnsiEncoding def
  currentdict
end
/Times-Roman exch definefont pop
/Helvetica-BoldOblique findfont
dup length dict begin
  {1 index /FID ne {def} {pop pop} ifelse} forall
  /Encoding WinAnsiEncoding def
  currentdict
end
/Helvetica-BoldOblique exch definefont pop
/Helvetica-Bold findfont
dup length dict begin
  {1 index /FID ne {def} {pop pop} ifelse} forall
  /Encoding WinAnsiEncoding def
  currentdict
end
/Helvetica-Bold exch definefont pop
/Helvetica-Oblique findfont
dup length dict begin
  {1 index /FID ne {def} {pop pop} ifelse} forall
  /Encoding WinAnsiEncoding def
  currentdict
end
/Helvetica-Oblique exch definefont pop
/Times-BoldItalic findfont
dup length dict begin
  {1 index /FID ne {def} {pop pop} ifelse} forall
  /Encoding WinAnsiEncoding def
  currentdict
end
/Times-BoldItalic exch definefont pop
/Courier findfont
dup length dict begin
  {1 index /FID ne {def} {pop pop} ifelse} forall
  /Encoding WinAnsiEncoding def
  currentdict
end
/Courier exch definefont pop
/Times-Italic findfont
dup length dict begin
  {1 index /FID ne {def} {pop pop} ifelse} forall
  /Encoding WinAnsiEncoding def
  currentdict
end
/Times-Italic exch definefont pop
/Times-Bold findfont
dup length dict begin
  {1 index /FID ne {def} {pop pop} ifelse} forall
  /Encoding WinAnsiEncoding def
  currentdict
end
/Times-Bold exch definefont pop
%FOPEndFontReencode
%%EndProlog
%%Page: 1 1
%%PageBoundingBox: 0 0 420 315
%%BeginPageSetup
[1 0 0 -1 0 315] CT
%%EndPageSetup
GS
[0.75 0 0 0.75 0 0] CT
1 GC
N
0 0 560 420 re
f
GR
GS
[0.75 0 0 0.75 0 0] CT
1 GC
N
0 0 560 420 re
f
GR
GS
[0.75 0 0 0.75 0 0] CT
1 GC
N
73 374 M
507 374 L
507 31 L
73 31 L
cp
f
GR
GS
[0.75 0 0 0.75 217.50016 298.24999] CT
0.149 GC
/Helvetica 15 F
GS
[1 0 0 1 0 0] CT
-10.5 14 moveto 
1 -1 scale
(CC) t 
GR
GR
GS
[0.75 0 0 0.75 0 0] CT
0.149 GC
2 setlinecap
10.0 ML
N
73 374 M
507 374 L
S
GR
GS
[0.75 0 0 0.75 0 0] CT
0.149 GC
2 setlinecap
10.0 ML
N
73 31 M
507 31 L
S
GR
GS
[0.75 0 0 0.75 0 0] CT
0.149 GC
2 setlinecap
10.0 ML
N
73 374 M
73 369.66 L
S
GR
GS
[0.75 0 0 0.75 0 0] CT
0.149 GC
2 setlinecap
10.0 ML
N
159.8 374 M
159.8 369.66 L
S
GR
GS
[0.75 0 0 0.75 0 0] CT
0.149 GC
2 setlinecap
10.0 ML
N
246.6 374 M
246.6 369.66 L
S
GR
GS
[0.75 0 0 0.75 0 0] CT
0.149 GC
2 setlinecap
10.0 ML
N
333.4 374 M
333.4 369.66 L
S
GR
GS
[0.75 0 0 0.75 0 0] CT
0.149 GC
2 setlinecap
10.0 ML
N
420.2 374 M
420.2 369.66 L
S
GR
GS
[0.75 0 0 0.75 0 0] CT
0.149 GC
2 setlinecap
10.0 ML
N
507 374 M
507 369.66 L
S
GR
GS
[0.75 0 0 0.75 0 0] CT
0.149 GC
2 setlinecap
10.0 ML
N
73 31 M
73 35.34 L
S
GR
GS
[0.75 0 0 0.75 0 0] CT
0.149 GC
2 setlinecap
10.0 ML
N
159.8 31 M
159.8 35.34 L
S
GR
GS
[0.75 0 0 0.75 0 0] CT
0.149 GC
2 setlinecap
10.0 ML
N
246.6 31 M
246.6 35.34 L
S
GR
GS
[0.75 0 0 0.75 0 0] CT
0.149 GC
2 setlinecap
10.0 ML
N
333.4 31 M
333.4 35.34 L
S
GR
GS
[0.75 0 0 0.75 0 0] CT
0.149 GC
2 setlinecap
10.0 ML
N
420.2 31 M
420.2 35.34 L
S
GR
GS
[0.75 0 0 0.75 0 0] CT
0.149 GC
2 setlinecap
10.0 ML
N
507 31 M
507 35.34 L
S
GR
GS
[0.75 0 0 0.75 54.75 284.50001] CT
0.149 GC
/Helvetica 13 F
GS
[1 0 0 1 0 0] CT
-4.5 13 moveto 
1 -1 scale
(0) t 
GR
GR
GS
[0.75 0 0 0.75 119.85 284.50001] CT
0.149 GC
/Helvetica 13 F
GS
[1 0 0 1 0 0] CT
-10.5 13 moveto 
1 -1 scale
(0.2) t 
GR
GR
GS
[0.75 0 0 0.75 184.95 284.50001] CT
0.149 GC
/Helvetica 13 F
GS
[1 0 0 1 0 0] CT
-10.5 13 moveto 
1 -1 scale
(0.4) t 
GR
GR
GS
[0.75 0 0 0.75 250.05002 284.50001] CT
0.149 GC
/Helvetica 13 F
GS
[1 0 0 1 0 0] CT
-10.5 13 moveto 
1 -1 scale
(0.6) t 
GR
GR
GS
[0.75 0 0 0.75 315.15001 284.50001] CT
0.149 GC
/Helvetica 13 F
GS
[1 0 0 1 0 0] CT
-10.5 13 moveto 
1 -1 scale
(0.8) t 
GR
GR
GS
[0.75 0 0 0.75 380.25 284.50001] CT
0.149 GC
/Helvetica 13 F
GS
[1 0 0 1 0 0] CT
-4.5 13 moveto 
1 -1 scale
(1) t 
GR
GR
GS
[0 -0.75 0.75 0 41 151.87487] CT
0.149 GC
/Helvetica 15 F
GS
[1 0 0 1 0 0] CT
-15 -4 moveto 
1 -1 scale
(PDF) t 
GR
GR
GS
[0.75 0 0 0.75 0 0] CT
0.149 GC
2 setlinecap
10.0 ML
N
73 374 M
73 31 L
S
GR
GS
[0.75 0 0 0.75 0 0] CT
0.149 GC
2 setlinecap
10.0 ML
N
507 374 M
507 31 L
S
GR
GS
[0.75 0 0 0.75 0 0] CT
0.149 GC
2 setlinecap
10.0 ML
N
73 374 M
77.34 374 L
S
GR
GS
[0.75 0 0 0.75 0 0] CT
0.149 GC
2 setlinecap
10.0 ML
N
73 335.889 M
77.34 335.889 L
S
GR
GS
[0.75 0 0 0.75 0 0] CT
0.149 GC
2 setlinecap
10.0 ML
N
73 297.778 M
77.34 297.778 L
S
GR
GS
[0.75 0 0 0.75 0 0] CT
0.149 GC
2 setlinecap
10.0 ML
N
73 259.667 M
77.34 259.667 L
S
GR
GS
[0.75 0 0 0.75 0 0] CT
0.149 GC
2 setlinecap
10.0 ML
N
73 221.556 M
77.34 221.556 L
S
GR
GS
[0.75 0 0 0.75 0 0] CT
0.149 GC
2 setlinecap
10.0 ML
N
73 183.444 M
77.34 183.444 L
S
GR
GS
[0.75 0 0 0.75 0 0] CT
0.149 GC
2 setlinecap
10.0 ML
N
73 145.333 M
77.34 145.333 L
S
GR
GS
[0.75 0 0 0.75 0 0] CT
0.149 GC
2 setlinecap
10.0 ML
N
73 107.222 M
77.34 107.222 L
S
GR
GS
[0.75 0 0 0.75 0 0] CT
0.149 GC
2 setlinecap
10.0 ML
N
73 69.111 M
77.34 69.111 L
S
GR
GS
[0.75 0 0 0.75 0 0] CT
0.149 GC
2 setlinecap
10.0 ML
N
73 31 M
77.34 31 L
S
GR
GS
[0.75 0 0 0.75 0 0] CT
0.149 GC
2 setlinecap
10.0 ML
N
507 374 M
502.66 374 L
S
GR
GS
[0.75 0 0 0.75 0 0] CT
0.149 GC
2 setlinecap
10.0 ML
N
507 335.889 M
502.66 335.889 L
S
GR
GS
[0.75 0 0 0.75 0 0] CT
0.149 GC
2 setlinecap
10.0 ML
N
507 297.778 M
502.66 297.778 L
S
GR
GS
[0.75 0 0 0.75 0 0] CT
0.149 GC
2 setlinecap
10.0 ML
N
507 259.667 M
502.66 259.667 L
S
GR
GS
[0.75 0 0 0.75 0 0] CT
0.149 GC
2 setlinecap
10.0 ML
N
507 221.556 M
502.66 221.556 L
S
GR
GS
[0.75 0 0 0.75 0 0] CT
0.149 GC
2 setlinecap
10.0 ML
N
507 183.444 M
502.66 183.444 L
S
GR
GS
[0.75 0 0 0.75 0 0] CT
0.149 GC
2 setlinecap
10.0 ML
N
507 145.333 M
502.66 145.333 L
S
GR
GS
[0.75 0 0 0.75 0 0] CT
0.149 GC
2 setlinecap
10.0 ML
N
507 107.222 M
502.66 107.222 L
S
GR
GS
[0.75 0 0 0.75 0 0] CT
0.149 GC
2 setlinecap
10.0 ML
N
507 69.111 M
502.66 69.111 L
S
GR
GS
[0.75 0 0 0.75 0 0] CT
0.149 GC
2 setlinecap
10.0 ML
N
507 31 M
502.66 31 L
S
GR
GS
[0.75 0 0 0.75 50.75 280.5] CT
0.149 GC
/Helvetica 13 F
GS
[1 0 0 1 0 0] CT
-9 4.5 moveto 
1 -1 scale
(0) t 
GR
GR
GS
[0.75 0 0 0.75 50.75 251.91666] CT
0.149 GC
/Helvetica 13 F
GS
[1 0 0 1 0 0] CT
-9 4.5 moveto 
1 -1 scale
(1) t 
GR
GR
GS
[0.75 0 0 0.75 50.75 223.33333] CT
0.149 GC
/Helvetica 13 F
GS
[1 0 0 1 0 0] CT
-9 4.5 moveto 
1 -1 scale
(2) t 
GR
GR
GS
[0.75 0 0 0.75 50.75 194.74999] CT
0.149 GC
/Helvetica 13 F
GS
[1 0 0 1 0 0] CT
-9 4.5 moveto 
1 -1 scale
(3) t 
GR
GR
GS
[0.75 0 0 0.75 50.75 166.16667] CT
0.149 GC
/Helvetica 13 F
GS
[1 0 0 1 0 0] CT
-9 4.5 moveto 
1 -1 scale
(4) t 
GR
GR
GS
[0.75 0 0 0.75 50.75 137.58333] CT
0.149 GC
/Helvetica 13 F
GS
[1 0 0 1 0 0] CT
-9 4.5 moveto 
1 -1 scale
(5) t 
GR
GR
GS
[0.75 0 0 0.75 50.75 109] CT
0.149 GC
/Helvetica 13 F
GS
[1 0 0 1 0 0] CT
-9 4.5 moveto 
1 -1 scale
(6) t 
GR
GR
GS
[0.75 0 0 0.75 50.75 80.41667] CT
0.149 GC
/Helvetica 13 F
GS
[1 0 0 1 0 0] CT
-9 4.5 moveto 
1 -1 scale
(7) t 
GR
GR
GS
[0.75 0 0 0.75 50.75 51.83334] CT
0.149 GC
/Helvetica 13 F
GS
[1 0 0 1 0 0] CT
-9 4.5 moveto 
1 -1 scale
(8) t 
GR
GR
GS
[0.75 0 0 0.75 50.75 23.25] CT
0.149 GC
/Helvetica 13 F
GS
[1 0 0 1 0 0] CT
-9 4.5 moveto 
1 -1 scale
(9) t 
GR
GR
GS
[0.75 0 0 0.75 0 0] CT
0.208 0.165 0.525 RC
N
184.744 374 M
188.004 374 L
188.004 353.63 L
184.744 353.63 L
cp
f
GR
GS
[0.75 0 0 0.75 0 0] CT
0.208 0.165 0.525 RC
N
188.818 374 M
192.078 374 L
192.078 365.852 L
188.818 365.852 L
cp
f
GR
GS
[0.75 0 0 0.75 0 0] CT
0.208 0.165 0.525 RC
N
192.893 374 M
196.152 374 L
196.152 333.261 L
192.893 333.261 L
cp
f
GR
GS
[0.75 0 0 0.75 0 0] CT
0.208 0.165 0.525 RC
N
196.967 374 M
200.227 374 L
200.227 276.226 L
196.967 276.226 L
cp
f
GR
GS
[0.75 0 0 0.75 0 0] CT
0.208 0.165 0.525 RC
N
201.041 374 M
204.301 374 L
204.301 235.487 L
201.041 235.487 L
cp
f
GR
GS
[0.75 0 0 0.75 0 0] CT
0.208 0.165 0.525 RC
N
205.116 374 M
208.375 374 L
208.375 223.265 L
205.116 223.265 L
cp
f
GR
GS
[0.75 0 0 0.75 0 0] CT
0.208 0.165 0.525 RC
N
209.19 374 M
212.449 374 L
212.449 137.713 L
209.19 137.713 L
cp
f
GR
GS
[0.75 0 0 0.75 0 0] CT
0.208 0.165 0.525 RC
N
213.264 374 M
216.524 374 L
216.524 137.713 L
213.264 137.713 L
cp
f
GR
GS
[0.75 0 0 0.75 0 0] CT
0.208 0.165 0.525 RC
N
217.339 374 M
220.598 374 L
220.598 68.457 L
217.339 68.457 L
cp
f
GR
GS
[0.75 0 0 0.75 0 0] CT
0.208 0.165 0.525 RC
N
221.413 374 M
224.672 374 L
224.672 48.087 L
221.413 48.087 L
cp
f
GR
GS
[0.75 0 0 0.75 0 0] CT
0.208 0.165 0.525 RC
N
225.487 374 M
228.747 374 L
228.747 52.161 L
225.487 52.161 L
cp
f
GR
GS
[0.75 0 0 0.75 0 0] CT
0.208 0.165 0.525 RC
N
229.561 374 M
232.821 374 L
232.821 76.604 L
229.561 76.604 L
cp
f
GR
GS
[0.75 0 0 0.75 0 0] CT
0.208 0.165 0.525 RC
N
233.636 374 M
236.895 374 L
236.895 56.235 L
233.636 56.235 L
cp
f
GR
GS
[0.75 0 0 0.75 0 0] CT
0.208 0.165 0.525 RC
N
237.71 374 M
240.969 374 L
240.969 154.009 L
237.71 154.009 L
cp
f
GR
GS
[0.75 0 0 0.75 0 0] CT
0.208 0.165 0.525 RC
N
241.784 374 M
245.044 374 L
245.044 145.861 L
241.784 145.861 L
cp
f
GR
GS
[0.75 0 0 0.75 0 0] CT
0.208 0.165 0.525 RC
N
245.859 374 M
249.118 374 L
249.118 141.787 L
245.859 141.787 L
cp
f
GR
GS
[0.75 0 0 0.75 0 0] CT
0.208 0.165 0.525 RC
N
249.933 374 M
253.192 374 L
253.192 186.6 L
249.933 186.6 L
cp
f
GR
GS
[0.75 0 0 0.75 0 0] CT
0.208 0.165 0.525 RC
N
254.007 374 M
257.267 374 L
257.267 223.265 L
254.007 223.265 L
cp
f
GR
GS
[0.75 0 0 0.75 0 0] CT
0.208 0.165 0.525 RC
N
258.081 374 M
261.341 374 L
261.341 243.635 L
258.081 243.635 L
cp
f
GR
GS
[0.75 0 0 0.75 0 0] CT
0.208 0.165 0.525 RC
N
262.156 374 M
265.415 374 L
265.415 288.448 L
262.156 288.448 L
cp
f
GR
GS
[0.75 0 0 0.75 0 0] CT
0.208 0.165 0.525 RC
N
266.23 374 M
269.49 374 L
269.49 276.226 L
266.23 276.226 L
cp
f
GR
GS
[0.75 0 0 0.75 0 0] CT
0.208 0.165 0.525 RC
N
270.304 374 M
273.564 374 L
273.564 325.113 L
270.304 325.113 L
cp
f
GR
GS
[0.75 0 0 0.75 0 0] CT
0.208 0.165 0.525 RC
N
274.379 374 M
277.638 374 L
277.638 321.039 L
274.379 321.039 L
cp
f
GR
GS
[0.75 0 0 0.75 0 0] CT
0.208 0.165 0.525 RC
N
278.453 374 M
281.712 374 L
281.712 333.261 L
278.453 333.261 L
cp
f
GR
GS
[0.75 0 0 0.75 0 0] CT
0.208 0.165 0.525 RC
N
282.527 374 M
285.787 374 L
285.787 341.409 L
282.527 341.409 L
cp
f
GR
GS
[0.75 0 0 0.75 0 0] CT
0.208 0.165 0.525 RC
N
286.602 374 M
289.861 374 L
289.861 345.483 L
286.602 345.483 L
cp
f
GR
GS
[0.75 0 0 0.75 0 0] CT
0.208 0.165 0.525 RC
N
290.676 374 M
293.935 374 L
293.935 349.557 L
290.676 349.557 L
cp
f
GR
GS
[0.75 0 0 0.75 0 0] CT
0.208 0.165 0.525 RC
N
294.75 374 M
298.01 374 L
298.01 374 L
294.75 374 L
cp
f
GR
GS
[0.75 0 0 0.75 0 0] CT
0.208 0.165 0.525 RC
N
298.824 374 M
302.084 374 L
302.084 369.926 L
298.824 369.926 L
cp
f
GR
GS
[0.75 0 0 0.75 0 0] CT
0.208 0.165 0.525 RC
N
302.899 374 M
306.158 374 L
306.158 369.926 L
302.899 369.926 L
cp
f
GR
GS
[0.75 0 0 0.75 0 0] CT
0.208 0.165 0.525 RC
N
306.973 374 M
310.232 374 L
310.232 365.852 L
306.973 365.852 L
cp
f
GR
GS
[0.75 0 0 0.75 0 0] CT
2 setlinecap
10.0 ML
N
184.744 374 M
184.744 353.63 L
188.004 353.63 L
188.004 374 L
184.744 374 L
S
GR
GS
[0.75 0 0 0.75 0 0] CT
2 setlinecap
10.0 ML
N
188.818 374 M
188.818 365.852 L
192.078 365.852 L
192.078 374 L
188.818 374 L
S
GR
GS
[0.75 0 0 0.75 0 0] CT
2 setlinecap
10.0 ML
N
192.893 374 M
192.893 333.261 L
196.152 333.261 L
196.152 374 L
192.893 374 L
S
GR
GS
[0.75 0 0 0.75 0 0] CT
2 setlinecap
10.0 ML
N
196.967 374 M
196.967 276.226 L
200.227 276.226 L
200.227 374 L
196.967 374 L
S
GR
GS
[0.75 0 0 0.75 0 0] CT
2 setlinecap
10.0 ML
N
201.041 374 M
201.041 235.487 L
204.301 235.487 L
204.301 374 L
201.041 374 L
S
GR
GS
[0.75 0 0 0.75 0 0] CT
2 setlinecap
10.0 ML
N
205.116 374 M
205.116 223.265 L
208.375 223.265 L
208.375 374 L
205.116 374 L
S
GR
GS
[0.75 0 0 0.75 0 0] CT
2 setlinecap
10.0 ML
N
209.19 374 M
209.19 137.713 L
212.449 137.713 L
212.449 374 L
209.19 374 L
S
GR
GS
[0.75 0 0 0.75 0 0] CT
2 setlinecap
10.0 ML
N
213.264 374 M
213.264 137.713 L
216.524 137.713 L
216.524 374 L
213.264 374 L
S
GR
GS
[0.75 0 0 0.75 0 0] CT
2 setlinecap
10.0 ML
N
217.339 374 M
217.339 68.457 L
220.598 68.457 L
220.598 374 L
217.339 374 L
S
GR
GS
[0.75 0 0 0.75 0 0] CT
2 setlinecap
10.0 ML
N
221.413 374 M
221.413 48.087 L
224.672 48.087 L
224.672 374 L
221.413 374 L
S
GR
GS
[0.75 0 0 0.75 0 0] CT
2 setlinecap
10.0 ML
N
225.487 374 M
225.487 52.161 L
228.747 52.161 L
228.747 374 L
225.487 374 L
S
GR
GS
[0.75 0 0 0.75 0 0] CT
2 setlinecap
10.0 ML
N
229.561 374 M
229.561 76.604 L
232.821 76.604 L
232.821 374 L
229.561 374 L
S
GR
GS
[0.75 0 0 0.75 0 0] CT
2 setlinecap
10.0 ML
N
233.636 374 M
233.636 56.235 L
236.895 56.235 L
236.895 374 L
233.636 374 L
S
GR
GS
[0.75 0 0 0.75 0 0] CT
2 setlinecap
10.0 ML
N
237.71 374 M
237.71 154.009 L
240.969 154.009 L
240.969 374 L
237.71 374 L
S
GR
GS
[0.75 0 0 0.75 0 0] CT
2 setlinecap
10.0 ML
N
241.784 374 M
241.784 145.861 L
245.044 145.861 L
245.044 374 L
241.784 374 L
S
GR
GS
[0.75 0 0 0.75 0 0] CT
2 setlinecap
10.0 ML
N
245.859 374 M
245.859 141.787 L
249.118 141.787 L
249.118 374 L
245.859 374 L
S
GR
GS
[0.75 0 0 0.75 0 0] CT
2 setlinecap
10.0 ML
N
249.933 374 M
249.933 186.6 L
253.192 186.6 L
253.192 374 L
249.933 374 L
S
GR
GS
[0.75 0 0 0.75 0 0] CT
2 setlinecap
10.0 ML
N
254.007 374 M
254.007 223.265 L
257.267 223.265 L
257.267 374 L
254.007 374 L
S
GR
GS
[0.75 0 0 0.75 0 0] CT
2 setlinecap
10.0 ML
N
258.081 374 M
258.081 243.635 L
261.341 243.635 L
261.341 374 L
258.081 374 L
S
GR
GS
[0.75 0 0 0.75 0 0] CT
2 setlinecap
10.0 ML
N
262.156 374 M
262.156 288.448 L
265.415 288.448 L
265.415 374 L
262.156 374 L
S
GR
GS
[0.75 0 0 0.75 0 0] CT
2 setlinecap
10.0 ML
N
266.23 374 M
266.23 276.226 L
269.49 276.226 L
269.49 374 L
266.23 374 L
S
GR
GS
[0.75 0 0 0.75 0 0] CT
2 setlinecap
10.0 ML
N
270.304 374 M
270.304 325.113 L
273.564 325.113 L
273.564 374 L
270.304 374 L
S
GR
GS
[0.75 0 0 0.75 0 0] CT
2 setlinecap
10.0 ML
N
274.379 374 M
274.379 321.039 L
277.638 321.039 L
277.638 374 L
274.379 374 L
S
GR
GS
[0.75 0 0 0.75 0 0] CT
2 setlinecap
10.0 ML
N
278.453 374 M
278.453 333.261 L
281.712 333.261 L
281.712 374 L
278.453 374 L
S
GR
GS
[0.75 0 0 0.75 0 0] CT
2 setlinecap
10.0 ML
N
282.527 374 M
282.527 341.409 L
285.787 341.409 L
285.787 374 L
282.527 374 L
S
GR
GS
[0.75 0 0 0.75 0 0] CT
2 setlinecap
10.0 ML
N
286.602 374 M
286.602 345.483 L
289.861 345.483 L
289.861 374 L
286.602 374 L
S
GR
GS
[0.75 0 0 0.75 0 0] CT
2 setlinecap
10.0 ML
N
290.676 374 M
290.676 349.557 L
293.935 349.557 L
293.935 374 L
290.676 374 L
S
GR
GS
[0.75 0 0 0.75 0 0] CT
2 setlinecap
10.0 ML
N
294.75 374 M
294.75 374 L
298.01 374 L
298.01 374 L
294.75 374 L
S
GR
GS
[0.75 0 0 0.75 0 0] CT
2 setlinecap
10.0 ML
N
298.824 374 M
298.824 369.926 L
302.084 369.926 L
302.084 374 L
298.824 374 L
S
GR
GS
[0.75 0 0 0.75 0 0] CT
2 setlinecap
10.0 ML
N
302.899 374 M
302.899 369.926 L
306.158 369.926 L
306.158 374 L
302.899 374 L
S
GR
GS
[0.75 0 0 0.75 0 0] CT
2 setlinecap
10.0 ML
N
306.973 374 M
306.973 365.852 L
310.232 365.852 L
310.232 374 L
306.973 374 L
S
GR
GS
[0.75 0 0 0.75 0 0] CT
1 0 0 RC
2 LJ
4 LW
N
73 374 M
73.434 374 L
73.868 374 L
74.302 374 L
74.736 374 L
75.17 374 L
75.604 374 L
76.038 374 L
76.472 374 L
76.906 374 L
77.34 374 L
77.774 374 L
78.208 374 L
78.642 374 L
79.076 374 L
79.51 374 L
79.944 374 L
80.378 374 L
80.812 374 L
81.246 374 L
81.68 374 L
82.114 374 L
82.548 374 L
82.982 374 L
83.416 374 L
83.85 374 L
84.284 374 L
84.718 374 L
85.152 374 L
85.586 374 L
86.02 374 L
86.454 374 L
86.888 374 L
87.322 374 L
87.756 374 L
88.19 374 L
88.624 374 L
89.058 374 L
89.492 374 L
89.926 374 L
90.36 374 L
90.794 374 L
91.228 374 L
91.662 374 L
92.096 374 L
92.53 374 L
92.964 374 L
93.398 374 L
93.832 374 L
94.266 374 L
S
GR
GS
[0.75 0 0 0.75 0 0] CT
1 0 0 RC
2 LJ
4 LW
N
94.266 374 M
94.7 374 L
95.134 374 L
95.568 374 L
96.002 374 L
96.436 374 L
96.87 374 L
97.304 374 L
97.738 374 L
98.172 374 L
98.606 374 L
99.04 374 L
99.474 374 L
99.908 374 L
100.342 374 L
100.776 374 L
101.21 374 L
101.644 374 L
102.078 374 L
102.512 374 L
102.946 374 L
103.38 374 L
103.814 374 L
104.248 374 L
104.682 374 L
105.116 374 L
105.55 374 L
105.984 374 L
106.418 374 L
106.852 374 L
107.286 374 L
107.72 374 L
108.154 374 L
108.588 374 L
109.022 374 L
109.456 374 L
109.89 374 L
110.324 374 L
110.758 374 L
111.192 374 L
111.626 374 L
112.06 374 L
112.494 374 L
112.928 374 L
113.362 374 L
113.796 374 L
114.23 374 L
114.664 374 L
115.098 374 L
115.532 374 L
S
GR
GS
[0.75 0 0 0.75 0 0] CT
1 0 0 RC
2 LJ
4 LW
N
115.532 374 M
115.966 374 L
116.4 374 L
116.834 374 L
117.268 374 L
117.702 374 L
118.136 374 L
118.57 374 L
119.004 374 L
119.438 374 L
119.872 374 L
120.306 374 L
120.74 374 L
121.174 374 L
121.608 374 L
122.042 374 L
122.476 374 L
122.91 374 L
123.344 374 L
123.778 374 L
124.212 374 L
124.646 374 L
125.08 374 L
125.514 374 L
125.948 374 L
126.382 374 L
126.816 374 L
127.25 374 L
127.684 374 L
128.118 374 L
128.552 374 L
128.986 374 L
129.42 374 L
129.854 374 L
130.288 374 L
130.722 374 L
131.156 374 L
131.59 374 L
132.024 374 L
132.458 374 L
132.892 374 L
133.326 374 L
133.76 374 L
134.194 374 L
134.628 374 L
135.062 374 L
135.496 374 L
135.93 374 L
136.364 374 L
136.798 374 L
S
GR
GS
[0.75 0 0 0.75 0 0] CT
1 0 0 RC
2 LJ
4 LW
N
136.798 374 M
137.232 374 L
137.666 374 L
138.1 374 L
138.534 374 L
138.968 374 L
139.402 374 L
139.836 374 L
140.27 374 L
140.704 374 L
141.138 374 L
141.572 374 L
142.006 374 L
142.44 374 L
142.874 374 L
143.308 374 L
143.742 374 L
144.176 374 L
144.61 374 L
145.044 374 L
145.478 374 L
145.912 374 L
146.346 374 L
146.78 374 L
147.214 374 L
147.648 374 L
148.082 374 L
148.516 374 L
148.95 374 L
149.384 374 L
149.818 374 L
150.252 374 L
150.686 374 L
151.12 374 L
151.554 374 L
151.988 374 L
152.422 374 L
152.856 374 L
153.29 374 L
153.724 374 L
154.158 374 L
154.592 374 L
155.026 374 L
155.46 374 L
155.894 374 L
156.328 374 L
156.762 374 L
157.196 374 L
157.63 374 L
158.064 374 L
S
GR
GS
[0.75 0 0 0.75 0 0] CT
1 0 0 RC
2 LJ
4 LW
N
158.064 374 M
158.498 374 L
158.932 374 L
159.366 374 L
159.8 374 L
160.234 374 L
160.668 373.999 L
161.102 373.999 L
161.536 373.999 L
161.97 373.999 L
162.404 373.998 L
162.838 373.998 L
163.272 373.998 L
163.706 373.997 L
164.14 373.996 L
164.574 373.995 L
165.008 373.994 L
165.442 373.992 L
165.876 373.991 L
166.31 373.988 L
166.744 373.986 L
167.178 373.982 L
167.612 373.978 L
168.046 373.974 L
168.48 373.968 L
168.914 373.961 L
169.348 373.953 L
169.782 373.944 L
170.216 373.932 L
170.65 373.919 L
171.084 373.903 L
171.518 373.885 L
171.952 373.863 L
172.386 373.838 L
172.82 373.808 L
173.254 373.774 L
173.688 373.735 L
174.122 373.69 L
174.556 373.637 L
174.99 373.577 L
175.424 373.509 L
175.858 373.431 L
176.292 373.342 L
176.726 373.241 L
177.16 373.127 L
177.594 372.998 L
178.028 372.852 L
178.462 372.689 L
178.896 372.505 L
179.33 372.3 L
S
GR
GS
[0.75 0 0 0.75 0 0] CT
1 0 0 RC
2 LJ
4 LW
N
179.33 372.3 M
179.764 372.072 L
180.198 371.817 L
180.632 371.534 L
181.066 371.221 L
181.5 370.874 L
181.934 370.492 L
182.368 370.071 L
182.802 369.608 L
183.236 369.102 L
183.67 368.547 L
184.104 367.942 L
184.538 367.283 L
184.972 366.566 L
185.406 365.788 L
185.84 364.947 L
186.274 364.037 L
186.708 363.056 L
187.142 361.999 L
187.576 360.865 L
188.01 359.648 L
188.444 358.345 L
188.878 356.953 L
189.312 355.469 L
189.746 353.889 L
190.18 352.21 L
190.614 350.428 L
191.048 348.542 L
191.482 346.548 L
191.916 344.443 L
192.35 342.225 L
192.784 339.893 L
193.218 337.443 L
193.652 334.875 L
194.086 332.187 L
194.52 329.378 L
194.954 326.447 L
195.388 323.394 L
195.822 320.218 L
196.256 316.92 L
196.69 313.499 L
197.124 309.958 L
197.558 306.297 L
197.992 302.518 L
198.426 298.622 L
198.86 294.612 L
199.294 290.491 L
199.728 286.262 L
200.162 281.928 L
200.596 277.492 L
S
GR
GS
[0.75 0 0 0.75 0 0] CT
1 0 0 RC
2 LJ
4 LW
N
200.596 277.492 M
201.03 272.959 L
201.464 268.334 L
201.898 263.62 L
202.332 258.824 L
202.766 253.949 L
203.2 249.003 L
203.634 243.99 L
204.068 238.917 L
204.502 233.79 L
204.936 228.616 L
205.37 223.401 L
205.804 218.153 L
206.238 212.878 L
206.672 207.583 L
207.106 202.276 L
207.54 196.965 L
207.974 191.656 L
208.408 186.357 L
208.842 181.075 L
209.276 175.819 L
209.71 170.595 L
210.144 165.41 L
210.578 160.273 L
211.012 155.189 L
211.446 150.167 L
211.88 145.213 L
212.314 140.335 L
212.748 135.537 L
213.182 130.828 L
213.616 126.214 L
214.05 121.699 L
214.484 117.291 L
214.918 112.995 L
215.352 108.816 L
215.786 104.758 L
216.22 100.828 L
216.654 97.029 L
217.088 93.366 L
217.522 89.843 L
217.956 86.462 L
218.39 83.228 L
218.824 80.144 L
219.258 77.212 L
219.692 74.435 L
220.126 71.815 L
220.56 69.354 L
220.994 67.053 L
221.428 64.913 L
221.862 62.937 L
S
GR
GS
[0.75 0 0 0.75 0 0] CT
1 0 0 RC
2 LJ
4 LW
N
221.862 62.937 M
222.296 61.123 L
222.73 59.472 L
223.164 57.986 L
223.598 56.663 L
224.032 55.503 L
224.466 54.505 L
224.9 53.669 L
225.334 52.994 L
225.768 52.477 L
226.202 52.118 L
226.636 51.915 L
227.07 51.865 L
227.504 51.967 L
227.938 52.218 L
228.372 52.615 L
228.806 53.156 L
229.24 53.839 L
229.674 54.659 L
230.108 55.615 L
230.542 56.702 L
230.976 57.918 L
231.41 59.259 L
231.844 60.721 L
232.278 62.302 L
232.712 63.997 L
233.146 65.802 L
233.58 67.715 L
234.014 69.731 L
234.448 71.846 L
234.882 74.056 L
235.316 76.358 L
235.75 78.748 L
236.184 81.222 L
236.618 83.776 L
237.052 86.406 L
237.486 89.108 L
237.92 91.878 L
238.354 94.714 L
238.788 97.61 L
239.222 100.564 L
239.656 103.571 L
240.09 106.628 L
240.524 109.732 L
240.958 112.878 L
241.392 116.064 L
241.826 119.286 L
242.26 122.541 L
242.694 125.826 L
243.128 129.137 L
S
GR
GS
[0.75 0 0 0.75 0 0] CT
1 0 0 RC
2 LJ
4 LW
N
243.128 129.137 M
243.562 132.471 L
243.996 135.825 L
244.43 139.197 L
244.864 142.583 L
245.298 145.98 L
245.732 149.387 L
246.166 152.8 L
246.6 156.217 L
247.034 159.635 L
247.468 163.052 L
247.902 166.465 L
248.336 169.874 L
248.77 173.274 L
249.204 176.665 L
249.638 180.044 L
250.072 183.409 L
250.506 186.759 L
250.94 190.092 L
251.374 193.406 L
251.808 196.7 L
252.242 199.972 L
252.676 203.221 L
253.11 206.445 L
253.544 209.643 L
253.978 212.814 L
254.412 215.957 L
254.846 219.071 L
255.28 222.154 L
255.714 225.207 L
256.148 228.227 L
256.582 231.214 L
257.016 234.167 L
257.45 237.087 L
257.884 239.971 L
258.318 242.819 L
258.752 245.632 L
259.186 248.408 L
259.62 251.147 L
260.054 253.848 L
260.488 256.512 L
260.922 259.138 L
261.356 261.725 L
261.79 264.274 L
262.224 266.784 L
262.658 269.256 L
263.092 271.688 L
263.526 274.082 L
263.96 276.437 L
264.394 278.753 L
S
GR
GS
[0.75 0 0 0.75 0 0] CT
1 0 0 RC
2 LJ
4 LW
N
264.394 278.753 M
264.828 281.029 L
265.262 283.267 L
265.696 285.466 L
266.13 287.627 L
266.564 289.749 L
266.998 291.833 L
267.432 293.879 L
267.866 295.886 L
268.3 297.857 L
268.734 299.789 L
269.168 301.685 L
269.602 303.544 L
270.036 305.366 L
270.47 307.152 L
270.904 308.902 L
271.338 310.617 L
271.772 312.296 L
272.206 313.941 L
272.64 315.551 L
273.074 317.127 L
273.508 318.67 L
273.942 320.18 L
274.376 321.656 L
274.81 323.101 L
275.244 324.513 L
275.678 325.894 L
276.112 327.244 L
276.546 328.564 L
276.98 329.853 L
277.414 331.112 L
277.848 332.343 L
278.282 333.544 L
278.716 334.717 L
279.15 335.863 L
279.584 336.981 L
280.018 338.071 L
280.452 339.136 L
280.886 340.174 L
281.32 341.187 L
281.754 342.175 L
282.188 343.138 L
282.622 344.077 L
283.056 344.991 L
283.49 345.883 L
283.924 346.752 L
284.358 347.598 L
284.792 348.422 L
285.226 349.225 L
285.66 350.007 L
S
GR
GS
[0.75 0 0 0.75 0 0] CT
1 0 0 RC
2 LJ
4 LW
N
285.66 350.007 M
286.094 350.768 L
286.528 351.508 L
286.962 352.229 L
287.396 352.93 L
287.83 353.612 L
288.264 354.275 L
288.698 354.92 L
289.132 355.548 L
289.566 356.157 L
290 356.75 L
290.434 357.326 L
290.868 357.886 L
291.302 358.429 L
291.736 358.957 L
292.17 359.47 L
292.604 359.968 L
293.038 360.451 L
293.472 360.921 L
293.906 361.376 L
294.34 361.817 L
294.774 362.246 L
295.208 362.662 L
295.642 363.065 L
296.076 363.455 L
296.51 363.834 L
296.944 364.201 L
297.378 364.557 L
297.812 364.902 L
298.246 365.235 L
298.68 365.559 L
299.114 365.872 L
299.548 366.175 L
299.982 366.468 L
300.416 366.752 L
300.85 367.027 L
301.284 367.293 L
301.718 367.55 L
302.152 367.798 L
302.586 368.039 L
303.02 368.271 L
303.454 368.495 L
303.888 368.712 L
304.322 368.922 L
304.756 369.124 L
305.19 369.319 L
305.624 369.508 L
306.058 369.69 L
306.492 369.866 L
306.926 370.035 L
S
GR
GS
[0.75 0 0 0.75 0 0] CT
1 0 0 RC
2 LJ
4 LW
N
306.926 370.035 M
307.36 370.199 L
307.794 370.356 L
308.228 370.508 L
308.662 370.655 L
309.096 370.796 L
309.53 370.932 L
309.964 371.063 L
310.398 371.189 L
310.832 371.311 L
311.266 371.428 L
311.7 371.54 L
312.134 371.649 L
312.568 371.753 L
313.002 371.853 L
313.436 371.949 L
313.87 372.042 L
314.304 372.131 L
314.738 372.216 L
315.172 372.298 L
315.606 372.377 L
316.04 372.453 L
316.474 372.525 L
316.908 372.595 L
317.342 372.662 L
317.776 372.726 L
318.21 372.787 L
318.644 372.846 L
319.078 372.902 L
319.512 372.956 L
319.946 373.008 L
320.38 373.057 L
320.814 373.105 L
321.248 373.15 L
321.682 373.193 L
322.116 373.234 L
322.55 373.274 L
322.984 373.312 L
323.418 373.348 L
323.852 373.382 L
324.286 373.415 L
324.72 373.446 L
325.154 373.476 L
325.588 373.505 L
326.022 373.532 L
326.456 373.557 L
326.89 373.582 L
327.324 373.605 L
327.758 373.628 L
328.192 373.649 L
S
GR
GS
[0.75 0 0 0.75 0 0] CT
1 0 0 RC
2 LJ
4 LW
N
328.192 373.649 M
328.626 373.669 L
329.06 373.688 L
329.494 373.706 L
329.928 373.724 L
330.362 373.74 L
330.796 373.755 L
331.23 373.77 L
331.664 373.784 L
332.098 373.797 L
332.532 373.81 L
332.966 373.822 L
333.4 373.833 L
333.834 373.843 L
334.268 373.853 L
334.702 373.863 L
335.136 373.872 L
335.57 373.88 L
336.004 373.888 L
336.438 373.896 L
336.872 373.903 L
337.306 373.909 L
337.74 373.915 L
338.174 373.921 L
338.608 373.927 L
339.042 373.932 L
339.476 373.937 L
339.91 373.941 L
340.344 373.946 L
340.778 373.95 L
341.212 373.953 L
341.646 373.957 L
342.08 373.96 L
342.514 373.963 L
342.948 373.966 L
343.382 373.969 L
343.816 373.971 L
344.25 373.974 L
344.684 373.976 L
345.118 373.978 L
345.552 373.98 L
345.986 373.981 L
346.42 373.983 L
346.854 373.984 L
347.288 373.986 L
347.722 373.987 L
348.156 373.988 L
348.59 373.989 L
349.024 373.99 L
349.458 373.991 L
S
GR
GS
[0.75 0 0 0.75 0 0] CT
1 0 0 RC
2 LJ
4 LW
N
349.458 373.991 M
349.892 373.992 L
350.326 373.993 L
350.76 373.993 L
351.194 373.994 L
351.628 373.995 L
352.062 373.995 L
352.496 373.996 L
352.93 373.996 L
353.364 373.996 L
353.798 373.997 L
354.232 373.997 L
354.666 373.997 L
355.1 373.998 L
355.534 373.998 L
355.968 373.998 L
356.402 373.998 L
356.836 373.999 L
357.27 373.999 L
357.704 373.999 L
358.138 373.999 L
358.572 373.999 L
359.006 373.999 L
359.44 373.999 L
359.874 373.999 L
360.308 374 L
360.742 374 L
361.176 374 L
361.61 374 L
362.044 374 L
362.478 374 L
362.912 374 L
363.346 374 L
363.78 374 L
364.214 374 L
364.648 374 L
365.082 374 L
365.516 374 L
365.95 374 L
366.384 374 L
366.818 374 L
367.252 374 L
367.686 374 L
368.12 374 L
368.554 374 L
368.988 374 L
369.422 374 L
369.856 374 L
370.29 374 L
370.724 374 L
S
GR
GS
[0.75 0 0 0.75 0 0] CT
1 0 0 RC
2 LJ
4 LW
N
370.724 374 M
371.158 374 L
371.592 374 L
372.026 374 L
372.46 374 L
372.894 374 L
373.328 374 L
373.762 374 L
374.196 374 L
374.63 374 L
375.064 374 L
375.498 374 L
375.932 374 L
376.366 374 L
376.8 374 L
377.234 374 L
377.668 374 L
378.102 374 L
378.536 374 L
378.97 374 L
379.404 374 L
379.838 374 L
380.272 374 L
380.706 374 L
381.14 374 L
381.574 374 L
382.008 374 L
382.442 374 L
382.876 374 L
383.31 374 L
383.744 374 L
384.178 374 L
384.612 374 L
385.046 374 L
385.48 374 L
385.914 374 L
386.348 374 L
386.782 374 L
387.216 374 L
387.65 374 L
388.084 374 L
388.518 374 L
388.952 374 L
389.386 374 L
389.82 374 L
390.254 374 L
390.688 374 L
391.122 374 L
391.556 374 L
391.99 374 L
S
GR
GS
[0.75 0 0 0.75 0 0] CT
1 0 0 RC
2 LJ
4 LW
N
391.99 374 M
392.424 374 L
392.858 374 L
393.292 374 L
393.726 374 L
394.16 374 L
394.594 374 L
395.028 374 L
395.462 374 L
395.896 374 L
396.33 374 L
396.764 374 L
397.198 374 L
397.632 374 L
398.066 374 L
398.5 374 L
398.934 374 L
399.368 374 L
399.802 374 L
400.236 374 L
400.67 374 L
401.104 374 L
401.538 374 L
401.972 374 L
402.406 374 L
402.84 374 L
403.274 374 L
403.708 374 L
404.142 374 L
404.576 374 L
405.01 374 L
405.444 374 L
405.878 374 L
406.312 374 L
406.746 374 L
407.18 374 L
407.614 374 L
408.048 374 L
408.482 374 L
408.916 374 L
409.35 374 L
409.784 374 L
410.218 374 L
410.652 374 L
411.086 374 L
411.52 374 L
411.954 374 L
412.388 374 L
412.822 374 L
413.256 374 L
S
GR
GS
[0.75 0 0 0.75 0 0] CT
1 0 0 RC
2 LJ
4 LW
N
413.256 374 M
413.69 374 L
414.124 374 L
414.558 374 L
414.992 374 L
415.426 374 L
415.86 374 L
416.294 374 L
416.728 374 L
417.162 374 L
417.596 374 L
418.03 374 L
418.464 374 L
418.898 374 L
419.332 374 L
419.766 374 L
420.2 374 L
420.634 374 L
421.068 374 L
421.502 374 L
421.936 374 L
422.37 374 L
422.804 374 L
423.238 374 L
423.672 374 L
424.106 374 L
424.54 374 L
424.974 374 L
425.408 374 L
425.842 374 L
426.276 374 L
426.71 374 L
427.144 374 L
427.578 374 L
428.012 374 L
428.446 374 L
428.88 374 L
429.314 374 L
429.748 374 L
430.182 374 L
430.616 374 L
431.05 374 L
431.484 374 L
431.918 374 L
432.352 374 L
432.786 374 L
433.22 374 L
433.654 374 L
434.088 374 L
434.522 374 L
S
GR
GS
[0.75 0 0 0.75 0 0] CT
1 0 0 RC
2 LJ
4 LW
N
434.522 374 M
434.956 374 L
435.39 374 L
435.824 374 L
436.258 374 L
436.692 374 L
437.126 374 L
437.56 374 L
437.994 374 L
438.428 374 L
438.862 374 L
439.296 374 L
439.73 374 L
440.164 374 L
440.598 374 L
441.032 374 L
441.466 374 L
441.9 374 L
442.334 374 L
442.768 374 L
443.202 374 L
443.636 374 L
444.07 374 L
444.504 374 L
444.938 374 L
445.372 374 L
445.806 374 L
446.24 374 L
446.674 374 L
447.108 374 L
447.542 374 L
447.976 374 L
448.41 374 L
448.844 374 L
449.278 374 L
449.712 374 L
450.146 374 L
450.58 374 L
451.014 374 L
451.448 374 L
451.882 374 L
452.316 374 L
452.75 374 L
453.184 374 L
453.618 374 L
454.052 374 L
454.486 374 L
454.92 374 L
455.354 374 L
455.788 374 L
S
GR
GS
[0.75 0 0 0.75 0 0] CT
1 0 0 RC
2 LJ
4 LW
N
455.788 374 M
456.222 374 L
456.656 374 L
457.09 374 L
457.524 374 L
457.958 374 L
458.392 374 L
458.826 374 L
459.26 374 L
459.694 374 L
460.128 374 L
460.562 374 L
460.996 374 L
461.43 374 L
461.864 374 L
462.298 374 L
462.732 374 L
463.166 374 L
463.6 374 L
464.034 374 L
464.468 374 L
464.902 374 L
465.336 374 L
465.77 374 L
466.204 374 L
466.638 374 L
467.072 374 L
467.506 374 L
467.94 374 L
468.374 374 L
468.808 374 L
469.242 374 L
469.676 374 L
470.11 374 L
470.544 374 L
470.978 374 L
471.412 374 L
471.846 374 L
472.28 374 L
472.714 374 L
473.148 374 L
473.582 374 L
474.016 374 L
474.45 374 L
474.884 374 L
475.318 374 L
475.752 374 L
476.186 374 L
476.62 374 L
477.054 374 L
S
GR
GS
[0.75 0 0 0.75 0 0] CT
1 0 0 RC
2 LJ
4 LW
N
477.054 374 M
477.488 374 L
477.922 374 L
478.356 374 L
478.79 374 L
479.224 374 L
479.658 374 L
480.092 374 L
480.526 374 L
480.96 374 L
481.394 374 L
481.828 374 L
482.262 374 L
482.696 374 L
483.13 374 L
483.564 374 L
483.998 374 L
484.432 374 L
484.866 374 L
485.3 374 L
485.734 374 L
486.168 374 L
486.602 374 L
487.036 374 L
487.47 374 L
487.904 374 L
488.338 374 L
488.772 374 L
489.206 374 L
489.64 374 L
490.074 374 L
490.508 374 L
490.942 374 L
491.376 374 L
491.81 374 L
492.244 374 L
492.678 374 L
493.112 374 L
493.546 374 L
493.98 374 L
494.414 374 L
494.848 374 L
495.282 374 L
495.716 374 L
496.15 374 L
496.584 374 L
497.018 374 L
497.452 374 L
497.886 374 L
498.32 374 L
S
GR
GS
[0.75 0 0 0.75 0 0] CT
1 0 0 RC
2 LJ
4 LW
N
498.32 374 M
498.754 374 L
499.188 374 L
499.622 374 L
500.056 374 L
500.49 374 L
500.924 374 L
501.358 374 L
501.792 374 L
502.226 374 L
502.66 374 L
503.094 374 L
503.528 374 L
503.962 374 L
504.396 374 L
504.83 374 L
505.264 374 L
505.698 374 L
506.132 374 L
506.566 374 L
507 374 L
S
GR
GS
[0.75 0 0 0.75 0 0] CT
0.149 GC
2 setlinecap
10.0 ML
N
73 374 M
507 374 L
S
GR
GS
[0.75 0 0 0.75 0 0] CT
1 GC
N
279 80 M
279 44 L
494 44 L
494 80 L
cp
f
GR
GS
[0.75 0 0 0.75 248.25 40.625] CT
/Helvetica 12 F
GS
[1 0 0 1 0 0] CT
0 4.5 moveto 
1 -1 scale
(Correlation coefficient hist) t 
GR
GR
GS
[0.75 0 0 0.75 0 0] CT
0.208 0.165 0.525 RC
N
287 59.833 M
287 48.5 L
327 48.5 L
327 59.833 L
cp
f
GR
GS
[0.75 0 0 0.75 0 0] CT
2 setlinecap
10.0 ML
N
287 59.833 M
287 48.5 L
327 48.5 L
327 59.833 L
287 59.833 L
S
GR
GS
[0.75 0 0 0.75 248.25 52.375] CT
/Helvetica 12 F
GS
[1 0 0 1 0 0] CT
0 4.5 moveto 
1 -1 scale
(gev distribution) t 
GR
GR
GS
[0.75 0 0 0.75 0 0] CT
1 0 0 RC
2 setlinecap
10.0 ML
4 LW
N
287 69.833 M
327 69.833 L
S
GR
GS
[0.75 0 0 0.75 0 0] CT
0.149 GC
2 setlinecap
10.0 ML
N
279 80 M
279 44 L
494 44 L
494 80 L
279 80 L
S
GR
%%Trailer
%%Pages: 1
%%EOF
