%!PS-Adobe-3.0 EPSF-3.0
%%Creator: (MATLAB, The Mathworks, Inc. Version 8.5.0.197613 \(R2015a\). Operating System: Linux)
%%Title: /home/albyback/git/contig_assembly/Paper/FIGURES/1.eps
%%CreationDate: 2016-10-11T13:29:43
%%Pages: (atend)
%%BoundingBox: 0 0 1025 498
%%LanguageLevel: 2
%%EndComments
%%BeginProlog
%%BeginResource: procset (Apache XML Graphics Std ProcSet) 1.2 0
%%Version: 1.2 0
%%Copyright: (Copyright 2001-2003,2010 The Apache Software Foundation. License terms: http://www.apache.org/licenses/LICENSE-2.0)
/bd{bind def}bind def
/ld{load def}bd
/GR/grestore ld
/M/moveto ld
/LJ/setlinejoin ld
/C/curveto ld
/f/fill ld
/LW/setlinewidth ld
/GC/setgray ld
/t/show ld
/N/newpath ld
/CT/concat ld
/cp/closepath ld
/S/stroke ld
/L/lineto ld
/CC/setcmykcolor ld
/A/ashow ld
/GS/gsave ld
/RC/setrgbcolor ld
/RM/rmoveto ld
/ML/setmiterlimit ld
/re {4 2 roll M
1 index 0 rlineto
0 exch rlineto
neg 0 rlineto
cp } bd
/_ctm matrix def
/_tm matrix def
/BT { _ctm currentmatrix pop matrix _tm copy pop 0 0 moveto } bd
/ET { _ctm setmatrix } bd
/iTm { _ctm setmatrix _tm concat } bd
/Tm { _tm astore pop iTm 0 0 moveto } bd
/ux 0.0 def
/uy 0.0 def
/F {
  /Tp exch def
  /Tf exch def
  Tf findfont Tp scalefont setfont
  /cf Tf def  /cs Tp def
} bd
/ULS {currentpoint /uy exch def /ux exch def} bd
/ULE {
  /Tcx currentpoint pop def
  gsave
  newpath
  cf findfont cs scalefont dup
  /FontMatrix get 0 get /Ts exch def /FontInfo get dup
  /UnderlinePosition get Ts mul /To exch def
  /UnderlineThickness get Ts mul /Tt exch def
  ux uy To add moveto  Tcx uy To add lineto
  Tt setlinewidth stroke
  grestore
} bd
/OLE {
  /Tcx currentpoint pop def
  gsave
  newpath
  cf findfont cs scalefont dup
  /FontMatrix get 0 get /Ts exch def /FontInfo get dup
  /UnderlinePosition get Ts mul /To exch def
  /UnderlineThickness get Ts mul /Tt exch def
  ux uy To add cs add moveto Tcx uy To add cs add lineto
  Tt setlinewidth stroke
  grestore
} bd
/SOE {
  /Tcx currentpoint pop def
  gsave
  newpath
  cf findfont cs scalefont dup
  /FontMatrix get 0 get /Ts exch def /FontInfo get dup
  /UnderlinePosition get Ts mul /To exch def
  /UnderlineThickness get Ts mul /Tt exch def
  ux uy To add cs 10 mul 26 idiv add moveto Tcx uy To add cs 10 mul 26 idiv add lineto
  Tt setlinewidth stroke
  grestore
} bd
/QT {
/Y22 exch store
/X22 exch store
/Y21 exch store
/X21 exch store
currentpoint
/Y21 load 2 mul add 3 div exch
/X21 load 2 mul add 3 div exch
/X21 load 2 mul /X22 load add 3 div
/Y21 load 2 mul /Y22 load add 3 div
/X22 load /Y22 load curveto
} bd
/SSPD {
dup length /d exch dict def
{
/v exch def
/k exch def
currentpagedevice k known {
/cpdv currentpagedevice k get def
v cpdv ne {
/upd false def
/nullv v type /nulltype eq def
/nullcpdv cpdv type /nulltype eq def
nullv nullcpdv or
{
/upd true def
} {
/sametype v type cpdv type eq def
sametype {
v type /arraytype eq {
/vlen v length def
/cpdvlen cpdv length def
vlen cpdvlen eq {
0 1 vlen 1 sub {
/i exch def
/obj v i get def
/cpdobj cpdv i get def
obj cpdobj ne {
/upd true def
exit
} if
} for
} {
/upd true def
} ifelse
} {
v type /dicttype eq {
v {
/dv exch def
/dk exch def
/cpddv cpdv dk get def
dv cpddv ne {
/upd true def
exit
} if
} forall
} {
/upd true def
} ifelse
} ifelse
} if
} ifelse
upd true eq {
d k v put
} if
} if
} if
} forall
d length 0 gt {
d setpagedevice
} if
} bd
%%EndResource
%%BeginResource: procset (Apache XML Graphics EPS ProcSet) 1.0 0
%%Version: 1.0 0
%%Copyright: (Copyright 2002-2003 The Apache Software Foundation. License terms: http://www.apache.org/licenses/LICENSE-2.0)
/BeginEPSF { %def
/b4_Inc_state save def         % Save state for cleanup
/dict_count countdictstack def % Count objects on dict stack
/op_count count 1 sub def      % Count objects on operand stack
userdict begin                 % Push userdict on dict stack
/showpage { } def              % Redefine showpage, { } = null proc
0 setgray 0 setlinecap         % Prepare graphics state
1 setlinewidth 0 setlinejoin
10 setmiterlimit [ ] 0 setdash newpath
/languagelevel where           % If level not equal to 1 then
{pop languagelevel             % set strokeadjust and
1 ne                           % overprint to their defaults.
{false setstrokeadjust false setoverprint
} if
} if
} bd
/EndEPSF { %def
count op_count sub {pop} repeat            % Clean up stacks
countdictstack dict_count sub {end} repeat
b4_Inc_state restore
} bd
%%EndResource
%FOPBeginFontDict
%%IncludeResource: font Courier-Bold
%%IncludeResource: font Helvetica
%%IncludeResource: font Courier-BoldOblique
%%IncludeResource: font Courier-Oblique
%%IncludeResource: font Times-Roman
%%IncludeResource: font Helvetica-BoldOblique
%%IncludeResource: font Helvetica-Bold
%%IncludeResource: font Helvetica-Oblique
%%IncludeResource: font Times-BoldItalic
%%IncludeResource: font Courier
%%IncludeResource: font Times-Italic
%%IncludeResource: font Times-Bold
%%IncludeResource: font Symbol
%%IncludeResource: font ZapfDingbats
%FOPEndFontDict
%%BeginResource: encoding WinAnsiEncoding
/WinAnsiEncoding [
/.notdef /.notdef /.notdef /.notdef /.notdef
/.notdef /.notdef /.notdef /.notdef /.notdef
/.notdef /.notdef /.notdef /.notdef /.notdef
/.notdef /.notdef /.notdef /.notdef /.notdef
/.notdef /.notdef /.notdef /.notdef /.notdef
/.notdef /.notdef /.notdef /.notdef /.notdef
/.notdef /.notdef /space /exclam /quotedbl
/numbersign /dollar /percent /ampersand /quotesingle
/parenleft /parenright /asterisk /plus /comma
/hyphen /period /slash /zero /one
/two /three /four /five /six
/seven /eight /nine /colon /semicolon
/less /equal /greater /question /at
/A /B /C /D /E
/F /G /H /I /J
/K /L /M /N /O
/P /Q /R /S /T
/U /V /W /X /Y
/Z /bracketleft /backslash /bracketright /asciicircum
/underscore /quoteleft /a /b /c
/d /e /f /g /h
/i /j /k /l /m
/n /o /p /q /r
/s /t /u /v /w
/x /y /z /braceleft /bar
/braceright /asciitilde /bullet /Euro /bullet
/quotesinglbase /florin /quotedblbase /ellipsis /dagger
/daggerdbl /circumflex /perthousand /Scaron /guilsinglleft
/OE /bullet /Zcaron /bullet /bullet
/quoteleft /quoteright /quotedblleft /quotedblright /bullet
/endash /emdash /asciitilde /trademark /scaron
/guilsinglright /oe /bullet /zcaron /Ydieresis
/space /exclamdown /cent /sterling /currency
/yen /brokenbar /section /dieresis /copyright
/ordfeminine /guillemotleft /logicalnot /sfthyphen /registered
/macron /degree /plusminus /twosuperior /threesuperior
/acute /mu /paragraph /middot /cedilla
/onesuperior /ordmasculine /guillemotright /onequarter /onehalf
/threequarters /questiondown /Agrave /Aacute /Acircumflex
/Atilde /Adieresis /Aring /AE /Ccedilla
/Egrave /Eacute /Ecircumflex /Edieresis /Igrave
/Iacute /Icircumflex /Idieresis /Eth /Ntilde
/Ograve /Oacute /Ocircumflex /Otilde /Odieresis
/multiply /Oslash /Ugrave /Uacute /Ucircumflex
/Udieresis /Yacute /Thorn /germandbls /agrave
/aacute /acircumflex /atilde /adieresis /aring
/ae /ccedilla /egrave /eacute /ecircumflex
/edieresis /igrave /iacute /icircumflex /idieresis
/eth /ntilde /ograve /oacute /ocircumflex
/otilde /odieresis /divide /oslash /ugrave
/uacute /ucircumflex /udieresis /yacute /thorn
/ydieresis
] def
%%EndResource
%FOPBeginFontReencode
/Courier-Bold findfont
dup length dict begin
  {1 index /FID ne {def} {pop pop} ifelse} forall
  /Encoding WinAnsiEncoding def
  currentdict
end
/Courier-Bold exch definefont pop
/Helvetica findfont
dup length dict begin
  {1 index /FID ne {def} {pop pop} ifelse} forall
  /Encoding WinAnsiEncoding def
  currentdict
end
/Helvetica exch definefont pop
/Courier-BoldOblique findfont
dup length dict begin
  {1 index /FID ne {def} {pop pop} ifelse} forall
  /Encoding WinAnsiEncoding def
  currentdict
end
/Courier-BoldOblique exch definefont pop
/Courier-Oblique findfont
dup length dict begin
  {1 index /FID ne {def} {pop pop} ifelse} forall
  /Encoding WinAnsiEncoding def
  currentdict
end
/Courier-Oblique exch definefont pop
/Times-Roman findfont
dup length dict begin
  {1 index /FID ne {def} {pop pop} ifelse} forall
  /Encoding WinAnsiEncoding def
  currentdict
end
/Times-Roman exch definefont pop
/Helvetica-BoldOblique findfont
dup length dict begin
  {1 index /FID ne {def} {pop pop} ifelse} forall
  /Encoding WinAnsiEncoding def
  currentdict
end
/Helvetica-BoldOblique exch definefont pop
/Helvetica-Bold findfont
dup length dict begin
  {1 index /FID ne {def} {pop pop} ifelse} forall
  /Encoding WinAnsiEncoding def
  currentdict
end
/Helvetica-Bold exch definefont pop
/Helvetica-Oblique findfont
dup length dict begin
  {1 index /FID ne {def} {pop pop} ifelse} forall
  /Encoding WinAnsiEncoding def
  currentdict
end
/Helvetica-Oblique exch definefont pop
/Times-BoldItalic findfont
dup length dict begin
  {1 index /FID ne {def} {pop pop} ifelse} forall
  /Encoding WinAnsiEncoding def
  currentdict
end
/Times-BoldItalic exch definefont pop
/Courier findfont
dup length dict begin
  {1 index /FID ne {def} {pop pop} ifelse} forall
  /Encoding WinAnsiEncoding def
  currentdict
end
/Courier exch definefont pop
/Times-Italic findfont
dup length dict begin
  {1 index /FID ne {def} {pop pop} ifelse} forall
  /Encoding WinAnsiEncoding def
  currentdict
end
/Times-Italic exch definefont pop
/Times-Bold findfont
dup length dict begin
  {1 index /FID ne {def} {pop pop} ifelse} forall
  /Encoding WinAnsiEncoding def
  currentdict
end
/Times-Bold exch definefont pop
%FOPEndFontReencode
%%EndProlog
%%Page: 1 1
%%PageBoundingBox: 0 0 1025 498
%%BeginPageSetup
[1 0 0 -1 0 498] CT
%%EndPageSetup
GS
[0.75 0 0 0.75 0 0] CT
1 GC
N
0 0 1366 664 re
f
GR
GS
[0.75 0 0 0.75 0 0] CT
1 GC
N
0 0 1366 664 re
f
GR
GS
[0.75 0 0 0.75 0 0] CT
1 GC
N
178 591 M
1236 591 L
1236 50 L
178 50 L
cp
f
GR
GS
[0.75 0 0 0.75 530.25037 461.00002] CT
0.149 GC
/Helvetica 15 F
GS
[1 0 0 1 0 0] CT
-10.5 14 moveto 
1 -1 scale
(CC) t 
GR
GR
GS
[0.75 0 0 0.75 0 0] CT
0.149 GC
2 setlinecap
10.0 ML
N
178 591 M
1236 591 L
S
GR
GS
[0.75 0 0 0.75 0 0] CT
0.149 GC
2 setlinecap
10.0 ML
N
178 50 M
1236 50 L
S
GR
GS
[0.75 0 0 0.75 0 0] CT
0.149 GC
2 setlinecap
10.0 ML
N
178 591 M
178 580.42 L
S
GR
GS
[0.75 0 0 0.75 0 0] CT
0.149 GC
2 setlinecap
10.0 ML
N
283.8 591 M
283.8 580.42 L
S
GR
GS
[0.75 0 0 0.75 0 0] CT
0.149 GC
2 setlinecap
10.0 ML
N
389.6 591 M
389.6 580.42 L
S
GR
GS
[0.75 0 0 0.75 0 0] CT
0.149 GC
2 setlinecap
10.0 ML
N
495.4 591 M
495.4 580.42 L
S
GR
GS
[0.75 0 0 0.75 0 0] CT
0.149 GC
2 setlinecap
10.0 ML
N
601.2 591 M
601.2 580.42 L
S
GR
GS
[0.75 0 0 0.75 0 0] CT
0.149 GC
2 setlinecap
10.0 ML
N
707 591 M
707 580.42 L
S
GR
GS
[0.75 0 0 0.75 0 0] CT
0.149 GC
2 setlinecap
10.0 ML
N
812.8 591 M
812.8 580.42 L
S
GR
GS
[0.75 0 0 0.75 0 0] CT
0.149 GC
2 setlinecap
10.0 ML
N
918.6 591 M
918.6 580.42 L
S
GR
GS
[0.75 0 0 0.75 0 0] CT
0.149 GC
2 setlinecap
10.0 ML
N
1024.4 591 M
1024.4 580.42 L
S
GR
GS
[0.75 0 0 0.75 0 0] CT
0.149 GC
2 setlinecap
10.0 ML
N
1130.2 591 M
1130.2 580.42 L
S
GR
GS
[0.75 0 0 0.75 0 0] CT
0.149 GC
2 setlinecap
10.0 ML
N
1236 591 M
1236 580.42 L
S
GR
GS
[0.75 0 0 0.75 0 0] CT
0.149 GC
2 setlinecap
10.0 ML
N
178 50 M
178 60.58 L
S
GR
GS
[0.75 0 0 0.75 0 0] CT
0.149 GC
2 setlinecap
10.0 ML
N
283.8 50 M
283.8 60.58 L
S
GR
GS
[0.75 0 0 0.75 0 0] CT
0.149 GC
2 setlinecap
10.0 ML
N
389.6 50 M
389.6 60.58 L
S
GR
GS
[0.75 0 0 0.75 0 0] CT
0.149 GC
2 setlinecap
10.0 ML
N
495.4 50 M
495.4 60.58 L
S
GR
GS
[0.75 0 0 0.75 0 0] CT
0.149 GC
2 setlinecap
10.0 ML
N
601.2 50 M
601.2 60.58 L
S
GR
GS
[0.75 0 0 0.75 0 0] CT
0.149 GC
2 setlinecap
10.0 ML
N
707 50 M
707 60.58 L
S
GR
GS
[0.75 0 0 0.75 0 0] CT
0.149 GC
2 setlinecap
10.0 ML
N
812.8 50 M
812.8 60.58 L
S
GR
GS
[0.75 0 0 0.75 0 0] CT
0.149 GC
2 setlinecap
10.0 ML
N
918.6 50 M
918.6 60.58 L
S
GR
GS
[0.75 0 0 0.75 0 0] CT
0.149 GC
2 setlinecap
10.0 ML
N
1024.4 50 M
1024.4 60.58 L
S
GR
GS
[0.75 0 0 0.75 0 0] CT
0.149 GC
2 setlinecap
10.0 ML
N
1130.2 50 M
1130.2 60.58 L
S
GR
GS
[0.75 0 0 0.75 0 0] CT
0.149 GC
2 setlinecap
10.0 ML
N
1236 50 M
1236 60.58 L
S
GR
GS
[0.75 0 0 0.75 133.5 447.24998] CT
0.149 GC
/Helvetica 13 F
GS
[1 0 0 1 0 0] CT
-6.5 13 moveto 
1 -1 scale
(-1) t 
GR
GR
GS
[0.75 0 0 0.75 212.84999 447.24998] CT
0.149 GC
/Helvetica 13 F
GS
[1 0 0 1 0 0] CT
-13 13 moveto 
1 -1 scale
(-0.8) t 
GR
GR
GS
[0.75 0 0 0.75 292.19998 447.24998] CT
0.149 GC
/Helvetica 13 F
GS
[1 0 0 1 0 0] CT
-13 13 moveto 
1 -1 scale
(-0.6) t 
GR
GR
GS
[0.75 0 0 0.75 371.55 447.24998] CT
0.149 GC
/Helvetica 13 F
GS
[1 0 0 1 0 0] CT
-13 13 moveto 
1 -1 scale
(-0.4) t 
GR
GR
GS
[0.75 0 0 0.75 450.90001 447.24998] CT
0.149 GC
/Helvetica 13 F
GS
[1 0 0 1 0 0] CT
-13 13 moveto 
1 -1 scale
(-0.2) t 
GR
GR
GS
[0.75 0 0 0.75 530.25 447.24998] CT
0.149 GC
/Helvetica 13 F
GS
[1 0 0 1 0 0] CT
-4.5 13 moveto 
1 -1 scale
(0) t 
GR
GR
GS
[0.75 0 0 0.75 609.59999 447.24998] CT
0.149 GC
/Helvetica 13 F
GS
[1 0 0 1 0 0] CT
-10.5 13 moveto 
1 -1 scale
(0.2) t 
GR
GR
GS
[0.75 0 0 0.75 688.94998 447.24998] CT
0.149 GC
/Helvetica 13 F
GS
[1 0 0 1 0 0] CT
-10.5 13 moveto 
1 -1 scale
(0.4) t 
GR
GR
GS
[0.75 0 0 0.75 768.30002 447.24998] CT
0.149 GC
/Helvetica 13 F
GS
[1 0 0 1 0 0] CT
-10.5 13 moveto 
1 -1 scale
(0.6) t 
GR
GR
GS
[0.75 0 0 0.75 847.64996 447.24998] CT
0.149 GC
/Helvetica 13 F
GS
[1 0 0 1 0 0] CT
-10.5 13 moveto 
1 -1 scale
(0.8) t 
GR
GR
GS
[0.75 0 0 0.75 927 447.24998] CT
0.149 GC
/Helvetica 13 F
GS
[1 0 0 1 0 0] CT
-4.5 13 moveto 
1 -1 scale
(1) t 
GR
GR
GS
[0 -0.75 0.75 0 119.75003 240.37482] CT
0.149 GC
/Helvetica 15 F
GS
[1 0 0 1 0 0] CT
-15 -4 moveto 
1 -1 scale
(PDF) t 
GR
GR
GS
[0.75 0 0 0.75 0 0] CT
0.149 GC
2 setlinecap
10.0 ML
N
178 591 M
178 50 L
S
GR
GS
[0.75 0 0 0.75 0 0] CT
0.149 GC
2 setlinecap
10.0 ML
N
1236 591 M
1236 50 L
S
GR
GS
[0.75 0 0 0.75 0 0] CT
0.149 GC
2 setlinecap
10.0 ML
N
178 591 M
188.58 591 L
S
GR
GS
[0.75 0 0 0.75 0 0] CT
0.149 GC
2 setlinecap
10.0 ML
N
178 500.833 M
188.58 500.833 L
S
GR
GS
[0.75 0 0 0.75 0 0] CT
0.149 GC
2 setlinecap
10.0 ML
N
178 410.667 M
188.58 410.667 L
S
GR
GS
[0.75 0 0 0.75 0 0] CT
0.149 GC
2 setlinecap
10.0 ML
N
178 320.5 M
188.58 320.5 L
S
GR
GS
[0.75 0 0 0.75 0 0] CT
0.149 GC
2 setlinecap
10.0 ML
N
178 230.333 M
188.58 230.333 L
S
GR
GS
[0.75 0 0 0.75 0 0] CT
0.149 GC
2 setlinecap
10.0 ML
N
178 140.167 M
188.58 140.167 L
S
GR
GS
[0.75 0 0 0.75 0 0] CT
0.149 GC
2 setlinecap
10.0 ML
N
178 50 M
188.58 50 L
S
GR
GS
[0.75 0 0 0.75 0 0] CT
0.149 GC
2 setlinecap
10.0 ML
N
1236 591 M
1225.42 591 L
S
GR
GS
[0.75 0 0 0.75 0 0] CT
0.149 GC
2 setlinecap
10.0 ML
N
1236 500.833 M
1225.42 500.833 L
S
GR
GS
[0.75 0 0 0.75 0 0] CT
0.149 GC
2 setlinecap
10.0 ML
N
1236 410.667 M
1225.42 410.667 L
S
GR
GS
[0.75 0 0 0.75 0 0] CT
0.149 GC
2 setlinecap
10.0 ML
N
1236 320.5 M
1225.42 320.5 L
S
GR
GS
[0.75 0 0 0.75 0 0] CT
0.149 GC
2 setlinecap
10.0 ML
N
1236 230.333 M
1225.42 230.333 L
S
GR
GS
[0.75 0 0 0.75 0 0] CT
0.149 GC
2 setlinecap
10.0 ML
N
1236 140.167 M
1225.42 140.167 L
S
GR
GS
[0.75 0 0 0.75 0 0] CT
0.149 GC
2 setlinecap
10.0 ML
N
1236 50 M
1225.42 50 L
S
GR
GS
[0.75 0 0 0.75 129.50002 443.25] CT
0.149 GC
/Helvetica 13 F
GS
[1 0 0 1 0 0] CT
-9 4.5 moveto 
1 -1 scale
(0) t 
GR
GR
GS
[0.75 0 0 0.75 129.50002 375.62501] CT
0.149 GC
/Helvetica 13 F
GS
[1 0 0 1 0 0] CT
-9 4.5 moveto 
1 -1 scale
(1) t 
GR
GR
GS
[0.75 0 0 0.75 129.50002 307.99999] CT
0.149 GC
/Helvetica 13 F
GS
[1 0 0 1 0 0] CT
-9 4.5 moveto 
1 -1 scale
(2) t 
GR
GR
GS
[0.75 0 0 0.75 129.50002 240.375] CT
0.149 GC
/Helvetica 13 F
GS
[1 0 0 1 0 0] CT
-9 4.5 moveto 
1 -1 scale
(3) t 
GR
GR
GS
[0.75 0 0 0.75 129.50002 172.75] CT
0.149 GC
/Helvetica 13 F
GS
[1 0 0 1 0 0] CT
-9 4.5 moveto 
1 -1 scale
(4) t 
GR
GR
GS
[0.75 0 0 0.75 129.50002 105.125] CT
0.149 GC
/Helvetica 13 F
GS
[1 0 0 1 0 0] CT
-9 4.5 moveto 
1 -1 scale
(5) t 
GR
GR
GS
[0.75 0 0 0.75 129.50002 37.5] CT
0.149 GC
/Helvetica 13 F
GS
[1 0 0 1 0 0] CT
-9 4.5 moveto 
1 -1 scale
(6) t 
GR
GR
GS
[0.75 0 0 0.75 0 0] CT
0.208 0.165 0.525 RC
N
851.712 591 M
854.388 591 L
854.388 589.574 L
851.712 589.574 L
cp
f
GR
GS
[0.75 0 0 0.75 0 0] CT
0.208 0.165 0.525 RC
N
855.057 591 M
857.732 591 L
857.732 591 L
855.057 591 L
cp
f
GR
GS
[0.75 0 0 0.75 0 0] CT
0.208 0.165 0.525 RC
N
858.401 591 M
861.077 591 L
861.077 586.721 L
858.401 586.721 L
cp
f
GR
GS
[0.75 0 0 0.75 0 0] CT
0.208 0.165 0.525 RC
N
861.746 591 M
864.422 591 L
864.422 589.574 L
861.746 589.574 L
cp
f
GR
GS
[0.75 0 0 0.75 0 0] CT
0.208 0.165 0.525 RC
N
865.091 591 M
867.767 591 L
867.767 579.59 L
865.091 579.59 L
cp
f
GR
GS
[0.75 0 0 0.75 0 0] CT
0.208 0.165 0.525 RC
N
868.436 591 M
871.111 591 L
871.111 578.164 L
868.436 578.164 L
cp
f
GR
GS
[0.75 0 0 0.75 0 0] CT
0.208 0.165 0.525 RC
N
871.78 591 M
874.456 591 L
874.456 586.721 L
871.78 586.721 L
cp
f
GR
GS
[0.75 0 0 0.75 0 0] CT
0.208 0.165 0.525 RC
N
875.125 591 M
877.801 591 L
877.801 573.886 L
875.125 573.886 L
cp
f
GR
GS
[0.75 0 0 0.75 0 0] CT
0.208 0.165 0.525 RC
N
878.47 591 M
881.146 591 L
881.146 569.607 L
878.47 569.607 L
cp
f
GR
GS
[0.75 0 0 0.75 0 0] CT
0.208 0.165 0.525 RC
N
881.815 591 M
884.491 591 L
884.491 555.345 L
881.815 555.345 L
cp
f
GR
GS
[0.75 0 0 0.75 0 0] CT
0.208 0.165 0.525 RC
N
885.159 591 M
887.835 591 L
887.835 558.197 L
885.159 558.197 L
cp
f
GR
GS
[0.75 0 0 0.75 0 0] CT
0.208 0.165 0.525 RC
N
888.504 591 M
891.18 591 L
891.18 546.788 L
888.504 546.788 L
cp
f
GR
GS
[0.75 0 0 0.75 0 0] CT
0.208 0.165 0.525 RC
N
891.849 591 M
894.525 591 L
894.525 529.674 L
891.849 529.674 L
cp
f
GR
GS
[0.75 0 0 0.75 0 0] CT
0.208 0.165 0.525 RC
N
895.194 591 M
897.87 591 L
897.87 525.395 L
895.194 525.395 L
cp
f
GR
GS
[0.75 0 0 0.75 0 0] CT
0.208 0.165 0.525 RC
N
898.539 591 M
901.214 591 L
901.214 505.428 L
898.539 505.428 L
cp
f
GR
GS
[0.75 0 0 0.75 0 0] CT
0.208 0.165 0.525 RC
N
901.883 591 M
904.559 591 L
904.559 474.052 L
901.883 474.052 L
cp
f
GR
GS
[0.75 0 0 0.75 0 0] CT
0.208 0.165 0.525 RC
N
905.228 591 M
907.904 591 L
907.904 468.347 L
905.228 468.347 L
cp
f
GR
GS
[0.75 0 0 0.75 0 0] CT
0.208 0.165 0.525 RC
N
908.573 591 M
911.249 591 L
911.249 442.675 L
908.573 442.675 L
cp
f
GR
GS
[0.75 0 0 0.75 0 0] CT
0.208 0.165 0.525 RC
N
911.918 591 M
914.593 591 L
914.593 418.43 L
911.918 418.43 L
cp
f
GR
GS
[0.75 0 0 0.75 0 0] CT
0.208 0.165 0.525 RC
N
915.262 591 M
917.938 591 L
917.938 405.594 L
915.262 405.594 L
cp
f
GR
GS
[0.75 0 0 0.75 0 0] CT
0.208 0.165 0.525 RC
N
918.607 591 M
921.283 591 L
921.283 409.873 L
918.607 409.873 L
cp
f
GR
GS
[0.75 0 0 0.75 0 0] CT
0.208 0.165 0.525 RC
N
921.952 591 M
924.628 591 L
924.628 349.973 L
921.952 349.973 L
cp
f
GR
GS
[0.75 0 0 0.75 0 0] CT
0.208 0.165 0.525 RC
N
925.297 591 M
927.972 591 L
927.972 317.17 L
925.297 317.17 L
cp
f
GR
GS
[0.75 0 0 0.75 0 0] CT
0.208 0.165 0.525 RC
N
928.641 591 M
931.317 591 L
931.317 305.761 L
928.641 305.761 L
cp
f
GR
GS
[0.75 0 0 0.75 0 0] CT
0.208 0.165 0.525 RC
N
931.986 591 M
934.662 591 L
934.662 275.81 L
931.986 275.81 L
cp
f
GR
GS
[0.75 0 0 0.75 0 0] CT
0.208 0.165 0.525 RC
N
935.331 591 M
938.007 591 L
938.007 291.499 L
935.331 291.499 L
cp
f
GR
GS
[0.75 0 0 0.75 0 0] CT
0.208 0.165 0.525 RC
N
938.676 591 M
941.352 591 L
941.352 233.024 L
938.676 233.024 L
cp
f
GR
GS
[0.75 0 0 0.75 0 0] CT
0.208 0.165 0.525 RC
N
942.02 591 M
944.696 591 L
944.696 250.139 L
942.02 250.139 L
cp
f
GR
GS
[0.75 0 0 0.75 0 0] CT
0.208 0.165 0.525 RC
N
945.365 591 M
948.041 591 L
948.041 183.108 L
945.365 183.108 L
cp
f
GR
GS
[0.75 0 0 0.75 0 0] CT
0.208 0.165 0.525 RC
N
948.71 591 M
951.386 591 L
951.386 211.631 L
948.71 211.631 L
cp
f
GR
GS
[0.75 0 0 0.75 0 0] CT
0.208 0.165 0.525 RC
N
952.055 591 M
954.731 591 L
954.731 126.06 L
952.055 126.06 L
cp
f
GR
GS
[0.75 0 0 0.75 0 0] CT
0.208 0.165 0.525 RC
N
955.4 591 M
958.075 591 L
958.075 180.255 L
955.4 180.255 L
cp
f
GR
GS
[0.75 0 0 0.75 0 0] CT
0.208 0.165 0.525 RC
N
958.744 591 M
961.42 591 L
961.42 136.043 L
958.744 136.043 L
cp
f
GR
GS
[0.75 0 0 0.75 0 0] CT
0.208 0.165 0.525 RC
N
962.089 591 M
964.765 591 L
964.765 173.124 L
962.089 173.124 L
cp
f
GR
GS
[0.75 0 0 0.75 0 0] CT
0.208 0.165 0.525 RC
N
965.434 591 M
968.11 591 L
968.11 174.55 L
965.434 174.55 L
cp
f
GR
GS
[0.75 0 0 0.75 0 0] CT
0.208 0.165 0.525 RC
N
968.779 591 M
971.454 591 L
971.454 174.55 L
968.779 174.55 L
cp
f
GR
GS
[0.75 0 0 0.75 0 0] CT
0.208 0.165 0.525 RC
N
972.123 591 M
974.799 591 L
974.799 164.567 L
972.123 164.567 L
cp
f
GR
GS
[0.75 0 0 0.75 0 0] CT
0.208 0.165 0.525 RC
N
975.468 591 M
978.144 591 L
978.144 163.141 L
975.468 163.141 L
cp
f
GR
GS
[0.75 0 0 0.75 0 0] CT
0.208 0.165 0.525 RC
N
978.813 591 M
981.489 591 L
981.489 185.96 L
978.813 185.96 L
cp
f
GR
GS
[0.75 0 0 0.75 0 0] CT
0.208 0.165 0.525 RC
N
982.158 591 M
984.833 591 L
984.833 221.615 L
982.158 221.615 L
cp
f
GR
GS
[0.75 0 0 0.75 0 0] CT
0.208 0.165 0.525 RC
N
985.502 591 M
988.178 591 L
988.178 228.746 L
985.502 228.746 L
cp
f
GR
GS
[0.75 0 0 0.75 0 0] CT
0.208 0.165 0.525 RC
N
988.847 591 M
991.523 591 L
991.523 210.205 L
988.847 210.205 L
cp
f
GR
GS
[0.75 0 0 0.75 0 0] CT
0.208 0.165 0.525 RC
N
992.192 591 M
994.868 591 L
994.868 217.336 L
992.192 217.336 L
cp
f
GR
GS
[0.75 0 0 0.75 0 0] CT
0.208 0.165 0.525 RC
N
995.537 591 M
998.213 591 L
998.213 210.205 L
995.537 210.205 L
cp
f
GR
GS
[0.75 0 0 0.75 0 0] CT
0.208 0.165 0.525 RC
N
998.881 591 M
1001.557 591 L
1001.557 244.434 L
998.881 244.434 L
cp
f
GR
GS
[0.75 0 0 0.75 0 0] CT
0.208 0.165 0.525 RC
N
1002.226 591 M
1004.902 591 L
1004.902 225.893 L
1002.226 225.893 L
cp
f
GR
GS
[0.75 0 0 0.75 0 0] CT
0.208 0.165 0.525 RC
N
1005.571 591 M
1008.247 591 L
1008.247 290.072 L
1005.571 290.072 L
cp
f
GR
GS
[0.75 0 0 0.75 0 0] CT
0.208 0.165 0.525 RC
N
1008.916 591 M
1011.592 591 L
1011.592 320.022 L
1008.916 320.022 L
cp
f
GR
GS
[0.75 0 0 0.75 0 0] CT
0.208 0.165 0.525 RC
N
1012.26 591 M
1014.936 591 L
1014.936 298.63 L
1012.26 298.63 L
cp
f
GR
GS
[0.75 0 0 0.75 0 0] CT
0.208 0.165 0.525 RC
N
1015.605 591 M
1018.281 591 L
1018.281 339.989 L
1015.605 339.989 L
cp
f
GR
GS
[0.75 0 0 0.75 0 0] CT
0.208 0.165 0.525 RC
N
1018.95 591 M
1021.626 591 L
1021.626 345.694 L
1018.95 345.694 L
cp
f
GR
GS
[0.75 0 0 0.75 0 0] CT
0.208 0.165 0.525 RC
N
1022.295 591 M
1024.971 591 L
1024.971 358.53 L
1022.295 358.53 L
cp
f
GR
GS
[0.75 0 0 0.75 0 0] CT
0.208 0.165 0.525 RC
N
1025.64 591 M
1028.315 591 L
1028.315 399.89 L
1025.64 399.89 L
cp
f
GR
GS
[0.75 0 0 0.75 0 0] CT
0.208 0.165 0.525 RC
N
1028.984 591 M
1031.66 591 L
1031.66 434.118 L
1028.984 434.118 L
cp
f
GR
GS
[0.75 0 0 0.75 0 0] CT
0.208 0.165 0.525 RC
N
1032.329 591 M
1035.005 591 L
1035.005 385.628 L
1032.329 385.628 L
cp
f
GR
GS
[0.75 0 0 0.75 0 0] CT
0.208 0.165 0.525 RC
N
1035.674 591 M
1038.35 591 L
1038.35 444.102 L
1035.674 444.102 L
cp
f
GR
GS
[0.75 0 0 0.75 0 0] CT
0.208 0.165 0.525 RC
N
1039.019 591 M
1041.694 591 L
1041.694 462.642 L
1039.019 462.642 L
cp
f
GR
GS
[0.75 0 0 0.75 0 0] CT
0.208 0.165 0.525 RC
N
1042.363 591 M
1045.039 591 L
1045.039 459.79 L
1042.363 459.79 L
cp
f
GR
GS
[0.75 0 0 0.75 0 0] CT
0.208 0.165 0.525 RC
N
1045.708 591 M
1048.384 591 L
1048.384 446.954 L
1045.708 446.954 L
cp
f
GR
GS
[0.75 0 0 0.75 0 0] CT
0.208 0.165 0.525 RC
N
1049.053 591 M
1051.729 591 L
1051.729 481.183 L
1049.053 481.183 L
cp
f
GR
GS
[0.75 0 0 0.75 0 0] CT
0.208 0.165 0.525 RC
N
1052.398 591 M
1055.073 591 L
1055.073 502.576 L
1052.398 502.576 L
cp
f
GR
GS
[0.75 0 0 0.75 0 0] CT
0.208 0.165 0.525 RC
N
1055.742 591 M
1058.418 591 L
1058.418 491.166 L
1055.742 491.166 L
cp
f
GR
GS
[0.75 0 0 0.75 0 0] CT
0.208 0.165 0.525 RC
N
1059.087 591 M
1061.763 591 L
1061.763 523.969 L
1059.087 523.969 L
cp
f
GR
GS
[0.75 0 0 0.75 0 0] CT
0.208 0.165 0.525 RC
N
1062.432 591 M
1065.108 591 L
1065.108 511.133 L
1062.432 511.133 L
cp
f
GR
GS
[0.75 0 0 0.75 0 0] CT
0.208 0.165 0.525 RC
N
1065.777 591 M
1068.453 591 L
1068.453 518.264 L
1065.777 518.264 L
cp
f
GR
GS
[0.75 0 0 0.75 0 0] CT
0.208 0.165 0.525 RC
N
1069.121 591 M
1071.797 591 L
1071.797 538.231 L
1069.121 538.231 L
cp
f
GR
GS
[0.75 0 0 0.75 0 0] CT
0.208 0.165 0.525 RC
N
1072.466 591 M
1075.142 591 L
1075.142 539.657 L
1072.466 539.657 L
cp
f
GR
GS
[0.75 0 0 0.75 0 0] CT
0.208 0.165 0.525 RC
N
1075.811 591 M
1078.487 591 L
1078.487 552.493 L
1075.811 552.493 L
cp
f
GR
GS
[0.75 0 0 0.75 0 0] CT
0.208 0.165 0.525 RC
N
1079.156 591 M
1081.832 591 L
1081.832 562.476 L
1079.156 562.476 L
cp
f
GR
GS
[0.75 0 0 0.75 0 0] CT
0.208 0.165 0.525 RC
N
1082.501 591 M
1085.176 591 L
1085.176 543.935 L
1082.501 543.935 L
cp
f
GR
GS
[0.75 0 0 0.75 0 0] CT
0.208 0.165 0.525 RC
N
1085.845 591 M
1088.521 591 L
1088.521 552.493 L
1085.845 552.493 L
cp
f
GR
GS
[0.75 0 0 0.75 0 0] CT
0.208 0.165 0.525 RC
N
1089.19 591 M
1091.866 591 L
1091.866 569.607 L
1089.19 569.607 L
cp
f
GR
GS
[0.75 0 0 0.75 0 0] CT
0.208 0.165 0.525 RC
N
1092.535 591 M
1095.211 591 L
1095.211 572.459 L
1092.535 572.459 L
cp
f
GR
GS
[0.75 0 0 0.75 0 0] CT
0.208 0.165 0.525 RC
N
1095.88 591 M
1098.555 591 L
1098.555 576.738 L
1095.88 576.738 L
cp
f
GR
GS
[0.75 0 0 0.75 0 0] CT
0.208 0.165 0.525 RC
N
1099.224 591 M
1101.9 591 L
1101.9 576.738 L
1099.224 576.738 L
cp
f
GR
GS
[0.75 0 0 0.75 0 0] CT
0.208 0.165 0.525 RC
N
1102.569 591 M
1105.245 591 L
1105.245 572.459 L
1102.569 572.459 L
cp
f
GR
GS
[0.75 0 0 0.75 0 0] CT
0.208 0.165 0.525 RC
N
1105.914 591 M
1108.59 591 L
1108.59 581.017 L
1105.914 581.017 L
cp
f
GR
GS
[0.75 0 0 0.75 0 0] CT
0.208 0.165 0.525 RC
N
1109.259 591 M
1111.934 591 L
1111.934 583.869 L
1109.259 583.869 L
cp
f
GR
GS
[0.75 0 0 0.75 0 0] CT
0.208 0.165 0.525 RC
N
1112.603 591 M
1115.279 591 L
1115.279 583.869 L
1112.603 583.869 L
cp
f
GR
GS
[0.75 0 0 0.75 0 0] CT
0.208 0.165 0.525 RC
N
1115.948 591 M
1118.624 591 L
1118.624 586.721 L
1115.948 586.721 L
cp
f
GR
GS
[0.75 0 0 0.75 0 0] CT
0.208 0.165 0.525 RC
N
1119.293 591 M
1121.969 591 L
1121.969 585.295 L
1119.293 585.295 L
cp
f
GR
GS
[0.75 0 0 0.75 0 0] CT
0.208 0.165 0.525 RC
N
1122.638 591 M
1125.314 591 L
1125.314 583.869 L
1122.638 583.869 L
cp
f
GR
GS
[0.75 0 0 0.75 0 0] CT
0.208 0.165 0.525 RC
N
1125.983 591 M
1128.658 591 L
1128.658 588.148 L
1125.983 588.148 L
cp
f
GR
GS
[0.75 0 0 0.75 0 0] CT
0.208 0.165 0.525 RC
N
1129.327 591 M
1132.003 591 L
1132.003 589.574 L
1129.327 589.574 L
cp
f
GR
GS
[0.75 0 0 0.75 0 0] CT
0.208 0.165 0.525 RC
N
1132.672 591 M
1135.348 591 L
1135.348 585.295 L
1132.672 585.295 L
cp
f
GR
GS
[0.75 0 0 0.75 0 0] CT
0.208 0.165 0.525 RC
N
1136.017 591 M
1138.693 591 L
1138.693 591 L
1136.017 591 L
cp
f
GR
GS
[0.75 0 0 0.75 0 0] CT
0.208 0.165 0.525 RC
N
1139.362 591 M
1142.037 591 L
1142.037 591 L
1139.362 591 L
cp
f
GR
GS
[0.75 0 0 0.75 0 0] CT
0.208 0.165 0.525 RC
N
1142.706 591 M
1145.382 591 L
1145.382 591 L
1142.706 591 L
cp
f
GR
GS
[0.75 0 0 0.75 0 0] CT
0.208 0.165 0.525 RC
N
1146.051 591 M
1148.727 591 L
1148.727 591 L
1146.051 591 L
cp
f
GR
GS
[0.75 0 0 0.75 0 0] CT
0.208 0.165 0.525 RC
N
1149.396 591 M
1152.072 591 L
1152.072 589.574 L
1149.396 589.574 L
cp
f
GR
GS
[0.75 0 0 0.75 0 0] CT
0.208 0.165 0.525 RC
N
1152.741 591 M
1155.416 591 L
1155.416 591 L
1152.741 591 L
cp
f
GR
GS
[0.75 0 0 0.75 0 0] CT
0.208 0.165 0.525 RC
N
1156.085 591 M
1158.761 591 L
1158.761 588.148 L
1156.085 588.148 L
cp
f
GR
GS
[0.75 0 0 0.75 0 0] CT
0.208 0.165 0.525 RC
N
1159.43 591 M
1162.106 591 L
1162.106 591 L
1159.43 591 L
cp
f
GR
GS
[0.75 0 0 0.75 0 0] CT
0.208 0.165 0.525 RC
N
1162.775 591 M
1165.451 591 L
1165.451 591 L
1162.775 591 L
cp
f
GR
GS
[0.75 0 0 0.75 0 0] CT
0.208 0.165 0.525 RC
N
1166.12 591 M
1168.796 591 L
1168.796 591 L
1166.12 591 L
cp
f
GR
GS
[0.75 0 0 0.75 0 0] CT
0.208 0.165 0.525 RC
N
1169.464 591 M
1172.14 591 L
1172.14 591 L
1169.464 591 L
cp
f
GR
GS
[0.75 0 0 0.75 0 0] CT
0.208 0.165 0.525 RC
N
1172.809 591 M
1175.485 591 L
1175.485 591 L
1172.809 591 L
cp
f
GR
GS
[0.75 0 0 0.75 0 0] CT
0.208 0.165 0.525 RC
N
1176.154 591 M
1178.83 591 L
1178.83 591 L
1176.154 591 L
cp
f
GR
GS
[0.75 0 0 0.75 0 0] CT
0.208 0.165 0.525 RC
N
1179.499 591 M
1182.175 591 L
1182.175 591 L
1179.499 591 L
cp
f
GR
GS
[0.75 0 0 0.75 0 0] CT
0.208 0.165 0.525 RC
N
1182.844 591 M
1185.519 591 L
1185.519 589.574 L
1182.844 589.574 L
cp
f
GR
GS
[0.75 0 0 0.75 0 0] CT
2 setlinecap
10.0 ML
N
851.712 591 M
851.712 589.574 L
854.388 589.574 L
854.388 591 L
851.712 591 L
S
GR
GS
[0.75 0 0 0.75 0 0] CT
2 setlinecap
10.0 ML
N
855.057 591 M
855.057 591 L
857.732 591 L
857.732 591 L
855.057 591 L
S
GR
GS
[0.75 0 0 0.75 0 0] CT
2 setlinecap
10.0 ML
N
858.401 591 M
858.401 586.721 L
861.077 586.721 L
861.077 591 L
858.401 591 L
S
GR
GS
[0.75 0 0 0.75 0 0] CT
2 setlinecap
10.0 ML
N
861.746 591 M
861.746 589.574 L
864.422 589.574 L
864.422 591 L
861.746 591 L
S
GR
GS
[0.75 0 0 0.75 0 0] CT
2 setlinecap
10.0 ML
N
865.091 591 M
865.091 579.59 L
867.767 579.59 L
867.767 591 L
865.091 591 L
S
GR
GS
[0.75 0 0 0.75 0 0] CT
2 setlinecap
10.0 ML
N
868.436 591 M
868.436 578.164 L
871.111 578.164 L
871.111 591 L
868.436 591 L
S
GR
GS
[0.75 0 0 0.75 0 0] CT
2 setlinecap
10.0 ML
N
871.78 591 M
871.78 586.721 L
874.456 586.721 L
874.456 591 L
871.78 591 L
S
GR
GS
[0.75 0 0 0.75 0 0] CT
2 setlinecap
10.0 ML
N
875.125 591 M
875.125 573.886 L
877.801 573.886 L
877.801 591 L
875.125 591 L
S
GR
GS
[0.75 0 0 0.75 0 0] CT
2 setlinecap
10.0 ML
N
878.47 591 M
878.47 569.607 L
881.146 569.607 L
881.146 591 L
878.47 591 L
S
GR
GS
[0.75 0 0 0.75 0 0] CT
2 setlinecap
10.0 ML
N
881.815 591 M
881.815 555.345 L
884.491 555.345 L
884.491 591 L
881.815 591 L
S
GR
GS
[0.75 0 0 0.75 0 0] CT
2 setlinecap
10.0 ML
N
885.159 591 M
885.159 558.197 L
887.835 558.197 L
887.835 591 L
885.159 591 L
S
GR
GS
[0.75 0 0 0.75 0 0] CT
2 setlinecap
10.0 ML
N
888.504 591 M
888.504 546.788 L
891.18 546.788 L
891.18 591 L
888.504 591 L
S
GR
GS
[0.75 0 0 0.75 0 0] CT
2 setlinecap
10.0 ML
N
891.849 591 M
891.849 529.674 L
894.525 529.674 L
894.525 591 L
891.849 591 L
S
GR
GS
[0.75 0 0 0.75 0 0] CT
2 setlinecap
10.0 ML
N
895.194 591 M
895.194 525.395 L
897.87 525.395 L
897.87 591 L
895.194 591 L
S
GR
GS
[0.75 0 0 0.75 0 0] CT
2 setlinecap
10.0 ML
N
898.539 591 M
898.539 505.428 L
901.214 505.428 L
901.214 591 L
898.539 591 L
S
GR
GS
[0.75 0 0 0.75 0 0] CT
2 setlinecap
10.0 ML
N
901.883 591 M
901.883 474.052 L
904.559 474.052 L
904.559 591 L
901.883 591 L
S
GR
GS
[0.75 0 0 0.75 0 0] CT
2 setlinecap
10.0 ML
N
905.228 591 M
905.228 468.347 L
907.904 468.347 L
907.904 591 L
905.228 591 L
S
GR
GS
[0.75 0 0 0.75 0 0] CT
2 setlinecap
10.0 ML
N
908.573 591 M
908.573 442.675 L
911.249 442.675 L
911.249 591 L
908.573 591 L
S
GR
GS
[0.75 0 0 0.75 0 0] CT
2 setlinecap
10.0 ML
N
911.918 591 M
911.918 418.43 L
914.593 418.43 L
914.593 591 L
911.918 591 L
S
GR
GS
[0.75 0 0 0.75 0 0] CT
2 setlinecap
10.0 ML
N
915.262 591 M
915.262 405.594 L
917.938 405.594 L
917.938 591 L
915.262 591 L
S
GR
GS
[0.75 0 0 0.75 0 0] CT
2 setlinecap
10.0 ML
N
918.607 591 M
918.607 409.873 L
921.283 409.873 L
921.283 591 L
918.607 591 L
S
GR
GS
[0.75 0 0 0.75 0 0] CT
2 setlinecap
10.0 ML
N
921.952 591 M
921.952 349.973 L
924.628 349.973 L
924.628 591 L
921.952 591 L
S
GR
GS
[0.75 0 0 0.75 0 0] CT
2 setlinecap
10.0 ML
N
925.297 591 M
925.297 317.17 L
927.972 317.17 L
927.972 591 L
925.297 591 L
S
GR
GS
[0.75 0 0 0.75 0 0] CT
2 setlinecap
10.0 ML
N
928.641 591 M
928.641 305.761 L
931.317 305.761 L
931.317 591 L
928.641 591 L
S
GR
GS
[0.75 0 0 0.75 0 0] CT
2 setlinecap
10.0 ML
N
931.986 591 M
931.986 275.81 L
934.662 275.81 L
934.662 591 L
931.986 591 L
S
GR
GS
[0.75 0 0 0.75 0 0] CT
2 setlinecap
10.0 ML
N
935.331 591 M
935.331 291.499 L
938.007 291.499 L
938.007 591 L
935.331 591 L
S
GR
GS
[0.75 0 0 0.75 0 0] CT
2 setlinecap
10.0 ML
N
938.676 591 M
938.676 233.024 L
941.352 233.024 L
941.352 591 L
938.676 591 L
S
GR
GS
[0.75 0 0 0.75 0 0] CT
2 setlinecap
10.0 ML
N
942.02 591 M
942.02 250.139 L
944.696 250.139 L
944.696 591 L
942.02 591 L
S
GR
GS
[0.75 0 0 0.75 0 0] CT
2 setlinecap
10.0 ML
N
945.365 591 M
945.365 183.108 L
948.041 183.108 L
948.041 591 L
945.365 591 L
S
GR
GS
[0.75 0 0 0.75 0 0] CT
2 setlinecap
10.0 ML
N
948.71 591 M
948.71 211.631 L
951.386 211.631 L
951.386 591 L
948.71 591 L
S
GR
GS
[0.75 0 0 0.75 0 0] CT
2 setlinecap
10.0 ML
N
952.055 591 M
952.055 126.06 L
954.731 126.06 L
954.731 591 L
952.055 591 L
S
GR
GS
[0.75 0 0 0.75 0 0] CT
2 setlinecap
10.0 ML
N
955.4 591 M
955.4 180.255 L
958.075 180.255 L
958.075 591 L
955.4 591 L
S
GR
GS
[0.75 0 0 0.75 0 0] CT
2 setlinecap
10.0 ML
N
958.744 591 M
958.744 136.043 L
961.42 136.043 L
961.42 591 L
958.744 591 L
S
GR
GS
[0.75 0 0 0.75 0 0] CT
2 setlinecap
10.0 ML
N
962.089 591 M
962.089 173.124 L
964.765 173.124 L
964.765 591 L
962.089 591 L
S
GR
GS
[0.75 0 0 0.75 0 0] CT
2 setlinecap
10.0 ML
N
965.434 591 M
965.434 174.55 L
968.11 174.55 L
968.11 591 L
965.434 591 L
S
GR
GS
[0.75 0 0 0.75 0 0] CT
2 setlinecap
10.0 ML
N
968.779 591 M
968.779 174.55 L
971.454 174.55 L
971.454 591 L
968.779 591 L
S
GR
GS
[0.75 0 0 0.75 0 0] CT
2 setlinecap
10.0 ML
N
972.123 591 M
972.123 164.567 L
974.799 164.567 L
974.799 591 L
972.123 591 L
S
GR
GS
[0.75 0 0 0.75 0 0] CT
2 setlinecap
10.0 ML
N
975.468 591 M
975.468 163.141 L
978.144 163.141 L
978.144 591 L
975.468 591 L
S
GR
GS
[0.75 0 0 0.75 0 0] CT
2 setlinecap
10.0 ML
N
978.813 591 M
978.813 185.96 L
981.489 185.96 L
981.489 591 L
978.813 591 L
S
GR
GS
[0.75 0 0 0.75 0 0] CT
2 setlinecap
10.0 ML
N
982.158 591 M
982.158 221.615 L
984.833 221.615 L
984.833 591 L
982.158 591 L
S
GR
GS
[0.75 0 0 0.75 0 0] CT
2 setlinecap
10.0 ML
N
985.502 591 M
985.502 228.746 L
988.178 228.746 L
988.178 591 L
985.502 591 L
S
GR
GS
[0.75 0 0 0.75 0 0] CT
2 setlinecap
10.0 ML
N
988.847 591 M
988.847 210.205 L
991.523 210.205 L
991.523 591 L
988.847 591 L
S
GR
GS
[0.75 0 0 0.75 0 0] CT
2 setlinecap
10.0 ML
N
992.192 591 M
992.192 217.336 L
994.868 217.336 L
994.868 591 L
992.192 591 L
S
GR
GS
[0.75 0 0 0.75 0 0] CT
2 setlinecap
10.0 ML
N
995.537 591 M
995.537 210.205 L
998.213 210.205 L
998.213 591 L
995.537 591 L
S
GR
GS
[0.75 0 0 0.75 0 0] CT
2 setlinecap
10.0 ML
N
998.881 591 M
998.881 244.434 L
1001.557 244.434 L
1001.557 591 L
998.881 591 L
S
GR
GS
[0.75 0 0 0.75 0 0] CT
2 setlinecap
10.0 ML
N
1002.226 591 M
1002.226 225.893 L
1004.902 225.893 L
1004.902 591 L
1002.226 591 L
S
GR
GS
[0.75 0 0 0.75 0 0] CT
2 setlinecap
10.0 ML
N
1005.571 591 M
1005.571 290.072 L
1008.247 290.072 L
1008.247 591 L
1005.571 591 L
S
GR
GS
[0.75 0 0 0.75 0 0] CT
2 setlinecap
10.0 ML
N
1008.916 591 M
1008.916 320.022 L
1011.592 320.022 L
1011.592 591 L
1008.916 591 L
S
GR
GS
[0.75 0 0 0.75 0 0] CT
2 setlinecap
10.0 ML
N
1012.26 591 M
1012.26 298.63 L
1014.936 298.63 L
1014.936 591 L
1012.26 591 L
S
GR
GS
[0.75 0 0 0.75 0 0] CT
2 setlinecap
10.0 ML
N
1015.605 591 M
1015.605 339.989 L
1018.281 339.989 L
1018.281 591 L
1015.605 591 L
S
GR
GS
[0.75 0 0 0.75 0 0] CT
2 setlinecap
10.0 ML
N
1018.95 591 M
1018.95 345.694 L
1021.626 345.694 L
1021.626 591 L
1018.95 591 L
S
GR
GS
[0.75 0 0 0.75 0 0] CT
2 setlinecap
10.0 ML
N
1022.295 591 M
1022.295 358.53 L
1024.971 358.53 L
1024.971 591 L
1022.295 591 L
S
GR
GS
[0.75 0 0 0.75 0 0] CT
2 setlinecap
10.0 ML
N
1025.64 591 M
1025.64 399.89 L
1028.315 399.89 L
1028.315 591 L
1025.64 591 L
S
GR
GS
[0.75 0 0 0.75 0 0] CT
2 setlinecap
10.0 ML
N
1028.984 591 M
1028.984 434.118 L
1031.66 434.118 L
1031.66 591 L
1028.984 591 L
S
GR
GS
[0.75 0 0 0.75 0 0] CT
2 setlinecap
10.0 ML
N
1032.329 591 M
1032.329 385.628 L
1035.005 385.628 L
1035.005 591 L
1032.329 591 L
S
GR
GS
[0.75 0 0 0.75 0 0] CT
2 setlinecap
10.0 ML
N
1035.674 591 M
1035.674 444.102 L
1038.35 444.102 L
1038.35 591 L
1035.674 591 L
S
GR
GS
[0.75 0 0 0.75 0 0] CT
2 setlinecap
10.0 ML
N
1039.019 591 M
1039.019 462.642 L
1041.694 462.642 L
1041.694 591 L
1039.019 591 L
S
GR
GS
[0.75 0 0 0.75 0 0] CT
2 setlinecap
10.0 ML
N
1042.363 591 M
1042.363 459.79 L
1045.039 459.79 L
1045.039 591 L
1042.363 591 L
S
GR
GS
[0.75 0 0 0.75 0 0] CT
2 setlinecap
10.0 ML
N
1045.708 591 M
1045.708 446.954 L
1048.384 446.954 L
1048.384 591 L
1045.708 591 L
S
GR
GS
[0.75 0 0 0.75 0 0] CT
2 setlinecap
10.0 ML
N
1049.053 591 M
1049.053 481.183 L
1051.729 481.183 L
1051.729 591 L
1049.053 591 L
S
GR
GS
[0.75 0 0 0.75 0 0] CT
2 setlinecap
10.0 ML
N
1052.398 591 M
1052.398 502.576 L
1055.073 502.576 L
1055.073 591 L
1052.398 591 L
S
GR
GS
[0.75 0 0 0.75 0 0] CT
2 setlinecap
10.0 ML
N
1055.742 591 M
1055.742 491.166 L
1058.418 491.166 L
1058.418 591 L
1055.742 591 L
S
GR
GS
[0.75 0 0 0.75 0 0] CT
2 setlinecap
10.0 ML
N
1059.087 591 M
1059.087 523.969 L
1061.763 523.969 L
1061.763 591 L
1059.087 591 L
S
GR
GS
[0.75 0 0 0.75 0 0] CT
2 setlinecap
10.0 ML
N
1062.432 591 M
1062.432 511.133 L
1065.108 511.133 L
1065.108 591 L
1062.432 591 L
S
GR
GS
[0.75 0 0 0.75 0 0] CT
2 setlinecap
10.0 ML
N
1065.777 591 M
1065.777 518.264 L
1068.453 518.264 L
1068.453 591 L
1065.777 591 L
S
GR
GS
[0.75 0 0 0.75 0 0] CT
2 setlinecap
10.0 ML
N
1069.121 591 M
1069.121 538.231 L
1071.797 538.231 L
1071.797 591 L
1069.121 591 L
S
GR
GS
[0.75 0 0 0.75 0 0] CT
2 setlinecap
10.0 ML
N
1072.466 591 M
1072.466 539.657 L
1075.142 539.657 L
1075.142 591 L
1072.466 591 L
S
GR
GS
[0.75 0 0 0.75 0 0] CT
2 setlinecap
10.0 ML
N
1075.811 591 M
1075.811 552.493 L
1078.487 552.493 L
1078.487 591 L
1075.811 591 L
S
GR
GS
[0.75 0 0 0.75 0 0] CT
2 setlinecap
10.0 ML
N
1079.156 591 M
1079.156 562.476 L
1081.832 562.476 L
1081.832 591 L
1079.156 591 L
S
GR
GS
[0.75 0 0 0.75 0 0] CT
2 setlinecap
10.0 ML
N
1082.501 591 M
1082.501 543.935 L
1085.176 543.935 L
1085.176 591 L
1082.501 591 L
S
GR
GS
[0.75 0 0 0.75 0 0] CT
2 setlinecap
10.0 ML
N
1085.845 591 M
1085.845 552.493 L
1088.521 552.493 L
1088.521 591 L
1085.845 591 L
S
GR
GS
[0.75 0 0 0.75 0 0] CT
2 setlinecap
10.0 ML
N
1089.19 591 M
1089.19 569.607 L
1091.866 569.607 L
1091.866 591 L
1089.19 591 L
S
GR
GS
[0.75 0 0 0.75 0 0] CT
2 setlinecap
10.0 ML
N
1092.535 591 M
1092.535 572.459 L
1095.211 572.459 L
1095.211 591 L
1092.535 591 L
S
GR
GS
[0.75 0 0 0.75 0 0] CT
2 setlinecap
10.0 ML
N
1095.88 591 M
1095.88 576.738 L
1098.555 576.738 L
1098.555 591 L
1095.88 591 L
S
GR
GS
[0.75 0 0 0.75 0 0] CT
2 setlinecap
10.0 ML
N
1099.224 591 M
1099.224 576.738 L
1101.9 576.738 L
1101.9 591 L
1099.224 591 L
S
GR
GS
[0.75 0 0 0.75 0 0] CT
2 setlinecap
10.0 ML
N
1102.569 591 M
1102.569 572.459 L
1105.245 572.459 L
1105.245 591 L
1102.569 591 L
S
GR
GS
[0.75 0 0 0.75 0 0] CT
2 setlinecap
10.0 ML
N
1105.914 591 M
1105.914 581.017 L
1108.59 581.017 L
1108.59 591 L
1105.914 591 L
S
GR
GS
[0.75 0 0 0.75 0 0] CT
2 setlinecap
10.0 ML
N
1109.259 591 M
1109.259 583.869 L
1111.934 583.869 L
1111.934 591 L
1109.259 591 L
S
GR
GS
[0.75 0 0 0.75 0 0] CT
2 setlinecap
10.0 ML
N
1112.603 591 M
1112.603 583.869 L
1115.279 583.869 L
1115.279 591 L
1112.603 591 L
S
GR
GS
[0.75 0 0 0.75 0 0] CT
2 setlinecap
10.0 ML
N
1115.948 591 M
1115.948 586.721 L
1118.624 586.721 L
1118.624 591 L
1115.948 591 L
S
GR
GS
[0.75 0 0 0.75 0 0] CT
2 setlinecap
10.0 ML
N
1119.293 591 M
1119.293 585.295 L
1121.969 585.295 L
1121.969 591 L
1119.293 591 L
S
GR
GS
[0.75 0 0 0.75 0 0] CT
2 setlinecap
10.0 ML
N
1122.638 591 M
1122.638 583.869 L
1125.314 583.869 L
1125.314 591 L
1122.638 591 L
S
GR
GS
[0.75 0 0 0.75 0 0] CT
2 setlinecap
10.0 ML
N
1125.983 591 M
1125.983 588.148 L
1128.658 588.148 L
1128.658 591 L
1125.983 591 L
S
GR
GS
[0.75 0 0 0.75 0 0] CT
2 setlinecap
10.0 ML
N
1129.327 591 M
1129.327 589.574 L
1132.003 589.574 L
1132.003 591 L
1129.327 591 L
S
GR
GS
[0.75 0 0 0.75 0 0] CT
2 setlinecap
10.0 ML
N
1132.672 591 M
1132.672 585.295 L
1135.348 585.295 L
1135.348 591 L
1132.672 591 L
S
GR
GS
[0.75 0 0 0.75 0 0] CT
2 setlinecap
10.0 ML
N
1136.017 591 M
1136.017 591 L
1138.693 591 L
1138.693 591 L
1136.017 591 L
S
GR
GS
[0.75 0 0 0.75 0 0] CT
2 setlinecap
10.0 ML
N
1139.362 591 M
1139.362 591 L
1142.037 591 L
1142.037 591 L
1139.362 591 L
S
GR
GS
[0.75 0 0 0.75 0 0] CT
2 setlinecap
10.0 ML
N
1142.706 591 M
1142.706 591 L
1145.382 591 L
1145.382 591 L
1142.706 591 L
S
GR
GS
[0.75 0 0 0.75 0 0] CT
2 setlinecap
10.0 ML
N
1146.051 591 M
1146.051 591 L
1148.727 591 L
1148.727 591 L
1146.051 591 L
S
GR
GS
[0.75 0 0 0.75 0 0] CT
2 setlinecap
10.0 ML
N
1149.396 591 M
1149.396 589.574 L
1152.072 589.574 L
1152.072 591 L
1149.396 591 L
S
GR
GS
[0.75 0 0 0.75 0 0] CT
2 setlinecap
10.0 ML
N
1152.741 591 M
1152.741 591 L
1155.416 591 L
1155.416 591 L
1152.741 591 L
S
GR
GS
[0.75 0 0 0.75 0 0] CT
2 setlinecap
10.0 ML
N
1156.085 591 M
1156.085 588.148 L
1158.761 588.148 L
1158.761 591 L
1156.085 591 L
S
GR
GS
[0.75 0 0 0.75 0 0] CT
2 setlinecap
10.0 ML
N
1159.43 591 M
1159.43 591 L
1162.106 591 L
1162.106 591 L
1159.43 591 L
S
GR
GS
[0.75 0 0 0.75 0 0] CT
2 setlinecap
10.0 ML
N
1162.775 591 M
1162.775 591 L
1165.451 591 L
1165.451 591 L
1162.775 591 L
S
GR
GS
[0.75 0 0 0.75 0 0] CT
2 setlinecap
10.0 ML
N
1166.12 591 M
1166.12 591 L
1168.796 591 L
1168.796 591 L
1166.12 591 L
S
GR
GS
[0.75 0 0 0.75 0 0] CT
2 setlinecap
10.0 ML
N
1169.464 591 M
1169.464 591 L
1172.14 591 L
1172.14 591 L
1169.464 591 L
S
GR
GS
[0.75 0 0 0.75 0 0] CT
2 setlinecap
10.0 ML
N
1172.809 591 M
1172.809 591 L
1175.485 591 L
1175.485 591 L
1172.809 591 L
S
GR
GS
[0.75 0 0 0.75 0 0] CT
2 setlinecap
10.0 ML
N
1176.154 591 M
1176.154 591 L
1178.83 591 L
1178.83 591 L
1176.154 591 L
S
GR
GS
[0.75 0 0 0.75 0 0] CT
2 setlinecap
10.0 ML
N
1179.499 591 M
1179.499 591 L
1182.175 591 L
1182.175 591 L
1179.499 591 L
S
GR
GS
[0.75 0 0 0.75 0 0] CT
2 setlinecap
10.0 ML
N
1182.844 591 M
1182.844 589.574 L
1185.519 589.574 L
1185.519 591 L
1182.844 591 L
S
GR
GS
[0.75 0 0 0.75 0 0] CT
1 0 0 RC
2 LJ
4 LW
N
178 591 M
179.058 591 L
180.116 591 L
181.174 591 L
182.232 591 L
183.29 591 L
184.348 591 L
185.406 591 L
186.464 591 L
187.522 591 L
188.58 591 L
189.638 591 L
190.696 591 L
191.754 591 L
192.812 591 L
193.87 591 L
194.928 591 L
195.986 591 L
197.044 591 L
198.102 591 L
199.16 591 L
200.218 591 L
201.276 591 L
202.334 591 L
203.392 591 L
204.45 591 L
205.508 591 L
206.566 591 L
207.624 591 L
208.682 591 L
209.74 591 L
210.798 591 L
211.856 591 L
212.914 591 L
213.972 591 L
215.03 591 L
216.088 591 L
217.146 591 L
218.204 591 L
219.262 591 L
220.32 591 L
221.378 591 L
222.436 591 L
223.494 591 L
224.552 591 L
225.61 591 L
226.668 591 L
227.726 591 L
228.784 591 L
229.842 591 L
S
GR
GS
[0.75 0 0 0.75 0 0] CT
1 0 0 RC
2 LJ
4 LW
N
229.842 591 M
230.9 591 L
231.958 591 L
233.016 591 L
234.074 591 L
235.132 591 L
236.19 591 L
237.248 591 L
238.306 591 L
239.364 591 L
240.422 591 L
241.48 591 L
242.538 591 L
243.596 591 L
244.654 591 L
245.712 591 L
246.77 591 L
247.828 591 L
248.886 591 L
249.944 591 L
251.002 591 L
252.06 591 L
253.118 591 L
254.176 591 L
255.234 591 L
256.292 591 L
257.35 591 L
258.408 591 L
259.466 591 L
260.524 591 L
261.582 591 L
262.64 591 L
263.698 591 L
264.756 591 L
265.814 591 L
266.872 591 L
267.93 591 L
268.988 591 L
270.046 591 L
271.104 591 L
272.162 591 L
273.22 591 L
274.278 591 L
275.336 591 L
276.394 591 L
277.452 591 L
278.51 591 L
279.568 591 L
280.626 591 L
281.684 591 L
S
GR
GS
[0.75 0 0 0.75 0 0] CT
1 0 0 RC
2 LJ
4 LW
N
281.684 591 M
282.742 591 L
283.8 591 L
284.858 591 L
285.916 591 L
286.974 591 L
288.032 591 L
289.09 591 L
290.148 591 L
291.206 591 L
292.264 591 L
293.322 591 L
294.38 591 L
295.438 591 L
296.496 591 L
297.554 591 L
298.612 591 L
299.67 591 L
300.728 591 L
301.786 591 L
302.844 591 L
303.902 591 L
304.96 591 L
306.018 591 L
307.076 591 L
308.134 591 L
309.192 591 L
310.25 591 L
311.308 591 L
312.366 591 L
313.424 591 L
314.482 591 L
315.54 591 L
316.598 591 L
317.656 591 L
318.714 591 L
319.772 591 L
320.83 591 L
321.888 591 L
322.946 591 L
324.004 591 L
325.062 591 L
326.12 591 L
327.178 591 L
328.236 591 L
329.294 591 L
330.352 591 L
331.41 591 L
332.468 591 L
333.526 591 L
S
GR
GS
[0.75 0 0 0.75 0 0] CT
1 0 0 RC
2 LJ
4 LW
N
333.526 591 M
334.584 591 L
335.642 591 L
336.7 591 L
337.758 591 L
338.816 591 L
339.874 591 L
340.932 591 L
341.99 591 L
343.048 591 L
344.106 591 L
345.164 591 L
346.222 591 L
347.28 591 L
348.338 591 L
349.396 591 L
350.454 591 L
351.512 591 L
352.57 591 L
353.628 591 L
354.686 591 L
355.744 591 L
356.802 591 L
357.86 591 L
358.918 591 L
359.976 591 L
361.034 591 L
362.092 591 L
363.15 591 L
364.208 591 L
365.266 591 L
366.324 591 L
367.382 591 L
368.44 591 L
369.498 591 L
370.556 591 L
371.614 591 L
372.672 591 L
373.73 591 L
374.788 591 L
375.846 591 L
376.904 591 L
377.962 591 L
379.02 591 L
380.078 591 L
381.136 591 L
382.194 591 L
383.252 591 L
384.31 591 L
385.368 591 L
S
GR
GS
[0.75 0 0 0.75 0 0] CT
1 0 0 RC
2 LJ
4 LW
N
385.368 591 M
386.426 591 L
387.484 591 L
388.542 591 L
389.6 591 L
390.658 591 L
391.716 591 L
392.774 591 L
393.832 591 L
394.89 591 L
395.948 591 L
397.006 591 L
398.064 591 L
399.122 591 L
400.18 591 L
401.238 591 L
402.296 591 L
403.354 591 L
404.412 591 L
405.47 591 L
406.528 591 L
407.586 591 L
408.644 591 L
409.702 591 L
410.76 591 L
411.818 591 L
412.876 591 L
413.934 591 L
414.992 591 L
416.05 591 L
417.108 591 L
418.166 591 L
419.224 591 L
420.282 591 L
421.34 591 L
422.398 591 L
423.456 591 L
424.514 591 L
425.572 591 L
426.63 591 L
427.688 591 L
428.746 591 L
429.804 591 L
430.862 591 L
431.92 591 L
432.978 591 L
434.036 591 L
435.094 591 L
436.152 591 L
437.21 591 L
S
GR
GS
[0.75 0 0 0.75 0 0] CT
1 0 0 RC
2 LJ
4 LW
N
437.21 591 M
438.268 591 L
439.326 591 L
440.384 591 L
441.442 591 L
442.5 591 L
443.558 591 L
444.616 591 L
445.674 591 L
446.732 591 L
447.79 591 L
448.848 591 L
449.906 591 L
450.964 591 L
452.022 591 L
453.08 591 L
454.138 591 L
455.196 591 L
456.254 591 L
457.312 591 L
458.37 591 L
459.428 591 L
460.486 591 L
461.544 591 L
462.602 591 L
463.66 591 L
464.718 591 L
465.776 591 L
466.834 591 L
467.892 591 L
468.95 591 L
470.008 591 L
471.066 591 L
472.124 591 L
473.182 591 L
474.24 591 L
475.298 591 L
476.356 591 L
477.414 591 L
478.472 591 L
479.53 591 L
480.588 591 L
481.646 591 L
482.704 591 L
483.762 591 L
484.82 591 L
485.878 591 L
486.936 591 L
487.994 591 L
489.052 591 L
S
GR
GS
[0.75 0 0 0.75 0 0] CT
1 0 0 RC
2 LJ
4 LW
N
489.052 591 M
490.11 591 L
491.168 591 L
492.226 591 L
493.284 591 L
494.342 591 L
495.4 591 L
496.458 591 L
497.516 591 L
498.574 591 L
499.632 591 L
500.69 591 L
501.748 591 L
502.806 591 L
503.864 591 L
504.922 591 L
505.98 591 L
507.038 591 L
508.096 591 L
509.154 591 L
510.212 591 L
511.27 591 L
512.328 591 L
513.386 591 L
514.444 591 L
515.502 591 L
516.56 591 L
517.618 591 L
518.676 591 L
519.734 591 L
520.792 591 L
521.85 591 L
522.908 591 L
523.966 591 L
525.024 591 L
526.082 591 L
527.14 591 L
528.198 591 L
529.256 591 L
530.314 591 L
531.372 591 L
532.43 591 L
533.488 591 L
534.546 591 L
535.604 591 L
536.662 591 L
537.72 591 L
538.778 591 L
539.836 591 L
540.894 591 L
S
GR
GS
[0.75 0 0 0.75 0 0] CT
1 0 0 RC
2 LJ
4 LW
N
540.894 591 M
541.952 591 L
543.01 591 L
544.068 591 L
545.126 591 L
546.184 591 L
547.242 591 L
548.3 591 L
549.358 591 L
550.416 591 L
551.474 591 L
552.532 591 L
553.59 591 L
554.648 591 L
555.706 591 L
556.764 591 L
557.822 591 L
558.88 591 L
559.938 591 L
560.996 591 L
562.054 591 L
563.112 591 L
564.17 591 L
565.228 591 L
566.286 591 L
567.344 591 L
568.402 591 L
569.46 591 L
570.518 591 L
571.576 591 L
572.634 591 L
573.692 591 L
574.75 591 L
575.808 591 L
576.866 591 L
577.924 591 L
578.982 591 L
580.04 591 L
581.098 591 L
582.156 591 L
583.214 591 L
584.272 591 L
585.33 591 L
586.388 591 L
587.446 591 L
588.504 591 L
589.562 591 L
590.62 591 L
591.678 591 L
592.736 591 L
S
GR
GS
[0.75 0 0 0.75 0 0] CT
1 0 0 RC
2 LJ
4 LW
N
592.736 591 M
593.794 591 L
594.852 591 L
595.91 591 L
596.968 591 L
598.026 591 L
599.084 591 L
600.142 591 L
601.2 591 L
602.258 591 L
603.316 591 L
604.374 591 L
605.432 591 L
606.49 591 L
607.548 591 L
608.606 591 L
609.664 591 L
610.722 591 L
611.78 591 L
612.838 591 L
613.896 591 L
614.954 591 L
616.012 591 L
617.07 591 L
618.128 591 L
619.186 591 L
620.244 591 L
621.302 591 L
622.36 591 L
623.418 591 L
624.476 591 L
625.534 591 L
626.592 591 L
627.65 591 L
628.708 591 L
629.766 591 L
630.824 591 L
631.882 591 L
632.94 591 L
633.998 591 L
635.056 591 L
636.114 591 L
637.172 591 L
638.23 591 L
639.288 591 L
640.346 591 L
641.404 591 L
642.462 591 L
643.52 591 L
644.578 591 L
S
GR
GS
[0.75 0 0 0.75 0 0] CT
1 0 0 RC
2 LJ
4 LW
N
644.578 591 M
645.636 591 L
646.694 591 L
647.752 591 L
648.81 591 L
649.868 591 L
650.926 591 L
651.984 591 L
653.042 591 L
654.1 591 L
655.158 591 L
656.216 591 L
657.274 591 L
658.332 591 L
659.39 591 L
660.448 591 L
661.506 591 L
662.564 591 L
663.622 591 L
664.68 591 L
665.738 591 L
666.796 591 L
667.854 591 L
668.912 591 L
669.97 591 L
671.028 591 L
672.086 591 L
673.144 591 L
674.202 591 L
675.26 591 L
676.318 591 L
677.376 591 L
678.434 591 L
679.492 591 L
680.55 591 L
681.608 591 L
682.666 591 L
683.724 591 L
684.782 591 L
685.84 591 L
686.898 591 L
687.956 591 L
689.014 591 L
690.072 591 L
691.13 591 L
692.188 591 L
693.246 591 L
694.304 591 L
695.362 591 L
696.42 591 L
S
GR
GS
[0.75 0 0 0.75 0 0] CT
1 0 0 RC
2 LJ
4 LW
N
696.42 591 M
697.478 591 L
698.536 591 L
699.594 591 L
700.652 591 L
701.71 591 L
702.768 591 L
703.826 591 L
704.884 591 L
705.942 591 L
707 591 L
708.058 591 L
709.116 591 L
710.174 591 L
711.232 591 L
712.29 591 L
713.348 591 L
714.406 591 L
715.464 591 L
716.522 591 L
717.58 591 L
718.638 591 L
719.696 591 L
720.754 591 L
721.812 591 L
722.87 591 L
723.928 591 L
724.986 591 L
726.044 591 L
727.102 591 L
728.16 591 L
729.218 591 L
730.276 591 L
731.334 591 L
732.392 591 L
733.45 591 L
734.508 591 L
735.566 591 L
736.624 591 L
737.682 591 L
738.74 591 L
739.798 591 L
740.856 591 L
741.914 591 L
742.972 591 L
744.03 591 L
745.088 591 L
746.146 591 L
747.204 591 L
748.262 591 L
S
GR
GS
[0.75 0 0 0.75 0 0] CT
1 0 0 RC
2 LJ
4 LW
N
748.262 591 M
749.32 591 L
750.378 591 L
751.436 591 L
752.494 591 L
753.552 591 L
754.61 591 L
755.668 591 L
756.726 591 L
757.784 591 L
758.842 591 L
759.9 591 L
760.958 591 L
762.016 591 L
763.074 591 L
764.132 591 L
765.19 591 L
766.248 591 L
767.306 591 L
768.364 591 L
769.422 591 L
770.48 591 L
771.538 591 L
772.596 591 L
773.654 591 L
774.712 591 L
775.77 591 L
776.828 591 L
777.886 591 L
778.944 591 L
780.002 591 L
781.06 591 L
782.118 591 L
783.176 591 L
784.234 591 L
785.292 591 L
786.35 591 L
787.408 591 L
788.466 591 L
789.524 591 L
790.582 591 L
791.64 591 L
792.698 591 L
793.756 591 L
794.814 591 L
795.872 590.999 L
796.93 590.999 L
797.988 590.999 L
799.046 590.999 L
800.104 590.999 L
S
GR
GS
[0.75 0 0 0.75 0 0] CT
1 0 0 RC
2 LJ
4 LW
N
800.104 590.999 M
801.162 590.999 L
802.22 590.998 L
803.278 590.998 L
804.336 590.997 L
805.394 590.997 L
806.452 590.996 L
807.51 590.995 L
808.568 590.995 L
809.626 590.994 L
810.684 590.992 L
811.742 590.991 L
812.8 590.989 L
813.858 590.987 L
814.916 590.984 L
815.974 590.982 L
817.032 590.978 L
818.09 590.974 L
819.148 590.97 L
820.206 590.965 L
821.264 590.958 L
822.322 590.951 L
823.38 590.943 L
824.438 590.933 L
825.496 590.922 L
826.554 590.909 L
827.612 590.895 L
828.67 590.878 L
829.728 590.859 L
830.786 590.837 L
831.844 590.812 L
832.902 590.783 L
833.96 590.75 L
835.018 590.713 L
836.076 590.671 L
837.134 590.624 L
838.192 590.57 L
839.25 590.509 L
840.308 590.441 L
841.366 590.364 L
842.424 590.278 L
843.482 590.182 L
844.54 590.074 L
845.598 589.953 L
846.656 589.818 L
847.714 589.669 L
848.772 589.502 L
849.83 589.317 L
850.888 589.112 L
851.946 588.886 L
S
GR
GS
[0.75 0 0 0.75 0 0] CT
1 0 0 RC
2 LJ
4 LW
N
851.946 588.886 M
853.004 588.636 L
854.062 588.36 L
855.12 588.056 L
856.178 587.722 L
857.236 587.355 L
858.294 586.954 L
859.352 586.514 L
860.41 586.034 L
861.468 585.51 L
862.526 584.939 L
863.584 584.318 L
864.642 583.644 L
865.7 582.914 L
866.758 582.122 L
867.816 581.267 L
868.874 580.343 L
869.932 579.348 L
870.99 578.277 L
872.048 577.125 L
873.106 575.889 L
874.164 574.565 L
875.222 573.148 L
876.28 571.633 L
877.338 570.017 L
878.396 568.295 L
879.454 566.463 L
880.512 564.516 L
881.57 562.45 L
882.628 560.261 L
883.686 557.944 L
884.744 555.497 L
885.802 552.915 L
886.86 550.193 L
887.918 547.33 L
888.976 544.32 L
890.034 541.162 L
891.092 537.853 L
892.15 534.389 L
893.208 530.769 L
894.266 526.99 L
895.324 523.051 L
896.382 518.951 L
897.44 514.688 L
898.498 510.263 L
899.556 505.674 L
900.614 500.923 L
901.672 496.01 L
902.73 490.937 L
903.788 485.704 L
S
GR
GS
[0.75 0 0 0.75 0 0] CT
1 0 0 RC
2 LJ
4 LW
N
903.788 485.704 M
904.846 480.315 L
905.904 474.772 L
906.962 469.077 L
908.02 463.235 L
909.078 457.25 L
910.136 451.126 L
911.194 444.868 L
912.252 438.483 L
913.31 431.976 L
914.368 425.353 L
915.426 418.622 L
916.484 411.79 L
917.542 404.865 L
918.6 397.855 L
919.658 390.769 L
920.716 383.616 L
921.774 376.406 L
922.832 369.148 L
923.89 361.852 L
924.948 354.528 L
926.006 347.188 L
927.064 339.841 L
928.122 332.499 L
929.18 325.172 L
930.238 317.873 L
931.296 310.611 L
932.354 303.399 L
933.412 296.248 L
934.47 289.169 L
935.528 282.173 L
936.586 275.271 L
937.644 268.475 L
938.702 261.795 L
939.76 255.242 L
940.818 248.826 L
941.876 242.558 L
942.934 236.447 L
943.992 230.503 L
945.05 224.736 L
946.108 219.153 L
947.166 213.764 L
948.224 208.576 L
949.282 203.598 L
950.34 198.837 L
951.398 194.299 L
952.456 189.991 L
953.514 185.918 L
954.572 182.085 L
955.63 178.499 L
S
GR
GS
[0.75 0 0 0.75 0 0] CT
1 0 0 RC
2 LJ
4 LW
N
955.63 178.499 M
956.688 175.162 L
957.746 172.079 L
958.804 169.252 L
959.862 166.686 L
960.92 164.38 L
961.978 162.339 L
963.036 160.562 L
964.094 159.049 L
965.152 157.803 L
966.21 156.821 L
967.268 156.103 L
968.326 155.648 L
969.384 155.454 L
970.442 155.518 L
971.5 155.839 L
972.558 156.412 L
973.616 157.235 L
974.674 158.304 L
975.732 159.613 L
976.79 161.159 L
977.848 162.937 L
978.906 164.941 L
979.964 167.166 L
981.022 169.607 L
982.08 172.256 L
983.138 175.108 L
984.196 178.156 L
985.254 181.394 L
986.312 184.815 L
987.37 188.411 L
988.428 192.176 L
989.486 196.102 L
990.544 200.183 L
991.602 204.41 L
992.66 208.777 L
993.718 213.275 L
994.776 217.898 L
995.834 222.638 L
996.892 227.487 L
997.95 232.438 L
999.008 237.484 L
1000.066 242.617 L
1001.124 247.83 L
1002.182 253.116 L
1003.24 258.468 L
1004.298 263.879 L
1005.356 269.342 L
1006.414 274.85 L
1007.472 280.397 L
S
GR
GS
[0.75 0 0 0.75 0 0] CT
1 0 0 RC
2 LJ
4 LW
N
1007.472 280.397 M
1008.53 285.977 L
1009.588 291.582 L
1010.646 297.208 L
1011.704 302.847 L
1012.762 308.495 L
1013.82 314.146 L
1014.878 319.793 L
1015.936 325.433 L
1016.994 331.06 L
1018.052 336.669 L
1019.11 342.256 L
1020.168 347.815 L
1021.226 353.344 L
1022.284 358.837 L
1023.342 364.29 L
1024.4 369.701 L
1025.458 375.065 L
1026.516 380.38 L
1027.574 385.641 L
1028.632 390.846 L
1029.69 395.993 L
1030.748 401.079 L
1031.806 406.1 L
1032.864 411.056 L
1033.922 415.944 L
1034.98 420.761 L
1036.038 425.507 L
1037.096 430.18 L
1038.154 434.777 L
1039.212 439.299 L
1040.27 443.743 L
1041.328 448.109 L
1042.386 452.396 L
1043.444 456.603 L
1044.502 460.73 L
1045.56 464.775 L
1046.618 468.739 L
1047.676 472.622 L
1048.734 476.422 L
1049.792 480.141 L
1050.85 483.778 L
1051.908 487.333 L
1052.966 490.806 L
1054.024 494.199 L
1055.082 497.51 L
1056.14 500.741 L
1057.198 503.893 L
1058.256 506.965 L
1059.314 509.959 L
S
GR
GS
[0.75 0 0 0.75 0 0] CT
1 0 0 RC
2 LJ
4 LW
N
1059.314 509.959 M
1060.372 512.874 L
1061.43 515.713 L
1062.488 518.476 L
1063.546 521.163 L
1064.604 523.776 L
1065.662 526.316 L
1066.72 528.783 L
1067.778 531.179 L
1068.836 533.504 L
1069.894 535.761 L
1070.952 537.949 L
1072.01 540.071 L
1073.068 542.127 L
1074.126 544.118 L
1075.184 546.046 L
1076.242 547.912 L
1077.3 549.718 L
1078.358 551.463 L
1079.416 553.151 L
1080.474 554.781 L
1081.532 556.356 L
1082.59 557.876 L
1083.648 559.343 L
1084.706 560.758 L
1085.764 562.122 L
1086.822 563.437 L
1087.88 564.703 L
1088.938 565.923 L
1089.996 567.097 L
1091.054 568.226 L
1092.112 569.312 L
1093.17 570.355 L
1094.228 571.358 L
1095.286 572.321 L
1096.344 573.246 L
1097.402 574.133 L
1098.46 574.983 L
1099.518 575.798 L
1100.576 576.58 L
1101.634 577.328 L
1102.692 578.044 L
1103.75 578.729 L
1104.808 579.384 L
1105.866 580.01 L
1106.924 580.608 L
1107.982 581.179 L
1109.04 581.724 L
1110.098 582.244 L
1111.156 582.739 L
S
GR
GS
[0.75 0 0 0.75 0 0] CT
1 0 0 RC
2 LJ
4 LW
N
1111.156 582.739 M
1112.214 583.211 L
1113.272 583.661 L
1114.33 584.089 L
1115.388 584.496 L
1116.446 584.882 L
1117.504 585.25 L
1118.562 585.599 L
1119.62 585.93 L
1120.678 586.244 L
1121.736 586.542 L
1122.794 586.824 L
1123.852 587.091 L
1124.91 587.344 L
1125.968 587.583 L
1127.026 587.808 L
1128.084 588.021 L
1129.142 588.222 L
1130.2 588.412 L
1131.258 588.59 L
1132.316 588.758 L
1133.374 588.916 L
1134.432 589.065 L
1135.49 589.205 L
1136.548 589.336 L
1137.606 589.459 L
1138.664 589.574 L
1139.722 589.682 L
1140.78 589.782 L
1141.838 589.877 L
1142.896 589.965 L
1143.954 590.047 L
1145.012 590.123 L
1146.07 590.195 L
1147.128 590.261 L
1148.186 590.323 L
1149.244 590.38 L
1150.302 590.433 L
1151.36 590.482 L
1152.418 590.527 L
1153.476 590.57 L
1154.534 590.608 L
1155.592 590.644 L
1156.65 590.677 L
1157.708 590.708 L
1158.766 590.735 L
1159.824 590.761 L
1160.882 590.784 L
1161.94 590.806 L
1162.998 590.826 L
S
GR
GS
[0.75 0 0 0.75 0 0] CT
1 0 0 RC
2 LJ
4 LW
N
1162.998 590.826 M
1164.056 590.843 L
1165.114 590.86 L
1166.172 590.875 L
1167.23 590.888 L
1168.288 590.9 L
1169.346 590.911 L
1170.404 590.921 L
1171.462 590.93 L
1172.52 590.938 L
1173.578 590.946 L
1174.636 590.952 L
1175.694 590.958 L
1176.752 590.963 L
1177.81 590.968 L
1178.868 590.972 L
1179.926 590.976 L
1180.984 590.979 L
1182.042 590.982 L
1183.1 590.984 L
1184.158 590.987 L
1185.216 590.989 L
1186.274 590.99 L
1187.332 590.992 L
1188.39 590.993 L
1189.448 590.994 L
1190.506 590.995 L
1191.564 590.996 L
1192.622 590.997 L
1193.68 590.997 L
1194.738 590.998 L
1195.796 590.998 L
1196.854 590.998 L
1197.912 590.999 L
1198.97 590.999 L
1200.028 590.999 L
1201.086 590.999 L
1202.144 591 L
1203.202 591 L
1204.26 591 L
1205.318 591 L
1206.376 591 L
1207.434 591 L
1208.492 591 L
1209.55 591 L
1210.608 591 L
1211.666 591 L
1212.724 591 L
1213.782 591 L
1214.84 591 L
S
GR
GS
[0.75 0 0 0.75 0 0] CT
1 0 0 RC
2 LJ
4 LW
N
1214.84 591 M
1215.898 591 L
1216.956 591 L
1218.014 591 L
1219.072 591 L
1220.13 591 L
1221.188 591 L
1222.246 591 L
1223.304 591 L
1224.362 591 L
1225.42 591 L
1226.478 591 L
1227.536 591 L
1228.594 591 L
1229.652 591 L
1230.71 591 L
1231.768 591 L
1232.826 591 L
1233.884 591 L
1234.942 591 L
1236 591 L
S
GR
GS
[0.75 0 0 0.75 0 0] CT
0.149 GC
2 setlinecap
10.0 ML
N
178 591 M
1236 591 L
S
GR
GS
[0.75 0 0 0.75 0 0] CT
1 GC
N
1008 99 M
1008 63 L
1223 63 L
1223 99 L
cp
f
GR
GS
[0.75 0 0 0.75 795 54.875] CT
/Helvetica 12 F
GS
[1 0 0 1 0 0] CT
0 4.5 moveto 
1 -1 scale
(Correlation coefficient hist) t 
GR
GR
GS
[0.75 0 0 0.75 0 0] CT
0.208 0.165 0.525 RC
N
1016 78.833 M
1016 67.5 L
1056 67.5 L
1056 78.833 L
cp
f
GR
GS
[0.75 0 0 0.75 0 0] CT
2 setlinecap
10.0 ML
N
1016 78.833 M
1016 67.5 L
1056 67.5 L
1056 78.833 L
1016 78.833 L
S
GR
GS
[0.75 0 0 0.75 795 66.625] CT
/Helvetica 12 F
GS
[1 0 0 1 0 0] CT
0 4.5 moveto 
1 -1 scale
(Exact PDF) t 
GR
GR
GS
[0.75 0 0 0.75 0 0] CT
1 0 0 RC
2 setlinecap
10.0 ML
4 LW
N
1016 88.833 M
1056 88.833 L
S
GR
GS
[0.75 0 0 0.75 0 0] CT
0.149 GC
2 setlinecap
10.0 ML
N
1008 99 M
1008 63 L
1223 63 L
1223 99 L
1008 99 L
S
GR
%%Trailer
%%Pages: 1
%%EOF
