%!PS-Adobe-3.0 EPSF-3.0
%%Creator: (MATLAB, The Mathworks, Inc. Version 8.5.0.197613 \(R2015a\). Operating System: Linux)
%%Title: /home/albyback/git/contig_assembly/Paper/FIGURES/correlations/cor1.eps
%%CreationDate: 2016-12-01T20:16:08
%%Pages: (atend)
%%BoundingBox: 0 0 420 315
%%LanguageLevel: 2
%%EndComments
%%BeginProlog
%%BeginResource: procset (Apache XML Graphics Std ProcSet) 1.2 0
%%Version: 1.2 0
%%Copyright: (Copyright 2001-2003,2010 The Apache Software Foundation. License terms: http://www.apache.org/licenses/LICENSE-2.0)
/bd{bind def}bind def
/ld{load def}bd
/GR/grestore ld
/M/moveto ld
/LJ/setlinejoin ld
/C/curveto ld
/f/fill ld
/LW/setlinewidth ld
/GC/setgray ld
/t/show ld
/N/newpath ld
/CT/concat ld
/cp/closepath ld
/S/stroke ld
/L/lineto ld
/CC/setcmykcolor ld
/A/ashow ld
/GS/gsave ld
/RC/setrgbcolor ld
/RM/rmoveto ld
/ML/setmiterlimit ld
/re {4 2 roll M
1 index 0 rlineto
0 exch rlineto
neg 0 rlineto
cp } bd
/_ctm matrix def
/_tm matrix def
/BT { _ctm currentmatrix pop matrix _tm copy pop 0 0 moveto } bd
/ET { _ctm setmatrix } bd
/iTm { _ctm setmatrix _tm concat } bd
/Tm { _tm astore pop iTm 0 0 moveto } bd
/ux 0.0 def
/uy 0.0 def
/F {
  /Tp exch def
  /Tf exch def
  Tf findfont Tp scalefont setfont
  /cf Tf def  /cs Tp def
} bd
/ULS {currentpoint /uy exch def /ux exch def} bd
/ULE {
  /Tcx currentpoint pop def
  gsave
  newpath
  cf findfont cs scalefont dup
  /FontMatrix get 0 get /Ts exch def /FontInfo get dup
  /UnderlinePosition get Ts mul /To exch def
  /UnderlineThickness get Ts mul /Tt exch def
  ux uy To add moveto  Tcx uy To add lineto
  Tt setlinewidth stroke
  grestore
} bd
/OLE {
  /Tcx currentpoint pop def
  gsave
  newpath
  cf findfont cs scalefont dup
  /FontMatrix get 0 get /Ts exch def /FontInfo get dup
  /UnderlinePosition get Ts mul /To exch def
  /UnderlineThickness get Ts mul /Tt exch def
  ux uy To add cs add moveto Tcx uy To add cs add lineto
  Tt setlinewidth stroke
  grestore
} bd
/SOE {
  /Tcx currentpoint pop def
  gsave
  newpath
  cf findfont cs scalefont dup
  /FontMatrix get 0 get /Ts exch def /FontInfo get dup
  /UnderlinePosition get Ts mul /To exch def
  /UnderlineThickness get Ts mul /Tt exch def
  ux uy To add cs 10 mul 26 idiv add moveto Tcx uy To add cs 10 mul 26 idiv add lineto
  Tt setlinewidth stroke
  grestore
} bd
/QT {
/Y22 exch store
/X22 exch store
/Y21 exch store
/X21 exch store
currentpoint
/Y21 load 2 mul add 3 div exch
/X21 load 2 mul add 3 div exch
/X21 load 2 mul /X22 load add 3 div
/Y21 load 2 mul /Y22 load add 3 div
/X22 load /Y22 load curveto
} bd
/SSPD {
dup length /d exch dict def
{
/v exch def
/k exch def
currentpagedevice k known {
/cpdv currentpagedevice k get def
v cpdv ne {
/upd false def
/nullv v type /nulltype eq def
/nullcpdv cpdv type /nulltype eq def
nullv nullcpdv or
{
/upd true def
} {
/sametype v type cpdv type eq def
sametype {
v type /arraytype eq {
/vlen v length def
/cpdvlen cpdv length def
vlen cpdvlen eq {
0 1 vlen 1 sub {
/i exch def
/obj v i get def
/cpdobj cpdv i get def
obj cpdobj ne {
/upd true def
exit
} if
} for
} {
/upd true def
} ifelse
} {
v type /dicttype eq {
v {
/dv exch def
/dk exch def
/cpddv cpdv dk get def
dv cpddv ne {
/upd true def
exit
} if
} forall
} {
/upd true def
} ifelse
} ifelse
} if
} ifelse
upd true eq {
d k v put
} if
} if
} if
} forall
d length 0 gt {
d setpagedevice
} if
} bd
%%EndResource
%%BeginResource: procset (Apache XML Graphics EPS ProcSet) 1.0 0
%%Version: 1.0 0
%%Copyright: (Copyright 2002-2003 The Apache Software Foundation. License terms: http://www.apache.org/licenses/LICENSE-2.0)
/BeginEPSF { %def
/b4_Inc_state save def         % Save state for cleanup
/dict_count countdictstack def % Count objects on dict stack
/op_count count 1 sub def      % Count objects on operand stack
userdict begin                 % Push userdict on dict stack
/showpage { } def              % Redefine showpage, { } = null proc
0 setgray 0 setlinecap         % Prepare graphics state
1 setlinewidth 0 setlinejoin
10 setmiterlimit [ ] 0 setdash newpath
/languagelevel where           % If level not equal to 1 then
{pop languagelevel             % set strokeadjust and
1 ne                           % overprint to their defaults.
{false setstrokeadjust false setoverprint
} if
} if
} bd
/EndEPSF { %def
count op_count sub {pop} repeat            % Clean up stacks
countdictstack dict_count sub {end} repeat
b4_Inc_state restore
} bd
%%EndResource
%FOPBeginFontDict
%%IncludeResource: font Courier-Bold
%%IncludeResource: font Helvetica
%%IncludeResource: font Courier-BoldOblique
%%IncludeResource: font Courier-Oblique
%%IncludeResource: font Times-Roman
%%IncludeResource: font Helvetica-BoldOblique
%%IncludeResource: font Helvetica-Bold
%%IncludeResource: font Helvetica-Oblique
%%IncludeResource: font Times-BoldItalic
%%IncludeResource: font Courier
%%IncludeResource: font Times-Italic
%%IncludeResource: font Times-Bold
%%IncludeResource: font Symbol
%%IncludeResource: font ZapfDingbats
%FOPEndFontDict
%%BeginResource: encoding WinAnsiEncoding
/WinAnsiEncoding [
/.notdef /.notdef /.notdef /.notdef /.notdef
/.notdef /.notdef /.notdef /.notdef /.notdef
/.notdef /.notdef /.notdef /.notdef /.notdef
/.notdef /.notdef /.notdef /.notdef /.notdef
/.notdef /.notdef /.notdef /.notdef /.notdef
/.notdef /.notdef /.notdef /.notdef /.notdef
/.notdef /.notdef /space /exclam /quotedbl
/numbersign /dollar /percent /ampersand /quotesingle
/parenleft /parenright /asterisk /plus /comma
/hyphen /period /slash /zero /one
/two /three /four /five /six
/seven /eight /nine /colon /semicolon
/less /equal /greater /question /at
/A /B /C /D /E
/F /G /H /I /J
/K /L /M /N /O
/P /Q /R /S /T
/U /V /W /X /Y
/Z /bracketleft /backslash /bracketright /asciicircum
/underscore /quoteleft /a /b /c
/d /e /f /g /h
/i /j /k /l /m
/n /o /p /q /r
/s /t /u /v /w
/x /y /z /braceleft /bar
/braceright /asciitilde /bullet /Euro /bullet
/quotesinglbase /florin /quotedblbase /ellipsis /dagger
/daggerdbl /circumflex /perthousand /Scaron /guilsinglleft
/OE /bullet /Zcaron /bullet /bullet
/quoteleft /quoteright /quotedblleft /quotedblright /bullet
/endash /emdash /asciitilde /trademark /scaron
/guilsinglright /oe /bullet /zcaron /Ydieresis
/space /exclamdown /cent /sterling /currency
/yen /brokenbar /section /dieresis /copyright
/ordfeminine /guillemotleft /logicalnot /sfthyphen /registered
/macron /degree /plusminus /twosuperior /threesuperior
/acute /mu /paragraph /middot /cedilla
/onesuperior /ordmasculine /guillemotright /onequarter /onehalf
/threequarters /questiondown /Agrave /Aacute /Acircumflex
/Atilde /Adieresis /Aring /AE /Ccedilla
/Egrave /Eacute /Ecircumflex /Edieresis /Igrave
/Iacute /Icircumflex /Idieresis /Eth /Ntilde
/Ograve /Oacute /Ocircumflex /Otilde /Odieresis
/multiply /Oslash /Ugrave /Uacute /Ucircumflex
/Udieresis /Yacute /Thorn /germandbls /agrave
/aacute /acircumflex /atilde /adieresis /aring
/ae /ccedilla /egrave /eacute /ecircumflex
/edieresis /igrave /iacute /icircumflex /idieresis
/eth /ntilde /ograve /oacute /ocircumflex
/otilde /odieresis /divide /oslash /ugrave
/uacute /ucircumflex /udieresis /yacute /thorn
/ydieresis
] def
%%EndResource
%FOPBeginFontReencode
/Courier-Bold findfont
dup length dict begin
  {1 index /FID ne {def} {pop pop} ifelse} forall
  /Encoding WinAnsiEncoding def
  currentdict
end
/Courier-Bold exch definefont pop
/Helvetica findfont
dup length dict begin
  {1 index /FID ne {def} {pop pop} ifelse} forall
  /Encoding WinAnsiEncoding def
  currentdict
end
/Helvetica exch definefont pop
/Courier-BoldOblique findfont
dup length dict begin
  {1 index /FID ne {def} {pop pop} ifelse} forall
  /Encoding WinAnsiEncoding def
  currentdict
end
/Courier-BoldOblique exch definefont pop
/Courier-Oblique findfont
dup length dict begin
  {1 index /FID ne {def} {pop pop} ifelse} forall
  /Encoding WinAnsiEncoding def
  currentdict
end
/Courier-Oblique exch definefont pop
/Times-Roman findfont
dup length dict begin
  {1 index /FID ne {def} {pop pop} ifelse} forall
  /Encoding WinAnsiEncoding def
  currentdict
end
/Times-Roman exch definefont pop
/Helvetica-BoldOblique findfont
dup length dict begin
  {1 index /FID ne {def} {pop pop} ifelse} forall
  /Encoding WinAnsiEncoding def
  currentdict
end
/Helvetica-BoldOblique exch definefont pop
/Helvetica-Bold findfont
dup length dict begin
  {1 index /FID ne {def} {pop pop} ifelse} forall
  /Encoding WinAnsiEncoding def
  currentdict
end
/Helvetica-Bold exch definefont pop
/Helvetica-Oblique findfont
dup length dict begin
  {1 index /FID ne {def} {pop pop} ifelse} forall
  /Encoding WinAnsiEncoding def
  currentdict
end
/Helvetica-Oblique exch definefont pop
/Times-BoldItalic findfont
dup length dict begin
  {1 index /FID ne {def} {pop pop} ifelse} forall
  /Encoding WinAnsiEncoding def
  currentdict
end
/Times-BoldItalic exch definefont pop
/Courier findfont
dup length dict begin
  {1 index /FID ne {def} {pop pop} ifelse} forall
  /Encoding WinAnsiEncoding def
  currentdict
end
/Courier exch definefont pop
/Times-Italic findfont
dup length dict begin
  {1 index /FID ne {def} {pop pop} ifelse} forall
  /Encoding WinAnsiEncoding def
  currentdict
end
/Times-Italic exch definefont pop
/Times-Bold findfont
dup length dict begin
  {1 index /FID ne {def} {pop pop} ifelse} forall
  /Encoding WinAnsiEncoding def
  currentdict
end
/Times-Bold exch definefont pop
%FOPEndFontReencode
%%EndProlog
%%Page: 1 1
%%PageBoundingBox: 0 0 420 315
%%BeginPageSetup
[1 0 0 -1 0 315] CT
%%EndPageSetup
GS
[0.75 0 0 0.75 0 0] CT
1 GC
N
0 0 560 420 re
f
GR
GS
[0.75 0 0 0.75 0 0] CT
1 GC
N
0 0 560 420 re
f
GR
GS
[0.75 0 0 0.75 0 0] CT
1 GC
N
73 374 M
507 374 L
507 31 L
73 31 L
cp
f
GR
GS
[0.75 0 0 0.75 217.50016 298.24999] CT
0.149 GC
/Helvetica 15 F
GS
[1 0 0 1 0 0] CT
-10.5 14 moveto 
1 -1 scale
(CC) t 
GR
GR
GS
[0.75 0 0 0.75 0 0] CT
0.149 GC
2 setlinecap
10.0 ML
N
73 374 M
507 374 L
S
GR
GS
[0.75 0 0 0.75 0 0] CT
0.149 GC
2 setlinecap
10.0 ML
N
73 31 M
507 31 L
S
GR
GS
[0.75 0 0 0.75 0 0] CT
0.149 GC
2 setlinecap
10.0 ML
N
73 374 M
73 369.66 L
S
GR
GS
[0.75 0 0 0.75 0 0] CT
0.149 GC
2 setlinecap
10.0 ML
N
159.8 374 M
159.8 369.66 L
S
GR
GS
[0.75 0 0 0.75 0 0] CT
0.149 GC
2 setlinecap
10.0 ML
N
246.6 374 M
246.6 369.66 L
S
GR
GS
[0.75 0 0 0.75 0 0] CT
0.149 GC
2 setlinecap
10.0 ML
N
333.4 374 M
333.4 369.66 L
S
GR
GS
[0.75 0 0 0.75 0 0] CT
0.149 GC
2 setlinecap
10.0 ML
N
420.2 374 M
420.2 369.66 L
S
GR
GS
[0.75 0 0 0.75 0 0] CT
0.149 GC
2 setlinecap
10.0 ML
N
507 374 M
507 369.66 L
S
GR
GS
[0.75 0 0 0.75 0 0] CT
0.149 GC
2 setlinecap
10.0 ML
N
73 31 M
73 35.34 L
S
GR
GS
[0.75 0 0 0.75 0 0] CT
0.149 GC
2 setlinecap
10.0 ML
N
159.8 31 M
159.8 35.34 L
S
GR
GS
[0.75 0 0 0.75 0 0] CT
0.149 GC
2 setlinecap
10.0 ML
N
246.6 31 M
246.6 35.34 L
S
GR
GS
[0.75 0 0 0.75 0 0] CT
0.149 GC
2 setlinecap
10.0 ML
N
333.4 31 M
333.4 35.34 L
S
GR
GS
[0.75 0 0 0.75 0 0] CT
0.149 GC
2 setlinecap
10.0 ML
N
420.2 31 M
420.2 35.34 L
S
GR
GS
[0.75 0 0 0.75 0 0] CT
0.149 GC
2 setlinecap
10.0 ML
N
507 31 M
507 35.34 L
S
GR
GS
[0.75 0 0 0.75 54.75 284.50001] CT
0.149 GC
/Helvetica 13 F
GS
[1 0 0 1 0 0] CT
-4.5 13 moveto 
1 -1 scale
(0) t 
GR
GR
GS
[0.75 0 0 0.75 119.85 284.50001] CT
0.149 GC
/Helvetica 13 F
GS
[1 0 0 1 0 0] CT
-10.5 13 moveto 
1 -1 scale
(0.2) t 
GR
GR
GS
[0.75 0 0 0.75 184.95 284.50001] CT
0.149 GC
/Helvetica 13 F
GS
[1 0 0 1 0 0] CT
-10.5 13 moveto 
1 -1 scale
(0.4) t 
GR
GR
GS
[0.75 0 0 0.75 250.05002 284.50001] CT
0.149 GC
/Helvetica 13 F
GS
[1 0 0 1 0 0] CT
-10.5 13 moveto 
1 -1 scale
(0.6) t 
GR
GR
GS
[0.75 0 0 0.75 315.15001 284.50001] CT
0.149 GC
/Helvetica 13 F
GS
[1 0 0 1 0 0] CT
-10.5 13 moveto 
1 -1 scale
(0.8) t 
GR
GR
GS
[0.75 0 0 0.75 380.25 284.50001] CT
0.149 GC
/Helvetica 13 F
GS
[1 0 0 1 0 0] CT
-4.5 13 moveto 
1 -1 scale
(1) t 
GR
GR
GS
[0 -0.75 0.75 0 35 151.87487] CT
0.149 GC
/Helvetica 15 F
GS
[1 0 0 1 0 0] CT
-15 -4 moveto 
1 -1 scale
(PDF) t 
GR
GR
GS
[0.75 0 0 0.75 0 0] CT
0.149 GC
2 setlinecap
10.0 ML
N
73 374 M
73 31 L
S
GR
GS
[0.75 0 0 0.75 0 0] CT
0.149 GC
2 setlinecap
10.0 ML
N
507 374 M
507 31 L
S
GR
GS
[0.75 0 0 0.75 0 0] CT
0.149 GC
2 setlinecap
10.0 ML
N
73 374 M
77.34 374 L
S
GR
GS
[0.75 0 0 0.75 0 0] CT
0.149 GC
2 setlinecap
10.0 ML
N
73 339.7 M
77.34 339.7 L
S
GR
GS
[0.75 0 0 0.75 0 0] CT
0.149 GC
2 setlinecap
10.0 ML
N
73 305.4 M
77.34 305.4 L
S
GR
GS
[0.75 0 0 0.75 0 0] CT
0.149 GC
2 setlinecap
10.0 ML
N
73 271.1 M
77.34 271.1 L
S
GR
GS
[0.75 0 0 0.75 0 0] CT
0.149 GC
2 setlinecap
10.0 ML
N
73 236.8 M
77.34 236.8 L
S
GR
GS
[0.75 0 0 0.75 0 0] CT
0.149 GC
2 setlinecap
10.0 ML
N
73 202.5 M
77.34 202.5 L
S
GR
GS
[0.75 0 0 0.75 0 0] CT
0.149 GC
2 setlinecap
10.0 ML
N
73 168.2 M
77.34 168.2 L
S
GR
GS
[0.75 0 0 0.75 0 0] CT
0.149 GC
2 setlinecap
10.0 ML
N
73 133.9 M
77.34 133.9 L
S
GR
GS
[0.75 0 0 0.75 0 0] CT
0.149 GC
2 setlinecap
10.0 ML
N
73 99.6 M
77.34 99.6 L
S
GR
GS
[0.75 0 0 0.75 0 0] CT
0.149 GC
2 setlinecap
10.0 ML
N
73 65.3 M
77.34 65.3 L
S
GR
GS
[0.75 0 0 0.75 0 0] CT
0.149 GC
2 setlinecap
10.0 ML
N
73 31 M
77.34 31 L
S
GR
GS
[0.75 0 0 0.75 0 0] CT
0.149 GC
2 setlinecap
10.0 ML
N
507 374 M
502.66 374 L
S
GR
GS
[0.75 0 0 0.75 0 0] CT
0.149 GC
2 setlinecap
10.0 ML
N
507 339.7 M
502.66 339.7 L
S
GR
GS
[0.75 0 0 0.75 0 0] CT
0.149 GC
2 setlinecap
10.0 ML
N
507 305.4 M
502.66 305.4 L
S
GR
GS
[0.75 0 0 0.75 0 0] CT
0.149 GC
2 setlinecap
10.0 ML
N
507 271.1 M
502.66 271.1 L
S
GR
GS
[0.75 0 0 0.75 0 0] CT
0.149 GC
2 setlinecap
10.0 ML
N
507 236.8 M
502.66 236.8 L
S
GR
GS
[0.75 0 0 0.75 0 0] CT
0.149 GC
2 setlinecap
10.0 ML
N
507 202.5 M
502.66 202.5 L
S
GR
GS
[0.75 0 0 0.75 0 0] CT
0.149 GC
2 setlinecap
10.0 ML
N
507 168.2 M
502.66 168.2 L
S
GR
GS
[0.75 0 0 0.75 0 0] CT
0.149 GC
2 setlinecap
10.0 ML
N
507 133.9 M
502.66 133.9 L
S
GR
GS
[0.75 0 0 0.75 0 0] CT
0.149 GC
2 setlinecap
10.0 ML
N
507 99.6 M
502.66 99.6 L
S
GR
GS
[0.75 0 0 0.75 0 0] CT
0.149 GC
2 setlinecap
10.0 ML
N
507 65.3 M
502.66 65.3 L
S
GR
GS
[0.75 0 0 0.75 0 0] CT
0.149 GC
2 setlinecap
10.0 ML
N
507 31 M
502.66 31 L
S
GR
GS
[0.75 0 0 0.75 50.75 280.5] CT
0.149 GC
/Helvetica 13 F
GS
[1 0 0 1 0 0] CT
-9 4.5 moveto 
1 -1 scale
(0) t 
GR
GR
GS
[0.75 0 0 0.75 50.75 254.77501] CT
0.149 GC
/Helvetica 13 F
GS
[1 0 0 1 0 0] CT
-9 4.5 moveto 
1 -1 scale
(1) t 
GR
GR
GS
[0.75 0 0 0.75 50.75 229.05] CT
0.149 GC
/Helvetica 13 F
GS
[1 0 0 1 0 0] CT
-9 4.5 moveto 
1 -1 scale
(2) t 
GR
GR
GS
[0.75 0 0 0.75 50.75 203.325] CT
0.149 GC
/Helvetica 13 F
GS
[1 0 0 1 0 0] CT
-9 4.5 moveto 
1 -1 scale
(3) t 
GR
GR
GS
[0.75 0 0 0.75 50.75 177.6] CT
0.149 GC
/Helvetica 13 F
GS
[1 0 0 1 0 0] CT
-9 4.5 moveto 
1 -1 scale
(4) t 
GR
GR
GS
[0.75 0 0 0.75 50.75 151.875] CT
0.149 GC
/Helvetica 13 F
GS
[1 0 0 1 0 0] CT
-9 4.5 moveto 
1 -1 scale
(5) t 
GR
GR
GS
[0.75 0 0 0.75 50.75 126.15] CT
0.149 GC
/Helvetica 13 F
GS
[1 0 0 1 0 0] CT
-9 4.5 moveto 
1 -1 scale
(6) t 
GR
GR
GS
[0.75 0 0 0.75 50.75 100.425] CT
0.149 GC
/Helvetica 13 F
GS
[1 0 0 1 0 0] CT
-9 4.5 moveto 
1 -1 scale
(7) t 
GR
GR
GS
[0.75 0 0 0.75 50.75 74.7] CT
0.149 GC
/Helvetica 13 F
GS
[1 0 0 1 0 0] CT
-9 4.5 moveto 
1 -1 scale
(8) t 
GR
GR
GS
[0.75 0 0 0.75 50.75 48.975] CT
0.149 GC
/Helvetica 13 F
GS
[1 0 0 1 0 0] CT
-9 4.5 moveto 
1 -1 scale
(9) t 
GR
GR
GS
[0.75 0 0 0.75 50.75 23.25] CT
0.149 GC
/Helvetica 13 F
GS
[1 0 0 1 0 0] CT
-17 4.5 moveto 
1 -1 scale
(10) t 
GR
GR
GS
[0.75 0 0 0.75 0 0] CT
0.208 0.165 0.525 RC
N
181.554 374 M
184.754 374 L
184.754 355.311 L
181.554 355.311 L
cp
f
GR
GS
[0.75 0 0 0.75 0 0] CT
0.208 0.165 0.525 RC
N
185.554 374 M
188.755 374 L
188.755 366.524 L
185.554 366.524 L
cp
f
GR
GS
[0.75 0 0 0.75 0 0] CT
0.208 0.165 0.525 RC
N
189.555 374 M
192.755 374 L
192.755 355.311 L
189.555 355.311 L
cp
f
GR
GS
[0.75 0 0 0.75 0 0] CT
0.208 0.165 0.525 RC
N
193.556 374 M
196.756 374 L
196.756 329.145 L
193.556 329.145 L
cp
f
GR
GS
[0.75 0 0 0.75 0 0] CT
0.208 0.165 0.525 RC
N
197.556 374 M
200.756 374 L
200.756 321.67 L
197.556 321.67 L
cp
f
GR
GS
[0.75 0 0 0.75 0 0] CT
0.208 0.165 0.525 RC
N
201.557 374 M
204.757 374 L
204.757 280.553 L
201.557 280.553 L
cp
f
GR
GS
[0.75 0 0 0.75 0 0] CT
0.208 0.165 0.525 RC
N
205.557 374 M
208.758 374 L
208.758 235.698 L
205.557 235.698 L
cp
f
GR
GS
[0.75 0 0 0.75 0 0] CT
0.208 0.165 0.525 RC
N
209.558 374 M
212.758 374 L
212.758 145.989 L
209.558 145.989 L
cp
f
GR
GS
[0.75 0 0 0.75 0 0] CT
0.208 0.165 0.525 RC
N
213.558 374 M
216.759 374 L
216.759 172.155 L
213.558 172.155 L
cp
f
GR
GS
[0.75 0 0 0.75 0 0] CT
0.208 0.165 0.525 RC
N
217.559 374 M
220.759 374 L
220.759 112.348 L
217.559 112.348 L
cp
f
GR
GS
[0.75 0 0 0.75 0 0] CT
0.208 0.165 0.525 RC
N
221.559 374 M
224.76 374 L
224.76 52.542 L
221.559 52.542 L
cp
f
GR
GS
[0.75 0 0 0.75 0 0] CT
0.208 0.165 0.525 RC
N
225.56 374 M
228.76 374 L
228.76 63.756 L
225.56 63.756 L
cp
f
GR
GS
[0.75 0 0 0.75 0 0] CT
0.208 0.165 0.525 RC
N
229.56 374 M
232.761 374 L
232.761 78.708 L
229.56 78.708 L
cp
f
GR
GS
[0.75 0 0 0.75 0 0] CT
0.208 0.165 0.525 RC
N
233.561 374 M
236.761 374 L
236.761 108.611 L
233.561 108.611 L
cp
f
GR
GS
[0.75 0 0 0.75 0 0] CT
0.208 0.165 0.525 RC
N
237.561 374 M
240.762 374 L
240.762 97.397 L
237.561 97.397 L
cp
f
GR
GS
[0.75 0 0 0.75 0 0] CT
0.208 0.165 0.525 RC
N
241.562 374 M
244.762 374 L
244.762 134.776 L
241.562 134.776 L
cp
f
GR
GS
[0.75 0 0 0.75 0 0] CT
0.208 0.165 0.525 RC
N
245.562 374 M
248.763 374 L
248.763 183.368 L
245.562 183.368 L
cp
f
GR
GS
[0.75 0 0 0.75 0 0] CT
0.208 0.165 0.525 RC
N
249.563 374 M
252.763 374 L
252.763 224.485 L
249.563 224.485 L
cp
f
GR
GS
[0.75 0 0 0.75 0 0] CT
0.208 0.165 0.525 RC
N
253.563 374 M
256.764 374 L
256.764 273.077 L
253.563 273.077 L
cp
f
GR
GS
[0.75 0 0 0.75 0 0] CT
0.208 0.165 0.525 RC
N
257.564 374 M
260.764 374 L
260.764 269.339 L
257.564 269.339 L
cp
f
GR
GS
[0.75 0 0 0.75 0 0] CT
0.208 0.165 0.525 RC
N
261.565 374 M
264.765 374 L
264.765 284.291 L
261.565 284.291 L
cp
f
GR
GS
[0.75 0 0 0.75 0 0] CT
0.208 0.165 0.525 RC
N
265.565 374 M
268.765 374 L
268.765 295.505 L
265.565 295.505 L
cp
f
GR
GS
[0.75 0 0 0.75 0 0] CT
0.208 0.165 0.525 RC
N
269.566 374 M
272.766 374 L
272.766 317.932 L
269.566 317.932 L
cp
f
GR
GS
[0.75 0 0 0.75 0 0] CT
0.208 0.165 0.525 RC
N
273.566 374 M
276.767 374 L
276.767 325.408 L
273.566 325.408 L
cp
f
GR
GS
[0.75 0 0 0.75 0 0] CT
0.208 0.165 0.525 RC
N
277.567 374 M
280.767 374 L
280.767 329.145 L
277.567 329.145 L
cp
f
GR
GS
[0.75 0 0 0.75 0 0] CT
0.208 0.165 0.525 RC
N
281.567 374 M
284.768 374 L
284.768 344.097 L
281.567 344.097 L
cp
f
GR
GS
[0.75 0 0 0.75 0 0] CT
0.208 0.165 0.525 RC
N
285.568 374 M
288.768 374 L
288.768 351.573 L
285.568 351.573 L
cp
f
GR
GS
[0.75 0 0 0.75 0 0] CT
0.208 0.165 0.525 RC
N
289.568 374 M
292.769 374 L
292.769 351.573 L
289.568 351.573 L
cp
f
GR
GS
[0.75 0 0 0.75 0 0] CT
0.208 0.165 0.525 RC
N
293.569 374 M
296.769 374 L
296.769 366.524 L
293.569 366.524 L
cp
f
GR
GS
[0.75 0 0 0.75 0 0] CT
0.208 0.165 0.525 RC
N
297.569 374 M
300.77 374 L
300.77 370.262 L
297.569 370.262 L
cp
f
GR
GS
[0.75 0 0 0.75 0 0] CT
0.208 0.165 0.525 RC
N
301.57 374 M
304.77 374 L
304.77 359.048 L
301.57 359.048 L
cp
f
GR
GS
[0.75 0 0 0.75 0 0] CT
2 setlinecap
10.0 ML
N
181.554 374 M
181.554 355.311 L
184.754 355.311 L
184.754 374 L
181.554 374 L
S
GR
GS
[0.75 0 0 0.75 0 0] CT
2 setlinecap
10.0 ML
N
185.554 374 M
185.554 366.524 L
188.755 366.524 L
188.755 374 L
185.554 374 L
S
GR
GS
[0.75 0 0 0.75 0 0] CT
2 setlinecap
10.0 ML
N
189.555 374 M
189.555 355.311 L
192.755 355.311 L
192.755 374 L
189.555 374 L
S
GR
GS
[0.75 0 0 0.75 0 0] CT
2 setlinecap
10.0 ML
N
193.556 374 M
193.556 329.145 L
196.756 329.145 L
196.756 374 L
193.556 374 L
S
GR
GS
[0.75 0 0 0.75 0 0] CT
2 setlinecap
10.0 ML
N
197.556 374 M
197.556 321.67 L
200.756 321.67 L
200.756 374 L
197.556 374 L
S
GR
GS
[0.75 0 0 0.75 0 0] CT
2 setlinecap
10.0 ML
N
201.557 374 M
201.557 280.553 L
204.757 280.553 L
204.757 374 L
201.557 374 L
S
GR
GS
[0.75 0 0 0.75 0 0] CT
2 setlinecap
10.0 ML
N
205.557 374 M
205.557 235.698 L
208.758 235.698 L
208.758 374 L
205.557 374 L
S
GR
GS
[0.75 0 0 0.75 0 0] CT
2 setlinecap
10.0 ML
N
209.558 374 M
209.558 145.989 L
212.758 145.989 L
212.758 374 L
209.558 374 L
S
GR
GS
[0.75 0 0 0.75 0 0] CT
2 setlinecap
10.0 ML
N
213.558 374 M
213.558 172.155 L
216.759 172.155 L
216.759 374 L
213.558 374 L
S
GR
GS
[0.75 0 0 0.75 0 0] CT
2 setlinecap
10.0 ML
N
217.559 374 M
217.559 112.348 L
220.759 112.348 L
220.759 374 L
217.559 374 L
S
GR
GS
[0.75 0 0 0.75 0 0] CT
2 setlinecap
10.0 ML
N
221.559 374 M
221.559 52.542 L
224.76 52.542 L
224.76 374 L
221.559 374 L
S
GR
GS
[0.75 0 0 0.75 0 0] CT
2 setlinecap
10.0 ML
N
225.56 374 M
225.56 63.756 L
228.76 63.756 L
228.76 374 L
225.56 374 L
S
GR
GS
[0.75 0 0 0.75 0 0] CT
2 setlinecap
10.0 ML
N
229.56 374 M
229.56 78.708 L
232.761 78.708 L
232.761 374 L
229.56 374 L
S
GR
GS
[0.75 0 0 0.75 0 0] CT
2 setlinecap
10.0 ML
N
233.561 374 M
233.561 108.611 L
236.761 108.611 L
236.761 374 L
233.561 374 L
S
GR
GS
[0.75 0 0 0.75 0 0] CT
2 setlinecap
10.0 ML
N
237.561 374 M
237.561 97.397 L
240.762 97.397 L
240.762 374 L
237.561 374 L
S
GR
GS
[0.75 0 0 0.75 0 0] CT
2 setlinecap
10.0 ML
N
241.562 374 M
241.562 134.776 L
244.762 134.776 L
244.762 374 L
241.562 374 L
S
GR
GS
[0.75 0 0 0.75 0 0] CT
2 setlinecap
10.0 ML
N
245.562 374 M
245.562 183.368 L
248.763 183.368 L
248.763 374 L
245.562 374 L
S
GR
GS
[0.75 0 0 0.75 0 0] CT
2 setlinecap
10.0 ML
N
249.563 374 M
249.563 224.485 L
252.763 224.485 L
252.763 374 L
249.563 374 L
S
GR
GS
[0.75 0 0 0.75 0 0] CT
2 setlinecap
10.0 ML
N
253.563 374 M
253.563 273.077 L
256.764 273.077 L
256.764 374 L
253.563 374 L
S
GR
GS
[0.75 0 0 0.75 0 0] CT
2 setlinecap
10.0 ML
N
257.564 374 M
257.564 269.339 L
260.764 269.339 L
260.764 374 L
257.564 374 L
S
GR
GS
[0.75 0 0 0.75 0 0] CT
2 setlinecap
10.0 ML
N
261.565 374 M
261.565 284.291 L
264.765 284.291 L
264.765 374 L
261.565 374 L
S
GR
GS
[0.75 0 0 0.75 0 0] CT
2 setlinecap
10.0 ML
N
265.565 374 M
265.565 295.505 L
268.765 295.505 L
268.765 374 L
265.565 374 L
S
GR
GS
[0.75 0 0 0.75 0 0] CT
2 setlinecap
10.0 ML
N
269.566 374 M
269.566 317.932 L
272.766 317.932 L
272.766 374 L
269.566 374 L
S
GR
GS
[0.75 0 0 0.75 0 0] CT
2 setlinecap
10.0 ML
N
273.566 374 M
273.566 325.408 L
276.767 325.408 L
276.767 374 L
273.566 374 L
S
GR
GS
[0.75 0 0 0.75 0 0] CT
2 setlinecap
10.0 ML
N
277.567 374 M
277.567 329.145 L
280.767 329.145 L
280.767 374 L
277.567 374 L
S
GR
GS
[0.75 0 0 0.75 0 0] CT
2 setlinecap
10.0 ML
N
281.567 374 M
281.567 344.097 L
284.768 344.097 L
284.768 374 L
281.567 374 L
S
GR
GS
[0.75 0 0 0.75 0 0] CT
2 setlinecap
10.0 ML
N
285.568 374 M
285.568 351.573 L
288.768 351.573 L
288.768 374 L
285.568 374 L
S
GR
GS
[0.75 0 0 0.75 0 0] CT
2 setlinecap
10.0 ML
N
289.568 374 M
289.568 351.573 L
292.769 351.573 L
292.769 374 L
289.568 374 L
S
GR
GS
[0.75 0 0 0.75 0 0] CT
2 setlinecap
10.0 ML
N
293.569 374 M
293.569 366.524 L
296.769 366.524 L
296.769 374 L
293.569 374 L
S
GR
GS
[0.75 0 0 0.75 0 0] CT
2 setlinecap
10.0 ML
N
297.569 374 M
297.569 370.262 L
300.77 370.262 L
300.77 374 L
297.569 374 L
S
GR
GS
[0.75 0 0 0.75 0 0] CT
2 setlinecap
10.0 ML
N
301.57 374 M
301.57 359.048 L
304.77 359.048 L
304.77 374 L
301.57 374 L
S
GR
GS
[0.75 0 0 0.75 0 0] CT
1 0 0 RC
2 LJ
4 LW
N
73 374 M
73.434 374 L
73.868 374 L
74.302 374 L
74.736 374 L
75.17 374 L
75.604 374 L
76.038 374 L
76.472 374 L
76.906 374 L
77.34 374 L
77.774 374 L
78.208 374 L
78.642 374 L
79.076 374 L
79.51 374 L
79.944 374 L
80.378 374 L
80.812 374 L
81.246 374 L
81.68 374 L
82.114 374 L
82.548 374 L
82.982 374 L
83.416 374 L
83.85 374 L
84.284 374 L
84.718 374 L
85.152 374 L
85.586 374 L
86.02 374 L
86.454 374 L
86.888 374 L
87.322 374 L
87.756 374 L
88.19 374 L
88.624 374 L
89.058 374 L
89.492 374 L
89.926 374 L
90.36 374 L
90.794 374 L
91.228 374 L
91.662 374 L
92.096 374 L
92.53 374 L
92.964 374 L
93.398 374 L
93.832 374 L
94.266 374 L
S
GR
GS
[0.75 0 0 0.75 0 0] CT
1 0 0 RC
2 LJ
4 LW
N
94.266 374 M
94.7 374 L
95.134 374 L
95.568 374 L
96.002 374 L
96.436 374 L
96.87 374 L
97.304 374 L
97.738 374 L
98.172 374 L
98.606 374 L
99.04 374 L
99.474 374 L
99.908 374 L
100.342 374 L
100.776 374 L
101.21 374 L
101.644 374 L
102.078 374 L
102.512 374 L
102.946 374 L
103.38 374 L
103.814 374 L
104.248 374 L
104.682 374 L
105.116 374 L
105.55 374 L
105.984 374 L
106.418 374 L
106.852 374 L
107.286 374 L
107.72 374 L
108.154 374 L
108.588 374 L
109.022 374 L
109.456 374 L
109.89 374 L
110.324 374 L
110.758 374 L
111.192 374 L
111.626 374 L
112.06 374 L
112.494 374 L
112.928 374 L
113.362 374 L
113.796 374 L
114.23 374 L
114.664 374 L
115.098 374 L
115.532 374 L
S
GR
GS
[0.75 0 0 0.75 0 0] CT
1 0 0 RC
2 LJ
4 LW
N
115.532 374 M
115.966 374 L
116.4 374 L
116.834 374 L
117.268 374 L
117.702 374 L
118.136 374 L
118.57 374 L
119.004 374 L
119.438 374 L
119.872 374 L
120.306 374 L
120.74 374 L
121.174 374 L
121.608 374 L
122.042 374 L
122.476 374 L
122.91 374 L
123.344 374 L
123.778 374 L
124.212 374 L
124.646 374 L
125.08 374 L
125.514 374 L
125.948 374 L
126.382 374 L
126.816 374 L
127.25 374 L
127.684 374 L
128.118 374 L
128.552 374 L
128.986 374 L
129.42 374 L
129.854 374 L
130.288 374 L
130.722 374 L
131.156 374 L
131.59 374 L
132.024 374 L
132.458 374 L
132.892 374 L
133.326 374 L
133.76 374 L
134.194 374 L
134.628 374 L
135.062 374 L
135.496 374 L
135.93 374 L
136.364 374 L
136.798 374 L
S
GR
GS
[0.75 0 0 0.75 0 0] CT
1 0 0 RC
2 LJ
4 LW
N
136.798 374 M
137.232 374 L
137.666 374 L
138.1 374 L
138.534 374 L
138.968 374 L
139.402 374 L
139.836 374 L
140.27 374 L
140.704 374 L
141.138 374 L
141.572 374 L
142.006 374 L
142.44 374 L
142.874 374 L
143.308 374 L
143.742 374 L
144.176 374 L
144.61 374 L
145.044 374 L
145.478 374 L
145.912 374 L
146.346 374 L
146.78 374 L
147.214 374 L
147.648 374 L
148.082 374 L
148.516 374 L
148.95 374 L
149.384 374 L
149.818 374 L
150.252 374 L
150.686 374 L
151.12 374 L
151.554 374 L
151.988 374 L
152.422 374 L
152.856 374 L
153.29 374 L
153.724 374 L
154.158 374 L
154.592 374 L
155.026 374 L
155.46 374 L
155.894 374 L
156.328 374 L
156.762 374 L
157.196 374 L
157.63 374 L
158.064 374 L
S
GR
GS
[0.75 0 0 0.75 0 0] CT
1 0 0 RC
2 LJ
4 LW
N
158.064 374 M
158.498 374 L
158.932 374 L
159.366 374 L
159.8 374 L
160.234 374 L
160.668 373.999 L
161.102 373.999 L
161.536 373.999 L
161.97 373.999 L
162.404 373.999 L
162.838 373.998 L
163.272 373.998 L
163.706 373.997 L
164.14 373.996 L
164.574 373.995 L
165.008 373.994 L
165.442 373.993 L
165.876 373.991 L
166.31 373.989 L
166.744 373.987 L
167.178 373.984 L
167.612 373.981 L
168.046 373.977 L
168.48 373.972 L
168.914 373.966 L
169.348 373.959 L
169.782 373.95 L
170.216 373.941 L
170.65 373.929 L
171.084 373.916 L
171.518 373.9 L
171.952 373.882 L
172.386 373.86 L
172.82 373.835 L
173.254 373.807 L
173.688 373.774 L
174.122 373.735 L
174.556 373.692 L
174.99 373.642 L
175.424 373.584 L
175.858 373.519 L
176.292 373.445 L
176.726 373.361 L
177.16 373.266 L
177.594 373.159 L
178.028 373.038 L
178.462 372.903 L
178.896 372.751 L
179.33 372.581 L
S
GR
GS
[0.75 0 0 0.75 0 0] CT
1 0 0 RC
2 LJ
4 LW
N
179.33 372.581 M
179.764 372.392 L
180.198 372.182 L
180.632 371.948 L
181.066 371.689 L
181.5 371.402 L
181.934 371.086 L
182.368 370.738 L
182.802 370.356 L
183.236 369.938 L
183.67 369.479 L
184.104 368.979 L
184.538 368.433 L
184.972 367.84 L
185.406 367.197 L
185.84 366.499 L
186.274 365.745 L
186.708 364.931 L
187.142 364.055 L
187.576 363.112 L
188.01 362.1 L
188.444 361.016 L
188.878 359.857 L
189.312 358.619 L
189.746 357.3 L
190.18 355.897 L
190.614 354.407 L
191.048 352.826 L
191.482 351.154 L
191.916 349.387 L
192.35 347.522 L
192.784 345.558 L
193.218 343.493 L
193.652 341.325 L
194.086 339.052 L
194.52 336.673 L
194.954 334.187 L
195.388 331.593 L
195.822 328.891 L
196.256 326.08 L
196.69 323.161 L
197.124 320.133 L
197.558 316.997 L
197.992 313.755 L
198.426 310.406 L
198.86 306.954 L
199.294 303.399 L
199.728 299.744 L
200.162 295.991 L
200.596 292.143 L
S
GR
GS
[0.75 0 0 0.75 0 0] CT
1 0 0 RC
2 LJ
4 LW
N
200.596 292.143 M
201.03 288.204 L
201.464 284.176 L
201.898 280.063 L
202.332 275.869 L
202.766 271.599 L
203.2 267.257 L
203.634 262.847 L
204.068 258.375 L
204.502 253.846 L
204.936 249.266 L
205.37 244.64 L
205.804 239.973 L
206.238 235.272 L
206.672 230.544 L
207.106 225.794 L
207.54 221.028 L
207.974 216.254 L
208.408 211.477 L
208.842 206.704 L
209.276 201.942 L
209.71 197.198 L
210.144 192.478 L
210.578 187.788 L
211.012 183.136 L
211.446 178.527 L
211.88 173.968 L
212.314 169.466 L
212.748 165.026 L
213.182 160.655 L
213.616 156.358 L
214.05 152.141 L
214.484 148.01 L
214.918 143.971 L
215.352 140.027 L
215.786 136.185 L
216.22 132.449 L
216.654 128.823 L
217.088 125.313 L
217.522 121.921 L
217.956 118.651 L
218.39 115.508 L
218.824 112.495 L
219.258 109.613 L
219.692 106.867 L
220.126 104.259 L
220.56 101.79 L
220.994 99.463 L
221.428 97.28 L
221.862 95.241 L
S
GR
GS
[0.75 0 0 0.75 0 0] CT
1 0 0 RC
2 LJ
4 LW
N
221.862 95.241 M
222.296 93.349 L
222.73 91.603 L
223.164 90.005 L
223.598 88.554 L
224.032 87.252 L
224.466 86.097 L
224.9 85.09 L
225.334 84.23 L
225.768 83.516 L
226.202 82.947 L
226.636 82.522 L
227.07 82.24 L
227.504 82.098 L
227.938 82.096 L
228.372 82.231 L
228.806 82.501 L
229.24 82.904 L
229.674 83.438 L
230.108 84.099 L
230.542 84.886 L
230.976 85.795 L
231.41 86.823 L
231.844 87.969 L
232.278 89.228 L
232.712 90.597 L
233.146 92.073 L
233.58 93.654 L
234.014 95.334 L
234.448 97.112 L
234.882 98.984 L
235.316 100.946 L
235.75 102.995 L
236.184 105.126 L
236.618 107.338 L
237.052 109.626 L
237.486 111.986 L
237.92 114.416 L
238.354 116.911 L
238.788 119.469 L
239.222 122.085 L
239.656 124.757 L
240.09 127.48 L
240.524 130.252 L
240.958 133.07 L
241.392 135.929 L
241.826 138.828 L
242.26 141.762 L
242.694 144.728 L
243.128 147.724 L
S
GR
GS
[0.75 0 0 0.75 0 0] CT
1 0 0 RC
2 LJ
4 LW
N
243.128 147.724 M
243.562 150.747 L
243.996 153.793 L
244.43 156.861 L
244.864 159.946 L
245.298 163.047 L
245.732 166.16 L
246.166 169.283 L
246.6 172.414 L
247.034 175.551 L
247.468 178.69 L
247.902 181.83 L
248.336 184.968 L
248.77 188.103 L
249.204 191.232 L
249.638 194.354 L
250.072 197.466 L
250.506 200.566 L
250.94 203.654 L
251.374 206.726 L
251.808 209.783 L
252.242 212.821 L
252.676 215.84 L
253.11 218.839 L
253.544 221.815 L
253.978 224.768 L
254.412 227.697 L
254.846 230.6 L
255.28 233.477 L
255.714 236.326 L
256.148 239.147 L
256.582 241.938 L
257.016 244.699 L
257.45 247.429 L
257.884 250.128 L
258.318 252.794 L
258.752 255.428 L
259.186 258.028 L
259.62 260.594 L
260.054 263.126 L
260.488 265.624 L
260.922 268.086 L
261.356 270.513 L
261.79 272.904 L
262.224 275.26 L
262.658 277.579 L
263.092 279.863 L
263.526 282.11 L
263.96 284.321 L
264.394 286.495 L
S
GR
GS
[0.75 0 0 0.75 0 0] CT
1 0 0 RC
2 LJ
4 LW
N
264.394 286.495 M
264.828 288.633 L
265.262 290.734 L
265.696 292.8 L
266.13 294.829 L
266.564 296.821 L
266.998 298.778 L
267.432 300.699 L
267.866 302.584 L
268.3 304.434 L
268.734 306.248 L
269.168 308.027 L
269.602 309.771 L
270.036 311.481 L
270.47 313.156 L
270.904 314.798 L
271.338 316.405 L
271.772 317.98 L
272.206 319.521 L
272.64 321.03 L
273.074 322.506 L
273.508 323.95 L
273.942 325.363 L
274.376 326.745 L
274.81 328.095 L
275.244 329.416 L
275.678 330.706 L
276.112 331.967 L
276.546 333.198 L
276.98 334.401 L
277.414 335.576 L
277.848 336.723 L
278.282 337.842 L
278.716 338.934 L
279.15 339.999 L
279.584 341.039 L
280.018 342.052 L
280.452 343.041 L
280.886 344.004 L
281.32 344.943 L
281.754 345.858 L
282.188 346.75 L
282.622 347.618 L
283.056 348.464 L
283.49 349.287 L
283.924 350.089 L
284.358 350.869 L
284.792 351.628 L
285.226 352.367 L
285.66 353.085 L
S
GR
GS
[0.75 0 0 0.75 0 0] CT
1 0 0 RC
2 LJ
4 LW
N
285.66 353.085 M
286.094 353.784 L
286.528 354.463 L
286.962 355.123 L
287.396 355.765 L
287.83 356.389 L
288.264 356.994 L
288.698 357.583 L
289.132 358.154 L
289.566 358.709 L
290 359.248 L
290.434 359.771 L
290.868 360.278 L
291.302 360.77 L
291.736 361.247 L
292.17 361.71 L
292.604 362.159 L
293.038 362.594 L
293.472 363.015 L
293.906 363.424 L
294.34 363.82 L
294.774 364.203 L
295.208 364.574 L
295.642 364.933 L
296.076 365.28 L
296.51 365.617 L
296.944 365.942 L
297.378 366.257 L
297.812 366.561 L
298.246 366.856 L
298.68 367.14 L
299.114 367.415 L
299.548 367.68 L
299.982 367.937 L
300.416 368.184 L
300.85 368.423 L
301.284 368.654 L
301.718 368.876 L
302.152 369.091 L
302.586 369.298 L
303.02 369.498 L
303.454 369.69 L
303.888 369.876 L
304.322 370.055 L
304.756 370.227 L
305.19 370.392 L
305.624 370.552 L
306.058 370.706 L
306.492 370.853 L
306.926 370.995 L
S
GR
GS
[0.75 0 0 0.75 0 0] CT
1 0 0 RC
2 LJ
4 LW
N
306.926 370.995 M
307.36 371.132 L
307.794 371.263 L
308.228 371.39 L
308.662 371.511 L
309.096 371.627 L
309.53 371.739 L
309.964 371.846 L
310.398 371.949 L
310.832 372.048 L
311.266 372.143 L
311.7 372.234 L
312.134 372.321 L
312.568 372.404 L
313.002 372.484 L
313.436 372.56 L
313.87 372.634 L
314.304 372.704 L
314.738 372.77 L
315.172 372.834 L
315.606 372.896 L
316.04 372.954 L
316.474 373.01 L
316.908 373.063 L
317.342 373.114 L
317.776 373.162 L
318.21 373.208 L
318.644 373.252 L
319.078 373.294 L
319.512 373.334 L
319.946 373.372 L
320.38 373.408 L
320.814 373.442 L
321.248 373.475 L
321.682 373.506 L
322.116 373.536 L
322.55 373.564 L
322.984 373.59 L
323.418 373.615 L
323.852 373.639 L
324.286 373.661 L
324.72 373.683 L
325.154 373.703 L
325.588 373.722 L
326.022 373.74 L
326.456 373.757 L
326.89 373.773 L
327.324 373.788 L
327.758 373.803 L
328.192 373.816 L
S
GR
GS
[0.75 0 0 0.75 0 0] CT
1 0 0 RC
2 LJ
4 LW
N
328.192 373.816 M
328.626 373.829 L
329.06 373.841 L
329.494 373.852 L
329.928 373.863 L
330.362 373.873 L
330.796 373.882 L
331.23 373.891 L
331.664 373.899 L
332.098 373.906 L
332.532 373.913 L
332.966 373.92 L
333.4 373.926 L
333.834 373.932 L
334.268 373.938 L
334.702 373.943 L
335.136 373.947 L
335.57 373.952 L
336.004 373.956 L
336.438 373.96 L
336.872 373.963 L
337.306 373.966 L
337.74 373.969 L
338.174 373.972 L
338.608 373.975 L
339.042 373.977 L
339.476 373.979 L
339.91 373.981 L
340.344 373.983 L
340.778 373.985 L
341.212 373.986 L
341.646 373.987 L
342.08 373.989 L
342.514 373.99 L
342.948 373.991 L
343.382 373.992 L
343.816 373.993 L
344.25 373.994 L
344.684 373.994 L
345.118 373.995 L
345.552 373.996 L
345.986 373.996 L
346.42 373.997 L
346.854 373.997 L
347.288 373.997 L
347.722 373.998 L
348.156 373.998 L
348.59 373.998 L
349.024 373.999 L
349.458 373.999 L
S
GR
GS
[0.75 0 0 0.75 0 0] CT
1 0 0 RC
2 LJ
4 LW
N
349.458 373.999 M
349.892 373.999 L
350.326 373.999 L
350.76 373.999 L
351.194 373.999 L
351.628 373.999 L
352.062 374 L
352.496 374 L
352.93 374 L
353.364 374 L
353.798 374 L
354.232 374 L
354.666 374 L
355.1 374 L
355.534 374 L
355.968 374 L
356.402 374 L
356.836 374 L
357.27 374 L
357.704 374 L
358.138 374 L
358.572 374 L
359.006 374 L
359.44 374 L
359.874 374 L
360.308 374 L
360.742 374 L
361.176 374 L
361.61 374 L
362.044 374 L
362.478 374 L
362.912 374 L
363.346 374 L
363.78 374 L
364.214 374 L
364.648 374 L
365.082 374 L
365.516 374 L
365.95 374 L
366.384 374 L
366.818 374 L
367.252 374 L
367.686 374 L
368.12 374 L
368.554 374 L
368.988 374 L
369.422 374 L
369.856 374 L
370.29 374 L
370.724 374 L
S
GR
GS
[0.75 0 0 0.75 0 0] CT
1 0 0 RC
2 LJ
4 LW
N
370.724 374 M
371.158 374 L
371.592 374 L
372.026 374 L
372.46 374 L
372.894 374 L
373.328 374 L
373.762 374 L
374.196 374 L
374.63 374 L
375.064 374 L
375.498 374 L
375.932 374 L
376.366 374 L
376.8 374 L
377.234 374 L
377.668 374 L
378.102 374 L
378.536 374 L
378.97 374 L
379.404 374 L
379.838 374 L
380.272 374 L
380.706 374 L
381.14 374 L
381.574 374 L
382.008 374 L
382.442 374 L
382.876 374 L
383.31 374 L
383.744 374 L
384.178 374 L
384.612 374 L
385.046 374 L
385.48 374 L
385.914 374 L
386.348 374 L
386.782 374 L
387.216 374 L
387.65 374 L
388.084 374 L
388.518 374 L
388.952 374 L
389.386 374 L
389.82 374 L
390.254 374 L
390.688 374 L
391.122 374 L
391.556 374 L
391.99 374 L
S
GR
GS
[0.75 0 0 0.75 0 0] CT
1 0 0 RC
2 LJ
4 LW
N
391.99 374 M
392.424 374 L
392.858 374 L
393.292 374 L
393.726 374 L
394.16 374 L
394.594 374 L
395.028 374 L
395.462 374 L
395.896 374 L
396.33 374 L
396.764 374 L
397.198 374 L
397.632 374 L
398.066 374 L
398.5 374 L
398.934 374 L
399.368 374 L
399.802 374 L
400.236 374 L
400.67 374 L
401.104 374 L
401.538 374 L
401.972 374 L
402.406 374 L
402.84 374 L
403.274 374 L
403.708 374 L
404.142 374 L
404.576 374 L
405.01 374 L
405.444 374 L
405.878 374 L
406.312 374 L
406.746 374 L
407.18 374 L
407.614 374 L
408.048 374 L
408.482 374 L
408.916 374 L
409.35 374 L
409.784 374 L
410.218 374 L
410.652 374 L
411.086 374 L
411.52 374 L
411.954 374 L
412.388 374 L
412.822 374 L
413.256 374 L
S
GR
GS
[0.75 0 0 0.75 0 0] CT
1 0 0 RC
2 LJ
4 LW
N
413.256 374 M
413.69 374 L
414.124 374 L
414.558 374 L
414.992 374 L
415.426 374 L
415.86 374 L
416.294 374 L
416.728 374 L
417.162 374 L
417.596 374 L
418.03 374 L
418.464 374 L
418.898 374 L
419.332 374 L
419.766 374 L
420.2 374 L
420.634 374 L
421.068 374 L
421.502 374 L
421.936 374 L
422.37 374 L
422.804 374 L
423.238 374 L
423.672 374 L
424.106 374 L
424.54 374 L
424.974 374 L
425.408 374 L
425.842 374 L
426.276 374 L
426.71 374 L
427.144 374 L
427.578 374 L
428.012 374 L
428.446 374 L
428.88 374 L
429.314 374 L
429.748 374 L
430.182 374 L
430.616 374 L
431.05 374 L
431.484 374 L
431.918 374 L
432.352 374 L
432.786 374 L
433.22 374 L
433.654 374 L
434.088 374 L
434.522 374 L
S
GR
GS
[0.75 0 0 0.75 0 0] CT
1 0 0 RC
2 LJ
4 LW
N
434.522 374 M
434.956 374 L
435.39 374 L
435.824 374 L
436.258 374 L
436.692 374 L
437.126 374 L
437.56 374 L
437.994 374 L
438.428 374 L
438.862 374 L
439.296 374 L
439.73 374 L
440.164 374 L
440.598 374 L
441.032 374 L
441.466 374 L
441.9 374 L
442.334 374 L
442.768 374 L
443.202 374 L
443.636 374 L
444.07 374 L
444.504 374 L
444.938 374 L
445.372 374 L
445.806 374 L
446.24 374 L
446.674 374 L
447.108 374 L
447.542 374 L
447.976 374 L
448.41 374 L
448.844 374 L
449.278 374 L
449.712 374 L
450.146 374 L
450.58 374 L
451.014 374 L
451.448 374 L
451.882 374 L
452.316 374 L
452.75 374 L
453.184 374 L
453.618 374 L
454.052 374 L
454.486 374 L
454.92 374 L
455.354 374 L
455.788 374 L
S
GR
GS
[0.75 0 0 0.75 0 0] CT
1 0 0 RC
2 LJ
4 LW
N
455.788 374 M
456.222 374 L
456.656 374 L
457.09 374 L
457.524 374 L
457.958 374 L
458.392 374 L
458.826 374 L
459.26 374 L
459.694 374 L
460.128 374 L
460.562 374 L
460.996 374 L
461.43 374 L
461.864 374 L
462.298 374 L
462.732 374 L
463.166 374 L
463.6 374 L
464.034 374 L
464.468 374 L
464.902 374 L
465.336 374 L
465.77 374 L
466.204 374 L
466.638 374 L
467.072 374 L
467.506 374 L
467.94 374 L
468.374 374 L
468.808 374 L
469.242 374 L
469.676 374 L
470.11 374 L
470.544 374 L
470.978 374 L
471.412 374 L
471.846 374 L
472.28 374 L
472.714 374 L
473.148 374 L
473.582 374 L
474.016 374 L
474.45 374 L
474.884 374 L
475.318 374 L
475.752 374 L
476.186 374 L
476.62 374 L
477.054 374 L
S
GR
GS
[0.75 0 0 0.75 0 0] CT
1 0 0 RC
2 LJ
4 LW
N
477.054 374 M
477.488 374 L
477.922 374 L
478.356 374 L
478.79 374 L
479.224 374 L
479.658 374 L
480.092 374 L
480.526 374 L
480.96 374 L
481.394 374 L
481.828 374 L
482.262 374 L
482.696 374 L
483.13 374 L
483.564 374 L
483.998 374 L
484.432 374 L
484.866 374 L
485.3 374 L
485.734 374 L
486.168 374 L
486.602 374 L
487.036 374 L
487.47 374 L
487.904 374 L
488.338 374 L
488.772 374 L
489.206 374 L
489.64 374 L
490.074 374 L
490.508 374 L
490.942 374 L
491.376 374 L
491.81 374 L
492.244 374 L
492.678 374 L
493.112 374 L
493.546 374 L
493.98 374 L
494.414 374 L
494.848 374 L
495.282 374 L
495.716 374 L
496.15 374 L
496.584 374 L
497.018 374 L
497.452 374 L
497.886 374 L
498.32 374 L
S
GR
GS
[0.75 0 0 0.75 0 0] CT
1 0 0 RC
2 LJ
4 LW
N
498.32 374 M
498.754 374 L
499.188 374 L
499.622 374 L
500.056 374 L
500.49 374 L
500.924 374 L
501.358 374 L
501.792 374 L
502.226 374 L
502.66 374 L
503.094 374 L
503.528 374 L
503.962 374 L
504.396 374 L
504.83 374 L
505.264 374 L
505.698 374 L
506.132 374 L
506.566 374 L
507 374 L
S
GR
GS
[0.75 0 0 0.75 0 0] CT
0.149 GC
2 setlinecap
10.0 ML
N
73 374 M
507 374 L
S
GR
GS
[0.75 0 0 0.75 0 0] CT
1 GC
N
279 80 M
279 44 L
494 44 L
494 80 L
cp
f
GR
GS
[0.75 0 0 0.75 248.25 40.625] CT
/Helvetica 12 F
GS
[1 0 0 1 0 0] CT
0 4.5 moveto 
1 -1 scale
(Correlation coefficient hist) t 
GR
GR
GS
[0.75 0 0 0.75 0 0] CT
0.208 0.165 0.525 RC
N
287 59.833 M
287 48.5 L
327 48.5 L
327 59.833 L
cp
f
GR
GS
[0.75 0 0 0.75 0 0] CT
2 setlinecap
10.0 ML
N
287 59.833 M
287 48.5 L
327 48.5 L
327 59.833 L
287 59.833 L
S
GR
GS
[0.75 0 0 0.75 248.25 52.375] CT
/Helvetica 12 F
GS
[1 0 0 1 0 0] CT
0 4.5 moveto 
1 -1 scale
(gev distribution) t 
GR
GR
GS
[0.75 0 0 0.75 0 0] CT
1 0 0 RC
2 setlinecap
10.0 ML
4 LW
N
287 69.833 M
327 69.833 L
S
GR
GS
[0.75 0 0 0.75 0 0] CT
0.149 GC
2 setlinecap
10.0 ML
N
279 80 M
279 44 L
494 44 L
494 80 L
279 80 L
S
GR
%%Trailer
%%Pages: 1
%%EOF
