%!PS-Adobe-3.0 EPSF-3.0
%%Creator: (MATLAB, The Mathworks, Inc. Version 8.5.0.197613 \(R2015a\). Operating System: Linux)
%%Title: /home/albyback/git/contig_assembly/Paper/FIGURES/autocorr/2/barcode1.eps
%%CreationDate: 2016-11-22T19:48:49
%%Pages: (atend)
%%BoundingBox: 0 0 420 315
%%LanguageLevel: 2
%%EndComments
%%BeginProlog
%%BeginResource: procset (Apache XML Graphics Std ProcSet) 1.2 0
%%Version: 1.2 0
%%Copyright: (Copyright 2001-2003,2010 The Apache Software Foundation. License terms: http://www.apache.org/licenses/LICENSE-2.0)
/bd{bind def}bind def
/ld{load def}bd
/GR/grestore ld
/M/moveto ld
/LJ/setlinejoin ld
/C/curveto ld
/f/fill ld
/LW/setlinewidth ld
/GC/setgray ld
/t/show ld
/N/newpath ld
/CT/concat ld
/cp/closepath ld
/S/stroke ld
/L/lineto ld
/CC/setcmykcolor ld
/A/ashow ld
/GS/gsave ld
/RC/setrgbcolor ld
/RM/rmoveto ld
/ML/setmiterlimit ld
/re {4 2 roll M
1 index 0 rlineto
0 exch rlineto
neg 0 rlineto
cp } bd
/_ctm matrix def
/_tm matrix def
/BT { _ctm currentmatrix pop matrix _tm copy pop 0 0 moveto } bd
/ET { _ctm setmatrix } bd
/iTm { _ctm setmatrix _tm concat } bd
/Tm { _tm astore pop iTm 0 0 moveto } bd
/ux 0.0 def
/uy 0.0 def
/F {
  /Tp exch def
  /Tf exch def
  Tf findfont Tp scalefont setfont
  /cf Tf def  /cs Tp def
} bd
/ULS {currentpoint /uy exch def /ux exch def} bd
/ULE {
  /Tcx currentpoint pop def
  gsave
  newpath
  cf findfont cs scalefont dup
  /FontMatrix get 0 get /Ts exch def /FontInfo get dup
  /UnderlinePosition get Ts mul /To exch def
  /UnderlineThickness get Ts mul /Tt exch def
  ux uy To add moveto  Tcx uy To add lineto
  Tt setlinewidth stroke
  grestore
} bd
/OLE {
  /Tcx currentpoint pop def
  gsave
  newpath
  cf findfont cs scalefont dup
  /FontMatrix get 0 get /Ts exch def /FontInfo get dup
  /UnderlinePosition get Ts mul /To exch def
  /UnderlineThickness get Ts mul /Tt exch def
  ux uy To add cs add moveto Tcx uy To add cs add lineto
  Tt setlinewidth stroke
  grestore
} bd
/SOE {
  /Tcx currentpoint pop def
  gsave
  newpath
  cf findfont cs scalefont dup
  /FontMatrix get 0 get /Ts exch def /FontInfo get dup
  /UnderlinePosition get Ts mul /To exch def
  /UnderlineThickness get Ts mul /Tt exch def
  ux uy To add cs 10 mul 26 idiv add moveto Tcx uy To add cs 10 mul 26 idiv add lineto
  Tt setlinewidth stroke
  grestore
} bd
/QT {
/Y22 exch store
/X22 exch store
/Y21 exch store
/X21 exch store
currentpoint
/Y21 load 2 mul add 3 div exch
/X21 load 2 mul add 3 div exch
/X21 load 2 mul /X22 load add 3 div
/Y21 load 2 mul /Y22 load add 3 div
/X22 load /Y22 load curveto
} bd
/SSPD {
dup length /d exch dict def
{
/v exch def
/k exch def
currentpagedevice k known {
/cpdv currentpagedevice k get def
v cpdv ne {
/upd false def
/nullv v type /nulltype eq def
/nullcpdv cpdv type /nulltype eq def
nullv nullcpdv or
{
/upd true def
} {
/sametype v type cpdv type eq def
sametype {
v type /arraytype eq {
/vlen v length def
/cpdvlen cpdv length def
vlen cpdvlen eq {
0 1 vlen 1 sub {
/i exch def
/obj v i get def
/cpdobj cpdv i get def
obj cpdobj ne {
/upd true def
exit
} if
} for
} {
/upd true def
} ifelse
} {
v type /dicttype eq {
v {
/dv exch def
/dk exch def
/cpddv cpdv dk get def
dv cpddv ne {
/upd true def
exit
} if
} forall
} {
/upd true def
} ifelse
} ifelse
} if
} ifelse
upd true eq {
d k v put
} if
} if
} if
} forall
d length 0 gt {
d setpagedevice
} if
} bd
%%EndResource
%%BeginResource: procset (Apache XML Graphics EPS ProcSet) 1.0 0
%%Version: 1.0 0
%%Copyright: (Copyright 2002-2003 The Apache Software Foundation. License terms: http://www.apache.org/licenses/LICENSE-2.0)
/BeginEPSF { %def
/b4_Inc_state save def         % Save state for cleanup
/dict_count countdictstack def % Count objects on dict stack
/op_count count 1 sub def      % Count objects on operand stack
userdict begin                 % Push userdict on dict stack
/showpage { } def              % Redefine showpage, { } = null proc
0 setgray 0 setlinecap         % Prepare graphics state
1 setlinewidth 0 setlinejoin
10 setmiterlimit [ ] 0 setdash newpath
/languagelevel where           % If level not equal to 1 then
{pop languagelevel             % set strokeadjust and
1 ne                           % overprint to their defaults.
{false setstrokeadjust false setoverprint
} if
} if
} bd
/EndEPSF { %def
count op_count sub {pop} repeat            % Clean up stacks
countdictstack dict_count sub {end} repeat
b4_Inc_state restore
} bd
%%EndResource
%FOPBeginFontDict
%%IncludeResource: font Courier-Bold
%%IncludeResource: font Helvetica
%%IncludeResource: font Courier-BoldOblique
%%IncludeResource: font Courier-Oblique
%%IncludeResource: font Times-Roman
%%IncludeResource: font Helvetica-BoldOblique
%%IncludeResource: font Helvetica-Bold
%%IncludeResource: font Helvetica-Oblique
%%IncludeResource: font Times-BoldItalic
%%IncludeResource: font Courier
%%IncludeResource: font Times-Italic
%%IncludeResource: font Times-Bold
%%IncludeResource: font Symbol
%%IncludeResource: font ZapfDingbats
%FOPEndFontDict
%%BeginResource: encoding WinAnsiEncoding
/WinAnsiEncoding [
/.notdef /.notdef /.notdef /.notdef /.notdef
/.notdef /.notdef /.notdef /.notdef /.notdef
/.notdef /.notdef /.notdef /.notdef /.notdef
/.notdef /.notdef /.notdef /.notdef /.notdef
/.notdef /.notdef /.notdef /.notdef /.notdef
/.notdef /.notdef /.notdef /.notdef /.notdef
/.notdef /.notdef /space /exclam /quotedbl
/numbersign /dollar /percent /ampersand /quotesingle
/parenleft /parenright /asterisk /plus /comma
/hyphen /period /slash /zero /one
/two /three /four /five /six
/seven /eight /nine /colon /semicolon
/less /equal /greater /question /at
/A /B /C /D /E
/F /G /H /I /J
/K /L /M /N /O
/P /Q /R /S /T
/U /V /W /X /Y
/Z /bracketleft /backslash /bracketright /asciicircum
/underscore /quoteleft /a /b /c
/d /e /f /g /h
/i /j /k /l /m
/n /o /p /q /r
/s /t /u /v /w
/x /y /z /braceleft /bar
/braceright /asciitilde /bullet /Euro /bullet
/quotesinglbase /florin /quotedblbase /ellipsis /dagger
/daggerdbl /circumflex /perthousand /Scaron /guilsinglleft
/OE /bullet /Zcaron /bullet /bullet
/quoteleft /quoteright /quotedblleft /quotedblright /bullet
/endash /emdash /asciitilde /trademark /scaron
/guilsinglright /oe /bullet /zcaron /Ydieresis
/space /exclamdown /cent /sterling /currency
/yen /brokenbar /section /dieresis /copyright
/ordfeminine /guillemotleft /logicalnot /sfthyphen /registered
/macron /degree /plusminus /twosuperior /threesuperior
/acute /mu /paragraph /middot /cedilla
/onesuperior /ordmasculine /guillemotright /onequarter /onehalf
/threequarters /questiondown /Agrave /Aacute /Acircumflex
/Atilde /Adieresis /Aring /AE /Ccedilla
/Egrave /Eacute /Ecircumflex /Edieresis /Igrave
/Iacute /Icircumflex /Idieresis /Eth /Ntilde
/Ograve /Oacute /Ocircumflex /Otilde /Odieresis
/multiply /Oslash /Ugrave /Uacute /Ucircumflex
/Udieresis /Yacute /Thorn /germandbls /agrave
/aacute /acircumflex /atilde /adieresis /aring
/ae /ccedilla /egrave /eacute /ecircumflex
/edieresis /igrave /iacute /icircumflex /idieresis
/eth /ntilde /ograve /oacute /ocircumflex
/otilde /odieresis /divide /oslash /ugrave
/uacute /ucircumflex /udieresis /yacute /thorn
/ydieresis
] def
%%EndResource
%FOPBeginFontReencode
/Courier-Bold findfont
dup length dict begin
  {1 index /FID ne {def} {pop pop} ifelse} forall
  /Encoding WinAnsiEncoding def
  currentdict
end
/Courier-Bold exch definefont pop
/Helvetica findfont
dup length dict begin
  {1 index /FID ne {def} {pop pop} ifelse} forall
  /Encoding WinAnsiEncoding def
  currentdict
end
/Helvetica exch definefont pop
/Courier-BoldOblique findfont
dup length dict begin
  {1 index /FID ne {def} {pop pop} ifelse} forall
  /Encoding WinAnsiEncoding def
  currentdict
end
/Courier-BoldOblique exch definefont pop
/Courier-Oblique findfont
dup length dict begin
  {1 index /FID ne {def} {pop pop} ifelse} forall
  /Encoding WinAnsiEncoding def
  currentdict
end
/Courier-Oblique exch definefont pop
/Times-Roman findfont
dup length dict begin
  {1 index /FID ne {def} {pop pop} ifelse} forall
  /Encoding WinAnsiEncoding def
  currentdict
end
/Times-Roman exch definefont pop
/Helvetica-BoldOblique findfont
dup length dict begin
  {1 index /FID ne {def} {pop pop} ifelse} forall
  /Encoding WinAnsiEncoding def
  currentdict
end
/Helvetica-BoldOblique exch definefont pop
/Helvetica-Bold findfont
dup length dict begin
  {1 index /FID ne {def} {pop pop} ifelse} forall
  /Encoding WinAnsiEncoding def
  currentdict
end
/Helvetica-Bold exch definefont pop
/Helvetica-Oblique findfont
dup length dict begin
  {1 index /FID ne {def} {pop pop} ifelse} forall
  /Encoding WinAnsiEncoding def
  currentdict
end
/Helvetica-Oblique exch definefont pop
/Times-BoldItalic findfont
dup length dict begin
  {1 index /FID ne {def} {pop pop} ifelse} forall
  /Encoding WinAnsiEncoding def
  currentdict
end
/Times-BoldItalic exch definefont pop
/Courier findfont
dup length dict begin
  {1 index /FID ne {def} {pop pop} ifelse} forall
  /Encoding WinAnsiEncoding def
  currentdict
end
/Courier exch definefont pop
/Times-Italic findfont
dup length dict begin
  {1 index /FID ne {def} {pop pop} ifelse} forall
  /Encoding WinAnsiEncoding def
  currentdict
end
/Times-Italic exch definefont pop
/Times-Bold findfont
dup length dict begin
  {1 index /FID ne {def} {pop pop} ifelse} forall
  /Encoding WinAnsiEncoding def
  currentdict
end
/Times-Bold exch definefont pop
%FOPEndFontReencode
%%EndProlog
%%Page: 1 1
%%PageBoundingBox: 0 0 420 315
%%BeginPageSetup
[1 0 0 -1 0 315] CT
%%EndPageSetup
GS
[0.75 0 0 0.75 0 0] CT
1 GC
N
0 0 560 420 re
f
GR
GS
[0.75 0 0 0.75 0 0] CT
1 GC
N
0 0 560 420 re
f
GR
GS
[0.75 0 0 0.75 0 0] CT
1 GC
N
73 374 M
507 374 L
507 31 L
73 31 L
cp
f
GR
GS
[0.75 0 0 0.75 0 0] CT
0.149 GC
2 setlinecap
10.0 ML
N
73 374 M
507 374 L
S
GR
GS
[0.75 0 0 0.75 0 0] CT
0.149 GC
2 setlinecap
10.0 ML
N
73 31 M
507 31 L
S
GR
GS
[0.75 0 0 0.75 0 0] CT
0.149 GC
2 setlinecap
10.0 ML
N
73 374 M
73 369.66 L
S
GR
GS
[0.75 0 0 0.75 0 0] CT
0.149 GC
2 setlinecap
10.0 ML
N
127.25 374 M
127.25 369.66 L
S
GR
GS
[0.75 0 0 0.75 0 0] CT
0.149 GC
2 setlinecap
10.0 ML
N
181.5 374 M
181.5 369.66 L
S
GR
GS
[0.75 0 0 0.75 0 0] CT
0.149 GC
2 setlinecap
10.0 ML
N
235.75 374 M
235.75 369.66 L
S
GR
GS
[0.75 0 0 0.75 0 0] CT
0.149 GC
2 setlinecap
10.0 ML
N
290 374 M
290 369.66 L
S
GR
GS
[0.75 0 0 0.75 0 0] CT
0.149 GC
2 setlinecap
10.0 ML
N
344.25 374 M
344.25 369.66 L
S
GR
GS
[0.75 0 0 0.75 0 0] CT
0.149 GC
2 setlinecap
10.0 ML
N
398.5 374 M
398.5 369.66 L
S
GR
GS
[0.75 0 0 0.75 0 0] CT
0.149 GC
2 setlinecap
10.0 ML
N
452.75 374 M
452.75 369.66 L
S
GR
GS
[0.75 0 0 0.75 0 0] CT
0.149 GC
2 setlinecap
10.0 ML
N
507 374 M
507 369.66 L
S
GR
GS
[0.75 0 0 0.75 0 0] CT
0.149 GC
2 setlinecap
10.0 ML
N
73 31 M
73 35.34 L
S
GR
GS
[0.75 0 0 0.75 0 0] CT
0.149 GC
2 setlinecap
10.0 ML
N
127.25 31 M
127.25 35.34 L
S
GR
GS
[0.75 0 0 0.75 0 0] CT
0.149 GC
2 setlinecap
10.0 ML
N
181.5 31 M
181.5 35.34 L
S
GR
GS
[0.75 0 0 0.75 0 0] CT
0.149 GC
2 setlinecap
10.0 ML
N
235.75 31 M
235.75 35.34 L
S
GR
GS
[0.75 0 0 0.75 0 0] CT
0.149 GC
2 setlinecap
10.0 ML
N
290 31 M
290 35.34 L
S
GR
GS
[0.75 0 0 0.75 0 0] CT
0.149 GC
2 setlinecap
10.0 ML
N
344.25 31 M
344.25 35.34 L
S
GR
GS
[0.75 0 0 0.75 0 0] CT
0.149 GC
2 setlinecap
10.0 ML
N
398.5 31 M
398.5 35.34 L
S
GR
GS
[0.75 0 0 0.75 0 0] CT
0.149 GC
2 setlinecap
10.0 ML
N
452.75 31 M
452.75 35.34 L
S
GR
GS
[0.75 0 0 0.75 0 0] CT
0.149 GC
2 setlinecap
10.0 ML
N
507 31 M
507 35.34 L
S
GR
GS
[0.75 0 0 0.75 54.75 284.50001] CT
0.149 GC
/Helvetica 13 F
GS
[1 0 0 1 0 0] CT
-4.5 13 moveto 
1 -1 scale
(0) t 
GR
GR
GS
[0.75 0 0 0.75 95.4375 284.50001] CT
0.149 GC
/Helvetica 13 F
GS
[1 0 0 1 0 0] CT
-8.5 13 moveto 
1 -1 scale
(50) t 
GR
GR
GS
[0.75 0 0 0.75 136.125 284.50001] CT
0.149 GC
/Helvetica 13 F
GS
[1 0 0 1 0 0] CT
-12.5 13 moveto 
1 -1 scale
(100) t 
GR
GR
GS
[0.75 0 0 0.75 176.8125 284.50001] CT
0.149 GC
/Helvetica 13 F
GS
[1 0 0 1 0 0] CT
-12.5 13 moveto 
1 -1 scale
(150) t 
GR
GR
GS
[0.75 0 0 0.75 217.5 284.50001] CT
0.149 GC
/Helvetica 13 F
GS
[1 0 0 1 0 0] CT
-12.5 13 moveto 
1 -1 scale
(200) t 
GR
GR
GS
[0.75 0 0 0.75 258.1875 284.50001] CT
0.149 GC
/Helvetica 13 F
GS
[1 0 0 1 0 0] CT
-12.5 13 moveto 
1 -1 scale
(250) t 
GR
GR
GS
[0.75 0 0 0.75 298.875 284.50001] CT
0.149 GC
/Helvetica 13 F
GS
[1 0 0 1 0 0] CT
-12.5 13 moveto 
1 -1 scale
(300) t 
GR
GR
GS
[0.75 0 0 0.75 339.5625 284.50001] CT
0.149 GC
/Helvetica 13 F
GS
[1 0 0 1 0 0] CT
-12.5 13 moveto 
1 -1 scale
(350) t 
GR
GR
GS
[0.75 0 0 0.75 380.25 284.50001] CT
0.149 GC
/Helvetica 13 F
GS
[1 0 0 1 0 0] CT
-12.5 13 moveto 
1 -1 scale
(400) t 
GR
GR
GS
[0.75 0 0 0.75 0 0] CT
0.149 GC
2 setlinecap
10.0 ML
N
73 374 M
73 31 L
S
GR
GS
[0.75 0 0 0.75 0 0] CT
0.149 GC
2 setlinecap
10.0 ML
N
507 374 M
507 31 L
S
GR
GS
[0.75 0 0 0.75 0 0] CT
0.149 GC
2 setlinecap
10.0 ML
N
73 374 M
77.34 374 L
S
GR
GS
[0.75 0 0 0.75 0 0] CT
0.149 GC
2 setlinecap
10.0 ML
N
73 316.833 M
77.34 316.833 L
S
GR
GS
[0.75 0 0 0.75 0 0] CT
0.149 GC
2 setlinecap
10.0 ML
N
73 259.667 M
77.34 259.667 L
S
GR
GS
[0.75 0 0 0.75 0 0] CT
0.149 GC
2 setlinecap
10.0 ML
N
73 202.5 M
77.34 202.5 L
S
GR
GS
[0.75 0 0 0.75 0 0] CT
0.149 GC
2 setlinecap
10.0 ML
N
73 145.333 M
77.34 145.333 L
S
GR
GS
[0.75 0 0 0.75 0 0] CT
0.149 GC
2 setlinecap
10.0 ML
N
73 88.167 M
77.34 88.167 L
S
GR
GS
[0.75 0 0 0.75 0 0] CT
0.149 GC
2 setlinecap
10.0 ML
N
73 31 M
77.34 31 L
S
GR
GS
[0.75 0 0 0.75 0 0] CT
0.149 GC
2 setlinecap
10.0 ML
N
507 374 M
502.66 374 L
S
GR
GS
[0.75 0 0 0.75 0 0] CT
0.149 GC
2 setlinecap
10.0 ML
N
507 316.833 M
502.66 316.833 L
S
GR
GS
[0.75 0 0 0.75 0 0] CT
0.149 GC
2 setlinecap
10.0 ML
N
507 259.667 M
502.66 259.667 L
S
GR
GS
[0.75 0 0 0.75 0 0] CT
0.149 GC
2 setlinecap
10.0 ML
N
507 202.5 M
502.66 202.5 L
S
GR
GS
[0.75 0 0 0.75 0 0] CT
0.149 GC
2 setlinecap
10.0 ML
N
507 145.333 M
502.66 145.333 L
S
GR
GS
[0.75 0 0 0.75 0 0] CT
0.149 GC
2 setlinecap
10.0 ML
N
507 88.167 M
502.66 88.167 L
S
GR
GS
[0.75 0 0 0.75 0 0] CT
0.149 GC
2 setlinecap
10.0 ML
N
507 31 M
502.66 31 L
S
GR
GS
[0.75 0 0 0.75 50.75 280.5] CT
0.149 GC
/Helvetica 13 F
GS
[1 0 0 1 0 0] CT
-13 4.5 moveto 
1 -1 scale
(-3) t 
GR
GR
GS
[0.75 0 0 0.75 50.75 237.62501] CT
0.149 GC
/Helvetica 13 F
GS
[1 0 0 1 0 0] CT
-13 4.5 moveto 
1 -1 scale
(-2) t 
GR
GR
GS
[0.75 0 0 0.75 50.75 194.74999] CT
0.149 GC
/Helvetica 13 F
GS
[1 0 0 1 0 0] CT
-13 4.5 moveto 
1 -1 scale
(-1) t 
GR
GR
GS
[0.75 0 0 0.75 50.75 151.875] CT
0.149 GC
/Helvetica 13 F
GS
[1 0 0 1 0 0] CT
-9 4.5 moveto 
1 -1 scale
(0) t 
GR
GR
GS
[0.75 0 0 0.75 50.75 109] CT
0.149 GC
/Helvetica 13 F
GS
[1 0 0 1 0 0] CT
-9 4.5 moveto 
1 -1 scale
(1) t 
GR
GR
GS
[0.75 0 0 0.75 50.75 66.125] CT
0.149 GC
/Helvetica 13 F
GS
[1 0 0 1 0 0] CT
-9 4.5 moveto 
1 -1 scale
(2) t 
GR
GR
GS
[0.75 0 0 0.75 50.75 23.25] CT
0.149 GC
/Helvetica 13 F
GS
[1 0 0 1 0 0] CT
-9 4.5 moveto 
1 -1 scale
(3) t 
GR
GR
GS
[0.75 0 0 0.75 0 0] CT
0 0.447 0.741 RC
2 LJ
N
74.085 161.222 M
75.17 162.459 L
76.255 168.681 L
77.34 172.937 L
78.425 174.432 L
79.51 171.875 L
80.595 187.712 L
81.68 202.33 L
82.765 215.862 L
83.85 227.307 L
84.935 239.551 L
86.02 247.632 L
87.105 251.187 L
88.19 248.927 L
89.275 237.398 L
90.36 222.63 L
91.445 210.332 L
92.53 204.096 L
93.615 204.633 L
94.7 211.803 L
95.785 224.382 L
96.87 234.628 L
97.955 243.485 L
99.04 248.212 L
100.125 250.835 L
101.21 255 L
102.295 265.656 L
103.38 281.886 L
104.465 298.083 L
105.55 313.851 L
106.635 326.179 L
107.72 328.775 L
108.805 320.964 L
109.89 306.661 L
110.975 283.726 L
112.06 259.363 L
113.145 229.937 L
114.23 207.11 L
115.315 182.936 L
116.4 154.602 L
117.485 129.625 L
118.57 107.233 L
119.655 89.074 L
120.74 83.619 L
121.825 79.98 L
122.91 80.137 L
123.995 88.201 L
125.08 94.962 L
126.165 105.52 L
127.25 118.58 L
S
GR
GS
[0.75 0 0 0.75 0 0] CT
0 0.447 0.741 RC
2 LJ
N
127.25 118.58 M
128.335 133.608 L
129.42 151.099 L
130.505 170.922 L
131.59 195.664 L
132.675 227.258 L
133.76 260.905 L
134.845 295.063 L
135.93 305.879 L
137.015 286.064 L
138.1 260.661 L
139.185 231.443 L
140.27 210.297 L
141.355 206.609 L
142.44 204.494 L
143.525 199.365 L
144.61 188.887 L
145.695 183.132 L
146.78 181.331 L
147.865 188.08 L
148.95 197.698 L
150.035 199.216 L
151.12 192.214 L
152.205 181.965 L
153.29 173.935 L
154.375 165.318 L
155.46 156.227 L
156.545 154.557 L
157.63 158.061 L
158.715 160.152 L
159.8 160.263 L
160.885 170.824 L
161.97 196.451 L
163.055 230.323 L
164.14 266.869 L
165.225 298.418 L
166.31 307.513 L
167.395 289.505 L
168.48 257.312 L
169.565 221.472 L
170.65 191.011 L
171.735 170.188 L
172.82 161.504 L
173.905 178.668 L
174.99 214.117 L
176.075 258.559 L
177.16 301.167 L
178.245 331.581 L
179.33 343.404 L
180.415 336.052 L
S
GR
GS
[0.75 0 0 0.75 0 0] CT
0 0.447 0.741 RC
2 LJ
N
180.415 336.052 M
181.5 313.284 L
182.585 284.043 L
183.67 256.895 L
184.755 237.632 L
185.84 225.149 L
186.925 220.162 L
188.01 212.373 L
189.095 206.742 L
190.18 203.719 L
191.265 205.353 L
192.35 203.379 L
193.435 200.901 L
194.52 195.184 L
195.605 189.734 L
196.69 186.641 L
197.775 185.082 L
198.86 188.514 L
199.945 193.703 L
201.03 199.413 L
202.115 204.383 L
203.2 206.447 L
204.285 209.653 L
205.37 214.805 L
206.455 225.567 L
207.54 237.17 L
208.625 248.806 L
209.71 248.678 L
210.795 239.041 L
211.88 228.152 L
212.965 211.412 L
214.05 197.559 L
215.135 187.85 L
216.22 183.586 L
217.305 182.138 L
218.39 183.535 L
219.475 183.517 L
220.56 181.206 L
221.645 178.051 L
222.73 181.361 L
223.815 184.763 L
224.9 179.834 L
225.985 175.382 L
227.07 168.962 L
228.155 164.458 L
229.24 159.944 L
230.325 156.731 L
231.41 157.265 L
232.495 158.187 L
233.58 151.537 L
S
GR
GS
[0.75 0 0 0.75 0 0] CT
0 0.447 0.741 RC
2 LJ
N
233.58 151.537 M
234.665 143.536 L
235.75 156.298 L
236.835 179.521 L
237.92 203.346 L
239.005 215.512 L
240.09 228.673 L
241.175 224.886 L
242.26 213.115 L
243.345 198.618 L
244.43 186.721 L
245.515 183.222 L
246.6 191.557 L
247.685 192.171 L
248.77 182.65 L
249.855 173.559 L
250.94 167.078 L
252.025 159.378 L
253.11 155.115 L
254.195 149.381 L
255.28 141.845 L
256.365 145.633 L
257.45 155.791 L
258.535 162.291 L
259.62 169.481 L
260.705 179.513 L
261.79 187.606 L
262.875 187.813 L
263.96 185.412 L
265.045 192.32 L
266.13 199.244 L
267.215 197.722 L
268.3 197.165 L
269.385 197.697 L
270.47 204.541 L
271.555 220.503 L
272.64 237.798 L
273.725 252.423 L
274.81 260.543 L
275.895 263.396 L
276.98 257.84 L
278.065 255.432 L
279.15 262.427 L
280.235 277.896 L
281.32 302.676 L
282.405 326.633 L
283.49 343.102 L
284.575 346.529 L
285.66 340.945 L
286.745 341.676 L
S
GR
GS
[0.75 0 0 0.75 0 0] CT
0 0.447 0.741 RC
2 LJ
N
286.745 341.676 M
287.83 344.264 L
288.915 350.366 L
290 353.357 L
291.085 348.318 L
292.17 338.643 L
293.255 325.252 L
294.34 306.472 L
295.425 288.785 L
296.51 272.413 L
297.595 258.032 L
298.68 247.451 L
299.765 237.791 L
300.85 227.374 L
301.935 218.844 L
303.02 218.389 L
304.105 225.518 L
305.19 235.358 L
306.275 245.44 L
307.36 246.547 L
308.445 239.709 L
309.53 229.627 L
310.615 225.153 L
311.7 227.006 L
312.785 227.313 L
313.87 227.71 L
314.955 230.45 L
316.04 230.127 L
317.125 224.047 L
318.21 215.969 L
319.295 204.086 L
320.38 191.034 L
321.465 178.509 L
322.55 171.76 L
323.635 174.207 L
324.72 183.725 L
325.805 196.023 L
326.89 210.6 L
327.975 227.454 L
329.06 241.397 L
330.145 249.468 L
331.23 255.802 L
332.315 259.501 L
333.4 257.316 L
334.485 250.594 L
335.57 246.237 L
336.655 243.551 L
337.74 242.961 L
338.825 245.202 L
339.91 248.325 L
S
GR
GS
[0.75 0 0 0.75 0 0] CT
0 0.447 0.741 RC
2 LJ
N
339.91 248.325 M
340.995 252.027 L
342.08 255.775 L
343.165 255.249 L
344.25 251.247 L
345.335 240.36 L
346.42 220.748 L
347.505 197.353 L
348.59 183.378 L
349.675 178.607 L
350.76 176.271 L
351.845 174.179 L
352.93 172.876 L
354.015 163.928 L
355.1 150.005 L
356.185 140.323 L
357.27 138.008 L
358.355 145.734 L
359.44 160.21 L
360.525 172.651 L
361.61 180.601 L
362.695 185.739 L
363.78 186.563 L
364.865 186.133 L
365.95 187.78 L
367.035 188.638 L
368.12 194.133 L
369.205 207.708 L
370.29 229.088 L
371.375 256.469 L
372.46 279.502 L
373.545 287.875 L
374.63 284.276 L
375.715 262.843 L
376.8 240.232 L
377.885 217.304 L
378.97 198.984 L
380.055 185.35 L
381.14 175.87 L
382.225 165.232 L
383.31 149.062 L
384.395 131.795 L
385.48 115.621 L
386.565 104.544 L
387.65 102.629 L
388.735 110.988 L
389.82 122.442 L
390.905 123.128 L
391.99 130.414 L
393.075 141.459 L
S
GR
GS
[0.75 0 0 0.75 0 0] CT
0 0.447 0.741 RC
2 LJ
N
393.075 141.459 M
394.16 153.51 L
395.245 158.393 L
396.33 156.394 L
397.415 149.482 L
398.5 148.36 L
399.585 132.779 L
400.67 119.326 L
401.755 111.012 L
402.84 109.139 L
403.925 123.4 L
405.01 137.781 L
406.095 148.218 L
407.18 159.389 L
408.265 160.863 L
409.35 166.711 L
410.435 168.014 L
411.52 167.783 L
412.605 165.259 L
413.69 160.617 L
414.775 153.064 L
415.86 140.815 L
416.945 130.841 L
418.03 119.264 L
419.115 108.545 L
420.2 98.851 L
421.285 89.317 L
422.37 79.261 L
423.455 79.213 L
424.54 95.762 L
425.625 128.605 L
426.71 173.362 L
427.795 218.656 L
428.88 249.082 L
429.965 262.508 L
431.05 255.914 L
432.135 229.717 L
433.22 205.932 L
434.305 189.935 L
435.39 184.868 L
436.475 187.297 L
437.56 191.821 L
438.645 198.245 L
439.73 198.52 L
440.815 191.8 L
441.9 172.626 L
442.985 148.615 L
444.07 131.45 L
445.155 122.863 L
446.24 121.105 L
S
GR
GS
[0.75 0 0 0.75 0 0] CT
0 0.447 0.741 RC
2 LJ
N
446.24 121.105 M
447.325 124.706 L
448.41 129.939 L
449.495 136.579 L
450.58 144.978 L
451.665 147.945 L
452.75 146.499 L
453.835 153.301 L
454.92 161.797 L
456.005 170.333 L
457.09 176.067 L
458.175 174.721 L
459.26 171.147 L
460.345 167.824 L
461.43 159.179 L
462.515 150.147 L
463.6 146.012 L
464.685 146.795 L
465.77 150.588 L
466.855 158.878 L
467.94 173.584 L
469.025 197.594 L
470.11 227.812 L
471.195 257.926 L
472.28 282.892 L
473.365 295.934 L
474.45 281.804 L
475.535 243.339 L
476.62 203.5 L
477.705 173.963 L
S
GR
%%Trailer
%%Pages: 1
%%EOF
