%!PS-Adobe-3.0 EPSF-3.0
%%Creator: (MATLAB, The Mathworks, Inc. Version 8.5.0.197613 \(R2015a\). Operating System: Linux)
%%Title: Results/Plotcompar463.eps
%%CreationDate: 2016-10-26T11:35:22
%%Pages: (atend)
%%BoundingBox: (atend)
%%LanguageLevel: 3
%%EndComments
%%BeginProlog
%%BeginResource: procset (Apache XML Graphics Std ProcSet) 1.2 0
%%Version: 1.2 0
%%Copyright: (Copyright 2001-2003,2010 The Apache Software Foundation. License terms: http://www.apache.org/licenses/LICENSE-2.0)
/bd{bind def}bind def
/ld{load def}bd
/GR/grestore ld
/M/moveto ld
/LJ/setlinejoin ld
/C/curveto ld
/f/fill ld
/LW/setlinewidth ld
/GC/setgray ld
/t/show ld
/N/newpath ld
/CT/concat ld
/cp/closepath ld
/S/stroke ld
/L/lineto ld
/CC/setcmykcolor ld
/A/ashow ld
/GS/gsave ld
/RC/setrgbcolor ld
/RM/rmoveto ld
/ML/setmiterlimit ld
/re {4 2 roll M
1 index 0 rlineto
0 exch rlineto
neg 0 rlineto
cp } bd
/_ctm matrix def
/_tm matrix def
/BT { _ctm currentmatrix pop matrix _tm copy pop 0 0 moveto } bd
/ET { _ctm setmatrix } bd
/iTm { _ctm setmatrix _tm concat } bd
/Tm { _tm astore pop iTm 0 0 moveto } bd
/ux 0.0 def
/uy 0.0 def
/F {
  /Tp exch def
  /Tf exch def
  Tf findfont Tp scalefont setfont
  /cf Tf def  /cs Tp def
} bd
/ULS {currentpoint /uy exch def /ux exch def} bd
/ULE {
  /Tcx currentpoint pop def
  gsave
  newpath
  cf findfont cs scalefont dup
  /FontMatrix get 0 get /Ts exch def /FontInfo get dup
  /UnderlinePosition get Ts mul /To exch def
  /UnderlineThickness get Ts mul /Tt exch def
  ux uy To add moveto  Tcx uy To add lineto
  Tt setlinewidth stroke
  grestore
} bd
/OLE {
  /Tcx currentpoint pop def
  gsave
  newpath
  cf findfont cs scalefont dup
  /FontMatrix get 0 get /Ts exch def /FontInfo get dup
  /UnderlinePosition get Ts mul /To exch def
  /UnderlineThickness get Ts mul /Tt exch def
  ux uy To add cs add moveto Tcx uy To add cs add lineto
  Tt setlinewidth stroke
  grestore
} bd
/SOE {
  /Tcx currentpoint pop def
  gsave
  newpath
  cf findfont cs scalefont dup
  /FontMatrix get 0 get /Ts exch def /FontInfo get dup
  /UnderlinePosition get Ts mul /To exch def
  /UnderlineThickness get Ts mul /Tt exch def
  ux uy To add cs 10 mul 26 idiv add moveto Tcx uy To add cs 10 mul 26 idiv add lineto
  Tt setlinewidth stroke
  grestore
} bd
/QT {
/Y22 exch store
/X22 exch store
/Y21 exch store
/X21 exch store
currentpoint
/Y21 load 2 mul add 3 div exch
/X21 load 2 mul add 3 div exch
/X21 load 2 mul /X22 load add 3 div
/Y21 load 2 mul /Y22 load add 3 div
/X22 load /Y22 load curveto
} bd
/SSPD {
dup length /d exch dict def
{
/v exch def
/k exch def
currentpagedevice k known {
/cpdv currentpagedevice k get def
v cpdv ne {
/upd false def
/nullv v type /nulltype eq def
/nullcpdv cpdv type /nulltype eq def
nullv nullcpdv or
{
/upd true def
} {
/sametype v type cpdv type eq def
sametype {
v type /arraytype eq {
/vlen v length def
/cpdvlen cpdv length def
vlen cpdvlen eq {
0 1 vlen 1 sub {
/i exch def
/obj v i get def
/cpdobj cpdv i get def
obj cpdobj ne {
/upd true def
exit
} if
} for
} {
/upd true def
} ifelse
} {
v type /dicttype eq {
v {
/dv exch def
/dk exch def
/cpddv cpdv dk get def
dv cpddv ne {
/upd true def
exit
} if
} forall
} {
/upd true def
} ifelse
} ifelse
} if
} ifelse
upd true eq {
d k v put
} if
} if
} if
} forall
d length 0 gt {
d setpagedevice
} if
} bd
%%EndResource
%%BeginResource: procset (Apache XML Graphics EPS ProcSet) 1.0 0
%%Version: 1.0 0
%%Copyright: (Copyright 2002-2003 The Apache Software Foundation. License terms: http://www.apache.org/licenses/LICENSE-2.0)
/BeginEPSF { %def
/b4_Inc_state save def         % Save state for cleanup
/dict_count countdictstack def % Count objects on dict stack
/op_count count 1 sub def      % Count objects on operand stack
userdict begin                 % Push userdict on dict stack
/showpage { } def              % Redefine showpage, { } = null proc
0 setgray 0 setlinecap         % Prepare graphics state
1 setlinewidth 0 setlinejoin
10 setmiterlimit [ ] 0 setdash newpath
/languagelevel where           % If level not equal to 1 then
{pop languagelevel             % set strokeadjust and
1 ne                           % overprint to their defaults.
{false setstrokeadjust false setoverprint
} if
} if
} bd
/EndEPSF { %def
count op_count sub {pop} repeat            % Clean up stacks
countdictstack dict_count sub {end} repeat
b4_Inc_state restore
} bd
%%EndResource
%FOPBeginFontDict
%%IncludeResource: font Courier-Bold
%%IncludeResource: font Helvetica
%%IncludeResource: font Courier-BoldOblique
%%IncludeResource: font Courier-Oblique
%%IncludeResource: font Times-Roman
%%IncludeResource: font Helvetica-BoldOblique
%%IncludeResource: font Helvetica-Bold
%%IncludeResource: font Helvetica-Oblique
%%IncludeResource: font Times-BoldItalic
%%IncludeResource: font Courier
%%IncludeResource: font Times-Italic
%%IncludeResource: font Times-Bold
%%IncludeResource: font Symbol
%%IncludeResource: font ZapfDingbats
%FOPEndFontDict
%%BeginResource: encoding WinAnsiEncoding
/WinAnsiEncoding [
/.notdef /.notdef /.notdef /.notdef /.notdef
/.notdef /.notdef /.notdef /.notdef /.notdef
/.notdef /.notdef /.notdef /.notdef /.notdef
/.notdef /.notdef /.notdef /.notdef /.notdef
/.notdef /.notdef /.notdef /.notdef /.notdef
/.notdef /.notdef /.notdef /.notdef /.notdef
/.notdef /.notdef /space /exclam /quotedbl
/numbersign /dollar /percent /ampersand /quotesingle
/parenleft /parenright /asterisk /plus /comma
/hyphen /period /slash /zero /one
/two /three /four /five /six
/seven /eight /nine /colon /semicolon
/less /equal /greater /question /at
/A /B /C /D /E
/F /G /H /I /J
/K /L /M /N /O
/P /Q /R /S /T
/U /V /W /X /Y
/Z /bracketleft /backslash /bracketright /asciicircum
/underscore /quoteleft /a /b /c
/d /e /f /g /h
/i /j /k /l /m
/n /o /p /q /r
/s /t /u /v /w
/x /y /z /braceleft /bar
/braceright /asciitilde /bullet /Euro /bullet
/quotesinglbase /florin /quotedblbase /ellipsis /dagger
/daggerdbl /circumflex /perthousand /Scaron /guilsinglleft
/OE /bullet /Zcaron /bullet /bullet
/quoteleft /quoteright /quotedblleft /quotedblright /bullet
/endash /emdash /asciitilde /trademark /scaron
/guilsinglright /oe /bullet /zcaron /Ydieresis
/space /exclamdown /cent /sterling /currency
/yen /brokenbar /section /dieresis /copyright
/ordfeminine /guillemotleft /logicalnot /sfthyphen /registered
/macron /degree /plusminus /twosuperior /threesuperior
/acute /mu /paragraph /middot /cedilla
/onesuperior /ordmasculine /guillemotright /onequarter /onehalf
/threequarters /questiondown /Agrave /Aacute /Acircumflex
/Atilde /Adieresis /Aring /AE /Ccedilla
/Egrave /Eacute /Ecircumflex /Edieresis /Igrave
/Iacute /Icircumflex /Idieresis /Eth /Ntilde
/Ograve /Oacute /Ocircumflex /Otilde /Odieresis
/multiply /Oslash /Ugrave /Uacute /Ucircumflex
/Udieresis /Yacute /Thorn /germandbls /agrave
/aacute /acircumflex /atilde /adieresis /aring
/ae /ccedilla /egrave /eacute /ecircumflex
/edieresis /igrave /iacute /icircumflex /idieresis
/eth /ntilde /ograve /oacute /ocircumflex
/otilde /odieresis /divide /oslash /ugrave
/uacute /ucircumflex /udieresis /yacute /thorn
/ydieresis
] def
%%EndResource
%FOPBeginFontReencode
/Courier-Bold findfont
dup length dict begin
  {1 index /FID ne {def} {pop pop} ifelse} forall
  /Encoding WinAnsiEncoding def
  currentdict
end
/Courier-Bold exch definefont pop
/Helvetica findfont
dup length dict begin
  {1 index /FID ne {def} {pop pop} ifelse} forall
  /Encoding WinAnsiEncoding def
  currentdict
end
/Helvetica exch definefont pop
/Courier-BoldOblique findfont
dup length dict begin
  {1 index /FID ne {def} {pop pop} ifelse} forall
  /Encoding WinAnsiEncoding def
  currentdict
end
/Courier-BoldOblique exch definefont pop
/Courier-Oblique findfont
dup length dict begin
  {1 index /FID ne {def} {pop pop} ifelse} forall
  /Encoding WinAnsiEncoding def
  currentdict
end
/Courier-Oblique exch definefont pop
/Times-Roman findfont
dup length dict begin
  {1 index /FID ne {def} {pop pop} ifelse} forall
  /Encoding WinAnsiEncoding def
  currentdict
end
/Times-Roman exch definefont pop
/Helvetica-BoldOblique findfont
dup length dict begin
  {1 index /FID ne {def} {pop pop} ifelse} forall
  /Encoding WinAnsiEncoding def
  currentdict
end
/Helvetica-BoldOblique exch definefont pop
/Helvetica-Bold findfont
dup length dict begin
  {1 index /FID ne {def} {pop pop} ifelse} forall
  /Encoding WinAnsiEncoding def
  currentdict
end
/Helvetica-Bold exch definefont pop
/Helvetica-Oblique findfont
dup length dict begin
  {1 index /FID ne {def} {pop pop} ifelse} forall
  /Encoding WinAnsiEncoding def
  currentdict
end
/Helvetica-Oblique exch definefont pop
/Times-BoldItalic findfont
dup length dict begin
  {1 index /FID ne {def} {pop pop} ifelse} forall
  /Encoding WinAnsiEncoding def
  currentdict
end
/Times-BoldItalic exch definefont pop
/Courier findfont
dup length dict begin
  {1 index /FID ne {def} {pop pop} ifelse} forall
  /Encoding WinAnsiEncoding def
  currentdict
end
/Courier exch definefont pop
/Times-Italic findfont
dup length dict begin
  {1 index /FID ne {def} {pop pop} ifelse} forall
  /Encoding WinAnsiEncoding def
  currentdict
end
/Times-Italic exch definefont pop
/Times-Bold findfont
dup length dict begin
  {1 index /FID ne {def} {pop pop} ifelse} forall
  /Encoding WinAnsiEncoding def
  currentdict
end
/Times-Bold exch definefont pop
%FOPEndFontReencode
%%EndProlog
%%Page: 1 1
%%PageBoundingBox: 0 0 576 432
%%BeginPageSetup
[1 0 0 -1 0 432] CT
%%EndPageSetup
GS
[0.75 0 0 0.75 0 0] CT
1 GC
N
0 0 768 576 re
f
GR
GS
[0.75 0 0 0.75 0 0] CT
1 GC
N
0 0 768 576 re
f
GR
GS
[0.75 0 0 0.75 0 0] CT
1 GC
N
73 374 M
507 374 L
507 31 L
73 31 L
cp
f
GR
GS
[0.75 0 0 0.75 217.50016 298.24999] CT
0.149 GC
/Helvetica 15 F
GS
[1 0 0 1 0 0] CT
-18 14 moveto 
1 -1 scale
(pixel) t 
GR
GR
GS
[0.75 0 0 0.75 0 0] CT
0.149 GC
2 setlinecap
10.0 ML
N
73 374 M
507 374 L
S
GR
GS
[0.75 0 0 0.75 0 0] CT
0.149 GC
2 setlinecap
10.0 ML
N
73 31 M
507 31 L
S
GR
GS
[0.75 0 0 0.75 0 0] CT
0.149 GC
2 setlinecap
10.0 ML
N
73 374 M
73 369.66 L
S
GR
GS
[0.75 0 0 0.75 0 0] CT
0.149 GC
2 setlinecap
10.0 ML
N
127.25 374 M
127.25 369.66 L
S
GR
GS
[0.75 0 0 0.75 0 0] CT
0.149 GC
2 setlinecap
10.0 ML
N
181.5 374 M
181.5 369.66 L
S
GR
GS
[0.75 0 0 0.75 0 0] CT
0.149 GC
2 setlinecap
10.0 ML
N
235.75 374 M
235.75 369.66 L
S
GR
GS
[0.75 0 0 0.75 0 0] CT
0.149 GC
2 setlinecap
10.0 ML
N
290 374 M
290 369.66 L
S
GR
GS
[0.75 0 0 0.75 0 0] CT
0.149 GC
2 setlinecap
10.0 ML
N
344.25 374 M
344.25 369.66 L
S
GR
GS
[0.75 0 0 0.75 0 0] CT
0.149 GC
2 setlinecap
10.0 ML
N
398.5 374 M
398.5 369.66 L
S
GR
GS
[0.75 0 0 0.75 0 0] CT
0.149 GC
2 setlinecap
10.0 ML
N
452.75 374 M
452.75 369.66 L
S
GR
GS
[0.75 0 0 0.75 0 0] CT
0.149 GC
2 setlinecap
10.0 ML
N
507 374 M
507 369.66 L
S
GR
GS
[0.75 0 0 0.75 0 0] CT
0.149 GC
2 setlinecap
10.0 ML
N
73 31 M
73 35.34 L
S
GR
GS
[0.75 0 0 0.75 0 0] CT
0.149 GC
2 setlinecap
10.0 ML
N
127.25 31 M
127.25 35.34 L
S
GR
GS
[0.75 0 0 0.75 0 0] CT
0.149 GC
2 setlinecap
10.0 ML
N
181.5 31 M
181.5 35.34 L
S
GR
GS
[0.75 0 0 0.75 0 0] CT
0.149 GC
2 setlinecap
10.0 ML
N
235.75 31 M
235.75 35.34 L
S
GR
GS
[0.75 0 0 0.75 0 0] CT
0.149 GC
2 setlinecap
10.0 ML
N
290 31 M
290 35.34 L
S
GR
GS
[0.75 0 0 0.75 0 0] CT
0.149 GC
2 setlinecap
10.0 ML
N
344.25 31 M
344.25 35.34 L
S
GR
GS
[0.75 0 0 0.75 0 0] CT
0.149 GC
2 setlinecap
10.0 ML
N
398.5 31 M
398.5 35.34 L
S
GR
GS
[0.75 0 0 0.75 0 0] CT
0.149 GC
2 setlinecap
10.0 ML
N
452.75 31 M
452.75 35.34 L
S
GR
GS
[0.75 0 0 0.75 0 0] CT
0.149 GC
2 setlinecap
10.0 ML
N
507 31 M
507 35.34 L
S
GR
GS
[0.75 0 0 0.75 54.75 284.50001] CT
0.149 GC
/Helvetica 13 F
GS
[1 0 0 1 0 0] CT
-4.5 13 moveto 
1 -1 scale
(0) t 
GR
GR
GS
[0.75 0 0 0.75 95.4375 284.50001] CT
0.149 GC
/Helvetica 13 F
GS
[1 0 0 1 0 0] CT
-8.5 13 moveto 
1 -1 scale
(50) t 
GR
GR
GS
[0.75 0 0 0.75 136.125 284.50001] CT
0.149 GC
/Helvetica 13 F
GS
[1 0 0 1 0 0] CT
-12.5 13 moveto 
1 -1 scale
(100) t 
GR
GR
GS
[0.75 0 0 0.75 176.8125 284.50001] CT
0.149 GC
/Helvetica 13 F
GS
[1 0 0 1 0 0] CT
-12.5 13 moveto 
1 -1 scale
(150) t 
GR
GR
GS
[0.75 0 0 0.75 217.5 284.50001] CT
0.149 GC
/Helvetica 13 F
GS
[1 0 0 1 0 0] CT
-12.5 13 moveto 
1 -1 scale
(200) t 
GR
GR
GS
[0.75 0 0 0.75 258.1875 284.50001] CT
0.149 GC
/Helvetica 13 F
GS
[1 0 0 1 0 0] CT
-12.5 13 moveto 
1 -1 scale
(250) t 
GR
GR
GS
[0.75 0 0 0.75 298.875 284.50001] CT
0.149 GC
/Helvetica 13 F
GS
[1 0 0 1 0 0] CT
-12.5 13 moveto 
1 -1 scale
(300) t 
GR
GR
GS
[0.75 0 0 0.75 339.5625 284.50001] CT
0.149 GC
/Helvetica 13 F
GS
[1 0 0 1 0 0] CT
-12.5 13 moveto 
1 -1 scale
(350) t 
GR
GR
GS
[0.75 0 0 0.75 380.25 284.50001] CT
0.149 GC
/Helvetica 13 F
GS
[1 0 0 1 0 0] CT
-12.5 13 moveto 
1 -1 scale
(400) t 
GR
GR
GS
[0 -0.75 0.75 0 28.25 151.87487] CT
0.149 GC
/Helvetica 15 F
GS
[1 0 0 1 0 0] CT
-61.5 -4 moveto 
1 -1 scale
(correlation coef.) t 
GR
GR
GS
[0.75 0 0 0.75 0 0] CT
0.149 GC
2 setlinecap
10.0 ML
N
73 374 M
73 31 L
S
GR
GS
[0.75 0 0 0.75 0 0] CT
0.149 GC
2 setlinecap
10.0 ML
N
507 374 M
507 31 L
S
GR
GS
[0.75 0 0 0.75 0 0] CT
0.149 GC
2 setlinecap
10.0 ML
N
73 374 M
77.34 374 L
S
GR
GS
[0.75 0 0 0.75 0 0] CT
0.149 GC
2 setlinecap
10.0 ML
N
73 325 M
77.34 325 L
S
GR
GS
[0.75 0 0 0.75 0 0] CT
0.149 GC
2 setlinecap
10.0 ML
N
73 276 M
77.34 276 L
S
GR
GS
[0.75 0 0 0.75 0 0] CT
0.149 GC
2 setlinecap
10.0 ML
N
73 227 M
77.34 227 L
S
GR
GS
[0.75 0 0 0.75 0 0] CT
0.149 GC
2 setlinecap
10.0 ML
N
73 178 M
77.34 178 L
S
GR
GS
[0.75 0 0 0.75 0 0] CT
0.149 GC
2 setlinecap
10.0 ML
N
73 129 M
77.34 129 L
S
GR
GS
[0.75 0 0 0.75 0 0] CT
0.149 GC
2 setlinecap
10.0 ML
N
73 80 M
77.34 80 L
S
GR
GS
[0.75 0 0 0.75 0 0] CT
0.149 GC
2 setlinecap
10.0 ML
N
73 31 M
77.34 31 L
S
GR
GS
[0.75 0 0 0.75 0 0] CT
0.149 GC
2 setlinecap
10.0 ML
N
507 374 M
502.66 374 L
S
GR
GS
[0.75 0 0 0.75 0 0] CT
0.149 GC
2 setlinecap
10.0 ML
N
507 325 M
502.66 325 L
S
GR
GS
[0.75 0 0 0.75 0 0] CT
0.149 GC
2 setlinecap
10.0 ML
N
507 276 M
502.66 276 L
S
GR
GS
[0.75 0 0 0.75 0 0] CT
0.149 GC
2 setlinecap
10.0 ML
N
507 227 M
502.66 227 L
S
GR
GS
[0.75 0 0 0.75 0 0] CT
0.149 GC
2 setlinecap
10.0 ML
N
507 178 M
502.66 178 L
S
GR
GS
[0.75 0 0 0.75 0 0] CT
0.149 GC
2 setlinecap
10.0 ML
N
507 129 M
502.66 129 L
S
GR
GS
[0.75 0 0 0.75 0 0] CT
0.149 GC
2 setlinecap
10.0 ML
N
507 80 M
502.66 80 L
S
GR
GS
[0.75 0 0 0.75 0 0] CT
0.149 GC
2 setlinecap
10.0 ML
N
507 31 M
502.66 31 L
S
GR
GS
[0.75 0 0 0.75 50.75 280.5] CT
0.149 GC
/Helvetica 13 F
GS
[1 0 0 1 0 0] CT
-26 4.5 moveto 
1 -1 scale
(-0.4) t 
GR
GR
GS
[0.75 0 0 0.75 50.75 243.75] CT
0.149 GC
/Helvetica 13 F
GS
[1 0 0 1 0 0] CT
-26 4.5 moveto 
1 -1 scale
(-0.2) t 
GR
GR
GS
[0.75 0 0 0.75 50.75 207] CT
0.149 GC
/Helvetica 13 F
GS
[1 0 0 1 0 0] CT
-9 4.5 moveto 
1 -1 scale
(0) t 
GR
GR
GS
[0.75 0 0 0.75 50.75 170.25] CT
0.149 GC
/Helvetica 13 F
GS
[1 0 0 1 0 0] CT
-21 4.5 moveto 
1 -1 scale
(0.2) t 
GR
GR
GS
[0.75 0 0 0.75 50.75 133.5] CT
0.149 GC
/Helvetica 13 F
GS
[1 0 0 1 0 0] CT
-21 4.5 moveto 
1 -1 scale
(0.4) t 
GR
GR
GS
[0.75 0 0 0.75 50.75 96.75] CT
0.149 GC
/Helvetica 13 F
GS
[1 0 0 1 0 0] CT
-21 4.5 moveto 
1 -1 scale
(0.6) t 
GR
GR
GS
[0.75 0 0 0.75 50.75 60] CT
0.149 GC
/Helvetica 13 F
GS
[1 0 0 1 0 0] CT
-21 4.5 moveto 
1 -1 scale
(0.8) t 
GR
GR
GS
[0.75 0 0 0.75 50.75 23.25] CT
0.149 GC
/Helvetica 13 F
GS
[1 0 0 1 0 0] CT
-9 4.5 moveto 
1 -1 scale
(1) t 
GR
GR
GS
[0.75 0 0 0.75 0 0] CT
0 0.447 0.741 RC
2 LJ
N
74.085 31 M
75.17 36.193 L
76.255 51.122 L
77.34 73.966 L
78.425 102.103 L
79.51 132.6 L
80.595 162.708 L
81.68 190.249 L
82.765 213.818 L
83.85 232.8 L
84.935 247.246 L
86.02 257.664 L
87.105 264.798 L
88.19 269.443 L
89.275 272.323 L
90.36 274.025 L
91.445 274.983 L
92.53 275.499 L
93.615 275.763 L
94.7 275.893 L
95.785 275.954 L
96.87 275.981 L
97.955 275.992 L
99.04 275.997 L
100.125 275.999 L
101.21 276 L
102.295 276 L
103.38 276 L
104.465 276 L
105.55 276 L
106.635 276 L
107.72 276 L
108.805 276 L
109.89 276 L
110.975 276 L
112.06 276 L
113.145 276 L
114.23 276 L
115.315 276 L
116.4 276 L
117.485 276 L
118.57 276 L
119.655 276 L
120.74 276 L
121.825 276 L
122.91 276 L
123.995 276 L
125.08 276 L
126.165 276 L
127.25 276 L
S
GR
GS
[0.75 0 0 0.75 0 0] CT
0 0.447 0.741 RC
2 LJ
N
127.25 276 M
128.335 276 L
129.42 276 L
130.505 276 L
131.59 276 L
132.675 276 L
133.76 276 L
134.845 276 L
135.93 276 L
137.015 276 L
138.1 276 L
139.185 276 L
140.27 276 L
141.355 276 L
142.44 276 L
143.525 276 L
144.61 276 L
145.695 276 L
146.78 276 L
147.865 276 L
148.95 276 L
150.035 276 L
151.12 276 L
152.205 276 L
153.29 276 L
154.375 276 L
155.46 276 L
156.545 276 L
157.63 276 L
158.715 276 L
159.8 276 L
160.885 276 L
161.97 276 L
163.055 276 L
164.14 276 L
165.225 276 L
166.31 276 L
167.395 276 L
168.48 276 L
169.565 276 L
170.65 276 L
171.735 276 L
172.82 276 L
173.905 276 L
174.99 276 L
176.075 276 L
177.16 276 L
178.245 276 L
179.33 276 L
180.415 276 L
S
GR
GS
[0.75 0 0 0.75 0 0] CT
0 0.447 0.741 RC
2 LJ
N
180.415 276 M
181.5 276 L
182.585 276 L
183.67 276 L
184.755 276 L
185.84 276 L
186.925 276 L
188.01 276 L
189.095 276 L
190.18 276 L
191.265 276 L
192.35 276 L
193.435 276 L
194.52 276 L
195.605 276 L
196.69 276 L
197.775 276 L
198.86 276 L
199.945 276 L
201.03 276 L
202.115 276 L
203.2 276 L
204.285 276 L
205.37 276 L
206.455 276 L
207.54 276 L
208.625 276 L
209.71 276 L
210.795 276 L
211.88 276 L
212.965 276 L
214.05 276 L
215.135 276 L
216.22 276 L
217.305 276 L
218.39 276 L
219.475 276 L
220.56 276 L
221.645 276 L
222.73 276 L
223.815 276 L
224.9 276 L
225.985 276 L
227.07 276 L
228.155 276 L
229.24 276 L
230.325 276 L
231.41 276 L
232.495 276 L
233.58 276 L
S
GR
GS
[0.75 0 0 0.75 0 0] CT
0 0.447 0.741 RC
2 LJ
N
233.58 276 M
234.665 276 L
235.75 276 L
236.835 276 L
237.92 276 L
239.005 276 L
240.09 276 L
241.175 276 L
242.26 276 L
243.345 276 L
244.43 276 L
245.515 276 L
246.6 276 L
247.685 276 L
248.77 276 L
249.855 276 L
250.94 276 L
252.025 276 L
253.11 276 L
254.195 276 L
255.28 276 L
256.365 276 L
257.45 276 L
258.535 276 L
259.62 276 L
260.705 276 L
261.79 276 L
262.875 276 L
263.96 276 L
265.045 276 L
266.13 276 L
267.215 276 L
268.3 276 L
269.385 276 L
270.47 276 L
271.555 276 L
272.64 276 L
273.725 276 L
274.81 276 L
275.895 276 L
276.98 276 L
278.065 276 L
279.15 276 L
280.235 276 L
281.32 276 L
282.405 276 L
283.49 276 L
284.575 276 L
285.66 276 L
286.745 276 L
S
GR
GS
[0.75 0 0 0.75 0 0] CT
0 0.447 0.741 RC
2 LJ
N
286.745 276 M
287.83 276 L
288.915 276 L
290 276 L
291.085 276 L
292.17 276 L
293.255 276 L
294.34 276 L
295.425 276 L
296.51 276 L
297.595 276 L
298.68 276 L
299.765 276 L
300.85 276 L
301.935 276 L
303.02 276 L
304.105 276 L
305.19 276 L
306.275 276 L
307.36 276 L
308.445 276 L
309.53 276 L
310.615 276 L
311.7 276 L
312.785 276 L
313.87 276 L
314.955 276 L
316.04 276 L
317.125 276 L
318.21 276 L
319.295 276 L
320.38 276 L
321.465 276 L
322.55 276 L
323.635 276 L
324.72 276 L
325.805 276 L
326.89 276 L
327.975 276 L
329.06 276 L
330.145 276 L
331.23 276 L
332.315 276 L
333.4 276 L
334.485 276 L
335.57 276 L
336.655 276 L
337.74 276 L
338.825 276 L
339.91 276 L
S
GR
GS
[0.75 0 0 0.75 0 0] CT
0 0.447 0.741 RC
2 LJ
N
339.91 276 M
340.995 276 L
342.08 276 L
343.165 276 L
344.25 276 L
345.335 276 L
346.42 276 L
347.505 276 L
348.59 276 L
349.675 276 L
350.76 276 L
351.845 276 L
352.93 276 L
354.015 276 L
355.1 276 L
356.185 276 L
357.27 276 L
358.355 276 L
359.44 276 L
360.525 276 L
361.61 276 L
362.695 276 L
363.78 276 L
364.865 276 L
365.95 276 L
367.035 276 L
368.12 276 L
369.205 276 L
370.29 276 L
371.375 276 L
372.46 276 L
373.545 276 L
374.63 276 L
375.715 276 L
376.8 276 L
377.885 276 L
378.97 276 L
380.055 276 L
381.14 276 L
382.225 276 L
383.31 276 L
384.395 276 L
385.48 276 L
386.565 276 L
387.65 276 L
388.735 276 L
389.82 276 L
390.905 276 L
391.99 276 L
393.075 276 L
S
GR
GS
[0.75 0 0 0.75 0 0] CT
0 0.447 0.741 RC
2 LJ
N
393.075 276 M
394.16 276 L
395.245 276 L
396.33 276 L
397.415 276 L
398.5 276 L
399.585 276 L
400.67 276 L
401.755 276 L
402.84 276 L
403.925 276 L
405.01 276 L
406.095 276 L
407.18 276 L
408.265 276 L
409.35 276 L
410.435 276 L
411.52 276 L
412.605 276 L
413.69 276 L
414.775 276 L
415.86 276 L
416.945 276 L
418.03 276 L
419.115 276 L
420.2 276 L
421.285 276 L
422.37 276 L
423.455 276 L
424.54 276 L
425.625 276 L
426.71 276 L
427.795 276 L
428.88 276 L
429.965 276 L
431.05 276 L
432.135 276 L
433.22 276 L
434.305 276 L
435.39 276 L
436.475 276 L
437.56 276 L
438.645 276 L
439.73 276 L
440.815 276 L
441.9 276 L
442.985 276 L
444.07 276 L
445.155 276 L
446.24 276 L
S
GR
GS
[0.75 0 0 0.75 0 0] CT
0 0.447 0.741 RC
2 LJ
N
446.24 276 M
447.325 276 L
448.41 276 L
449.495 276 L
450.58 276 L
451.665 275.999 L
452.75 275.997 L
453.835 275.992 L
454.92 275.981 L
456.005 275.954 L
457.09 275.893 L
458.175 275.763 L
459.26 275.499 L
460.345 274.983 L
461.43 274.025 L
462.515 272.323 L
463.6 269.443 L
464.685 264.798 L
465.77 257.664 L
466.855 247.246 L
467.94 232.8 L
469.025 213.818 L
470.11 190.249 L
471.195 162.708 L
472.28 132.6 L
473.365 102.103 L
474.45 73.966 L
475.535 51.122 L
476.62 36.193 L
S
GR
GS
[0.75 0 0 0.75 0 0] CT
0.851 0.325 0.098 RC
2 LJ
N
74.085 31 M
75.17 38.487 L
76.255 58.813 L
77.34 87.393 L
78.425 118.993 L
79.51 149.153 L
80.595 175.139 L
81.68 196.022 L
82.765 212.158 L
83.85 224.545 L
84.935 234.182 L
86.02 241.88 L
87.105 248.228 L
88.19 253.649 L
89.275 258.35 L
90.36 262.234 L
91.445 265.049 L
92.53 266.646 L
93.615 267.005 L
94.7 266.389 L
95.785 265.135 L
96.87 263.35 L
97.955 260.847 L
99.04 257.35 L
100.125 252.685 L
101.21 247.098 L
102.295 241.353 L
103.38 236.54 L
104.465 233.661 L
105.55 233.191 L
106.635 235.08 L
107.72 238.778 L
108.805 243.355 L
109.89 247.773 L
110.975 251.13 L
112.06 252.896 L
113.145 253.14 L
114.23 252.541 L
115.315 252.269 L
116.4 253.701 L
117.485 258.01 L
118.57 265.664 L
119.655 276.233 L
120.74 288.446 L
121.825 300.448 L
122.91 310.377 L
123.995 317.081 L
125.08 320.278 L
126.165 320.406 L
127.25 318.315 L
S
GR
GS
[0.75 0 0 0.75 0 0] CT
0.851 0.325 0.098 RC
2 LJ
N
127.25 318.315 M
128.335 314.888 L
129.42 310.798 L
130.505 306.551 L
131.59 302.538 L
132.675 299.061 L
133.76 296.27 L
134.845 294.123 L
135.93 292.355 L
137.015 290.605 L
138.1 288.696 L
139.185 286.864 L
140.27 285.651 L
141.355 285.442 L
142.44 286.034 L
143.525 286.776 L
144.61 286.947 L
145.695 286.099 L
146.78 284.2 L
147.865 281.662 L
148.95 279.097 L
150.035 276.998 L
151.12 275.555 L
152.205 274.843 L
153.29 275.13 L
154.375 276.812 L
155.46 280.311 L
156.545 285.816 L
157.63 293.018 L
158.715 301.124 L
159.8 309.05 L
160.885 315.736 L
161.97 320.552 L
163.055 323.277 L
164.14 323.759 L
165.225 321.793 L
166.31 317.277 L
167.395 310.314 L
168.48 301.425 L
169.565 291.698 L
170.65 282.62 L
171.735 275.616 L
172.82 271.613 L
173.905 270.769 L
174.99 272.495 L
176.075 275.72 L
177.16 279.27 L
178.245 282.081 L
179.33 283.537 L
180.415 283.602 L
S
GR
GS
[0.75 0 0 0.75 0 0] CT
0.851 0.325 0.098 RC
2 LJ
N
180.415 283.602 M
181.5 282.705 L
182.585 281.701 L
183.67 281.723 L
184.755 283.746 L
185.84 288.381 L
186.925 295.634 L
188.01 304.698 L
189.095 314.17 L
190.18 322.623 L
191.265 328.931 L
192.35 332.471 L
193.435 333.267 L
194.52 331.756 L
195.605 328.623 L
196.69 324.607 L
197.775 320.266 L
198.86 315.892 L
199.945 311.596 L
201.03 307.383 L
202.115 303.26 L
203.2 299.278 L
204.285 295.592 L
205.37 292.457 L
206.455 289.912 L
207.54 287.799 L
208.625 285.667 L
209.71 282.951 L
210.795 279.4 L
211.88 275.209 L
212.965 271.152 L
214.05 268.501 L
215.135 268.503 L
216.22 271.86 L
217.305 278.257 L
218.39 286.508 L
219.475 295.167 L
220.56 302.872 L
221.645 308.65 L
222.73 312.1 L
223.815 313.281 L
224.9 312.668 L
225.985 311.064 L
227.07 309.396 L
228.155 308.499 L
229.24 308.993 L
230.325 310.948 L
231.41 313.916 L
232.495 317.039 L
233.58 319.189 L
S
GR
GS
[0.75 0 0 0.75 0 0] CT
0.851 0.325 0.098 RC
2 LJ
N
233.58 319.189 M
234.665 319.394 L
235.75 317.327 L
236.835 313.402 L
237.92 308.492 L
239.005 303.475 L
240.09 298.98 L
241.175 295.171 L
242.26 291.704 L
243.345 288.077 L
244.43 283.904 L
245.515 279.109 L
246.6 274.057 L
247.685 269.373 L
248.77 265.666 L
249.855 263.314 L
250.94 262.383 L
252.025 262.728 L
253.11 264.051 L
254.195 266.008 L
255.28 268.328 L
256.365 270.666 L
257.45 272.641 L
258.535 274.057 L
259.62 274.865 L
260.705 275.09 L
261.79 274.771 L
262.875 273.772 L
263.96 271.79 L
265.045 268.553 L
266.13 263.957 L
267.215 258.228 L
268.3 252.054 L
269.385 246.399 L
270.47 242.189 L
271.555 240.009 L
272.64 239.831 L
273.725 240.923 L
274.81 242.327 L
275.895 243.262 L
276.98 242.327 L
278.065 240.923 L
279.15 239.831 L
280.235 240.009 L
281.32 242.189 L
282.405 246.399 L
283.49 252.054 L
284.575 258.228 L
285.66 263.957 L
286.745 268.553 L
S
GR
GS
[0.75 0 0 0.75 0 0] CT
0.851 0.325 0.098 RC
2 LJ
N
286.745 268.553 M
287.83 271.79 L
288.915 273.772 L
290 274.771 L
291.085 275.09 L
292.17 274.865 L
293.255 274.057 L
294.34 272.641 L
295.425 270.666 L
296.51 268.328 L
297.595 266.008 L
298.68 264.051 L
299.765 262.728 L
300.85 262.383 L
301.935 263.314 L
303.02 265.666 L
304.105 269.373 L
305.19 274.057 L
306.275 279.109 L
307.36 283.904 L
308.445 288.077 L
309.53 291.704 L
310.615 295.171 L
311.7 298.98 L
312.785 303.475 L
313.87 308.492 L
314.955 313.402 L
316.04 317.327 L
317.125 319.394 L
318.21 319.189 L
319.295 317.039 L
320.38 313.916 L
321.465 310.948 L
322.55 308.993 L
323.635 308.499 L
324.72 309.396 L
325.805 311.064 L
326.89 312.668 L
327.975 313.281 L
329.06 312.1 L
330.145 308.65 L
331.23 302.872 L
332.315 295.167 L
333.4 286.508 L
334.485 278.257 L
335.57 271.86 L
336.655 268.503 L
337.74 268.501 L
338.825 271.152 L
339.91 275.209 L
S
GR
GS
[0.75 0 0 0.75 0 0] CT
0.851 0.325 0.098 RC
2 LJ
N
339.91 275.209 M
340.995 279.4 L
342.08 282.951 L
343.165 285.667 L
344.25 287.799 L
345.335 289.912 L
346.42 292.457 L
347.505 295.592 L
348.59 299.278 L
349.675 303.26 L
350.76 307.383 L
351.845 311.596 L
352.93 315.892 L
354.015 320.266 L
355.1 324.607 L
356.185 328.623 L
357.27 331.756 L
358.355 333.267 L
359.44 332.471 L
360.525 328.931 L
361.61 322.623 L
362.695 314.17 L
363.78 304.698 L
364.865 295.634 L
365.95 288.381 L
367.035 283.746 L
368.12 281.723 L
369.205 281.701 L
370.29 282.705 L
371.375 283.602 L
372.46 283.537 L
373.545 282.081 L
374.63 279.27 L
375.715 275.72 L
376.8 272.495 L
377.885 270.769 L
378.97 271.613 L
380.055 275.616 L
381.14 282.62 L
382.225 291.698 L
383.31 301.425 L
384.395 310.314 L
385.48 317.277 L
386.565 321.793 L
387.65 323.759 L
388.735 323.277 L
389.82 320.552 L
390.905 315.736 L
391.99 309.05 L
393.075 301.124 L
S
GR
GS
[0.75 0 0 0.75 0 0] CT
0.851 0.325 0.098 RC
2 LJ
N
393.075 301.124 M
394.16 293.018 L
395.245 285.816 L
396.33 280.311 L
397.415 276.812 L
398.5 275.13 L
399.585 274.843 L
400.67 275.555 L
401.755 276.998 L
402.84 279.097 L
403.925 281.662 L
405.01 284.2 L
406.095 286.099 L
407.18 286.947 L
408.265 286.776 L
409.35 286.034 L
410.435 285.442 L
411.52 285.651 L
412.605 286.864 L
413.69 288.696 L
414.775 290.605 L
415.86 292.355 L
416.945 294.123 L
418.03 296.27 L
419.115 299.061 L
420.2 302.538 L
421.285 306.551 L
422.37 310.798 L
423.455 314.888 L
424.54 318.315 L
425.625 320.406 L
426.71 320.278 L
427.795 317.081 L
428.88 310.377 L
429.965 300.448 L
431.05 288.446 L
432.135 276.233 L
433.22 265.664 L
434.305 258.01 L
435.39 253.701 L
436.475 252.269 L
437.56 252.541 L
438.645 253.14 L
439.73 252.896 L
440.815 251.13 L
441.9 247.773 L
442.985 243.355 L
444.07 238.778 L
445.155 235.08 L
446.24 233.191 L
S
GR
GS
[0.75 0 0 0.75 0 0] CT
0.851 0.325 0.098 RC
2 LJ
N
446.24 233.191 M
447.325 233.661 L
448.41 236.54 L
449.495 241.353 L
450.58 247.098 L
451.665 252.685 L
452.75 257.35 L
453.835 260.847 L
454.92 263.35 L
456.005 265.135 L
457.09 266.389 L
458.175 267.005 L
459.26 266.646 L
460.345 265.049 L
461.43 262.234 L
462.515 258.35 L
463.6 253.649 L
464.685 248.228 L
465.77 241.88 L
466.855 234.182 L
467.94 224.545 L
469.025 212.158 L
470.11 196.022 L
471.195 175.139 L
472.28 149.153 L
473.365 118.993 L
474.45 87.393 L
475.535 58.813 L
476.62 38.487 L
S
GR
GS
[0.75 0 0 0.75 0 0] CT
1 GC
N
292 80 M
292 44 L
494 44 L
494 80 L
cp
f
GR
GS
[0.75 0 0 0.75 258 40.625] CT
/Helvetica 12 F
GS
[1 0 0 1 0 0] CT
0 4.5 moveto 
1 -1 scale
(Barcode autocorrelation) t 
GR
GR
GS
[0.75 0 0 0.75 0 0] CT
0 0.447 0.741 RC
2 LJ
N
300 54.167 M
340 54.167 L
S
GR
GS
[0.75 0 0 0.75 258 52.375] CT
/Helvetica 12 F
GS
[1 0 0 1 0 0] CT
0 4.5 moveto 
1 -1 scale
(Fitted autocorrelation) t 
GR
GR
GS
[0.75 0 0 0.75 0 0] CT
0.851 0.325 0.098 RC
2 LJ
N
300 69.833 M
340 69.833 L
S
GR
GS
[0.75 0 0 0.75 0 0] CT
0.149 GC
2 LJ
N
292 80 M
292 44 L
494 44 L
494 80 L
292 80 L
S
GR
%%Trailer
%%BoundingBox: 14 120 389 414
%%Pages: 1
%%EOF
